398.7009165308935	157.88736925397635
204.20799752074188	127.49785301381027
258.909130992347	116.86152232975215
290.81812551745	163.96527250200958
64.41621198219543	236.90011147840818
73.5330675607963	200.43269199020887
76.57201942032992	139.65365950987672
70.49411570126267	8.978739677162535
532.4147983503727	145.73156275790993
596.2327874005787	284.0038616506656
547.6095576480408	423.7956363554296
459.47995372156583	355.41922481505594
409.33724803926117	369.09450712313065
302.9739329555845	370.61398293513895
164.70162334680487	328.06866019890646
603.8301670494127	356.93870062706424
386.545109092759	391.8866443032552
457.96047779179906	480.0162413997369
225.48066053747723	265.77015190656596
249.79227541374615	264.25067609455766
