282.234375	173
264.234375	119
208.234375	135
73.234375	146
67.234375	200
76.234375	240
219.234375	277
395.234375	160
535.234375	154
304.234375	372
462.234375	354
448.234375	395
463.234375	412
394.234375	398
593.234375	281
156.234375	339
170.234375	373
245.234375	277
460.234375	488
501.234375	394
102.234375	221
430.234375	191
411.234375	445
