402.84375	76
463.84375	61
482.84375	74
499.84375	94
539.84375	120
558.84375	73
592.84375	63
595.84375	25
514.84375	137
547.84375	159
609.84375	187
517.84375	196
433.84375	103
318.84375	65
223.84375	206
247.84375	212
292.84375	215
335.84375	196
346.84375	226
289.84375	256
327.84375	274
168.84375	218
105.84375	212
143.84375	252
341.84375	81
378.84375	332
423.84375	355
451.84375	330
484.84375	463
449.84375	474
460.84375	391
469.84375	362
571.84375	312
595.84375	489
283.84375	400
308.84375	393
286.84375	157
268.84375	95
305.84375	105
420.84375	38
390.84375	35
425.84375	18
