322.68208292616407	54.741922730510424
393.03356488105715	41.62554481143841
461.00025083747926	63.08870867901079
540.8909167862561	120.32381232587048
585.0096427579687	69.05069864222534
401.38035087570546	77.39748459072571
342.95284891316714	88.1290665245119
429.99790285735685	11.815594995365657
274.98616295674503	100.05304645094101
301.2189189399255	106.01503641415556
434.7674948542988	100.05304645094101
57.96972709588846	44.01034079672423
171.24753702325864	221.67764170051782
147.39957703854913	246.71799954601894
115.20483105919129	266.9887654209484
223.71304898961958	204.9840698035171
328.6440729223414	196.63728385501673
297.64172494221907	265.79636742830553
295.2569289437481	222.87003969316075
348.91483890934455	230.0244276490182
514.6581608030756	189.48289589915927
511.0809668053692	137.01738422287121
556.3920907763173	78.58988258336862
148.5919750377846	101.24544444358392
66.31651309053679	169.2121300242298
313.1428989322803	394.5753506337398
277.370958955216	400.5373405969543
378.7247888902314	338.532644979523
416.88152486576666	355.2262168765238
452.6534648428309	327.80106304573684
433.5750968550633	292.0291232664495
483.6558128229533	462.5420362143857
527.7745387946659	405.30693256752596
503.92657880995637	369.5349927882387
575.4704587640849	305.14550118552154
557.5844887755528	354.0338188838809
526.5821407954304	358.8034108544525
610.0500007419137	188.29049790651635
446.69147484665353	168.01973203158687
483.6558128229533	73.82029061279698
493.19499681683715	91.70626050244064
289.29493894757076	156.09575210515777
16.235797122646808	38.04835083350968
137.86039304466533	280.10514334002045
359.64642090246383	444.656066324742
590.9716327541461	487.5823940598868
569.5084687679075	515.0075478906737
249.94580497280003	359.9958088470954
599.3184187487944	29.701564885009308
259.48498896668383	132.24779225229958
472.924230829834	369.5349927882387
457.4230568397728	390.99815665581104
596.9336227503235	350.45662490595214
253.52299897050648	210.94605976673165
