338.234375	233
293.234375	265
292.234375	159
350.234375	92
324.234375	63
327.234375	274
314.234375	398
399.234375	389
375.234375	337
312.234375	347
261.234375	275
415.234375	356
419.234375	320
280.234375	417
490.234375	463
347.234375	128
294.234375	105
265.234375	138
248.234375	202
225.234375	203
151.234375	252
110.234375	261
147.234375	284
294.234375	220
434.234375	288
470.234375	369
502.234375	369
450.234375	331
443.234375	435
600.234375	343
467.234375	60
398.234375	77
164.234375	214
381.234375	115
