383.157432127363	202.0782503037667
352.23835842772354	225.26755771567437
441.68282163025196	98.27849331713244
562.0463585324198	73.98493317132443
586.3399164392794	71.77642770352371
602.9037059212291	29.814823815309843
430.64029530895215	7.729769137302552
401.9297268735727	75.08918590522478
343.4043373706837	90.54872417982989
322.4235373602141	55.212636695018226
302.54698998187445	106.008262454435
273.83642154649493	92.75722964763062
262.7938952251952	128.09331713244228
287.0874531320547	155.69963547995138
334.57031631364384	196.5569866342649
295.92147418909457	216.43353584447144
294.81722155696457	268.33341433778855
517.8762532472206	139.13584447144592
481.43591638693124	70.67217496962333
388.67869528801293	41.96160388821385
552.10808484325	155.69963547995138
545.4825690504701	118.155042527339
607.320716449749	187.72296476306198
514.5634953508306	193.2442284325638
573.0888848537196	308.0865127582017
525.6060216721305	405.26075334143377
485.8529269154512	460.47339003645203
565.3591164288099	513.4775212636696
473.7061479620214	368.82041312272173
457.14235848007166	387.59270959902796
443.8913268945119	470.41166464155526
424.01477951617227	355.5693803159174
383.157432127363	335.6928311057108
452.7253479515518	330.171567436209
316.9022741995642	392.0097205346294
276.04492681075493	404.1565006075334
361.0723794847634	442.80534629404616
167.82816886201684	218.64204131227217
146.8473688515472	252.87387606318347
144.63886358728723	281.58444714459296
120.34530568042767	304.7737545565006
110.40703199125785	267.2291616038882
120.34530568042767	210.91227217496962
82.80071618800835	192.13997569866345
40.83911616706909	198.76549210206562
67.34117933818862	167.8464155528554
153.47288464432708	99.38274605103281
17.649810892339502	70.67217496962333
19.858316156599464	38.64884568651276
592.9654322320592	491.3924665856622
