380.97268159042494	514.85954085411
415.7453269552675	480.0868921254011
438.1792917067788	502.52085904714886
469.5868423588947	550.7538879289065
539.1321330885798	540.65860281412
544.7406242764577	507.0076524314984
321.52267499891985	458.7746235497408
303.5755031977108	421.75857812885704
498.75099653585943	432.97556158973094
403.40664634193627	300.6151567514194
303.5755031977108	335.38780548012835
266.5594613577171	344.3613922488274
302.45380496013524	204.1490989879042
170.09341292621835	140.21229326092322
109.52170809713773	192.93211552703036
143.17265522440474	61.693409034806216
364.1472080267914	179.47173537398172
356.29532036376247	150.3075783757097
479.6821264970748	385.8642310540607
598.5821396800849	522.7114292767218
300.2104084849841	130.11700814613675
