221.171875	262
139.171875	62
167.171875	139
498.171875	437
541.171875	542
600.171875	527
381.171875	513
299.171875	420
321.171875	468
371.171875	330
225.171875	220
268.171875	353
248.171875	399
414.171875	484
555.171875	608
398.171875	303
