535.2162209528876	118.51177104169874
474.3871715720974	57.68272041852593
497.4602592682592	239.12109555316204
574.0209593509779	395.3888290506232
583.459949772135	241.21864902292663
486.9724921336402	188.77981227881213
500.6065894086449	137.38975226957993
545.7039880875067	176.19449146022467
519.4845702509591	209.75534697645793
365.3143933720597	160.46284043699032
439.7775400278547	106.97522695799354
