476.9166857924414	194.68832259871186
517.6358116551513	323.20806496779613
600.3465360637807	291.396247549706
282.2283652613597	132.33716045925513
238.96429403223044	57.26127135256231
261.86880233000477	89.07308877065249
258.0513842803757	194.68832259871186
283.5008379445694	217.59283113973677
381.4812345517151	327.025483057967
433.6526145633121	353.74740968916274
305.132873559134	330.8429011481378
577.4420277660065	251.94959395127418
163.8884057228591	226.50014001680202
