608.424969081879	14.355285540704738
281.5661899714048	14.355285540704738
322.4235373602141	23.189307411907656
397.51271634505275	38.64884568651276
431.74454794108215	28.710571081409476
486.9571795475812	26.50206561360875
537.7528006255602	16.56379100850547
250.64711627176536	40.857351154313484
205.37275835443617	16.56379100850547
251.75136890389535	62.94240583232078
150.16012674793714	82.81895504252734
228.56206362916575	73.98493317132443
198.7472425616563	85.02746051032807
270.523663650105	92.75722964763062
246.23010574324545	115.94653705953827
214.20677941147602	144.65710814094774
188.80896887248647	166.74216281895505
348.9256005313336	81.71470230862697
252.85562153602532	157.90814094775212
315.7980215674342	118.155042527339
380.94892686310305	78.40194410692588
364.38513738115336	109.32102065613608
312.48526367104427	164.53365735115432
363.28088474902336	132.51032806804375
559.8378532681598	40.857351154313484
541.0655585219502	69.56792223572296
239.60458995046557	218.64204131227217
288.1917057641847	266.12490886998785
350.0298531634636	179.99319562575943
592.9654322320592	124.7805589307412
573.0888848537196	187.72296476306198
503.5209690295309	230.7888213851762
470.3933900656315	226.37181044957472
477.01890585841136	194.34848116646415
478.1231584905413	163.42940461725394
420.70202161978233	244.03985419198057
427.3275374125622	207.59951397326853
331.2575584172539	253.97812879708383
312.48526367104427	322.44179829890646
401.9297268735727	281.58444714459296
597.3824427605792	266.12490886998785
602.9037059212291	197.66123936816524
444.9955795266419	111.52952612393682
532.2315374649104	282.6886998784933
514.5634953508306	515.6860267314702
416.2850110912624	376.5501822600243
405.24248476996263	404.1565006075334
425.11903214830227	427.34580801944105
464.87212690498154	375.44592952612396
602.9037059212291	399.73948967193195
589.6526743356693	491.3924665856622
580.8186532786295	555.4391251518833
