280.0902695036543	12.529731661858197
249.8100836279706	59.51622539382643
241.45692890364407	36.54505068041974
229.97134115769506	76.22253427630403
201.77944396309297	102.32614190517526
196.5587222603889	79.35496719176858
153.74880429821533	81.44325580207827
212.22088736850117	139.91533689074987
270.692970438787	93.97298746393648
273.8254034604094	57.427936783516735
245.63350626580734	117.98830648249802
249.8100836279706	157.66579007838232
259.207382692838	181.68110909694386
228.92719681715425	213.00543825158934
187.16142319552154	164.97480021446626
403.29930168747086	404.08384609492686
424.18218849828725	430.18745372379806
391.8137139415219	238.06490157530573
597.5101490280631	269.38923072995124
603.775015071308	360.22978527842315
