607.921875	499
568.921875	494
586.921875	354
548.921875	213
534.921875	182
529.921875	108
527.921875	65
600.921875	90
595.921875	36
486.921875	137
494.921875	108
488.921875	81
488.921875	47
417.921875	76
383.921875	43
340.921875	43
382.921875	128
351.921875	71
350.921875	136
300.921875	122
270.921875	131
215.921875	123
188.921875	107
119.921875	68
189.921875	25
119.921875	29
78.921875	36
50.921875	34
548.921875	457
571.921875	406
505.921875	409
553.921875	384
496.921875	344
526.921875	337
604.921875	330
535.921875	288
496.921875	284
506.921875	243
522.921875	216
471.921875	196
408.921875	186
611.921875	459
523.921875	511
503.921875	532
469.921875	508
494.921875	466
446.921875	448
441.921875	369
412.921875	382
462.921875	316
472.921875	356
463.921875	239
374.921875	434
407.921875	458
483.921875	480
186.921875	168
137.921875	156
113.921875	139
84.921875	98
77.921875	132
42.921875	129
34.921875	101
26.921875	57
69.921875	74
289.921875	229
369.921875	214
454.921875	171
567.921875	113
377.921875	30
289.921875	56
269.921875	85
246.921875	193
412.921875	213
386.921875	227
387.921875	393
367.921875	380
363.921875	411
340.921875	388
320.921875	398
331.921875	425
342.921875	457
363.921875	477
470.921875	464
412.921875	323
480.921875	335
543.921875	236
564.921875	272
599.921875	272
477.921875	388
312.921875	446
251.921875	317
224.921875	317
160.921875	312
156.921875	252
209.921875	267
184.921875	292
190.921875	321
217.921875	292
164.921875	197
147.921875	60
163.921875	100
316.921875	52
98.921875	204
355.921875	237
428.921875	232
425.921875	124
450.921875	196
401.921875	16
444.921875	276
279.921875	314
86.921875	150
109.921875	175
133.921875	247
140.921875	217
347.921875	264
333.921875	342
393.921875	343
367.921875	293
294.921875	375
236.921875	138
117.921875	205
290.921875	352
