456.0921552033793	164.55161978127794
534.8518999629965	174.39658848614073
551.7289881257717	216.58931150698123
539.0711720036903	292.53621294449414
591.1088605055803	354.4188733750602
550.3225641122071	451.46213632299333
575.6381963563698	500.6869798473072
522.1940838409153	333.3225118646399
501.09772363744634	347.38675287158674
443.434339081298	375.5152348854804
399.8351946607956	452.868560423688
374.5195624166329	435.9914712153518
389.99022656584344	393.7987481945113
292.94696962988644	227.8407043125387
461.7178512576377	232.05997661462274
426.55725091852287	118.1396244583534
412.4930107828769	71.72762913542884
299.9790896977094	123.76532086113212
527.8197798951736	108.29465575349062
461.7178512576377	309.41330215283034
444.84076309486255	271.4398514340739
326.70114595543674	426.14650251048903
342.17181010464725	445.83643992021456
380.14525847089124	123.76532086113212
350.6103541860348	84.38544604168099
336.54611405038884	43.59914712153518
375.9259864301975	32.34775431597772
401.24161867436015	18.283513309030884
194.49728868036487	106.88823165279592
177.62020051758975	170.17731618405668
164.96238439550842	195.49294999656098
204.34225677531705	217.9957356076759
124.1760880021352	67.50835683334479
84.79621562232657	102.66895935071187
66.51270344598686	67.50835683334479
42.60349521538876	90.01114244445972
