287.70491657587905	225.48699799969228
546.7527648009685	445.7301123249731
535.2162209528876	178.29204492998923
199.60767264507942	225.48699799969228
296.0951302835743	130.04831512540392
269.8757124470268	131.0970918602862
376.8509372201406	436.2911217110325
602.3379306144493	492.92506539467615
570.8746292105923	503.41283274349905
534.1674442394258	289.46237882751194
497.4602592682592	270.58439759963073
464.9481811509403	302.04769964609943
438.7287633143928	275.8282812740422
74.80324374311324	102.78012001846439
124.09574927582258	70.26804123711341
413.5581221913072	75.51192491152486
351.680296097055	75.51192491152486
334.8998686816646	448.87644252961996
482.7773852797926	479.29096784120634
381.04604407398824	120.60932451146331
244.70507132394116	187.73103554392983
603.3867073279112	267.4380673949839
590.8013867663684	350.29142945068475
302.38779056434566	440.48622865056166
178.6321383758414	163.60917064163718
160.8029342469891	194.02369595322358
