24.84375	54
48.84375	25
64.84375	69
42.84375	91
119.84375	68
75.84375	104
290.84375	128
265.84375	135
117.84375	27
288.84375	224
174.84375	169
415.84375	80
380.84375	121
353.84375	75
537.84375	189
495.84375	280
463.84375	306
537.84375	110
549.84375	454
427.84375	119
594.84375	346
