466.87756340005615	92.8444569322771
491.9179213840011	204.92986824071065
432.29802142222735	195.39068429956737
460.91557340387874	268.1269618507849
443.0296034153466	307.4760956080009
457.3383794061723	16.530985403130853
553.9226173442459	163.1959384982088
570.6161893335425	257.3953799169987
583.7325673251328	320.5924735270729
569.423791334307	376.6351791812897
321.40500749332807	48.72573120448943
273.7090875239091	164.3883364908517
174.74005358736457	113.11522280720656
262.97750553078976	303.8989016300722
278.47867952085096	259.7801759022845
367.9085294635116	270.51175783607073
361.9465394673343	314.6304835638584
500.26470737864946	150.0795605791368
531.2670553587718	148.88716258649387
514.5734833694752	308.66849360064384
501.45710537788494	352.7872193284315
316.6354154963862	317.0152795491442
496.687513380943	454.14104870307887
426.33603142604994	475.6042125706512
241.51434154455123	17.723383395773762
252.2459235376705	48.72573120448943
224.82076955525457	46.34093521920361
86.50260164393939	142.9251726232793
198.5880135720741	177.5047144099237
200.97280957054505	327.7468614829304
152.08449160189053	328.9392594755733
66.2318356569363	82.11287499849091
164.0084715942453	212.0842561965681
115.1201536255908	377.82757717393264
75.77101965082011	110.73042682192074
417.9892454314016	253.81818593906996
524.1126673633589	206.12226623335357
607.5805273098423	229.97022608621177
524.1126673633589	454.14104870307887
360.7541414680988	401.67553702679083
402.4880714413404	523.3001322763677
447.7991954122885	543.5708981512971
559.8846073404233	30.839761314845774
189.0488295781903	233.54742006414048
