465.97637953711154	93.86148238153099
459.35086374433166	20.980801944106926
533.3357900970403	144.65710814094774
500.20821113314094	153.49113001215068
565.3591164288099	34.231834750911304
556.5250953717699	163.42940461725394
525.6060216721305	204.28675577156744
491.37419007610106	202.0782503037667
430.64029530895215	188.82721749696233
380.9489268631031	171.15917375455646
327.94480052086396	56.31688942891859
251.75136890389535	46.37861482381531
229.66631626129575	46.37861482381531
103.78151619847797	86.13171324422844
87.21772671652826	145.76136087484812
96.05174777356811	226.37181044957472
197.6429899295263	177.7846901579587
279.35768470714487	164.53365735115432
456.0381058479417	269.43766707168896
566.4633690609397	259.4993924665857
570.8803795894597	373.2374240583232
601.7994532890991	371.0289185905225
500.20821113314094	346.73535844471445
616.1547375067888	384.27995139732684
514.5634953508306	312.5035236938032
375.4276637024531	268.33341433778855
365.4893900132833	315.81628189550423
153.47288464432708	326.8588092345079
