505.24351337091224	350.7038175050242
595.6898893298004	192.42356044895902
467.55752338804217	228.60190491891677
410.2748186140797	147.20062986151183
69.59346916893433	95.94797519573834
10.80332479565704	118.55944048946193
99.74226115523038	135.14118170485924
209.78535190521097	224.07961186017204
268.5754962784883	276.8396975455271
307.7689258606731	282.8694216238534
194.71095591206293	290.40657672176127
138.93569073741526	251.21337021264037
92.20506315865637	207.4978706447748
173.6068015216557	236.13906001682463
270.08293587780304	346.18152444627947
235.4118250935626	380.85243789665566
499.21375497365307	409.49362726870555
598.70476852843	392.91188605330825
485.6467985798198	462.2537129540606
369.57394943258004	436.62738562117386
303.24660706272874	409.49362726870555
343.94747624422837	358.24097260293206
453.99056699420896	421.55307542535814
185.66631831617414	328.0923522113006
96.72738195660078	313.01804201548487
54.51907317578631	296.43630080008757
25.877720788805068	261.7653873497114
307.7689258606731	442.65710969950015
