174.171875	242
135.171875	249
189.171875	291
182.171875	326
143.171875	348
164.171875	369
136.171875	378
240.171875	379
265.171875	341
305.171875	408
13.171875	118
413.171875	143
470.171875	224
502.171875	350
604.171875	396
487.171875	459
376.171875	432
566.171875	536
418.171875	528
343.171875	359
52.171875	299
