85.78262496216752	15.731651023234345
182.2700826006624	23.073088167410372
110.95326608525313	26.21941837205724
464.3910185219136	9.438990613940607
515.7810774815467	114.31666410216957
398.3180855738139	62.92660409293738
204.29439358336228	17.829204492998922
205.34317029682418	203.46268656716418
199.05051001605278	245.41375596245578
190.6602963083576	222.34066779504542
275.61121009877155	280.0233882135713
277.70876352569536	310.43791352515774
410.9034061353567	293.6574857670411
376.293774591114	222.3406677950454
405.65952256804724	203.46268656716418
399.3668622872758	309.3891367902755
363.7084540295712	285.26727188798276
393.0742020065044	250.65763963686723
430.83016369113284	266.38929066010155
485.36655279115166	268.48684412986614
505.2933103469278	291.55993229727653
524.171291189242	338.7548853669796
564.0248063007942	412.1692568087398
530.4639514700134	395.3888290506232
562.9760295873323	229.68210493922143
307.0745115026285	17.829204492998922
542.0004953180943	110.12155716264041
571.3662432950275	120.60932451146331
252.53812240260973	381.75473149715344
409.8546294218948	352.38898292044934
589.19544742388	428.9496845668565
