411.234375	293
372.234375	220
382.234375	122
399.234375	313
371.234375	283
328.234375	293
215.234375	194
193.234375	224
453.234375	253
499.234375	301
348.234375	349
283.234375	396
237.234375	399
223.234375	251
131.234375	116
373.234375	33
470.234375	79
481.234375	131
324.234375	193
255.234375	300
375.234375	355
528.234375	337
189.234375	20
81.234375	16
109.234375	204
277.234375	352
330.234375	265
446.234375	356
576.234375	136
