277.70876352569536	6.292660409293738
469.63490208922315	12.585320818587476
610.1709816931178	25.170641637174953
592.3417775642655	102.78012001846439
543.0492720315561	137.38975226957993
608.073428266194	214.99923065086938
522.0737377623182	232.8284351438683
484.31777607768976	245.41375596245578
492.70798978538494	168.85305431604863
456.00080481421844	199.26757962763503
435.0252705449804	213.95045391598708
408.8058527084329	217.09678412063397
374.1962211641902	175.14571472534237
404.61074585458533	136.34097553469766
439.220377398828	142.63363594399138
432.92771711805665	83.90213879058317
442.36670753921373	111.1703338975227
394.1229787199663	59.78027388829051
400.4156390007377	36.70718572088014
267.2209963910763	160.46284043699032
317.5622786372476	155.21895676257887
325.95249234494275	180.38959839975382
349.0255800411046	240.16987228804433
403.5619691411234	242.2674257578089
363.7084540295712	257.99907678104324
403.5619691411234	281.07216494845363
543.0492720315561	325.12078781350976
474.87878565653267	378.6084012925066
502.1469802065421	421.60824742268045
401.4644157141996	314.63302046468687
427.6838335507471	347.1450992460379
355.318240321876	357.6328665948608
411.9521828488186	331.41344822280354
596.5368844181131	303.0964763809817
401.4644157141996	389.0961686413295
260.92833611030494	39.853515925527006
235.7576949872193	57.68272041852593
230.5138114199098	29.36574857670411
190.66029630835757	115.36544083705186
140.31901406218634	75.51192491152486
93.12406195640082	71.31681797199569
98.36794552371033	120.60932451146331
83.68507153524372	92.29235266964149
48.0266632775391	52.43883674411448
1.8804878852154696	40.902292660409294
6.075594739063072	90.19479919987691
9.221924879448775	132.1458685951685
38.58767285638199	149.97507308816742
24.953575581377283	115.36544083705186
38.58767285638199	174.09693799046008
74.2460811140866	28.31697184182182
263.02588953722875	73.41437144176028
254.6356758295335	121.6581012463456
325.95249234494275	435.2423449761502
414.0497362757424	472.9983074319126
523.1225144757801	382.8035082320357
189.61151959489567	297.85259270657025
179.12375246027668	259.04785351592557
216.8797141449051	173.04816125557778
184.36763602758617	195.07247268810588
367.9035608834188	378.6084012925066
268.2697731045382	399.5839359901523
278.7575402391572	233.8772118787506
268.2697731045382	263.2429604554547
213.7333840045194	251.70641637174953
218.9772675718289	289.46237882751194
179.12375246027668	358.68164332974305
82.63629482178182	252.7551931066318
284.00142380646673	289.46237882751194
261.97711282376684	313.5842437298046
462.29346509498987	499.21772580396987
550.3907090257895	366.0230804739191
509.48841720077536	363.9255270041545
315.46472521032376	206.60901677181107
