469.2891374335015	16.56379100850547
517.8762532472206	236.310085054678
489.1656848118411	242.93560145808019
406.3467374020926	210.91227217496962
407.45099003422257	131.40607533414337
377.6361689667131	174.4719319562576
401.9297268735727	246.24835965978127
345.61284263494366	231.89307411907654
371.01065317393324	256.18663426488456
354.44686369198354	353.3608748481166
368.80214790967324	375.44592952612396
474.81040059415136	384.27995139732684
511.25073745444075	356.67363304981774
499.10395850101094	414.0947752126367
467.08063216924154	448.326609963548
596.2781901284492	302.5652490886999
262.7938952251952	167.8464155528554
277.1491794428849	2.208505467800729
139.11760042663735	72.88068043742406
17.649810892339502	44.17010935601458
83.90496882013832	253.97812879708383
120.34530568042767	210.91227217496962
193.22597940100638	292.6269744835966
177.76644255118666	363.2991494532199
322.4235373602141	436.179829890644
396.40846371292275	389.80121506682866
398.61696897718275	38.64884568651276
442.787074262382	209.80801944106923
