504.3125	414
477.3125	386
426.3125	442
418.3125	335
369.3125	365
88.3125	252
22.3125	111
279.3125	10
471.3125	12
439.3125	86
548.3125	133
405.3125	134
369.3125	173
492.3125	243
539.3125	321
603.3125	303
519.3125	358
615.3125	452
323.3125	435
213.3125	247
262.3125	170
143.3125	78
124.3125	211
192.3125	295
178.3125	363
179.3125	248
319.3125	163
395.3125	46
442.3125	141
599.3125	103
438.3125	215
346.3125	238
317.3125	204
401.3125	251
