251.3125	20
210.3125	15
165.3125	38
301.3125	53
199.3125	175
269.3125	117
390.3125	86
460.3125	59
587.3125	102
598.3125	160
492.3125	396
592.3125	493
570.3125	302
538.3125	294
482.3125	329
414.3125	318
385.3125	294
312.3125	266
331.3125	417
374.3125	148
