586.2594693491191	108.33009576852544
457.096671423122	63.886979555797055
389.04315423630635	83.33084289886573
369.5992921829304	152.77321198125384
283.4907602322657	72.22006384568363
205.7153120187621	16.666168579773146
482.0959226346053	326.3791346872241
490.42900637176643	402.765740677851
536.2609669261525	298.6021870542688
283.4907602322657	343.0453032669972
272.3799819160509	140.27358554642393
304.3234695751685	61.10928479250153
