532.069890812502	295.75503923680566
550.9478716548161	101.73134328358209
585.5575031990588	101.73134328358209
585.5575031990588	57.68272041852593
389.4362577816834	78.65825511617172
303.43656727780757	55.58516694876135
283.5098097220315	73.41437144176028
490.1188222740259	394.3400523157409
594.9964936202159	277.9258347438068
569.8258524971303	309.3891367902755
243.65629461047925	18.877981227881214
250.99773160471256	339.80366210186185
277.21714944126006	231.77965840898602
599.1916004740635	165.70672411140177
