481.6154886481958	13.838513196938935
500.7765064669202	94.74059034827425
561.4530628928808	86.22458222708106
589.1300886310381	85.16008121193191
567.8400688324556	124.54661877245042
521.0020252755737	131.99812587849445
485.87349260791234	180.9651725753553
546.5500490338729	230.9967202873653
577.4205777418177	158.6106512572232
608.2911064497625	207.57769795408404
601.9041005101877	278.899265969077
574.2270747720303	291.6732781508668
592.3235916008256	320.4148055598938
600.8395995202586	352.3498360143683
524.1955282453611	300.18928627206
528.4535322050776	402.38138372637826
577.4205777418177	403.44588474152744
554.0015559633769	410.89739184757144
305.972825309889	395.9943776354834
331.52084906818817	433.25191316570357
258.0702807630781	336.38232078713105
225.070750075275	336.38232078713105
202.7162292867632	314.0277994689989
179.2972075083223	287.4152740902702
159.07168869966878	269.31875683273466
264.4572867026529	316.1568014992972
315.5533342192512	195.8681867874434
428.3904391517392	173.51366546931126
335.77885302790474	232.06122130251447
288.94080947102293	222.4807121661721
299.58581937031425	258.6737466812432
307.0373262998182	288.4797751054193
284.68280551130636	275.70576292362955
417.7454292524479	407.703888802124
383.6813975747157	385.3493674839919
396.45540945386523	498.18647508980166
503.9700094367076	587.6045603623302
496.51850250720366	539.7020146806185
512.4860173561407	624.8620958925504
611.48460941955	626.9910979228487
210.16773621626712	61.741058878650634
152.684682760094	39.386537560518505
131.39466296151136	21.290020302982978
269.7797916522985	10.645010151491489
247.42527086378675	93.6760893331251
291.06981145088116	71.32156801499298
206.97423324647974	146.90114009058254
294.26331442066856	153.28814618147743
206.97423324647974	91.54708730282681
265.521787692582	121.35311572700297
416.68092826251876	31.935030454474465
186.7487144378262	37.25753553022021
332.58535005811734	52.1605497423083
523.131027255432	26.612525378728723
346.42386292719607	488.60596595345936
284.68280551130636	426.8649070748087
577.4205777418177	461.9934405747306
550.8080529935894	493.92847102920507
550.8080529935894	468.3804466656255
569.9690708123138	486.476963923161
