205.37275835443617	149.0741190765492
152.3686320121971	39.753098420413124
207.5812636186961	59.62964763061969
185.4962109760965	35.336087484811664
319.11077946382414	47.48286755771567
347.82134789920366	54.10838396111786
415.18075845913245	37.54459295261239
478.1231584905413	6.625516403402187
501.31246376527093	94.96573511543134
523.3975164078705	135.82308626974483
563.1506111645498	85.02746051032807
590.7569269677994	86.13171324422844
565.3591164288098	122.57205346294046
569.7761269573297	170.05492102065614
484.7486742833212	178.88894289185905
428.4317900446922	171.1591737545565
545.4825690504701	226.37181044957472
607.320716449749	212.01652490887
597.3824427605792	246.24835965978127
592.9654322320592	314.7120291616039
601.7994532890991	357.7778857837181
577.5058953822396	401.94799513973265
556.5250953717699	416.3032806804374
520.0847585114806	401.94799513973265
418.4935163555224	409.67776427703524
409.6594952984825	450.53511543134874
397.51271634505275	495.80947752126366
492.47844270823106	539.9795868772783
502.4167163974009	589.6709599027946
515.6677479829607	623.902794653706
326.840547888734	428.4500607533414
305.8597478782644	399.73948967193195
292.6087162927046	428.4500607533414
303.65124261400445	491.3924665856622
263.8981478573251	311.39927095990276
253.9598741681553	334.58857837181046
220.8322952042559	336.79708383961116
205.37275835443617	313.6077764277035
176.6621899190567	291.52272174969625
155.68138990858705	265.0206561360875
284.87894786779475	220.8505467800729
335.67456894577384	229.6845686512758
324.632042624474	195.4527339003645
160.09840043710696	181.09744835965978
115.92829515190776	102.6955042527339
132.49208463385747	13.251032806804375
