506.1220951911844	329.0774968918359
500.4726961362091	194.9042685453792
501.88504589995296	266.9341069208454
451.04045440517496	302.2428512225446
411.4946610203477	273.99585578118524
393.1341140916779	312.1292996270203
499.0603463724653	449.12722751761294
540.0184895210364	427.94198093659344
561.2037359771939	355.9121425611272
599.3371795982773	370.0356402818069
548.4925881034994	299.4181516784086
414.31936054783534	185.01782014090344
400.195862910397	152.53377538334024
355.0006704705944	168.06962287608786
345.1142221243876	261.2847078325736
328.1660249594616	245.74886033982594
305.56842873956026	348.8503937007874
326.75367519571773	364.386241193535
366.29946858054507	367.21094073767097
424.20580889404215	466.0754247824285
463.7516022788695	481.61127227517613
508.9467947186721	484.43597181931204
558.3790364497062	494.32242022378784
516.0085435373912	367.21094073767097
534.369090466061	97.4521342726896
572.5025340871446	88.9780356402818
496.2356468449776	79.09158723580605
374.7735671630081	86.15333609614588
359.2377197618259	87.56568586821385
318.27957661325473	107.33858267716536
290.0325813383781	9.886448404475756
178.45695000261537	80.50393700787401
438.3293065314805	367.21094073767097
391.721764327934	341.78864484044755
548.4925881034994	203.378367177787
545.6678885760117	45.195192706174886
