171.234375	79
198.234375	164
421.234375	188
314.234375	104
351.234375	172
260.234375	314
384.234375	481
425.234375	463
465.234375	485
425.234375	557
410.234375	509
494.234375	201
540.234375	204
488.234375	263
510.234375	328
523.234375	368
447.234375	296
388.234375	314
405.234375	265
345.234375	261
342.234375	219
355.234375	122
347.234375	90
377.234375	86
395.234375	151
363.234375	143
434.234375	373
491.234375	83
426.234375	112
239.234375	126
238.234375	176
261.234375	205
318.234375	434
356.234375	427
359.234375	370
322.234375	363
302.234375	349
375.234375	407
506.234375	443
449.234375	245
459.234375	213
570.234375	90
540.234375	50
430.234375	32
389.234375	347
560.234375	459
558.234375	355
397.234375	459
500.234375	543
542.234375	592
442.234375	138
563.234375	434
592.234375	363
402.234375	433
418.234375	216
