167.12426486440125	77.45676815794761
351.3774672390892	170.17017246821823
311.47549984584464	99.75492868826585
352.55105451536105	122.0530892185841
352.55105451536105	80.97753034694522
373.6756254882552	85.67187993227537
393.6266091848775	150.21918673056504
367.80768910689574	144.35124974890235
418.2719419865873	185.42680862054124
406.53606922386837	276.9666255344793
453.47956027474424	299.26478606479753
399.494545566237	300.4383734611301
383.0643236984304	485.8651820816713
467.562607590007	481.1708324963412
427.66064019676253	464.7406089476856
506.29098770697965	443.6160358136999
561.4495896917589	362.6385054667547
501.59663860189204	323.91012138778086
499.24946404934826	257.0156397968261
501.59663860189204	197.16268258386663
575.5326370070217	88.01905472494046
548.540129652768	35.20762188997618
489.8607658391731	75.10959336528252
422.9662910916749	23.47174792665079
271.57353245260015	254.66846500416105
418.2719419865873	512.8576921973197
