428.09060897854204	135.9813670375775	4
52.03835333063712	42.035484665106154	4
314.07411401403334	244.19356511762822	5
297.5287859791589	7.390920945468102	2
219.35096048317726	176.21481755983675	4
232.303500393062	224.81747712735046	7
44.711058183315835	117.325743270455	2
297.2634917908888	108.36373401527956	4
214.94729583794043	17.99351030254303	6
58.26486362318103	89.86339348696436	2
85.25261366349068	26.825552234880455	4
165.31759036262298	49.581535476293816	2
265.2867309751027	208.75954059228752	8
507.05473409804324	451.7399240459482	2
218.55904447906863	378.1571113880757	3
489.81787195699565	252.93677749834137	4
287.62687395501564	299.7622967450219	2
604.4256434647314	389.71318222660216	2
365.6710590754846	340.7070569856687	4
342.1973296704801	316.8587244447463	3
139.2421875	341.5	2
22.2944254562001	70.576645258544	3
112.2421875	305.5	2
152.72265625	296.25	3
398.2753580111457	160.7937139657834	4
221.44734514670057	246.88280283475427	3
97.87014036583643	97.3133024887747	4
287.25210288209234	16.17764277035237	2
166.365923083582	201.8728576452198	2
249.74691134020424	59.708820639595594	3
174.0394712755933	252.98906439854193	2
309.29443272999396	251.86040061611095	2
52.662066788235755	122.78715126431254	2
139.37781516836503	15.2733500691667	2
553.6966273501187	414.4135536235822	3
430.5994563019009	148.8540304405467	2
113.7734375	273.0	2
316.8230951809101	356.93377708347487	1
337.6558045238129	386.09957209807783	1
229.32571594071854	265.26984989472254	1
173.77182435964454	287.49140800108677	1
518.2059521623034	411.0988249677376	1
518.2059521623034	352.76723493853154	1
126.55101651573162	105.55240100522991	1
57.1086520393891	136.1070434014807	1
149.45272333025787	179.99319562575943	1
508.25839256954185	156.24521597900127	1
34.92235838469388	19.068993197078118	1
264.234375	259.0	1
290.234375	337.0	1
220.234375	272.0	1
128.234375	341.0	1
347.234375	405.0	1
247.3125	303.0	1
114.3125	222.0	1
170.3125	143.0	1
300.3125	337.0	1
252.3125	411.0	1
506.3125	481.0	1
491.3125	417.0	1
608.172982795352	197.95461001130403	1
243.5452175847257	68.91352414022008	1
265.47224873608286	46.98649373196824	1
237.2803515414808	55.33964817320703	1
