317.5571083350005	31.28898583968066	2
562.0569904501449	245.07205346294046	2
542.8667655582508	56.34466863487924	3
221.2423368479946	76.10623124325602	3
294.299551065356	61.616016269334665	2
452.238607909188	232.18210449567178	5
389.69764573562145	159.36492128557256	2
458.79261937216586	338.89854191980555	2
293.60512742059257	136.80178585031035	2
335.17906126888147	123.20134134410603	6
560.9196217086285	381.93388725075715	7
526.1681623115978	399.5768074119077	5
607.1420430927445	198.98699878493318	2
560.7743151722235	346.0898169437822	5
418.8830206227853	284.58194550413305	5
551.171875	53.0	1
264.82992536709133	298.413304981774	3
523.0761904396753	246.228432563791	2
280.547237872629	98.72019414266389	5
518.5365361415134	321.0098662363431	5
611.171875	10.0	1
500.171875	146.0	1
528.3125	148.0	1
554.3125	179.0	1
525.3125	479.0	1
569.3125	517.0	1
562.484415502897	437.3398984459148	1
480.3316637548013	472.620170109356	1
514.234375	384.0	1
458.234375	249.0	1
479.234375	349.0	1
320.234375	175.0	1
448.7635876859609	180.55015961420906	1
325.1561789180712	59.72043741085377	1
136.90909516237738	9.938274605103281	1
146.8473688515472	41.96160388821385	1
178.87069518331663	26.50206561360875	1
244.02160047898548	9.938274605103281	1
248.4386110075054	45.274362089914945	1
160.09840043710696	102.6955042527339	1
193.22597940100638	128.09331713244228	1
269.41941101797505	110.42527339003645	1
267.21090575371505	71.7764277035237	1
204.26850572230617	153.49113001215068	1
300.3384847176145	14.355285540704738	1
527.8145269363904	37.54459295261239	1
465.97637953711154	36.44034021871203	1
501.31246376527093	79.50619684082625	1
450.5168426872918	61.83815309842041	1
409.6594952984825	49.691373025516405	1
331.2575584172539	50.795625759416765	1
438.370063733862	117.05078979343864	1
601.7994532890991	76.19343863912515	1
584.1314111750195	125.88481166464156	1
538.8570532576903	122.57205346294046	1
463.7678742728516	132.51032806804375	1
506.8337269259208	173.36767922235722	1
609.5292217140089	157.90814094775212	1
428.4317900446922	187.72296476306198	1
385.365937391623	119.25929526123937	1
280.4619373392748	163.42940461725394	1
220.8322952042559	199.86974483596597	1
268.31515838584505	196.5569866342649	1
400.8254742414427	200.97399756986633	1
316.9022741995642	197.66123936816524	1
320.21503209595414	229.6845686512758	1
278.25343207501487	219.74629404617255	1
379.84467423097306	223.05905224787364	1
545.4825690504701	295.9397326852977	1
576.4016427501095	312.5035236938032	1
585.2356638071494	217.53778857837182	1
532.2315374649104	205.3910085054678	1
494.686947972491	400.8437424058323	1
412.97225319487245	346.73535844471445	1
248.4386110075054	150.17837181044956	1
354.44686369198354	289.3142162818955	1
315.7980215674342	279.3759416767922	1
399.7212216093127	249.5611178614824	1
