349.8392878955299	266.8969032019553	8
190.62044335197783	351.56545251727215	6
316.72257648691823	318.2068784330401	8
265.7695111370872	350.2254992192859	8
105.6031611381224	88.72584726956222	3
336.20637337177084	400.26599996164884	8
496.5795730665193	261.5083499399307	8
392.8181148916021	281.36851023159556	5
351.9542370192489	103.26192771300772	8
227.51510392526137	368.7541445952228	8
296.8860569660248	52.56554992654975	3
463.1598188130955	115.46587137203505	6
478.69085512920725	296.2038841374785	8
306.45305445745515	253.73943968517625	7
427.3579098803424	349.4592193588307	6
398.303597160829	278.3241637849799	3
58.0158772133276	14.688164442992942	5
143.21330677671472	350.13779053216297	4
524.5981723938346	478.8015364514429	5
38.09356286676177	135.39052437771798	4
14.008578542449754	188.4555551410732	7
47.01969425123367	210.24582341015216	7
279.0796099201043	413.37121095553164	3
113.36797897992948	88.7075109148364	5
287.96687096659866	415.07593975254764	3
23.911859242725185	136.69217484603254	1
419.85078247207855	345.0475457762733	1
161.171875	347.0	1
542.9295033537824	252.72080123222193	1
530.234375	243.0	1
573.234375	249.0	1
419.234375	358.0	1
169.234375	47.0	1
513.234375	479.0	1
457.234375	322.0	1
