473.0044958888333	179.86528619011807	9
393.84942445968187	45.93254804527331	10
452.36358855408616	66.59166905432197	7
591.2901089532836	191.98119677318675	5
563.3747804144842	567.6990924607211	4
581.2972275461967	596.5220109342349	4
518.9681250244853	349.54820390491506	9
456.87797846951275	431.6751780581119	10
425.28247038092957	460.1420054236987	5
490.00806196092117	521.898915176749	9
403.9292285845261	189.30913702996975	6
607.566485767383	88.33564543851456	10
358.8464935705641	306.38052042794845	5
339.2470384054535	69.54395500279162	9
399.5118393999441	399.30192058238833	7
431.6073816815954	34.10495446823528	5
291.21124538308834	301.37990790851006	10
328.90895831774446	124.88224828055205	8
568.8921860492198	411.2909240331478	9
551.0050780105774	120.75344228050304	9
511.24167705636785	480.8165272619972	4
525.3071287533393	77.75674150527928	9
370.86297077531657	217.12753301393434	9
242.4864047491605	152.2305496187637	9
302.90231218641816	240.99091634510017	10
517.7607883647859	507.6338299301224	7
218.96006006281465	76.85428705294393	2
405.6407140317959	72.8371511576831	7
184.89579372898396	78.41878806809308	2
447.2067638356334	60.23604054433579	2
520.073168701975	474.9666128314889	4
597.6203897958924	194.39648925674294	4
271.078125	147.5	2
555.5948904668018	346.17194116508176	7
575.8020378809797	34.06426674996096	2
410.0455840526553	455.36373931843923	2
372.9006152714958	461.95076631020476	3
214.20405189788335	15.382092720268842	6
200.2145488049142	203.71369500954623	4
259.1487476655325	186.97821144575323	6
222.96655544164716	66.54092150135466	3
396.1955399923834	185.86262670104935	2
513.6130958306248	546.7137828340615	5
404.4416437118263	154.20857410588786	2
599.86068440215	617.2614400964104	1
213.69495632920842	89.82271182950684	1
423.84375	56.0	1
560.84375	294.0	1
407.84375	399.0	1
176.1037045385349	63.87006090894893	1
363.45587876606214	124.54661877245042	1
395.3909084639361	127.74012181789786	1
371.97188668549524	145.8366390754334	1
201.65172829683408	234.19022333281276	1
352.3125	14.0	1
312.3125	414.0	1
186.3125	15.0	1
508.171875	355.0	1
