591.9080735700327	448.1720575898729	8
196.479980942194	357.49185899061524	5
258.3160030227235	399.80043939674147	7
476.7222307929858	368.0915767107598	10
361.42299512358	340.511761651565	8
271.9906917393234	21.2276354122527	7
191.44860959899307	87.77901555176919	10
175.04650916905192	254.40901729972734	9
438.6452267795412	306.62865721387175	8
314.0087856555073	192.96230379810362	10
568.2421875	250.0	2
343.2127302359053	273.9881211378685	9
37.5442861147078	144.79505943626086	5
213.60027692285155	122.50932147159322	9
220.02872233580985	279.5095853379286	10
310.38069565158713	350.4719319562576	2
427.06185831863417	261.19739622271493	10
389.59571051595094	144.32311376700676	10
504.6702720992519	114.1974657374329	4
172.96220541917467	279.9042690813098	5
463.56688971873916	248.30443145099247	2
369.4153767807485	402.77967779868163	8
511.5740717921818	218.89404225443616	8
568.0978084955352	57.84658611272506	5
569.2880080538954	408.0953083538228	3
422.2807665149542	441.2590220923157	7
305.2486789746931	229.67138231311642	6
575.8859258729154	254.95262801995784	8
387.3479634825584	372.2013678544604	9
587.211053155635	297.06387587531407	9
203.11307957149882	56.33354105249934	4
348.7235384955293	448.67971417281854	4
141.19043796058412	194.5794932066765	9
425.41046192903445	221.5214165263483	5
472.9108283926507	413.76910669309746	2
599.8145017634138	161.8441001755616	6
9.745513070434423	153.92308669975773	3
298.98663083368047	10.562113579735623	6
502.64417522069766	452.70086587354024	7
148.96834972982214	61.59657696405365	4
551.2873930968032	358.35996641743463	2
546.9156002840019	427.6788339247257	2
355.54366099758624	364.9023851573456	4
232.12426338475785	334.1578348149372	6
36.65742050549521	209.49714801186235	4
472.2608766714299	254.9235289751276	4
112.94647948472726	293.4027562768762	6
96.96694222245027	235.13232502399137	7
534.1207666892691	250.28020802936638	7
339.43869338396985	389.406986608602	8
470.8680974865083	274.2369132077956	6
300.6674856374332	356.1503781462669	6
568.0323386095608	476.5427201173353	5
256.01593640594206	230.7017521251252	5
168.72281244932057	279.1205706032082	4
486.88830310903774	488.34059086013235	2
256.05348656106054	38.831950541098095	2
218.3125	132.0	1
557.3125	416.0	1
95.21994235728597	224.07961186017204	1
282.1424526723215	294.928869780506	1
613.7791645215781	368.79298974000307	1
138.22146063526256	308.34036005539315	1
525.2200679027039	490.82751192491156	1
609.122204979656	420.5594706877981	1
611.2197584065798	378.6084012925066	1
540.9517186046324	506.5591629481459	1
593.3905542777275	524.3883674411449	1
427.6838335507471	457.2666564086783	1
596.2781901284492	346.73535844471445	1
424.234375	86.0	1
531.234375	107.0	1
75.234375	104.0	1
123.234375	151.0	1
164.234375	245.0	1
273.234375	302.0	1
359.234375	192.0	1
168.234375	58.0	1
112.234375	273.0	1
570.234375	462.0	1
503.171875	211.0	1
593.171875	306.0	1
