289.32465545638945	108.81790519751789	6
510.49712822722717	578.6338067466812	5
463.42740873194145	568.0247987371289	5
345.53804035933615	444.94364035799765	3
230.2768291913211	324.566646899019	6
322.8120468689709	35.25113474190644	3
610.6715507469639	523.53592265563	3
418.3203512568251	281.3766380129988	4
501.75302328479006	451.9365803642612	2
438.47065984117035	50.25767374046582	6
486.12972383786513	69.9472126680159	6
440.99426317816506	115.28439526972085	2
581.9355955960484	610.9943722929654	3
338.1471876884064	382.1990700057913	5
553.6183726482964	71.38301856636477	2
595.3930956541808	357.1839127157216	4
276.6634565980522	160.04376484197567	3
451.411238258921	531.3877890649337	7
422.9049110030876	438.219252094328	2
424.844506274496	333.7098246975835	5
292.6954732578449	268.20608522428813	6
523.4696256501452	437.7567564924625	3
513.1688023205952	217.42334125116543	6
338.17483325910644	529.1525995202952	3
507.9820264299868	23.480021266765533	2
565.0864070027429	266.56263959539	4
380.4392427370961	308.97666060862446	4
481.225007318764	112.88976360709414	7
405.5002900837171	229.4923811551526	2
238.7871434170644	214.15466449521313	7
588.8769690071192	177.2626697663146	2
476.1957441807475	330.7506769339391	7
507.14440818599815	619.8377154050098	3
481.7016199147139	406.32111400327864	5
579.6024430020415	409.7345979417397	6
359.8988513508142	348.9361558785198	5
266.8014911724108	277.8980991317136	4
456.0861817626097	86.05002355945683	6
487.46291428979157	480.1849633611968	5
447.85831098375763	152.1210931780804	3
286.01189774256994	191.2746110175786	3
286.4683526474772	438.11579237903146	4
260.5142777199917	254.28825631407548	4
286.0984537029532	338.38184629805767	4
515.3066968953888	85.60942315224099	4
420.21564611107357	485.57168815478417	4
370.4191390039	112.28853997335898	5
531.0296516567458	407.25322464223177	5
468.67897802355424	276.2962255577937	3
432.3671875	125.74166870117188	2
534.7253666460913	276.3405655409606	3
339.106797243111	317.02062819641696	2
608.5956730850891	440.20472284489824	3
511.5902446790729	291.18611312988503	2
233.69403606701607	256.9277532665161	3
453.01896903973426	378.67288398755386	4
603.6832066232463	337.82204668684153	3
346.65836552995233	436.0329216953001	4
462.3739337667114	424.8586884625448	2
344.77772063105294	116.57367132902722	3
357.83403161583703	241.3509932126352	2
580.343495258951	173.0543881449348	3
567.894419733757	193.57106290811186	2
421.52591405711644	426.3923530304159	2
304.6471575116625	226.42733256328876	3
455.7909358280519	420.57214394352457	2
512.9940737463156	441.5411982341742	3
534.7143730989718	536.2750143280431	1
597.957868865269	570.5319087785032	1
265.92951609220853	270.1252959052378	1
516.2683535004684	554.7210344167523	1
293.59854548996356	430.86918524970434	1
255.3889334644923	437.4570495671005	1
551.8428198690106	629.8226876350686	1
522.8562176427911	181.84791405212914	1
232.11975076239835	313.5842437298046	1
559.234375	198.0	1
555.234375	272.0	1
350.234375	386.0	1
326.234375	352.0	1
505.11740043070773	546.8917266909634	1
518.0268604696986	93.88699170660315	1
302.0868016356695	485.8651820816713	1
332.6000708187388	522.2463913679801	1
424.5	53.48333740234375	1
495.5	60.48333740234375	1
438.5	149.48333740234375	1
425.5	176.48333740234375	1
408.5	196.48333740234375	1
424.5	217.48333740234375	1
390.5	215.48333740234375	1
363.5	193.48333740234375	1
337.5	205.48333740234375	1
179.5	242.48333740234375	1
281.5	369.48333740234375	1
335.5	358.48333740234375	1
453.5	238.48333740234375	1
486.5	235.48333740234375	1
562.5	253.48333740234375	1
514.5	255.48333740234375	1
437.5	314.48333740234375	1
415.5	340.48333740234375	1
591.5	370.48333740234375	1
426.5	391.48333740234375	1
436.5	544.4833374023438	1
494.5	542.4833374023438	1
473.5	567.4833374023438	1
607.8421629575553	451.38982332617866	1
172.50574744816706	215.0631805513938	1
421.26941345353174	191.9635838891968	1
561.6431964137018	39.15086750850884	1
