459.0144134304875	218.4483269036959	7
355.4785715219148	334.19423499362574	3
318.7116397319121	144.82855407047387	2
550.2988890068684	307.7457826784237	8
605.2713995481197	335.1202754653599	6
374.4152653783714	232.2986800894733	7
291.7662871041339	323.5944043438189	7
462.23975075199155	353.0353759221599	3
398.1213865878667	205.5699007551188	8
397.80882245052226	52.798567980775736	5
39.41942913533957	94.4307411907655	2
371.49382682460634	193.52849298053593	4
586.4204882493468	253.4852911810336	6
504.44458343240365	291.6232389567188	6
233.50720930286195	270.6218233641457	5
309.5308933462677	80.37798339785252	8
263.4235363528695	74.01125876077916	2
425.1462040148365	325.77329673527163	6
505.049240266605	239.67632635348298	7
515.4333269723085	77.79107867174696	8
498.6270914982579	460.62984695634793	6
262.83265263099986	310.4718013162715	3
81.73637475608847	127.94518624039425	3
506.98410044595494	408.9219602246054	7
356.9729668031596	210.58202097096603	8
143.5489643799707	67.13151215296475	2
190.1240039738516	210.91447931523908	5
283.86522516722385	258.18391581784624	3
96.1347840388076	15.767248299269529	3
267.0738938772785	279.54065945365903	3
218.42622382703593	6.405562078463953	2
89.01185518468462	7.3090101360839475	1
401.2301810181909	417.0307823666134	1
181.14399951822972	148.7080608810934	1
86.17530476139717	118.55944048946193	1
170.3125	110.0	1
146.3125	76.0	1
176.3125	284.0	1
359.3125	436.0	1
19.858316156599464	162.32515188335358	1
72.86244249883852	221.95479951397326	1
604.0079585533591	500.2264884568651	1
