181.19614681473035	369.40933501335684	9
302.03250146765953	400.29196799507616	2
385.6931600742062	289.60280861338384	3
253.30688102901792	462.389829204493	3
439.568172501041	420.9561483469864	4
542.0950441132703	499.0896698610983	9
552.7384152052479	316.84089859978457	3
387.6907312741106	382.36302269911033	8
101.19110069468819	313.24242125420665	9
94.31087920200413	275.6904708843565	7
382.2934694984084	510.67731358237387	9
484.50465061906624	411.813164578258	9
208.0789553837163	348.61702782673296	4
551.5480952054461	210.23132038192637	5
286.77479649289364	322.5503976318764	5
421.97192784750393	491.76797905559573	9
266.48808658504856	417.6586819325545	9
159.57625412476966	307.3839248000047	8
390.8373284717386	206.1975455024316	4
240.46309817451038	310.74166900028	2
512.2734375	278.0	2
478.04515353435715	470.2352421624965	8
225.32547311261717	364.9535085520961	6
219.8532747682299	466.8586641004308	3
532.2794845107874	410.3860012316615	7
539.9359609977614	433.1091658612843	8
480.50216528066784	526.7342648845687	3
439.2734375	368.5	2
485.48227925110126	315.2544500688367	7
133.7950493946069	77.80805941455176	7
198.52482088301707	289.9240146968177	7
146.71628012926124	205.30450838590554	2
444.6519589743227	551.0965264904748	4
447.62108947429454	139.86991296487946	4
519.8617028530402	372.53531269688335	2
402.6661970026213	41.88030647498074	4
535.4765146223579	554.125091022135	5
254.67623632891613	250.65112176553095	6
433.0129646385318	62.989485163194274	3
162.85827153718657	27.646148331608813	2
588.74040848613	33.0350602062865	3
430.32734262580624	158.3564128335051	5
525.2995562060555	297.9745595655239	7
575.4891414300066	119.40743588107127	7
237.21298637512064	319.60890136944147	3
553.9824839697337	61.807933603775155	6
358.35391935800874	559.3856379830914	8
495.61918251476146	590.8979885026006	6
166.498847756913	132.48572305967699	5
55.8517097757715	191.4735271587371	5
468.57148321250935	215.07833331399587	3
459.5667066547362	188.94139508061858	3
127.75035247884989	118.18279410293181	5
100.64540216335186	96.36509334579924	8
50.92663794369126	288.2391381607904	4
243.55595477210687	32.84131602912397	4
134.27115295780095	145.03968891091495	5
494.88027126971673	120.22272698266184	2
148.3471673581413	210.9991919548354	3
325.19807606098493	282.71748056450883	2
319.04879136340503	175.14486752974372	3
231.53364524616836	197.90519409390083	6
473.3493816094372	21.050687444282495	6
271.319803148446	94.16459486755583	2
513.320001443002	371.8217382410683	6
391.62004298172104	181.54330195592973	6
370.13955202399825	123.88277439202903	4
101.60460783713098	195.64640931737415	7
367.0575616183088	330.8274822798709	2
417.06009446698755	88.9190242773908	3
508.610043018513	193.42391028144255	5
454.32125159893764	84.17979618244249	4
532.5772277791982	180.13758799272736	6
126.72320935316326	361.0240741537084	4
286.93257975880493	45.83270410733266	4
338.97586641383293	12.039442147853311	4
499.4625805313947	97.44952333963104	3
500.7442611653949	232.66951116831913	4
368.78538874511787	79.71951083117817	3
324.56183971938003	26.547668945385006	2
213.91127668605256	252.6904905265294	2
129.18415026542414	301.8418022816842	3
117.49406529058146	41.593982142362634	3
260.16431472441934	206.36564150258232	2
453.70033544162163	303.00324844640744	5
433.8768484831572	513.7378811311987	3
337.16166684479776	95.72659736230099	2
560.83667607219	579.2413940406841	5
55.50597851340672	156.67903038734738	2
531.8179132350067	10.243883674411448	2
476.10033514180566	314.55994138539234	2
190.5225634885037	267.1145049976826	2
445.03043431717794	478.00867486174803	4
59.24850765341016	27.337191850808598	2
87.55041505127662	275.4385290044622	2
4.209418642969354	145.98471686488602	2
608.176143232502	355.31292632913966	3
305.54255786503177	518.3336123593315	3
10.229906545615032	215.71110752236365	2
251.35499870130485	12.743883674411448	2
429.6309768679125	322.2636039529027	2
270.1881679534712	171.40643511561052	3
606.1819929776636	243.582170358668	2
517.3466353980468	267.926135880645	2
250.64711627176536	4.417010935601458	1
203.2679945335678	175.05176048067523	3
544.5861851590471	448.9869979996923	2
7.362478409179246	271.0320710710331	2
46.914753025884515	81.95354530403004	4
295.1396685564125	453.01010008979256	2
607.5269539031658	455.75320035105767	4
518.171875	363.0	1
294.41446593400474	219.94472226496384	3
445.4168914146436	559.3841212542791	2
5.789313338986395	188.69256288985108	2
268.87472773941585	491.77248856994794	4
475.0468661148044	166.28019695337744	2
215.93701947008958	412.07275599801744	2
329.93593864709567	272.94827691067826	2
267.8408324162088	84.55643749924545	3
326.7421875	165.5	2
284.3125	55.0	1
16.171875	40.0	1
302.171875	323.0	1
216.41528467573596	29.814823815309843	1
391.2476706376272	595.938654281843	1
559.8296994469466	30.4145253115864	1
610.1709816931178	109.07278042775812	1
592.3417775642655	102.78012001846439	1
423.4887266968995	101.73134328358209	1
394.1229787199663	106.97522695799354	1
21.807245440991583	28.31697184182182	1
45.9291098506153	103.82889675334667	1
32.295012575610585	167.80427758116633	1
40.685226283305795	223.3894445299277	1
340.63536633340937	156.26773349746117	1
288.19653066031435	5.243883674411448	1
478.0251157969183	125.85320818587476	1
570.3174665815656	197.17002615787044	1
495.85431992577065	275.8282812740422	1
341.68414304687127	311.48669026004	1
339.58658961994746	354.48653639021387	1
318.6110553507095	380.7059547622711	1
537.8053884642467	598.8515156177874	1
78.44118796793421	380.7059547622711	1
251.48934568914783	333.51100169256813	1
381.5376581584235	435.2423449761502	1
349.0255800411046	441.5350053854439	1
554.5858158796372	617.7294968456686	1
399.2958521166506	306.6659199103893	1
302.5879281927146	226.50014001680202	1
493.45883067416725	73.8034164099692	1
415.8379969983765	383.0142817138057	1
380.2087618685054	189.59843181181742	1
385.24115092783586	424.7545776273273	1
505.8504729759544	182.48715186951839	1
208.234375	285.0	1
593.234375	327.0	1
519.234375	306.0	1
395.234375	318.0	1
320.234375	352.0	1
270.234375	384.0	1
205.234375	419.0	1
300.234375	443.0	1
521.234375	559.0	1
503.234375	246.0	1
476.234375	222.0	1
246.234375	382.0	1
407.234375	459.0	1
345.234375	363.0	1
348.234375	325.0	1
