377.7014227679975	172.02344672602624	6
457.13083217720157	270.2324541604505	9
479.85641791279784	318.5322600243013	3
277.81074073342126	259.6493087765501	5
437.43367428827366	303.4118070881939	8
198.57932453750746	329.5139416213565	4
496.61236993994845	352.5140960624231	6
598.9634661051685	374.62274741959556	3
312.8458401445796	121.4810239429302	3
376.2972532800654	267.39536327972417	9
426.02932035651247	478.4010531426628	3
276.46023462461136	165.8358902186645	10
434.55191151405234	191.98991726844957	8
196.48271297059466	177.94753515773579	6
512.6229617783094	311.86882529531266	7
115.92784313860776	381.6800896621335	5
521.6735211816795	454.57052435153946	2
156.43359033429778	358.46918756731804	3
267.6789089820762	464.27965840898605	2
552.2036634656159	163.78181805623112	6
232.7734375	366.0	2
315.8455130291628	321.88484855723647	6
470.1335604034107	93.66202988854765	8
427.3540148292159	232.1427724125547	7
358.02073005065614	403.4721136489313	4
149.77852451865192	324.290224722458	7
65.18788997929383	79.47936507982737	3
495.3008711250983	206.1625667327699	10
529.8127186943107	207.5392871626842	6
180.7734375	222.0	2
565.8501659013576	377.9649108941705	5
243.37435827227563	22.361691697886883	2
584.994301101879	322.1135011738378	5
566.0864052707204	259.92510142231504	7
531.6677471942626	149.3306767142302	8
364.3557937971947	312.22824730449986	7
419.0656778361496	257.29235371253776	4
103.78151619847797	87.78809234507898	2
323.16404354458916	56.74733452154834	5
263.1611765016694	301.671696969971	4
462.76327378007664	21.639924335748994	6
452.01031355817554	538.7825847310276	4
504.97426674833036	155.9790425096869	6
178.1397300923103	103.57042442851923	5
317.2116397319121	166.71470230862695	2
463.4502653053602	324.8095932342726	3
322.5884617933421	49.706453524355254	2
233.48632078014776	402.3651330973996	2
98.02336750268509	229.30006139836075	3
433.1187936232609	382.0071408569029	2
98.34022276185516	194.4630712417295	2
230.75467612249568	47.51214125103323	5
613.048650691804	385.29525327478177	3
330.05928361989044	345.2618864440683	3
86.57914146396581	145.9820314895432	4
342.5227098801666	192.38990613940607	2
321.8575228788251	373.32595911509384	2
160.28823258936592	56.31317904324854	3
561.7501690225125	32.523938407114755	3
73.43538531226051	111.47476872716287	2
190.37895130000487	236.33425780865127	2
249.12205417131062	49.47111651169229	3
608.0985289345638	229.69734991618046	3
208.42494963519803	77.62083450014002	1
496.687513380943	454.14104870307887	1
164.0084715942453	212.0842561965681	1
402.4880714413404	523.3001322763677	1
591.167570531856	169.81209515523543	1
307.0745115026285	84.95091552546546	1
214.7821607179813	157.31651023234343	1
592.3417775642655	338.7548853669796	1
420.34239655651385	329.31589475303895	1
292.39163751416197	311.48669026004	1
296.58674436800953	238.07231881827974	1
317.5622786372476	476.1446376365595	1
285.05020051992864	476.1446376365595	1
122.48980993333404	199.26757962763503	1
212.6846072910575	17.829204492998922	1
578.3125	173.0	1
534.3125	242.0	1
480.3125	384.0	1
446.3125	414.0	1
481.3125	541.0	1
251.3125	234.0	1
35.3125	76.0	1
207.3125	50.0	1
282.3125	65.0	1
153.3125	135.0	1
48.3125	205.0	1
131.3125	277.0	1
213.3125	211.0	1
408.3125	217.0	1
285.3125	349.0	1
271.3125	364.0	1
344.3125	245.0	1
230.3125	438.0	1
194.3125	372.0	1
272.3125	472.0	1
301.3125	440.0	1
300.3125	404.0	1
543.3125	430.0	1
567.3125	498.0	1
599.3125	555.0	1
100.46875830208803	119.25929526123937	1
446.0998321587719	248.456865127582	1
582.234375	311.0	1
399.234375	425.0	1
319.234375	356.0	1
171.234375	57.0	1
184.234375	117.0	1
385.234375	447.0	1
130.234375	292.0	1
525.234375	157.0	1
283.234375	117.0	1
