574.4709086203504	46.99647435135159	6
247.40032717191804	144.76739963942657	8
457.35882284357945	206.94522622585666	7
139.39531061755804	242.3178992467307	2
591.0347134838996	71.33608748481166	2
447.6710931168187	403.53318570937876	7
460.9127329978531	12.77045238273424	3
598.2134760653898	323.508268987551	2
185.9940437465953	309.8200600640826	2
536.4222217917188	280.6178637916108	2
407.43007907763354	49.43427071059631	6
456.8568413251019	347.3184373725918	3
74.63077647925851	74.74842904142464	2
480.5045211206242	121.5725068974387	2
331.2283722783162	313.75707799220174	4
363.7233052946523	190.0002258241594	9
575.9746146914124	243.56653159513354	3
526.7744352696643	125.17935726908306	6
189.22564239095504	151.0821004753105	8
265.4049387476587	25.755044433160016	2
572.7528187429248	460.236695018226	2
203.61538419588902	263.82282678250874	7
74.39077208264595	115.75409334714851	6
411.0809591777539	83.0976889358357	3
338.31898440295515	130.97769768014535	3
152.86129106821997	14.91324657132101	5
139.03821980679004	225.30154574220828	2
487.1829049234943	30.086936563939084	2
546.7175205896439	356.43945502903375	3
326.7488281099101	73.96299405517496	7
41.629057516661476	127.47337806152811	3
472.29074257005703	231.35485739667445	3
142.08815505196944	79.45910339215126	3
356.1743284573356	298.2168966566957	4
275.77730945916574	320.68070171980287	6
609.3811892655006	71.54662283775968	2
166.99675652313172	247.93501516147793	3
156.5977254904348	100.80914937988729	3
610.8711404576912	270.0110323356598	2
165.6968270261999	222.92647891797444	4
599.4979601011105	408.5698668607409	3
269.86438208234756	201.01743731102687	3
332.955411676094	417.35316520448225	2
246.60393908159426	325.8732653919625	3
475.84720648103837	365.1797332125309	3
268.14370493871024	278.7770813749917	4
405.9192512236997	382.97027798389234	8
593.4974901047844	146.81461257651392	8
272.6311700483534	58.70974030776168	9
138.14560296649336	178.04827079397856	4
513.8419006207571	203.22747798983073	3
195.732813234609	186.2609781261707	9
364.2395788132128	77.70603894559753	5
437.27753141482026	179.63927064580645	2
433.5269974742203	61.76271771642166	2
292.4925891459965	17.14249256392767	3
399.65841587209115	200.95307142907313	3
392.1981754205317	234.8765568251439	6
357.95402390316156	30.22054116584706	4
292.05900242470443	210.2783335766957	2
464.37235647172673	315.58212569362615	4
584.5469886334974	382.2904340601397	3
223.31440860553698	62.786848176416925	6
600.3001594450702	13.44256518013707	2
275.83390672559665	132.73882344859015	2
461.62570900634296	75.22216420619685	3
533.9857791619305	47.597476534851516	2
474.1115226503034	333.69122327319315	2
197.6327282945645	24.585320818587476	2
228.5643750364179	104.63877599077304	4
203.1424102854786	220.3040648984321	4
552.3056803696256	327.63355900907834	2
193.25914226238075	239.16209674943792	4
134.5547577273622	217.2098019501874	5
229.42461583036163	237.84082166487153	3
497.03004666905656	143.36747664819322	2
601.4280795712015	175.25333221654626	3
219.25584888634222	271.10878596707187	2
291.2877188570091	184.46742092640972	2
110.58410632916467	187.84112940452377	2
132.3789406092069	246.428387776906	3
333.9253477882693	128.26447812659092	3
112.17755479456889	131.7038659466631	3
285.7545153301572	22.987767348822896	2
501.26037492093485	47.46304761290034	2
226.078125	266.0	2
365.1324187984403	50.74380673949838	2
323.4617776753547	161.2558085859363	2
562.3125	332.0	1
527.3125	335.0	1
284.3125	237.0	1
282.3125	195.0	1
490.3125	263.0	1
363.3125	414.0	1
343.2644862649627	223.30362870093037	1
239.20066756167355	320.86346648289026	1
573.0720859013929	358.80340339809686	1
250.04064867659952	371.8113817690248	1
526.4601671072113	474.7912105388714	1
590.2442241373417	94.38990613940607	1
546.1956021719419	61.877827358055086	1
514.7323007680849	66.07293429758425	1
576.610126862337	108.02400369287584	1
583.9515638565704	127.95076165563934	1
456.00080481421844	33.56085551623327	1
340.63536633340937	9.438990613940607	1
370.0011143103426	11.536544083705186	1
381.5376581584235	82.85336205570088	1
453.90325138729463	55.58516694876135	1
382.5864348718854	45.097399599938456	1
476.9763390834565	166.75550084628406	1
364.75723074303306	349.2426527158025	1
354.26946360841407	381.75473149715344	1
129.83124692756735	117.46299430681644	1
113.05081951217694	89.14602246499462	1
213.7333840045194	123.75565471611017	1
532.5615048969372	296.803815971688	1
610.1709816931178	298.9013694414526	1
495.85431992577065	274.77950453915986	1
514.7323007680849	333.51100169256813	1
607.0246515527322	375.46207108785967	1
280.855093666081	259.04785351592557	1
86.83140167562942	57.68272041852593	1
221.0748209987527	316.73057393445146	1
308.12328821609043	331.41344822280354	1
285.05020051992864	367.07185720880136	1
479.07389251038023	418.4619172180336	1
429.78138697767093	211.85290044622252	1
347.9768033276427	157.31651023234343	1
375.2449978776521	120.60932451146331	1
425.5862801238233	101.73134328358209	1
422.4399499834376	38.80473919064472	1
587.3893572145638	105.35778891658032	1
610.2932247838451	183.23093724622663	1
479.7411796389421	265.68485900702865	1
351.4795212509673	54.96928117386799	1
285.05830530005176	127.11646271456974	1
535.855655183681	478.6908235557671	1
604.5672578915247	485.5619837025006	1
382.05317949523305	312.5035236938032	1
192.1217267688764	37.54459295261239	1
544.3783164183401	240.72709599027945	1
372.1149058060632	139.13584447144592	1
121.44955831255766	96.06998784933171	1
22.066821420859423	56.31688942891859	1
429.5360426768222	447.2223572296476	1
