417.56273968269767	29.445347710305004	9
448.35733651987675	160.23800532753904	5
392.60138692756425	349.6941837205724	3
179.37139823165373	96.11753140083574	9
415.52330199852975	268.2688196939721	7
256.4280391304296	138.53209162033772	8
493.75399174631536	314.0159731699987	8
248.38576103921267	74.07103282619113	7
515.7730861588068	350.84955262157916	3
195.1849836258512	44.8948383650868	9
406.86809521825603	213.73864875277638	6
135.46468386270737	177.88540079640575	5
252.99790042093173	11.239767624688877	9
596.4354989460353	174.87224795398092	7
198.21182663822202	155.44483379569527	5
470.40547061002013	357.4192957725349	4
367.0082261749493	222.8025127967848	2
547.2553466205162	405.2683285316888	3
386.5554936838629	300.4955172179582	2
329.48726253426827	105.52082026026318	4
452.3827638609296	236.3519598291721	5
150.5707624037281	64.57941585394224	3
220.3956120746212	88.2881652678949	6
242.65593935405474	120.73893242312121	2
452.4506946606325	335.13159508121134	3
212.87487152272502	222.91336684099707	2
348.30313454544745	188.31329010702888	3
409.93302574588455	328.72515890641614	3
555.7821570882211	148.58554584152273	3
499.54483311762067	256.79797997617914	3
469.25654300940823	347.08983385699594	2
437.193625708324	109.75518422428826	5
142.69870795133937	122.1959467299751	4
535.2656943639987	128.31256310846103	4
245.2322403716227	81.85735115431348	2
467.59578633247287	392.2784933171324	3
255.16728398410646	47.79376738732648	2
144.70240918274388	60.43361594619707	3
546.2734375	353.5	2
412.7734375	220.5	2
384.2734375	118.0	2
57.0460389122547	149.89884568651274	3
255.38120982593975	223.88730767291975	3
237.0594858503406	198.56062471149409	2
317.6096244265227	139.86734721807915	3
215.59872269685863	112.97857111207126	2
545.0194126007691	369.81797458117296	2
603.8783214123464	184.58470533928298	1
376.293774591114	304.145253115864	1
327.00126905840466	207.65779350669334	1
301.83062793531906	159.41406370210802	1
542.0004953180943	230.73088167410373	1
273.51365667184774	188.77981227881213	1
565.0735830142561	222.3406677950454	1
136.12390720833875	41.95106939529158	1
150.80678119680536	17.829204492998922	1
592.3417775642655	288.4136020926297	1
572.4150200084894	315.6817971995692	1
460.45511637646166	337.9013365735115	1
162.3125	60.0	1
73.3125	181.0	1
44.3125	173.0	1
110.3125	222.0	1
148.3125	202.0	1
220.3125	99.0	1
169.3125	290.0	1
287.3125	181.0	1
365.3125	313.0	1
432.3125	367.0	1
604.3125	248.0	1
547.3125	394.0	1
281.3125	323.0	1
511.25073745444075	382.07144592952613	1
47.46463195984897	23.189307411907656	1
495.234375	267.0	1
263.234375	148.0	1
422.234375	323.0	1
355.234375	307.0	1
311.234375	25.0	1
360.7947597416544	250.3617029530493	1
