159.1240270274885	50.64781287970838	5
271.4409112661175	366.8059538274605	5
524.4696345200002	397.81761846901577	2
479.42755062740065	405.5053766707169	4
59.60978489770437	147.12030680437425	5
236.8978691520378	298.08449270959903	5
457.54127430610083	351.0240583232078	3
601.7343190784845	129.04665856622114	4
384.0853124458115	279.7400972053463	4
23.660363835429713	165.81895504252734	5
338.6805553621469	443.88192588092346	4
245.92876898949274	122.03602673147023	3
193.16706914156816	298.74087181044956	5
366.81904270483665	432.6835358444714	3
547.909990282365	367.62882746051037	5
475.78032924527065	499.0611178614824	2
194.2399428255032	361.0035692588092	5
297.12944285167725	389.921354799514	5
569.1607639715348	229.4465370595383	5
30.85849541575466	221.47739975698664	5
281.79468478750744	129.1509113001215	3
193.07379825230822	98.29562575941677	2
163.23828125	352.75	3
291.25390625	437.5	4
362.2734375	143.5	2
396.2734375	339.5	2
137.203125	298.5	2
453.62890625	443.125	4
23.3046875	16.5	2
208.875	81.5	2
337.171875	507.0	1
477.234375	417.0	1
437.234375	418.0	1
463.7678742728516	445.0138517618469	1
