511.9818535222963	266.04860640289417	3
422.82306029002416	443.82340870088177	3
471.32052777887327	534.845405445815	3
434.0335409093292	308.5942920439654	5
482.9240333238845	327.5371486782195	5
245.4911155759812	81.16267452730676	2
483.9231466271983	202.79011255729915	3
467.48560367299126	457.32322796294136	2
468.6012691504792	421.28240756430677	2
371.22491224559565	87.2722743755719	2
411.9350272573638	87.3725520764711	4
474.65095398443424	486.2540586055302	4
271.06323301181936	218.60868739248966	4
443.39678761671837	520.1683254165387	4
452.3968220753399	585.3563590864022	2
458.5395256878104	623.5361270230453	2
589.6506933831843	431.59678412063397	2
378.5344220573936	77.19595089435275	2
570.0615625445515	310.79356185611385	3
197.48197338559936	34.69060464315436	2
360.45949544836026	483.7590036445031	2
545.0860966357043	322.7814732975579	2
516.9162556823055	563.1609751198095	2
465.0794361047057	64.05003300140615	3
214.52349704323075	240.46629552041782	2
581.2306805560546	438.2872557178523	2
344.3359435814578	19.95098573765317	1
385.4114982509742	134.96255057824203	1
153.04121754913848	127.9210262002468	1
232.84515233562752	301.61196085746263	1
580.2269861121092	276.9666255344793	1
462.86825848491947	411.92917611272134	1
373.6756254882552	558.6276006542888	1
161.25632848304176	249.9741154188309	1
465.234375	544.0	1
350.234375	493.0	1
276.234375	445.0	1
208.234375	255.0	1
252.5	71.0	1
329.5	306.0	1
270.5	372.0	1
420.89955918554045	433.1447915063856	1
476.4847249990212	57.68272041852593	1
384.19237421437396	10.487767348822896	1
365.3143933720597	564.2418833666718	1
557.2405319355876	397.4863825203878	1
