392.72203555244346	169.71969028051348	2
138.8022015589271	150.61434161671926	6
488.3410385150755	123.56308125996753	3
329.99909558050047	211.3055004151337	7
580.0601942304772	112.12783592438586	9
547.8829042353905	375.16859233179827	6
351.39040338742814	371.2361722139469	8
519.2673480147125	389.20649832263973	6
270.5561434458654	68.10542220366068	8
496.06898017486503	96.16923212550469	4
511.1794428906415	331.33499677935094	2
162.34876954517074	223.7692185772265	10
336.8617101748009	41.45103171395064	10
422.2741062418745	180.20750457007006	8
436.1138091452108	62.95255626626079	8
546.1476989764202	414.32710724716435	2
314.92938684922274	193.93306405845414	8
398.3583765513656	22.65942638690165	7
519.2266552220881	79.00583803025859	6
608.0855559683854	210.48060706046925	3
332.72346425840226	96.47655588621132	4
237.93975462722364	119.00339539966879	3
574.6784718776473	158.65724015145253	7
143.93113540793937	38.01441499905313	4
352.2969093678571	70.79320245691554	9
295.22311861820737	277.89252082806615	5
57.490782897114755	104.41316773563295	4
125.65568112941568	204.11726042207107	3
552.3423802965514	510.0805985835533	4
114.70604811281942	217.59716879519925	2
597.4734689225185	17.438990613940607	2
81.34371311939682	113.67139347169564	3
187.6478665213964	188.0738576126646	2
17.11287549243988	93.5567388079852	2
302.3345517014392	130.27744201621402	3
488.5690293735762	63.825464136537576	4
268.84143589821133	111.08888055308043	3
84.81513260449904	215.0741130978456	5
299.83718896765953	81.92668102785044	2
424.8273649369786	9.988848570883562	3
366.97788920299047	218.28324864778313	7
382.42507907921174	392.5724726881059	2
605.9270752606362	295.2341026275238	3
501.28721484812627	27.5604185166777	3
216.78452656068043	61.275893077651986	8
540.5773805584347	445.4856916385123	5
235.187363168337	379.0720675918772	3
256.65487694982056	48.138778423533346	3
253.81308363111202	200.13378981381751	2
259.5390625	40.5	2
468.00207271403565	106.76371833404895	2
531.4384858669705	201.00364963503648	2
394.7734375	86.5	2
352.5426045043087	259.8847144697295	3
529.1091171420835	286.4876341777587	2
547.8035360678737	53.0832546157149	2
252.2734375	283.5	2
267.2734375	243.5	2
269.0138953311847	44.419022333281276	2
592.1699084325747	394.8366680978961	2
404.2144190217501	114.7218548733362	1
382.05317949523305	384.27995139732684	1
282.5538035314481	27.67702639387787	1
607.2266054598334	374.7043573325004	1
112.3125	256.0	1
516.3125	491.0	1
524.3125	352.0	1
565.3125	182.0	1
41.3125	221.0	1
53.3125	125.0	1
444.3125	236.0	1
221.3125	245.0	1
345.234375	213.0	1
227.234375	263.0	1
210.234375	73.0	1
380.234375	270.0	1
112.234375	116.0	1
148.234375	98.0	1
559.234375	90.0	1
590.234375	119.0	1
583.234375	163.0	1
499.234375	123.0	1
502.234375	338.0	1
202.234375	283.0	1
362.234375	304.0	1
433.234375	243.0	1
513.234375	252.0	1
307.234375	87.0	1
451.234375	220.0	1
253.5868991160716	17.829204492998922	1
210.5870538641337	14.682874288352055	1
166.53843189873388	13.634097553469765	1
10.270701592910674	51.390060009232194	1
83.68507153524372	89.14602246499462	1
451.8056979603708	182.48715186951839	1
480.12266922384214	153.12140329281428	1
578.7076802892608	327.21834128327436	1
236.80647170068121	182.48715186951839	1
490.6104363584612	174.09693799046008	1
318.6110553507095	145.77996614863827	1
432.92771711805665	102.78012001846439	1
602.8295446988845	337.70610863209725	1
259.87955939684304	383.85228496691803	1
281.9038703795429	309.3891367902755	1
