505.5839007799526	426.71261906832115	3
410.97144369544696	259.65774566313894	6
177.44000956730366	261.7300349496945	8
294.76248676093894	145.32787453861727	7
425.39160815288756	330.7043814595198	2
505.52007227222697	144.12638650989769	10
455.0647662964443	392.3502044339889	4
486.35553996870107	343.76290849409986	5
551.464724868023	376.4559016119372	3
587.5386537580016	237.08702028471413	10
334.53639118354045	357.6526038424874	2
83.47935132173126	47.0550172843636	6
572.9081916161299	352.7236375593221	6
214.22756818584375	270.11142401048164	8
190.48913539419738	115.68363480938599	8
559.3144718165432	206.05320356428325	7
101.02766478932267	27.997902812115612	6
443.97918159395874	265.8486008262903	9
233.19498472448498	33.26655304470425	10
481.6372962519914	380.44210603537806	6
592.0361869130302	365.63208310825274	3
481.75721897690255	424.7056871940198	6
590.4728375932365	440.4860587393855	2
261.929214774471	158.38379706925173	8
443.9707737683989	458.9839106033475	3
475.99938644619215	307.2036567790998	5
558.9777953809471	414.93178171345517	6
197.34967075726962	225.29703845062483	7
265.07387854513865	93.73749727610496	4
478.3146973109976	237.96047820836495	9
498.4453138618665	362.95074727897793	5
173.93703792226225	54.28736943209671	6
424.15281501552045	411.98851012156496	5
517.860338810996	302.20392507280064	6
231.80412222727634	162.30029076022856	8
159.9006641355879	8.764332437608987	4
600.3774768945505	415.0287369878454	4
416.6069171242781	446.9912268484005	3
239.22656957970125	227.14329214495473	3
74.99278991436486	108.45434329463828	6
395.1367853001798	325.6846576130308	8
454.04979877112794	437.12581536793107	6
586.5479929703477	445.7199226929608	3
173.36490614346334	46.24143377885784	2
580.2665269625645	532.2498177399757	2
513.8600016236103	295.96986634264886	2
294.02285973342	140.08545289159275	2
581.4753486282456	494.2664785302454	3
349.8236095302235	235.80228056069558	2
141.57309819781472	272.9151501261275	3
407.2160772303883	348.4979720737678	2
88.608052998703	245.48216899391593	2
345.42647482280404	267.1697064844111	2
50.02323501220185	41.16656951318954	2
315.183179040579	329.05869176982463	2
276.1911373929329	237.59593159456506	3
356.0043718365582	160.7396532875215	1
348.5528649070543	191.6101827268468	1
7.912548129732021	19.16101827268468	1
122.8786550420783	76.64407309073871	1
70.71810653555082	219.28720912072467	1
31.331569908172927	201.19069186318913	1
98.39513227370826	233.12572231766362	1
115.42714811257437	256.5447446509449	1
100.52413425356652	272.51225987818214	1
81.36311643484214	295.9312822114634	1
120.74965306222003	310.83429642355145	1
176.1037045385349	310.83429642355145	1
203.78073027669234	283.1572700296736	1
331.52084906818817	277.83476495392784	1
64.33110059597603	159.67515227237234	1
430.5194411315975	368.31735124160554	1
397.5199104437944	381.0913634233953	1
398.5844114337235	402.38138372637826	1
384.7458985646448	450.28392940809	1
509.2925143863533	525.8635014836796	1
286.81180749116464	305.51179134780574	1
264.4572867026529	290.6087771357176	1
30.267068918243798	30.870529439325317	1
555.42084273964	468.20315917375456	1
545.4825690504701	489.1839611178615	1
248.4386110075054	310.2950182260024	1
293.71296892483457	422.9287970838396	1
285.98320049992475	470.41166464155526	1
497.99970586888094	526.7285540704738	1
125.86656884107758	253.97812879708383	1
271.59037547711785	166.79723311607228	1
110.294338350434	19.068993197078118	1
30.900842477899268	295.9397326852977	1
158.14821819103867	226.53577473457457	1
