210.56302345189275	279.02901569132075	9
312.77012599397466	284.0365200145731	4
135.75192467510644	239.8332361998799	6
575.6501081898753	279.2668650528585	4
406.00184952407017	275.1710062202544	4
508.98053344155016	320.85565750660396	2
469.8098068527273	314.78095990467153	7
155.08055957597736	78.20267986073884	7
372.3494041955687	573.0891805972904	5
108.90909238882752	142.4283302815843	2
306.5307540201097	247.77795393769946	6
589.4002818065079	143.46380170434196	5
164.42977664017678	158.44472985984555	5
273.60931380259854	266.1056029981261	6
181.29757109344956	64.89402876711951	2
447.61986114487854	554.0812032786763	6
519.9462154019066	115.54081661102782	5
497.2260335615068	501.10821788644637	5
351.38102034057124	304.70568856035015	3
287.44728522861556	384.7011471665275	3
185.7240892168075	270.4125549322057	5
547.394136230997	149.48428673347655	6
427.25706451748147	586.2912750798265	5
501.5223688034158	352.04936610572156	2
374.9347123779671	254.8773204486999	8
255.81408936743594	283.3501371205	4
149.9132514410042	302.63873793306163	2
274.6301028900144	171.37275458193648	7
327.977658014457	234.64896263689263	4
353.6653873440852	387.4825313379273	2
417.8539618423475	450.2699995521132	3
433.3573595067375	123.97623632987137	2
529.4897291836419	480.63065259703694	2
366.5104422792026	28.738027139605514	2
129.14495300286146	171.29764360874066	2
102.04452433262571	102.27406728026918	2
415.41039154033683	363.5451897366005	2
263.3082848728592	218.5864456508803	3
234.9809496130171	261.0790787133693	3
331.53982529844853	358.42976728747385	2
230.36192040065498	106.34332074974516	2
198.64602467845083	123.28192605642634	2
466.5348443288399	481.1768215766876	2
544.625621362271	371.6158601617617	3
99.234375	92.0	1
292.234375	214.0	1
340.234375	440.0	1
315.234375	401.0	1
266.234375	359.0	1
288.234375	411.0	1
316.234375	575.0	1
300.234375	366.0	1
257.234375	428.0	1
478.234375	584.0	1
214.3125	54.0	1
373.3125	328.0	1
321.3125	343.0	1
437.3125	478.0	1
314.97311112588847	463.55931681797205	1
398.89360576886315	213.48821538315798	1
279.6283081991035	215.5805533424593	1
380.0622429946906	143.3948937465644	1
222.08803305579843	149.6719076244683	1
173.96343929957962	113.05599333669552	1
196.97954935690166	153.8565835430709	1
543.2673870375196	301.36640967381265	1
542.2212002167322	232.3192570168697	1
427.14064993012204	137.11787986866048	1
183.3791206866659	93.17878272333317	1
128.9774060057229	97.36345864193576	1
519.2050901594102	392.38311090341927	1
563.1449366324796	231.27308803721905	1
116.42316415627452	37.73182680184868	1
253.4736376794194	356.8133655952971	1
444.9258258835073	438.41454600804786	1
497.2351669228755	257.4273125284853	1
459.5724413745304	228.1345810982671	1
501.419914206025	84.80943088612796	1
162.4553842709186	12.623771290233066	1
305.78297871878766	432.137532130144	1
584.0686730482269	591.1552170370429	1
552.683068424606	553.4931337696195	1
601.853849001612	515.831050502196	1
571.5144311987784	546.1699509120649	1
608.1309699263362	418.5373353946855	1
153.03970288383232	228.1345810982671	1
332.3268420096951	255.96918632643235	1
346.391082145341	80.16617373959694	1
368.8938663623745	108.29465575349062	1
419.5251308506999	149.08095467363643	1
608.1868788681082	246.39279016918027	1
