554.4145848543417	448.75197003276594	8
575.9344506413418	9.208245897783954	6
461.9597965971551	152.880832869602	7
503.6280414117837	393.91012066036245	7
318.835145710281	127.47240108260542	9
309.102001947692	254.8275307785881	7
522.4767652420402	183.23775682044464	9
456.9637666019263	282.8701963298621	8
260.25209120972966	133.1285856542902	5
468.3396113137193	102.32461546363649	5
208.6261006353345	215.85479478509768	7
483.2110377530412	313.3287238732661	9
406.715497438953	127.92869219769469	8
160.66006228750302	114.01519899161178	7
584.3598359062647	578.2516454733976	7
523.0408963543072	475.3907395667525	3
483.04763296307544	424.3893553613848	7
192.55228396035167	190.0137539779317	7
487.83465622894323	473.3495554429127	5
392.4119261938506	197.3667248871423	8
335.99353447288695	278.7400972053463	2
454.6175541739112	337.8033083826498	5
413.88940538705486	323.89782415062075	9
572.0595922125681	186.94300859835909	8
570.1489485775901	65.15496858888115	6
602.251036076631	523.368959035963	4
233.12057599232287	194.31793823161715	9
430.77578647309105	184.97228869929552	7
482.35356401667946	43.79163480717839	8
575.2672424539298	525.0952749253811	8
370.4533375966074	456.2206787942317	7
602.9335843693681	385.00885613746084	7
591.8150852795466	500.1307214076721	6
511.5553996810038	134.64341333444386	6
517.065729500899	324.4255284519783	7
597.7573393523039	41.342765071022164	6
211.39866292755147	130.07317478461556	9
588.7136163854675	328.9399710830132	8
366.5940339238915	232.56368108699047	3
286.8469734076665	283.38383443712235	7
378.24353184804306	276.3955285641398	9
394.0141558287758	423.4952642611619	4
547.0817261535833	376.06630289302996	2
517.1434468043955	421.52198085040663	2
586.0157536190031	162.42817663553572	4
354.9951831903251	167.06929425706795	4
420.7233888455787	443.04807989292703	2
458.1030590553363	199.9185306190388	5
359.12448449814576	135.78353522344273	7
383.6335718074996	163.96657816648445	2
445.58978083981265	37.8856359220904	4
411.5933361167074	497.0178521649083	2
272.22469471432385	6.0435456895346755	3
409.992321117744	5.003241444381192	3
555.2434498464729	594.0596445051863	2
482.6100793285931	362.0824967943907	2
385.6093195931367	14.919047973213486	3
441.58427905504715	412.0447805666689	4
550.6309737768735	515.9273038010111	5
540.7057373233488	392.1340838439995	3
467.40892815307893	520.3021411781272	2
566.659220093934	108.96993796005025	2
507.4602112895549	66.42848471754418	4
528.2730611187678	55.17631262955409	3
498.29365200715847	6.726122858400608	4
526.1601269737859	20.401163722373656	5
282.583357083451	387.3731469500388	3
466.3245513420493	391.38054826593475	2
505.34794642913454	245.07625333038737	4
481.3375672312834	558.0372794638505	3
303.4943183745106	365.4202758560357	3
420.89998020541054	524.1471498874027	2
363.63780400004623	7.6899563028435	2
540.1498273411762	556.0145314654724	3
525.6265272344756	262.1352107049712	2
365.93623881746305	222.56165198983845	5
327.94480052086396	236.310085054678	2
246.23010574324545	13.251032806804375	1
315.7980215674342	250.66537059538274	1
363.28088474902336	400.8437424058323	1
401.9297268735727	511.26901579586877	1
558.7336006360299	369.9246658566221	1
283.77469523566475	435.07557715674363	1
151.26437938006714	100.48699878493316	1
571.9846322215897	76.19343863912515	1
479.9939231970968	477.98900855593706	1
541.9986191573415	480.37380454122285	1
538.4214251596351	404.0603330120766	1
476.4167291993904	21.30057737370249	1
358.36932727507826	59.457313138275616	1
311.8267809855028	349.2426527158025	1
465.64797379925886	178.836170545057	1
320.87583916889685	281.0282679993753	1
546.5500490338729	365.12384819615806	1
357.0688728264874	391.7363735748868	1
376.22989064521175	399.18788068093085	1
327.26284510847165	403.44588474152744	1
461.38996983954235	499.25097610495084	1
143.84375	92.0	1
284.84375	207.0	1
498.3125	198.0	1
