317.1224905276253	152.4706060549476	3
593.3909411699383	295.020061501241	10
279.8773791399554	167.6274506237658	6
519.3354077002612	26.702122800338163	8
296.43624010290785	319.75375301181316	4
511.61331649392406	476.3116131801228	10
445.2151445372923	13.166756838781811	7
338.49841891479446	258.0715217040018	10
489.3998819088913	255.68104433578785	8
490.136970773657	428.8151365642446	10
298.1001577470994	91.42782805784559	7
346.2502964148436	304.6975292441383	8
206.51567574834831	103.36198914804682	4
485.90947792785164	204.6461995869052	8
417.9824845281122	135.61090408300993	9
534.8525957949827	529.822144761946	5
265.7199871564628	251.06137036335997	8
258.0234919471203	8.285403905678017	4
297.4758641704484	373.7339459855599	10
357.73596696811353	128.63300015390283	9
373.7235989819195	461.8717582637462	9
505.2697322584196	175.32668013873356	3
389.4416083509791	429.47632572980865	10
214.517706939535	149.5854374155189	3
528.328533477578	363.5658653247789	8
283.3524969727105	341.92876152356797	10
184.91512698207237	92.29185905224787	3
337.3803821710819	365.5559538274605	3
530.2906391289332	193.34226991183266	10
580.0035200357645	348.42306013523313	8
551.1090272492593	60.310171107112076	8
610.5052106127805	379.18063166274794	10
487.02625515767375	76.26576949427171	8
340.53029021565516	104.94220680787188	10
441.80089954903633	291.87160590145197	3
518.7050572971968	142.697509982284	8
147.47690707158827	30.209169987990926	4
201.04191765025902	54.14237076103288	6
259.5162601870865	218.87629355195332	6
404.4644912496733	502.55354487386796	9
578.2398084619374	509.223745596517	7
324.58501757076885	428.8286808260493	8
448.6753572368578	140.3852533826306	9
479.6778753888555	152.76124031351446	7
545.981602616293	416.8853509400125	9
347.6712173931876	159.46971557508377	10
527.0279291306365	332.5579191845501	9
415.0088153940054	58.96223734834076	5
485.5827134577256	154.3498177399757	2
434.9773890116729	286.4281877666419	7
599.6797433047736	134.87681902992455	4
262.3203923613973	11.919256598469467	2
585.5959357225499	13.276752282095648	6
297.83645295865495	306.91972309057337	5
607.3030470479092	543.1254569886837	8
285.5209222135321	236.89572570861475	6
276.6880020199704	305.5512719484922	3
557.4519763710579	257.92920791445283	5
331.02908099245406	202.04505128987353	7
218.42251680935868	144.71721373557227	4
336.19761629106864	82.53938811758071	4
283.6406980376472	132.96129143773044	2
294.2069288170526	94.3564205342484	3
377.43683464694425	197.83481297356127	5
525.6287036003253	368.96233292831107	2
400.7503279111935	15.70003768721774	2
333.93893541555155	372.7715897512167	7
256.3728256856175	137.03010789027508	4
368.7880050295863	357.4782653141971	2
551.48360097343	255.64544349939246	2
400.8405952848503	35.9791362062181	3
229.51741096924405	39.09719506101807	2
154.75281643533037	7.277995843240334	2
210.89402151508608	111.52952612393682	1
496.30171240646655	203.7385027281662	1
548.968810617483	404.7050530382621	1
493.52975986904465	73.45673907886264	1
443.29345301074704	6.387006090894893	1
169.7166985989601	61.741058878650634	1
191.00671839754276	87.2890832422302	1
230.39325502492065	254.41574262064657	1
224.00624908534584	302.31828830235827	1
242.1027659141411	336.38232078713105	1
253.81227680336156	296.99578322661256	1
196.171875	42.0	1
160.171875	67.0	1
155.51752632987808	76.35137194117789	1
416.234375	70.0	1
518.234375	320.0	1
286.234375	178.0	1
393.234375	507.0	1
529.234375	544.0	1
274.234375	200.0	1
470.3125	563.0	1
138.01334779450735	86.13171324422844	1
