557.4767613403685	327.1246372870131	8
530.6537324697315	559.1876912984258	9
600.6295293864541	299.63557984168267	5
438.01422152275904	160.69706495867155	4
491.13637818588325	627.6850845615704	2
181.9250032740154	140.13335722988057	10
210.88869848576968	161.68105242853835	3
388.48461260479405	517.8151009549433	9
212.57146648278837	226.3012066347655	9
423.5518604495271	61.8366226171143	10
504.91472954271234	594.9817483643346	5
372.30135732336714	595.0166163850218	8
443.7813848907095	230.90111695159283	5
344.8438699855969	556.8114485868775	8
457.692061381838	374.9088128703428	9
404.383463358857	274.57294687498813	6
241.41528792012798	434.5534206396971	10
414.0786582887454	377.44989039636835	7
222.7361698865194	258.63724538649956	6
500.8056245113241	475.2564670138608	3
418.1932439810174	562.3966758001891	10
513.2823696070687	439.7398085904764	10
290.6171875	245.5	2
134.57748902278286	142.71514473774965	5
328.13671875	116.125	4
573.1745014587933	475.2167889534874	4
556.5949759854461	538.2428977450412	8
289.87796756717046	220.105533158527	5
388.13769438109034	408.7243479618929	3
445.36948129992265	154.30758848495952	3
344.63920779120184	152.5457484935572	3
249.872546560765	396.878242423758	8
583.8135742012503	578.8337160950103	6
144.84313137301703	332.2162530622295	5
465.21540880236626	600.39081462965	8
443.1171875	452.0	2
348.10738991942895	483.51159608513353	8
178.1953125	183.0	3
299.6171875	77.0	2
559.2215289716175	288.27213806028425	2
407.9205054204034	456.34192956426676	4
350.12991887936187	217.83497933868068	7
350.79309299544974	429.92905669217555	5
144.98647552820984	259.59709186028624	2
293.9640686005524	120.46026605086534	6
552.4762399608126	209.80625759416768	3
138.2408619332062	181.1651667187256	5
455.7650284053917	16.393314951850346	5
44.27354188359039	104.28955177260659	2
254.6171875	37.0	2
543.5589068931051	352.6804374240583	2
574.0853114082121	357.9145256209207	5
107.36923012087802	195.9046338189247	7
559.3149329319739	280.7553851577414	6
236.1743137098336	202.46083794505319	7
528.4390976699776	522.4536203214459	5
169.37390108227768	176.4997011938333	4
380.5390625	590.5	2
398.7901554922668	86.95056923712511	8
471.81395651555863	309.8159923532163	6
320.22909763997245	365.2945943076527	3
498.5855198859606	485.3100880697365	7
546.7944525895591	90.7197879980697	4
503.94102708412606	170.8456017862928	5
591.5927637821328	333.3286659486075	2
128.88627517724558	168.37775042314203	2
347.9548078900791	144.4183517208051	5
300.27904113574454	390.18572020448664	4
422.4797400305339	298.0947758399655	6
493.1420898127556	618.9985054793378	6
395.546875	260.0	2
260.50896746079263	9.766668147770881	3
565.1366426790992	440.2690927930695	3
285.86684124558235	61.33827893175074	2
612.7724563401097	387.305004316161	4
326.2364214770924	357.273346760556	3
540.4026110885168	302.93981973486154	3
606.0997225170491	48.73585711815018	5
299.078125	165.5	2
575.9259744343587	37.98623767474215	5
420.2665805551836	483.5481107188199	4
217.91283642021517	166.46047004410883	5
550.3649639967947	362.56192409807903	2
419.3014016312594	436.2227081055755	2
454.57339632749006	472.63501274310346	4
312.35284002965136	7.75105701042198	2
426.52715509601137	415.54544744650946	2
385.3338867823224	434.06145556770264	2
230.078125	105.0	2
596.3782374124704	459.34508548181884	5
521.3658624597882	342.9417852708085	5
226.07151306956922	60.341360209262966	2
599.7405574946638	421.2632739879947	3
95.54187423173087	114.23542301126706	4
422.60774742152597	595.8282043391291	2
99.36837013791651	233.47033108798544	4
304.46219828364565	89.83659254861516	4
268.22183134629097	34.128767765110105	2
549.6075152994329	467.9747653485152	2
355.43087292331455	454.641964704045	2
536.853314502479	202.2889075046511	5
212.7060580829564	93.96704669686085	2
498.327325695845	29.805998831961233	5
562.7490095959199	217.6608327459246	3
498.63250851007007	594.1878038601645	3
607.14135278275	138.4118304869258	2
304.902999766907	9.904627196786144	3
317.99971518978884	121.4182816385967	3
281.1957845185009	248.80307543560144	2
93.45591427352045	10.185282977454051	2
490.936837298613	235.06591046720524	2
433.4681231210334	229.6555987957396	2
289.2151569663774	552.9957174830337	2
221.47794645823524	447.6359635102288	2
543.0492720315561	100.68256654869981	1
448.65936781998516	209.75534697645793	1
398.3180855738139	452.0227727342668	1
121.44103321987214	151.02384982304972	1
387.8303184391949	249.60886290198493	1
126.68491678718165	345.0475457762733	1
294.4891909410857	156.26773349746117	1
418.24484312959004	97.53623634405294	1
429.78138697767093	348.19387598092015	1
459.14713495460416	267.4380673949839	1
522.0737377623182	477.1934143714418	1
468.58612537576124	400.63271272503465	1
284.00142380646673	510.75426988767504	1
243.09913198145262	512.8518233574397	1
260.92833611030494	466.7056470226189	1
286.09897723339054	321.9744576088629	1
310.7838050593027	115.54457845029879	1
90.69762355934157	98.96283723490149	1
237.234375	403.0	1
165.61966359775687	186.6187120291616	1
554.3165901075099	49.691373025516405	1
243.16726690407023	111.77260659066063	1
224.00624908534584	130.9336248633453	1
55.81509267654297	123.48211775730127	1
179.2972075083223	12.774012181789786	1
235.7157599745663	53.225050757457446	1
308.1018272897473	158.6106512572232	1
574.921875	222.0	1
609.921875	301.0	1
582.921875	296.0	1
529.921875	570.0	1
353.921875	553.0	1
294.921875	508.0	1
439.921875	346.0	1
176.921875	89.0	1
193.921875	7.0	1
214.921875	138.0	1
258.921875	117.0	1
479.921875	391.0	1
354.171875	206.0	1
130.171875	335.0	1
512.84375	336.0	1
460.84375	150.0	1
413.3125	421.0	1
105.3125	185.0	1
391.3125	94.0	1
