474.38271205904357	58.4870505611712	6
365.95106885290704	168.0566276969218	6
585.9783575155489	309.45372982068506	4
473.3841119925357	628.1987251160779	3
569.6627744732348	209.1611839436198	3
445.9948526012845	491.0588776382434	7
472.43211844356927	355.34043090567866	2
266.3029464672386	87.20886288073582	5
363.7774938420009	103.80412331199719	4
421.6080633512739	412.37777752966093	6
280.0905283205809	450.5329096687415	5
558.6492574138865	512.7012438101526	6
602.6081680319995	54.19555151886547	2
310.93160854320615	268.5551011291971	5
463.17644636892885	274.41742380523544	5
537.8956286512662	232.17900712034117	6
516.3896677795478	430.41507138074655	3
211.83893283876358	333.0179995150047	2
212.16467343712736	212.17396890201883	3
323.80841689811416	339.8221443847699	5
500.6372385363155	547.8602924504124	3
350.91235394842556	398.99559388400684	7
495.0873431778397	253.57871066451534	7
386.1169941656518	508.2494497015481	6
480.82151432620174	487.3903010418096	4
234.42745283811334	372.11872635053504	5
557.2802526068028	345.85378818230544	3
246.1180630955871	345.83937671773356	3
220.96569475379232	292.2405290853774	4
581.9719960835157	563.9760644586986	2
284.94463581289745	18.47571923626584	3
519.5956478909457	424.3531574932996	4
340.2943603838098	156.72084870044776	6
256.1628826866717	226.82341427659028	6
460.16587631777065	179.43948308082216	2
367.68060907181183	54.677860814076865	2
418.6685737306768	102.3738327718317	2
329.51319301810213	64.37088031821384	2
354.36730571580165	461.4208945597102	3
330.7009767161379	499.5595186356628	2
129.23666079526276	138.16600671365296	4
129.88572277196954	80.54046814448401	2
311.0824080491085	98.21748699033574	2
398.27900541618646	212.25633191977238	3
577.9037875926037	210.51091328661317	2
207.3272408076221	359.1133686045549	3
470.52351191383707	456.8030119574221	4
587.0138082999156	38.6634537970101	4
208.07852731117632	244.81333930598794	2
260.86926559278265	409.9837254168896	2
359.49597420037276	495.29074777951575	4
94.47893829858481	108.4626328614229	2
165.83016253791072	162.1746105773076	3
251.80493537948698	353.0355763778439	2
188.43924012394882	99.71829791693636	2
292.39029564635234	181.10085054678007	2
141.19686402938368	199.38274605103283	2
264.03501142866253	391.90060753341436	2
549.5357272894951	587.6269744835965	2
212.03294825754304	20.886148238153098	2
606.2462957248745	558.7716889428918	2
169.70852719526837	18.334021871202914	2
318.79770618010707	498.5089914945322	2
174.45368465479672	45.274362089914945	1
179.97494781544663	70.67217496962333	1
86.11347408439829	73.98493317132443	1
144.63886358728723	99.38274605103281	1
94.94749514143813	139.13584447144592	1
205.37275835443617	399.73948967193195	1
409.6594952984825	608.4432563791008	1
526.7102743042605	77.29769137302551	1
175.5579372869267	219.74629404617255	1
567.5676216930698	485.87120291616037	1
295.171875	428.0	1
303.171875	269.0	1
545.171875	379.0	1
610.171875	595.0	1
483.0833282470703	493.98333740234375	1
271.8506094264175	452.868560423688	1
185.66631831617414	86.9033890782489	1
185.66631831617414	52.232475627872724	1
230.8895062956182	11.531838099170253	1
158.5324055285077	154.73778495941968	1
360.5293118366912	353.71867954418735	1
401.2301810181909	344.6740934266979	1
288.17221106958067	373.3152827987478	1
140.44313033673006	212.02016370351947	1
286.2673172011208	384.41843070610537	1
