354.8209580689413	388.2504768871388	10
551.4083618330494	365.7578098043015	10
386.7392879325072	443.086052688771	10
378.05091630007735	370.84889796065954	6
607.8475011532121	480.7715051847215	6
603.7958795339493	335.64945680442867	3
109.80763967956393	196.22636695018224	2
604.0068140690234	521.5578007307006	6
101.5609472677564	343.03633598239287	2
277.9245382983104	299.7654450972158	3
394.7671868496603	211.95243182849816	6
202.6680640450881	373.77509113001213	2
156.171875	308.0	1
594.0696848641893	337.9013365735115	1
289.2959583963147	288.20996354799513	1
308.0682531425243	346.73535844471445	1
