422.11162087795776	461.76631254238634	7
449.796039975501	492.1156194632408	5
163.1240196456045	291.1709834868435	9
66.36084517548102	48.5575466788509	7
611.8844344080294	353.4260483424245	2
218.0419131235288	79.41622072171862	8
326.6761831368896	423.46129400932705	6
475.8043139762932	230.11218889257555	9
25.259332628149068	96.89419452967519	4
551.7381908090606	365.7012897202181	7
281.8506665105575	28.650438850713662	8
90.61454960929696	309.9305977726858	6
242.10896916642207	107.77373545183208	6
130.14417021599093	28.782056521798864	7
186.22537381772557	190.34631971028432	7
141.1947365723363	229.36500469086621	7
198.98439999793152	259.4190206868167	5
598.4857313302334	247.14163413688658	5
104.48172085224823	344.06936079987474	5
268.5003940216874	413.1300758508794	2
426.87581686968906	502.5550935985513	5
93.4627687571342	128.35354412022497	7
321.5181970216605	188.68700813693357	9
164.09073387854124	326.57145339731966	8
29.23255125689679	159.13818084450668	6
300.7754800923169	406.79237308989525	3
524.5050334590228	364.29665817770046	6
329.4065921130292	396.4207924490696	4
337.97996013384284	451.42990839518626	3
275.0912888440563	80.59395902581683	8
256.8852287912704	449.0479354612804	2
166.71044172568867	36.41604364563289	4
418.7304517754116	428.98881287073243	7
278.1554090682158	257.2560570017679	6
261.62831041654977	306.4252737545586	2
261.8538538633517	148.65647214747946	6
252.95982540671622	275.4173824769639	2
374.1174624854816	459.67396458956387	5
483.6687568384793	528.7252441252989	7
6.454094961116301	120.60063393627834	6
36.56894002444602	60.83948896494506	7
302.63995646437655	356.17758281849825	6
338.58669068501354	346.4313602095292	9
502.5838429678056	424.9447971485249	6
488.3398094854289	327.00711952192955	7
611.0033460710215	279.1065331481107	2
271.618403124313	291.821743260301	4
531.1951854944039	417.5382640857028	6
344.51691831148787	143.29091881644098	3
136.97856774167883	263.7759531236627	3
297.2634845514651	72.07616016752935	8
161.93835332745883	351.0323388785723	5
348.2051194585626	370.62642511322815	2
193.24317534760843	318.9848848895476	4
590.1954584465146	363.3820533112447	3
302.42684926065584	216.75211974141195	7
595.6641407172547	394.2872673614284	4
431.4123464813829	475.40543748119677	7
373.71109905546456	378.91598858913903	9
293.78551913460245	139.2817201085714	5
204.67375395152646	260.5357372830457	3
129.3241995318569	263.40810078250513	4
565.3413320735142	524.372041039753	3
402.17998759449944	318.27716637197136	4
233.76661992341678	248.80443145099247	2
82.01143742613344	106.57748031738143	4
75.59183348718234	274.2785818530451	3
232.8153966368787	367.0359286044007	2
395.5036090574711	418.9054039453879	4
303.87625146765953	429.45045391598705	2
167.7186125316315	6.926431193542527	2
120.32480885937164	323.65847945427606	3
562.234602951655	398.22319283573586	2
266.0142640607926	313.8560145808019	2
250.78449563588268	283.2922235722965	2
82.30916927793919	196.17424058323206	2
138.46761139725368	179.34021871202916	2
137.8112324490587	141.12004860267314	2
62.41038211896392	39.259442113058505	1
15.299056140790116	97.58775610960257	1
133.07737108622464	104.31794618612687	1
417.98872343041864	496.91236731671194	1
336.921875	135.0	1
242.921875	117.0	1
198.921875	192.0	1
76.921875	164.0	1
138.921875	274.0	1
521.921875	375.0	1
69.921875	30.0	1
503.195756920004	192.97491921834128	1
325.95249234494275	134.24342206493307	1
281.9038703795429	209.75534697645793	1
526.2688446161658	97.53623634405294	1
169.68476203911956	80.75580858593631	1
5.026818025601171	61.877827358055086	1
243.09913198145262	276.87705800892445	1
590.2442241373417	551.6565625480844	1
580.8052337161846	319.8769041390983	1
230.5138114199098	421.60824742268045	1
83.171875	182.0	1
285.27243331180705	254.02985689282403	1
172.9102015687475	18.09651725753553	1
296.39231640052685	461.9934405747306	1
370.90738569556606	512.0249882867406	1
