277.8082511614723	136.2385043912124	9
120.15787162501141	346.4097421353518	9
296.9679470742743	406.5757431566676	8
272.9322024983783	371.4029329467995	8
192.703125	334.0	2
77.4196477974221	181.82515836247524	5
360.2111287758091	374.7010028870501	8
505.29548518703115	391.97197754650233	2
90.93847924034615	68.8202830802598	9
402.89131042729264	448.8894445299277	2
449.9874991695473	219.67247724278957	8
360.1967212970052	289.7639956139766	9
150.005362547775	18.626930549728414	8
455.2201850456524	505.55416466576804	8
222.97076555320956	116.25300046160947	4
595.5290453044264	479.2517369706091	6
204.66941118423432	340.2899052050617	6
294.7003714548767	342.8584108242161	7
575.378538137248	243.8213573074429	8
411.5972892271625	452.45702309316835	7
421.04724836328535	403.668718350884	8
524.8846361173191	395.103060659894	2
423.17753900286306	349.18544836126017	8
516.7183850671188	390.00474275537977	5
105.9459224874187	88.93745496316191	4
533.9279355194564	534.3476654895328	4
583.2129858414035	521.2104419271759	3
19.936512841303358	77.12714083092649	5
7.392541930574692	226.91698115998963	2
584.891731450373	274.18915254385774	3
211.26492604634083	126.86231066112236	2
225.2699278526003	144.73118941375597	1
352.17191018149026	446.7788890598554	1
452.8544746738327	343.99876904139103	1
555.634592593099	348.19387598092015	1
532.5615048969372	489.77873519002924	1
354.234375	386.0	1
299.234375	420.0	1
259.234375	372.0	1
166.234375	126.0	1
74.3125	171.0	1
81.171875	336.0	1
426.171875	420.0	1
566.171875	237.0	1
