377.6009830484478	54.85475825839201	6
401.4161021833945	423.8051317310769	9
423.852837075699	289.28961626436853	2
372.75163621789915	439.1131453836838	9
416.5488423190511	465.2044687312056	9
341.80794839578573	307.7631445406446	9
591.1460236255498	72.91725451809987	7
339.6421442416836	409.9356967887111	8
322.14953503989	258.0280940582371	9
510.9434868393032	443.84267938956435	8
269.516743153009	138.55111770830638	8
295.3427124450577	334.6988311501882	7
384.9115890035531	158.43216968375492	6
533.2065322822557	552.9038645418236	4
453.3378524758858	100.60608305282767	6
208.8640356534465	240.18369399756912	6
359.5008792132355	275.02704592974237	8
264.1489174572632	325.4295462979471	8
438.87111143321397	435.31907286441253	6
478.4157258095568	502.4722808754856	7
349.4105024389467	214.77589343977138	8
496.42517826039546	468.1319947034579	9
364.7684106220888	250.21616988602963	9
576.005592945229	594.8707117005977	8
296.30317344435264	254.5063624238293	6
413.192194575851	119.48950145989373	6
133.83138378690927	124.13305929671955	4
473.9561417951826	14.503249780272768	6
277.4471809061167	305.1214032928143	2
532.5276530723279	514.2431429398337	4
480.5764688602347	298.1638328973688	3
471.80298997140005	395.22363076303725	6
351.5005547642445	143.75548337467376	3
501.215065960002	85.47545776273273	2
109.13429397284264	28.316971841821818	2
538.1312668964877	112.00468595785463	6
487.5699360723773	569.5978131250962	5
602.6155146052513	37.74462354428955	4
310.8564022596323	505.1046808023741	2
395.12639362620723	199.4755700358238	6
533.3882257350067	403.3407447299585	2
521.14719473789	607.5476996460994	2
344.0602777883084	508.6567164179105	2
312.14957669947887	456.42588322162425	8
401.8737837138308	148.86559470687797	2
536.6269807483576	560.7140340218712	3
431.53256267412905	283.5016132307111	4
378.5604009315515	60.36695018226003	2
581.9875805875097	77.59671931956257	2
461.34474568823083	68.78396111786148	2
507.28661214689544	82.46160388821386	2
388.73090132064885	154.15825511617172	2
541.703125	521.0	2
436.171875	290.0	1
368.234375	53.0	1
466.234375	18.0	1
342.234375	421.0	1
223.234375	438.0	1
463.234375	399.0	1
597.234375	366.0	1
241.234375	409.0	1
227.234375	345.0	1
533.1186675259638	395.3888290506232	1
199.84375	234.0	1
355.84375	212.0	1
518.84375	442.0	1
238.50033731833557	26.50206561360875	1
270.523663650105	244.03985419198057	1
276.3125	321.0	1
112.00204279871504	89.14602246499462	1
229.4650347064479	295.75503923680566	1
595.4881077046513	329.31589475303895	1
