325.8255223861887	430.872224741333	8
209.4323085739323	62.087416877307845	5
122.11984850462468	18.86868957253909	4
545.2361769795491	66.89412765338281	2
268.7223722331727	40.32983570533603	4
503.06319743832125	479.8283363468118	6
348.1903009276895	296.6069525754005	7
329.5245450556052	217.33358376339865	8
603.9122212634138	144.17967320743827	3
158.72773541119912	15.796313842919904	5
259.9016464670958	305.46422996628917	5
584.7658148596863	43.50713211098798	5
413.6085330806002	510.8660844471446	5
269.65314650618456	259.7492237412323	2
309.66270559946645	387.2247859396887	4
309.15535345392317	249.84199066574752	9
570.0088435915986	212.17881334941495	2
551.9769848116915	120.05158092040242	8
431.94297254830747	20.428675577156746	2
304.1325384563135	308.4364796836412	7
481.7699555613357	513.1345078979343	2
568.4400608465348	243.12417982989064	2
511.9159557074323	15.078444375125226	4
533.9976053626139	168.40090090771727	9
600.0617256491121	196.8543646022485	3
230.9886345135474	28.669220696900673	3
596.3525829844596	521.067861356214	2
350.35777916666837	188.51407426471764	7
395.82886546069267	399.6611936054811	7
390.0270009400996	45.294309400885055	3
572.6508575932555	203.51633650625536	6
385.31690925083944	276.31920863946254	6
391.6602993798952	306.15901528480975	4
601.8254724331894	436.597151325705	4
344.4249894673334	381.4627791797841	5
260.13132625301944	257.7424215282075	7
342.99758312831307	469.38338597990094	2
267.6964345631552	346.5636359549017	7
299.5509318204697	111.59630065882422	6
391.10134652713407	491.9798088548208	4
571.0612884822797	259.7976194593269	6
520.0397820538474	457.2018638174154	4
284.2954774648332	193.88776494039854	5
253.57105430845306	142.29529838957808	7
586.4767856946614	475.65098980718	5
490.3509363631188	150.96149704315064	4
535.7889191230754	340.29268811121244	3
300.9318819876786	118.96099473430257	2
526.4134351555804	344.65777642770354	3
492.3842503583676	347.9492760212763	3
458.84891541387015	515.1515671250766	3
317.34570395485935	71.30382208377978	2
392.91648341100495	297.210197869147	3
348.0858954569249	292.749778796947	2
299.50122770853056	366.21670175915233	2
332.234375	150.0	1
378.234375	271.0	1
518.234375	214.0	1
218.234375	83.0	1
385.234375	485.0	1
465.234375	543.0	1
548.234375	531.0	1
261.97679760681496	32.96218047897572	1
590.0524318944819	316.24034612701104	1
231.16741810787641	173.36767922235722	1
555.8176919540906	241.83134872417983	1
167.12076544433756	156.80388821385176	1
163.80800754794762	46.37861482381531	1
237.7929339006563	14.355285540704738	1
482.93701823351194	488.07970838396113	1
486.2497761299019	528.9370595382746	1
590.3125	532.0	1
299.3125	298.0	1
314.3125	398.0	1
448.30833742303184	518.9987849331714	1
