450.76450729776815	500.04683513697864	7
534.5485684465889	204.83543975519802	4
263.3899931103112	282.3033342318236	8
479.8326490279612	447.872945697634	6
495.4222528912487	312.15606928435	7
584.5385743603198	442.18354091364415	6
233.9662658010633	392.5474624412233	6
452.12131477727075	260.35723018406577	2
259.068641340151	78.77250797410818	5
480.06647601558416	253.87320272916503	8
467.74994717208676	539.2908472235654	3
378.3170205301226	122.21441676889953	8
205.96239567333004	386.4363118054764	3
189.0843236781842	303.88400451523944	3
222.65101523185893	406.72148770544334	4
347.8507277720353	530.3194180487023	6
526.6677692954613	308.92757444182644	3
277.4466037780951	67.61173015357181	2
427.7408956482626	171.9578817871391	7
555.0164741751705	587.9518012401666	5
314.3429051683222	489.9107274391853	7
480.1714987251726	198.44513619299175	5
468.74829358641915	369.96362933521084	2
608.6644228286078	291.96934606634693	4
445.05924693026043	387.92161271081795	6
470.85437294998644	182.27862815381212	3
228.09305282596347	299.69464604937536	7
547.1354496550618	428.61478974614187	7
486.8944166827804	354.16830762722446	2
572.1833696873985	303.3843645996061	3
306.74062136268424	139.1555228262563	2
495.52080821762286	420.91079299664955	4
218.4869204948102	187.20745257769045	3
513.9140418602681	227.48130140068537	3
386.520338056108	462.5577957331785	6
469.6545016509692	339.85047289811985	3
506.56260422165406	189.44305634978207	4
381.0327974859185	546.9236887328127	6
445.7753309741714	354.16830762722446	2
576.2765268757112	260.0970713385721	3
220.90533221074773	321.2451297816209	4
255.12143896233889	418.8295503790574	2
333.1060042961227	238.7247455120127	7
179.81287991859801	351.25443047911983	8
186.45492424022387	380.4789419344557	5
372.3129161371281	184.66708488300657	4
290.8812263072539	397.319561119314	3
487.8120201216364	486.0718520905141	4
307.0251196234028	211.12459413601528	5
431.45959096724295	573.3237264639272	3
509.31035650682657	502.67043300623277	2
500.65718395416707	116.87219533042779	5
440.28284583298563	116.74325868390737	4
574.6601837491914	11.101024924970524	3
610.1028790308169	34.736480335204334	3
563.69180012057	520.9279762213798	4
383.6730639036865	17.209491491818824	4
169.21004559252145	1.7957523577905894	2
304.2331505620873	319.10637132803123	6
346.8719463046465	446.4662410333657	5
568.3324730756749	73.86330355368051	5
514.6296688694833	279.0252141787364	5
581.8332350773583	587.097089868558	3
596.710786935831	156.88193925978274	5
150.61479126596683	227.039805930086	2
558.5391437058811	358.8922027027637	6
318.0148255949053	79.83939369626485	2
408.5008770073824	491.2085976924276	2
602.1564357445222	116.63552389761864	3
119.08842101371783	59.752280239771764	2
499.30047576852155	455.355878251464	3
347.2734375	384.0	2
92.23347594369436	87.35406081650369	2
257.5134705161363	175.3158566221142	3
508.2489037716427	221.0147630619684	3
281.3368599928512	38.740400972053465	3
114.05723273468026	142.4666322660908	4
158.15368762910606	314.82458846734767	4
185.34451411665822	179.05158627692657	3
167.8339156974551	196.70752839331072	3
203.71637940624117	351.70449574726615	2
287.25210288209234	190.17424058323206	2
276.21520942526297	332.9362858037464	4
345.28810618534186	49.949939246658566	2
391.99689045994967	247.75317231342711	2
592.2126749815978	536.8450864247964	2
117.7003305435218	276.9628927518861	2
337.118460759857	16.143032007286862	2
255.0641268002853	162.32515188335358	1
86.92356650360298	21.927030408251845	1
110.9388863360418	48.03063803712308	1
334.3857752117769	56.38379247836188	1
364.66596108746063	272.52166364541574	1
359.4452393847565	210.91714964127965	1
166.3125	136.0	1
195.3125	127.0	1
424.3125	163.0	1
370.3125	235.0	1
357.3125	16.0	1
579.3125	5.0	1
556.3125	41.0	1
280.4619373392748	439.4925880923451	1
443.8913268945119	280.4801944106926	1
234.08332678981566	149.0741190765492	1
247.33435837537542	125.88481166464156	1
210.234375	360.0	1
264.234375	338.0	1
435.234375	309.0	1
533.234375	318.0	1
500.234375	128.0	1
295.234375	183.0	1
277.234375	78.0	1
410.234375	368.0	1
370.234375	545.0	1
336.234375	537.0	1
506.234375	281.0	1
542.234375	214.0	1
454.234375	62.0	1
444.9459293983202	20.57642421665969	1
607.7494061243189	522.5509537373235	1
536.8997449565231	38.665596451638564	1
99.74226115523038	23.591286255822837	1
375.60370782983927	172.82695719439857	1
470.5724025866718	421.55307542535814	1
277.6201338743771	55.247337667035865	1
105.7720195524896	92.9331131565752	1
491.67655697707903	602.4447977751469	1
398.21530181956126	457.73141989531587	1
178.1291203196001	306.98831793715857	1
450.97568779557935	376.33014483791095	1
265.5606170798587	323.57005915255587	1
489.04015908223954	548.594715750866	1
275.1576764951046	409.7099775860898	1
