447.9544371526506	508.8575274320681	5
251.89874210503586	69.30292655342387	5
226.27347601011257	223.73287097556727	6
269.7652455149055	364.7120683289477	5
295.7784401483477	219.1717529320181	7
504.5514819564703	88.3115429280356	6
559.2309655876547	474.63404304639687	7
582.2516173537417	411.3589714664808	5
179.71982069901776	180.99371209634305	4
527.8778719355394	382.67344006679883	3
335.6763281265226	124.36072125237463	6
220.15597793975078	279.8570579752252	5
227.2992018184977	333.05930790317234	3
503.1285533884119	154.8373298373666	6
439.5246838187213	428.76948914422894	5
516.095569149842	178.75274506088243	7
335.0737396430791	196.67636033992613	7
595.9584641577835	366.09089716919345	6
566.0144929604438	385.892148246041	4
289.0695384610003	347.03248650681275	5
265.74773264895776	250.82112638305114	4
510.63744923331876	466.35783473398675	5
196.57951306986573	152.3337723720371	5
259.9600608628018	187.1674179008371	2
375.85082928347595	73.48564254809847	6
330.03808854746273	303.0970522307234	6
512.456893787019	204.4788057594509	5
443.2375847688803	108.53673954209043	3
473.5055095161766	112.68125117834145	6
353.29148707766467	442.54692543706517	7
505.83765606724154	531.5452570981138	6
522.5429735496133	489.7608223098508	5
253.50446034155556	183.59441762306346	5
446.2734375	427.5	2
466.0703571021047	250.691003139313	5
158.54226874375965	116.13134628579412	4
376.0397823099495	503.01259423034514	6
172.27373562110748	54.24042139430927	5
509.55032078828526	307.45956865127584	4
523.2369652019195	350.8544577428844	3
211.93106329454423	46.044037974786036	5
370.203125	332.0	2
552.3900677598235	264.59458267013224	2
505.7294742937908	111.52952612393682	2
361.3330079210954	58.52879220706821	2
475.4644998954541	287.54975089067	4
564.7283232797834	366.61338781088216	2
551.8379414437586	109.41797791995214	2
215.3321762168648	303.2957835874988	2
532.7836637809755	536.6668286755771	2
415.3846795333682	522.6838657943533	2
319.7677544442054	101.28199760002042	1
217.44160907120525	223.44688130313784	1
218.48575341174606	266.2567978144867	1
612.1281697956344	203.60813950519568	1
410.6083120712566	502.2334107794827	1
446.10921964964444	499.10097786401815	1
571.234375	377.0	1
336.234375	314.0	1
262.234375	264.0	1
380.234375	81.0	1
563.234375	211.0	1
189.234375	160.0	1
229.234375	129.0	1
537.7528006255602	119.25929526123937	1
372.1149058060632	251.76962332928312	1
375.4276637024531	472.620170109356	1
527.8145269363904	342.318347509113	1
297.0257268212245	314.7120291616039	1
323.5277899923441	336.79708383961116	1
276.171875	260.0	1
309.171875	397.0	1
356.171875	367.0	1
424.171875	512.0	1
342.171875	398.0	1
