309.4138021462372	585.7632823270283	5
199.63772909399887	268.78174046269623	3
174.40855200945185	515.0287282454433	4
60.95380662562938	621.9789396801057	4
282.29984161804964	622.3675613170878	3
183.20284035079382	129.9285549148056	2
69.37005188065874	113.01818248501276	3
139.6910751310006	229.8822574397483	3
238.81383498832568	439.4307924966206	4
248.02213342458361	598.3889747168851	3
269.85951482819127	547.3806179701514	3
257.32879744866705	56.68255031368524	3
327.35277793034817	232.4930130017579	4
137.54409870825765	180.94475519760476	2
211.98647797929127	327.4910909901496	5
369.07144313448106	446.39713137728927	2
12.653153285776341	247.06929763242903	6
28.613986728926946	413.6537783568443	5
360.7299342242542	612.0834090804804	2
114.15385480416393	22.843240744724184	5
126.5468984201844	65.6743080706569	2
122.74160923165698	255.4454447159575	3
164.82086493537065	173.34421958602576	2
66.37748938819408	347.38749101306877	7
260.5464372337534	463.12575341178854	5
277.0273613428242	201.768240742555	6
294.24003370341796	28.637691508770303	4
130.35834042144046	427.2640744496023	5
106.64689823258746	298.48240104841466	6
128.3724680148421	371.1553500839229	3
112.68423763278992	378.88661225205215	5
187.6806556918204	164.40557125646149	2
175.9357362202835	320.67434948615124	3
119.31251671513837	151.94358129324695	2
207.2618599977139	482.3260351146181	6
40.63263808998677	320.8887419192634	5
49.489576634124276	240.06085302963706	3
174.0571219464836	401.8407447299585	2
27.974647491495382	535.300973380894	3
257.50819048495964	388.49930758578245	2
311.76594213253725	591.6467160290292	3
155.58402895513365	418.27973534389906	2
47.888565979924486	603.0652490886998	2
40.07580808353455	486.03985419198057	2
60.3055765084444	72.38821385176185	2
404.12111343678635	262.5624544349939	2
180.234375	523.0	1
202.234375	390.0	1
227.234375	443.0	1
300.234375	253.0	1
277.234375	521.0	1
396.234375	377.0	1
128.234375	435.0	1
165.234375	575.0	1
347.234375	499.0	1
131.38783200172747	167.8464155528554	1
252.85562153602532	456.05637910085056	1
253.9598741681553	67.35941676792224	1
359.9681268526334	216.43353584447144	1
380.94892686310305	461.5776427703524	1
222.3125	517.0	1
157.3125	583.0	1
296.3125	241.0	1
329.3125	59.0	1
210.3125	267.0	1
388.3125	554.0	1
264.3125	543.0	1
276.65998681223346	584.1686413294353	1
215.8309374314432	290.5111555623942	1
62.709537266005704	391.193722111094	1
244.14790869491452	87.04846899523004	1
267.2209963910763	8.390213879058317	1
328.05004577186656	31.46330204646869	1
99.78125	293.0	1
147.78125	89.0	1
192.62600538134717	198.96787827749608	1
131.81370742033792	586.4972258864419	1
217.66636336529217	526.8773262542963	1
347.637745281959	522.1077342837248	1
32.84467348379343	92.8444569322771	1
24.497887489145096	162.0035405055659	1
444.22198322003254	305.0912996227151	1
335.7137652896042	457.7182426810076	1
401.29565524755543	493.4901824602949	1
333.3289692911333	598.421205812871	1
236.74473135305976	543.5708981512971	1
286.82544732094976	237.12461404206923	1
309.171875	462.0	1
