605.861283854676	357.90775593433705	6
396.76322281379987	223.05645668677664	3
552.967782541524	113.0201141706404	9
551.6433210690394	423.2953168303367	6
436.36734847292564	565.3553101815639	6
243.25244501205802	58.62237496209531	6
404.8439165958423	135.06403248477278	3
288.0736081191727	100.97040804130798	4
81.34009915833664	23.121061360563466	3
319.08178760861136	254.77547151575692	4
579.9216072471104	158.52677700994192	3
242.91341167500082	146.8473822969255	2
390.50777071017427	51.20105703214633	6
215.58712430527828	94.12647966777062	2
250.13202158635363	353.7449043302686	3
546.3296856608338	469.34643259531845	5
607.7466893322603	92.94405253124987	2
434.85660047096064	132.97018602085012	8
344.08450505668446	325.9650201000478	4
84.28266737345542	125.60960164275379	4
324.7734375	399.5	2
600.7482782631319	498.5747894466273	3
477.8524600718577	437.28235456194835	4
405.65712322885895	355.0631689466786	9
456.7390116057805	329.19199551721795	3
572.2086182534474	579.0664598611587	3
404.4619278592394	83.91005700512926	7
283.7734375	190.0	2
246.2734375	418.5	2
386.5900103836469	159.28095265328616	7
466.4353770014217	266.2085881221312	4
363.58227199668096	288.3122054742206	10
276.242254461339	133.13721476292469	4
258.6889289857951	264.39095865809634	4
524.9414041373147	361.32037306988866	4
385.0579901756611	187.79817276288918	7
484.9003969203443	103.36529260479671	8
348.2892567457432	185.3176921334417	6
370.5813873760075	74.39603539300343	5
500.2740846185609	248.44660279769172	4
467.4599622642624	360.8209084987405	2
369.8583426929689	533.7614977221599	4
520.9843675899128	582.0944948122115	5
384.7338083795876	100.93450914808477	4
511.8252602511801	215.341104209947	6
446.9699089441789	407.18744878450207	4
516.348915977642	144.9207163204452	4
371.546228539305	127.81290638463376	5
594.05147199422	427.1392783204319	5
497.6368609496398	328.7448449550318	3
565.1025152591324	526.898308888284	3
575.0402073237691	385.45114072663415	4
396.67720807138636	274.6963869225233	4
460.54933780102294	239.1548702545893	5
495.24177200404387	460.1022103848562	2
346.31849003632476	154.50242138363467	5
532.2259574372597	253.65353347948275	4
237.70380443803603	426.19235571898867	3
210.56258356262643	38.451824582997496	3
444.26590926161805	36.228880158055816	7
284.6557065202768	12.454049346713925	2
273.63608530600754	321.271903795096	2
362.1575115482998	250.25757884142476	4
578.3759477333278	69.75855682041907	4
532.6932910216207	193.1542402083868	3
564.3411699945837	235.1835119841444	4
444.2260201057012	216.8781306512893	2
610.3145772902274	293.72969324415976	3
607.8254624284181	169.17409220781582	4
507.7632144680881	58.550989018386666	2
280.09017219844037	425.8545367484056	5
589.7527188599045	559.4358545233067	2
319.742538090022	162.07355939040954	3
601.9106482411191	47.91370680862691	3
204.88193068268086	384.01916268137535	4
427.0390625	180.5	2
430.9223760018718	173.09037610885096	3
216.3937204505158	382.3268507022058	2
103.85788268934688	60.61763564896299	2
452.45143486095526	143.80843739776074	2
163.93449583276842	307.3917503292513	2
364.38513738115336	485.87120291616037	1
484.7635151940387	569.8036539894412	1
390.56407325443615	498.2597744308665	1
134.19850341880885	226.39303210828302	1
81.73299145244793	52.30292518241816	1
162.81605540046027	251.43338995378414	1
313.0582033041302	361.1340052769319	1
355.52446842779625	27.691889025058785	1
323.90272054464765	212.15208991215152	1
156.57097132965288	287.25374313046785	1
418.7679641940935	258.2671401339247	1
550.5252470405461	407.15287370707813	1
302.8215552892152	278.03073308611323	1
89.37475707796206	114.65169801468822	1
471.47087733267455	283.30102454003014	1
260.6592247783504	127.82742664948056	1
139.44252455961404	48.77305484072652	1
575.5591307813721	14.516160390266444	1
396.234375	318.0	1
327.234375	225.0	1
269.234375	434.0	1
400.234375	399.0	1
215.234375	230.0	1
466.234375	530.0	1
271.234375	473.0	1
595.234375	361.0	1
324.234375	120.0	1
235.234375	182.0	1
228.234375	111.0	1
250.234375	67.0	1
317.234375	491.0	1
186.234375	251.0	1
519.9375242856446	156.48164922692487	1
456.06746488989666	153.28814618147743	1
332.58535005811734	335.3178197719819	1
508.22801339642416	121.35311572700297	1
500.7765064669202	193.7391847571451	1
469.9059777589754	293.8022801811651	1
366.64938173584954	212.90020302982978	1
581.6785817015342	125.61111978759956	1
469.9059777589754	20.22551928783383	1
445.42245499060533	13.838513196938935	1
552.9370549734476	75.57957207558957	1
565.7110668525972	47.9025456817117	1
573.1625737821012	278.899265969077	1
510.3570153762824	92.61158831797596	1
445.9858931069072	376.3776404265435	1
425.15318376400444	466.65272023364804	1
514.0394102937229	419.4319092576241	1
520.9836467413571	280.5471710928479	1
504.3125	81.0	1
560.3125	62.0	1
576.3125	234.0	1
513.3125	256.0	1
525.3125	184.0	1
303.3125	143.0	1
524.3125	420.0	1
594.3125	417.0	1
441.3125	164.0	1
312.3125	457.0	1
397.3125	488.0	1
170.3125	349.0	1
316.3125	224.0	1
234.3125	228.0	1
194.3125	175.0	1
425.3125	318.0	1
466.3125	377.0	1
458.3125	462.0	1
537.3125	607.0	1
564.3125	627.0	1
532.3125	516.0	1
