116.87800375276142	302.12929783884664	10
224.43383261663493	210.23990093400386	10
509.7575029019516	311.9159113951223	9
26.157035410911664	238.45570336580914	3
60.05862525237018	155.37103472383296	9
29.635890360881493	209.3532851207878	2
378.03384827990385	225.6338487967106	4
370.26984696433607	257.67172608913626	9
202.01000599402488	375.1488672812351	6
592.9612866666837	431.10353862820415	7
11.608049936324665	31.78838050092368	5
506.8337269259208	323.5460510328068	1
467.08063216924154	470.41166464155526	1
182.27008260066236	352.3889829204494	1
