533.6570046066341	306.3750269525381	4
500.77753805451766	404.3976411137287	9
584.9364291311416	137.0619458197599	2
346.98769049690526	68.54232099332246	6
141.7708679464036	25.00765950928077	2
461.3215153510786	267.4727015263452	9
268.3042466322621	134.55855761833777	3
469.6467301662032	202.90330333322672	2
262.48920435891324	114.39156513734895	5
608.5949312537005	545.3982853583292	3
253.93822375326056	93.62189036067963	6
234.89606572092777	228.3739497540723	6
307.4954344796473	332.6258882073015	7
431.1121187152394	207.0364795967261	2
401.01477949234334	135.88319711157723	5
210.9404629169905	26.295749265090947	6
606.7505292946023	190.58287495763494	8
441.50414626456495	34.0104062469332	5
183.77094408394476	38.11022770170581	3
434.886251532036	397.35685560906995	4
194.95713578272353	109.74806413219983	4
496.62359386643584	31.805413133125132	2
558.6844545835581	396.29467239664774	7
559.5373171156297	297.2541104506374	5
550.2007984749057	241.21691157782737	4
568.5991235104088	186.08818249231086	6
493.07396525649506	454.62534301304834	3
444.5655243957666	177.25167843438888	5
319.55321329060064	255.41107805106802	5
538.0860657224196	200.8527845784456	2
366.0606954481068	430.1479075725629	3
487.6525575437058	485.64678968872227	3
514.6405025645502	167.16725544110528	6
585.2124310661686	470.06179302406815	8
159.99081789799152	106.05426948970138	4
351.3429653741374	72.21362478328189	3
428.66589760581934	215.63567207770154	2
363.7237052277709	423.49526818730703	4
578.2954980821805	128.4183201059455	4
552.6222819605981	142.27960320072924	2
152.33951561969093	27.153681674094972	2
462.2835678184808	194.61334083624968	2
580.3136196317494	114.31666410216957	1
508.9968031163401	200.31635636251733	1
246.13529260473427	292.89296858265016	1
315.7980215674342	87.2359659781288	1
298.1299794533545	280.4801944106926	1
420.70202161978233	471.5159173754557	1
426.234375	404.0	1
502.234375	174.0	1
531.234375	211.0	1
250.234375	165.0	1
211.17674302796033	15.662164577322745	1
213.26503170904198	42.80991651134884	1
131.82177314685816	97.10542037940102	1
