527.1717169705717	277.3301041788677	7
494.8343168031294	383.8745079142417	6
191.1649870683732	342.71130012150667	2
276.7734375	212.5	2
567.4039370596801	316.21562829077186	4
247.32931000369885	324.41082900367263	4
189.456944421647	246.08557677596013	6
290.8261901536192	385.019173563085	4
514.771205731164	425.4068749901901	6
207.60239442402022	284.5051907761975	7
491.7858580132903	323.5631158274397	6
594.7969709259903	351.5975431334147	7
283.3886512702685	314.2931366529853	6
312.84583119693445	272.9006350510664	5
74.11763491274854	31.490545119743928	3
413.8422445056324	411.1245331237531	7
253.49975195641906	127.72572265192372	7
456.7734375	477.0	2
159.45945399837544	285.1303710045031	4
39.450086428191	135.5973226650254	2
570.0495394331633	275.06419126001305	6
214.70392165994235	109.50413807193243	3
88.46001863436541	63.220499171400235	5
592.2774003312168	466.06624096014775	3
131.2734375	189.0	2
395.68207664086606	313.1201730635055	2
516.3998649436191	240.3420152623452	4
135.7734375	135.0	2
340.5457293336208	149.312572675974	3
266.0395831870756	366.47413727169095	5
332.7566058100414	194.13462221339353	6
245.02081540520797	97.26518025944739	7
430.7459502508947	450.28480347375836	6
284.22223382280396	60.8691749364556	6
338.7734375	398.5	2
216.60550501091075	326.20694178275994	7
240.90442616723976	15.884138545276205	3
543.9447931870224	309.14579166025544	2
257.00172263084096	290.77526781523284	4
453.0032554212388	104.08822525638641	6
292.8750173346213	340.26848548689236	3
300.6516527668907	233.2223669921507	6
607.8664132464926	300.55594945089047	2
37.76415645538282	10.135614271183147	2
390.8020180773094	365.7577798511519	4
366.7012835158067	372.79338639798004	2
130.02538084396485	124.59516199386186	2
187.2899313123467	83.24443236122528	2
222.52442104797507	176.97123843562687	2
275.7850621676198	197.68320341447213	2
208.93762179061505	103.26320636459243	3
585.6701285046558	153.88613101894168	2
467.88885469116946	424.36607572302455	2
537.3290851077277	305.2605702901286	3
512.9833378840424	246.23126634866904	2
575.9466392878994	240.06054777658102	2
608.653901633097	258.97515002308046	2
422.54710578259903	269.34551619379147	3
334.76415216958804	139.14609939990768	2
440.63794726421406	294.638640259329	3
287.01929583111183	320.16050428711833	1
558.7809227334847	448.87644252961996	1
54.3193235583105	31.46330204646869	1
129.83124692756735	69.21926450223111	1
504.2445336334659	463.55931681797205	1
66.9046441198533	149.97507308816742	1
14.465808446758277	72.36559470687799	1
341.68414304687127	162.56039390675488	1
282.9526470930048	336.657331897215	1
392.234375	291.0	1
484.234375	293.0	1
573.234375	305.0	1
473.234375	417.0	1
410.234375	479.0	1
169.234375	302.0	1
147.234375	262.0	1
517.234375	354.0	1
309.1725057746543	15.459538274605103	1
515.6677479829607	457.1606318347509	1
290.40021102844463	376.5501822600243	1
142.07767021654308	50.09062770420576	1
352.8893227708672	237.18597431825697	1
434.5788381356678	270.1252959052378	1
608.4984514929852	247.72655722609085	1
516.2683535004684	343.9093762600749	1
608.4984514929852	184.48305977908763	1
470.15330450421	293.841607447864	1
182.9224278989434	133.0977181033975	1
175.01699092815622	169.98975828081603	1
26.13126131166482	64.58392920247734	1
293.59854548996356	328.0985018983241	1
606.5330374682968	487.6811817202647	1
239.46118775663166	386.9986151715649	1
401.3125	471.0	1
550.3125	439.0	1
557.3125	509.0	1
547.3125	488.0	1
426.3125	282.0	1
426.3125	225.0	1
340.3125	262.0	1
264.3125	298.0	1
146.3125	205.0	1
181.3125	223.0	1
72.3125	109.0	1
171.3125	33.0	1
93.3125	225.0	1
374.3125	364.0	1
