458.654702229516	492.0315061842864	5
429.7860571860374	261.12467826676107	4
137.32533723405848	56.92494032422768	5
483.8264526120443	411.56941574450514	6
202.79521166622663	155.2810232174043	6
528.3043204647929	413.3390923453494	2
171.42202587920337	97.78499392466586	3
225.6329876762615	226.21614785312005	8
594.1242282941522	299.45368613422806	3
427.04942256181664	488.27574280463284	7
500.2470537556203	242.48418881976306	5
460.7209726056477	129.90926321191296	3
462.5477033612474	309.47448646152657	2
169.035818385695	139.4485468820848	7
556.9187598180471	250.97579744024097	5
509.65446559382474	450.46794192581103	4
371.88314566729156	189.46573511543136	2
332.62815862607846	32.0965920348722	3
63.58029543721999	99.43283582089552	3
301.8104873961562	245.07896982084827	5
177.31871611863224	276.717126218133	4
515.9066979208407	484.5441165141877	4
602.3942302220898	203.5847539301564	3
368.75863703653494	430.27515442013424	4
300.4672191891633	114.10739052902714	3
296.4672191891633	302.715920348722	3
137.67598771331868	144.22430133657352	2
217.14424389846138	301.6969285309407	3
595.1702668657355	388.4799385773727	3
449.84597120902123	458.39958281609324	3
523.4907268385159	390.84509909172783	4
485.9226229740418	124.27273627897762	2
367.703125	517.0	2
543.3667076812583	424.1849065156715	3
69.29083204438075	33.99037315063998	3
536.1586137409645	475.2324577149998	2
451.8837648161549	50.37079757547015	2
149.74338730247433	283.31406787757135	2
584.9921691986533	76.17216183720075	2
381.12128054182676	353.90607721521894	3
610.5097160672608	447.60885424983485	2
417.45992571505303	86.02803645730137	2
310.4085580738425	359.57202298395083	1
471.456322676207	282.5932236972459	1
357.00099311603606	298.79928670497327	1
130.2835793695975	189.9314702308627	1
546.5868216826001	552.1263669501823	1
337.8830742100338	247.35261239368165	1
264.171875	337.0	1
371.171875	297.0	1
465.171875	296.0	1
570.6161893335425	15.338587410487943	1
563.4618013381297	427.9082928649348	1
522.9202693641234	247.8561959758554	1
187.8564315789548	43.95613923391778	1
391.75648944822115	413.5995169532199	1
609.9653233083133	33.22455730013159	1
509.80389137253326	565.0340620188695	1
564.6541993373652	505.414162386724	1
596.234375	308.0	1
433.234375	271.0	1
348.234375	248.0	1
327.234375	305.0	1
386.234375	363.0	1
515.234375	115.0	1
233.234375	363.0	1
585.234375	273.0	1
442.234375	208.0	1
303.234375	370.0	1
332.234375	129.0	1
406.234375	118.0	1
162.9004876739129	134.24342206493307	1
283.84375	98.0	1
300.3384847176145	218.64204131227217	1
456.0381058479417	97.17424058323208	1
321.3192847280841	37.54459295261239	1
379.84467423097306	435.07557715674363	1
596.2781901284492	408.5735115431349	1
