349.0200374882503	443.69576521367986	4
538.9157053281765	377.26537436031265	9
473.892216840638	539.5827134502347	7
330.94181602812546	400.3760393000256	5
309.435172858005	260.17799945667025	10
208.36212524361747	137.6562354865173	2
556.8683678482776	20.747739196293594	8
596.4497686655961	15.181276243346595	2
559.5809570905911	567.4625972902662	2
251.3907534053058	358.8070281643876	3
452.6835257436104	437.0027715467402	5
555.8541793289165	421.8187445140036	6
505.68808731594396	339.5786948376825	2
405.35868271589584	486.10073069153185	5
530.092937234527	547.3041900217793	5
537.4674043290199	336.65554827529115	8
426.7067838269242	350.2747172566966	9
499.01865274832863	99.51579839975093	3
529.8144715493438	589.0154399539344	4
465.98988181326854	486.35101048460433	7
400.02441132721646	274.7528257744499	7
273.3910682487841	251.67864715542476	6
571.9932465659232	402.28218199150155	7
548.9825080808595	105.79381615189627	3
339.1203368814379	31.92008396739949	3
361.14969543685135	378.12540705038793	7
586.6307499030288	365.8281262067883	2
452.1304831085147	332.0188206892593	7
282.18382601294996	78.35098916021154	4
289.44354789554535	306.94544369209063	8
532.6247192182275	132.01643690228147	3
306.05607397646156	31.73662845935908	3
533.030314963305	67.54406119235972	7
469.1444397685558	33.66804374240583	2
212.9636304285994	47.340261716792035	4
374.3234110703232	406.3650060753341	2
462.580070448062	126.5123176847458	3
477.22717427542443	401.8005803573892	4
351.0536781586892	450.4177718156312	3
492.5317172654107	598.4876805121983	4
490.66688442355104	364.48715186951836	2
387.12241323390015	115.67817759757367	5
415.8886659053294	399.7786670504241	4
545.8226457572152	114.08516694876135	2
338.73784033794897	134.62171103246652	2
246.9201136599872	13.479262858610646	3
316.1091097009137	113.33098233393636	5
341.73984764124816	318.26749744912127	3
180.65826434598415	142.4266592310296	2
597.1303962941602	138.25180318314094	5
512.6684770037241	31.687212761811654	5
407.9327740074601	395.9334177500087	2
351.1448673207438	240.5769610279939	2
316.937168637564	68.78192641176614	2
173.2189468505805	23.0371259865251	2
266.5572793892442	255.11783163569254	3
587.0438397364771	332.72401437993176	3
145.63897456733724	52.60880679435479	2
388.997971488438	9.359528103533085	2
415.95881855568484	435.92876237316545	4
266.4737954548717	153.93201269427175	8
521.4044978523661	162.20716639815714	2
221.89274904770838	110.85405278775573	2
506.1735052133184	93.33804466656255	2
314.2671169155892	372.76330411622644	2
240.30243702122374	121.90633291220388	7
265.68018311661643	410.57969916137046	3
273.79145041839865	32.763667265620725	2
315.5247539912547	161.64216145700476	2
273.94026119584737	355.47243685521414	3
534.856328890639	395.16778605389726	2
128.75682999586198	112.51530532562862	2
340.7646179736689	326.8686553178198	2
345.80050663857503	250.02119765322922	3
559.03611413408	251.38481166464157	2
543.4984729692051	215.6830315421926	3
289.4088636925317	362.9454906395403	3
242.6570392772644	240.18248961378674	2
315.4845266561648	137.2479453915642	2
596.3125	333.0	1
366.3125	87.0	1
332.3125	25.0	1
173.3125	112.0	1
144.3125	159.0	1
477.3125	191.0	1
559.3125	201.0	1
400.3125	289.0	1
216.3125	199.0	1
404.61074585458533	441.5350053854439	1
241.0015785545288	219.19433759039853	1
410.234375	173.0	1
364.234375	445.0	1
289.234375	200.0	1
449.234375	295.0	1
341.1013579775504	222.4807121661721	1
582.7430826914634	89.4180852725285	1
559.3240609130224	143.7076370451351	1
389.0039025243613	448.1549273777917	1
414.55192628266053	464.12244260502894	1
326.19834411854254	306.57629236295486	1
357.0688728264874	306.57629236295486	1
283.61830452137724	385.3493674839919	1
336.84335401783386	368.31735124160554	1
576.3560767518886	608.8945806653131	1
444.3579540006762	22.354521318132125	1
447.5514569704636	79.83757613618617	1
433.7129441013849	291.6732781508668	1
150.55568078023572	17.032016242386383	1
233.9043854942478	114.03714743071721	1
362.036751436006	368.79298974000307	1
312.29124465861753	22.083855236241263	1
449.46824819626454	10.024407079588679	1
603.2270873263744	252.72080123222193	1
601.7196477270596	487.88004028694735	1
360.5293118366912	294.928869780506	1
464.5426441894126	365.7781277008399	1
575.0697360644399	314.63302046468687	1
181.77846851622712	57.68272041852593	1
325.4608782605075	160.46284043699032	1
495.791200604621	568.6901579586877	1
567.5676216930698	526.7285540704738	1
207.5812636186961	344.52685297691374	1
