449.2124842406709	395.63185371390045	9
404.41773360707634	443.2844231502051	7
559.2372116814697	207.6640945941936	8
250.48076892625684	517.9074594756162	7
365.08091072265	287.24467605368625	5
73.49014536823151	89.23618581959245	7
227.21572158727918	49.96079329191954	7
502.4822631540472	26.4187682649565	8
105.06295407568605	336.87894704582015	4
87.46599127705433	146.5837972322396	6
24.275727158624683	92.82648845686512	2
206.6296472989542	485.18426562005527	7
116.66211783125722	373.22539662832713	5
557.3547490305486	129.46121421008138	8
420.3947723727477	302.4253355474669	9
464.0560293378877	58.12753324604635	4
567.0474298672577	32.072964409760644	8
304.6461621266114	361.85384635525145	9
72.92421537129911	328.21657816648445	3
451.0750393609777	482.4604763980432	3
56.115006698223816	119.24640014866209	5
61.1914729616001	365.755504233939	7
23.034561475073247	42.534265605676566	4
184.60183828964173	400.2776770656753	6
157.17857867239948	442.6919803217242	3
481.0364634694318	392.2441154775783	9
243.45595191123485	329.1679049559385	5
209.73056797566596	369.15870337882154	7
313.42190713359287	395.7555202897943	5
19.504614447759828	117.05078979343864	2
474.30779813906435	158.01764184617917	6
319.684182914223	105.06312632728924	4
574.7326858239484	242.01901467293408	7
307.6202887559598	142.93721171102018	4
286.3054785410085	440.75652598863417	3
455.3027875387103	313.04979140293256	5
91.44130836718239	392.1529525478735	4
538.2724338450993	56.79823077024489	4
210.91726144424825	13.50338404627238	3
567.7270633820858	64.93756583764004	6
141.1309199534336	245.05695063579896	3
224.78645037408535	126.8124667412697	2
279.09957636839437	219.28318311197734	7
568.4543961860529	445.5000126952945	2
440.39209040835806	178.6142696169581	8
442.1543114327603	20.563408897219162	2
537.3990989167206	443.35747266099634	2
422.34739099661124	123.28393982620162	4
351.61878562234256	381.6012805358363	2
154.13625192038322	272.99651829029153	6
20.529926974377634	251.10052688318754	3
99.8600251985091	12.433210112437802	4
365.91706247970416	8.883304727072002	6
521.9724081275364	309.5340809925633	3
307.7752515613399	201.94265786325082	7
432.1006859978312	511.4106308289951	3
146.60249356133244	28.422371120463165	3
418.85014790617504	253.70443692004184	2
517.6469309861818	455.7679256514973	3
375.7600192007145	41.50113963305945	7
475.00789228003566	266.32035984585286	6
183.77629231248227	337.5769753992139	4
219.56231694509336	163.26682867557716	2
337.5037174695701	259.7168684266507	4
513.3032686404131	189.1079348010283	4
48.197208319089135	326.69574776198203	4
315.28222454230223	237.43878380217052	2
384.642588805993	114.3520706139228	2
451.37442718674316	280.78426934155766	8
368.12669035210894	446.36118496247104	3
532.6103339587763	336.6095781727467	2
408.06600725918076	21.72728920924635	2
502.1589235426119	290.8817744816018	4
277.61702244726985	391.7258261809233	5
603.5596547781008	267.4252866709512	4
307.0349025287185	534.9879120630355	3
266.00064016619126	296.1987780613439	3
504.6806416268259	372.44432505024463	3
235.95954622943822	114.28304787167494	4
424.6180298766956	224.48829665256727	5
547.9397394531672	366.8162947167357	2
208.38614168031637	226.36642177176287	2
212.77204264933926	410.8566040119898	2
304.2878268593855	481.6545140905983	3
578.1132539443752	296.73675293009126	2
606.9826461550467	103.34476324949613	2
588.650997765378	23.821047469199492	2
571.3198913871586	492.9799333567261	3
609.1755966395582	72.34437613672876	2
599.8247585693124	389.40189630170937	3
471.20763936642606	355.754423787325	2
345.3384728273018	354.6975480993053	6
580.7226411754599	131.70483450668343	3
379.0819076069211	410.8397044292535	2
345.86818146359803	560.4637669842261	2
352.5294339384209	419.20669998438234	2
544.3345230320427	444.9807121661721	2
237.7768492322477	177.35358425737934	3
109.4067898364998	407.03744338591287	3
433.9804715557279	486.77073246915506	2
528.9475170924679	499.1254880524754	2
336.2987131240047	240.10003634004337	2
371.2447294990655	476.88552042832293	3
472.6737398694168	510.9157426206466	2
393.58106999137004	391.63430545637686	3
189.55604570884225	451.6097141964704	2
375.256775036667	262.3595760568643	2
148.94680963508245	344.9491644541621	3
418.42097019999824	29.82446965834097	3
257.398203663507	417.7502696469171	3
406.60289618664916	607.4795408402312	2
491.1506852888499	542.8832578478839	2
253.3125	331.0	1
474.83499234423965	474.44822739340935	2
476.10061734423965	319.5784007496486	2
481.84375	266.0	1
454.4957855262263	132.74672576209247	2
435.234375	497.0	1
126.234375	360.0	1
313.66450683552216	163.37108140947754	2
345.61284263494366	29.814823815309843	1
521.1890111436105	341.21409477521263	1
373.2191584381932	374.34167679222355	1
346.71709526707366	431.7628189550425	1
530.84375	36.0	1
219.3125	401.0	1
424.3125	555.0	1
186.234375	326.0	1
539.234375	431.0	1
550.234375	200.0	1
330.234375	541.0	1
235.7157599745663	47.9025456817117	1
292.13431244081033	113.90160862095892	1
365.58488074592043	112.83710760580978	1
144.16867484066094	426.8649070748087	1
252.7477758134324	226.7387162267687	1
245.2962688839285	261.8672497266906	1
288.94080947102293	250.15773856004998	1
270.8442926422277	255.48024363579572	1
288.94080947102293	272.51225987818214	1
394.326407474007	243.7707324691551	1
503.9700094367076	199.06168983289083	1
462.45447082947146	232.06122130251447	1
489.06699557769974	220.35171013587382	1
493.32499953741626	237.3837263782602	1
606.1621044699043	369.38185225675466	1
604.0331024900461	331.0598157113853	1
572.098072792172	469.44494768077465	1
20.686560008881607	106.45010151491489	1
26.00906495852727	79.83757613618617	1
5.783546149873756	51.09604872715914	1
188.8777164176845	7.451507106044042	1
301.7148213501725	32.99953146962361	1
315.5533342192512	77.70857410588786	1
321.940340158826	54.28955177260659	1
38.78307683767685	288.4797751054193	1
4.719045159944624	168.19116039356553	1
511.42151636621134	522.6699984382319	1
434.777445091314	550.3470248321099	1
463.5189718194006	542.8955177260659	1
351.7463678768417	572.701546150242	1
397.5199104437944	579.088552241137	1
378.35889262507	593.9915664532251	1
615.7426133792665	201.19069186318913	1
45.17008277725164	188.41667968139936	1
69.65360554562169	203.31969389348743	1
86.6856213844878	212.90020302982978	1
111.16914415285784	243.7707324691551	1
86.68562138448779	251.22223957519915	1
73.91160950533822	240.57722942370765	1
284.68280551130636	508.83148524129314	1
274.03779561201503	534.3795096048727	1
333.64985104804646	510.9604872715915	1
353.8753698567	522.6699984382321	1
400.7134134135818	530.1215055442761	1
376.22989064521175	531.1860065594253	1
395.3909084639361	547.1535217866625	1
177.73120114410156	396.63493724218694	1
169.38441514945322	232.08401425746536	1
463.7631674758845	363.3119040027825	1
429.38781577228923	460.51117358917134	1
34.61044958873991	195.4527339003645	1
109.69962857357858	77.29769137302551	1
36.81895485299987	378.758687727825	1
247.7312075898261	112.63377885783719	1
240.00143916491626	188.82721749696233	1
344.9054392172644	344.52685297691374	1
21.171875	262.0	1
67.171875	412.0	1
272.171875	39.0	1
