449.37370830376193	430.58990312714155	6
478.1561584830962	158.48361401910148	2
411.39216343967996	105.89585812265881	2
590.4883884674902	248.64925557237942	7
519.6647414760005	119.35175439521758	2
397.82078923608134	200.84598968095247	5
439.54866330468053	529.3158575341367	6
546.97107620267	104.83536560536372	2
451.94780506967936	290.3226929807137	4
496.1204166803272	132.67356413024726	3
459.85500349457004	245.5336863348403	9
414.1318088672897	181.4821949044886	6
369.2788088773938	202.06584884603967	2
285.3519787922535	355.7359438576248	2
262.42485192233676	151.61933926764073	2
596.7044690582703	62.78872227585431	3
237.53509749360967	23.036544083705188	2
364.342524281621	264.58402106883386	3
538.2294673353421	298.63887037425206	3
290.7527271257902	309.7493057898425	2
248.09756280060435	289.3723032424189	3
163.07328177710804	187.22317234578153	2
215.19834163296446	96.60885870122725	3
410.2734375	327.0	2
212.01439787200857	162.487283627021	2
526.5838036803171	159.12260798950064	2
428.2874065368159	300.6440072808737	3
570.7555207591739	506.4831053901851	2
151.99258972292785	118.77681182119585	3
477.7734375	471.5	2
169.19592995539745	34.36916409311499	2
569.6808561006571	545.3036221020024	3
341.4036206667047	457.13332820433914	2
596.074575314891	201.54985724357712	3
214.9838795022597	152.56070164640715	2
202.9508922102513	197.01419697422992	3
519.6462468319705	24.54403747994712	2
289.65780672353367	128.46336479155934	2
497.59043300393614	103.04676966167011	3
443.1770506449261	441.2701234612783	2
217.90810574706774	321.0131991463968	2
444.9734092412777	164.10277022133258	2
420.63389605448543	466.7408265177121	2
434.02451335534914	127.29654550274665	2
544.9166678428821	547.8316297955755	3
517.3091621056719	517.5403590646641	2
315.4273696187877	355.2275388474951	2
569.625769674979	531.0830299635957	2
492.1652690949361	498.4448973001665	2
575.8680205680064	313.6442849398643	2
424.060074949119	366.89931306847785	2
327.627015525132	389.4926795300247	2
596.024806583526	396.9219479493016	2
322.9474911240696	377.92439092691126	1
357.52272525555895	433.3061012638518	2
500.234375	497.0	1
454.234375	375.0	1
267.234375	236.0	1
461.234375	288.0	1
577.171875	623.0	1
456.0381058479417	408.5735115431349	1
159.52744310849258	103.47909583992941	1
214.71629574401715	106.66306801961956	1
237.0041016160559	79.06864246230504	1
269.9051483795417	71.63937404302806	1
262.47587975552875	248.88049204577896	1
572.382513785782	351.82892585576	1
569.1985415183478	180.9557522123894	1
526.7455779525598	168.21986349362885	1
388.7734463637484	150.17735447538473	1
322.9713528367768	214.91812212908417	1
309.1741396778957	248.88049204577896	1
333.58459372822387	269.04564918381647	1
367.54696458085436	277.53624166299016	1
394.08006680947193	280.7202138426803	1
371.7922609374332	327.41847247813564	1
309.1741396778957	383.6686476526614	1
265.65985202296287	386.8526198323515	1
253.98528704237114	329.5411205979291	1
220.02291618974064	283.9041860223704	1
270.9664724686864	190.5076687514598	1
232.75880525947707	221.28606648846446	1
217.90026801145123	249.94181610567566	1
204.1030548525701	235.0832792671217	1
178.63127671309724	246.75784392598553	1
129.8103686124409	148.05470635559132	1
119.19712772099388	131.07352139724392	1
119.19712772099388	84.3752627617886	1
182.87657306967606	106.66306801961956	1
277.3344170035546	106.66306801961956	1
311.2967878561851	153.3613266550749	1
299.62222287559337	110.9083642592064	1
326.15532510421093	85.43658682168531	1
345.25915870881556	120.46028079827681	1
330.40062146078975	107.72439207951626	1
311.2967878561851	100.29512366023928	1
436.53303037526	137.4414657566242	1
450.3302435341412	171.40383567331898	1
390.8960945420378	212.79547400929076	1
610.5901809949913	150.17735447538473	1
579.8117824097949	157.6066228946617	1
587.2410510338078	128.9508732774505	1
594.6703196578208	70.57804998313135	1
549.0333838245986	80.12996652220176	1
566.0145692509138	114.09233643889654	1
520.3776334176915	96.04982742065243	1
478.98599394104815	101.35644772013599	1
350.5657791545391	62.08745750395765	1
400.44801134434016	14.327874808605612	1
328.27797328250034	54.658189084680664	1
318.726056480198	20.69581916798588	1
344.1978346196709	16.450522928399035	1
217.90026801145123	16.450522928399035	1
242.31072206177942	40.86097630602341	1
140.42360950388795	22.818467287779306	1
183.93789715882073	55.71951314457738	1
589.3636992120972	41.92230036592012	1
604.2222364601231	17.511846988295748	1
441.83965082098354	51.47421690499053	1
470.4954012278905	314.6825837593751	1
398.32536316605075	376.2393792333844	1
371.7922609374332	381.54599953286794	1
352.6884273328285	368.8101108141074	1
349.5044550653944	345.46098149637976	1
343.1365105305262	468.5745724443983	1
501.2737998130869	340.15436119689616	1
431.22640992953654	316.8052318791685	1
403.6319836117743	334.8477408974126	1
556.4626524486115	401.7111566709055	1
591.4863473903866	258.4324085848494	1
462.00480851473293	474.9425168037786	1
438.6556785535494	542.8672566371681	1
483.23129029762697	551.3578491163419	1
605.2835605492678	520.5794513793372	1
609.5288569058466	563.0324137752057	1
611.651505084136	367.7487867542107	1
584.0570787663737	446.2867671865674	1
545.8494115571644	501.4756183011964	1
351.6271032436838	170.34251161342226	1
325.0940010150662	198.9982612306335	1
292.19295425158043	208.5501777697039	1
208.34835120914892	55.71951314457738	1
561.769272894335	453.71603560584435	1
353.7497514219732	410.2017491500792	1
294.31560242986984	450.53206342615425	1
354.7593082043117	45.80901708204985	1
357.3042535707311	73.8034164099692	1
384.0261799181344	92.89050686082331	1
451.4672321282477	66.16858022962757	1
451.4672321282477	395.73900868104175	1
406.93068821590873	436.4581349761972	1
384.02617991813446	421.18846261551374	1
396.75090675023125	397.01148137776534	1
471.82679505960266	229.04508541024924	1
525.2706477544094	372.8345001400168	1
515.090866288732	344.8401008120975	1
537.9953745865062	578.9750770092412	1
532.9054838536675	505.17166059927195	1
549.4476287353933	432.6407168860263	1
596.5291180141517	390.6491178941473	1
140.31901406218634	5.243883674411448	1
155.00188805065295	94.38990613940607	1
566.122359727718	42.99984613017388	1
188.5627428814338	238.07231881827974	1
202.1968401564385	173.04816125557778	1
276.3125	93.0	1
257.3125	228.0	1
450.3125	281.0	1
599.3125	585.0	1
470.3125	570.0	1
384.3125	199.0	1
305.3125	340.0	1
