496.3070576884513	263.97736880602906	5
342.8961355867936	217.21577072239546	5
353.4756115186408	120.63375464937485	8
552.9640718441841	485.3718920451672	3
345.8643565557124	260.32956816141797	7
448.9648114481538	294.59538919037846	9
374.4996018733292	83.80825502868854	7
351.5455845892403	172.53978514157515	10
506.10182617343855	442.6635340333146	9
411.2354363214081	276.72454459861683	8
418.0175200300315	185.95786223462358	10
173.20320869632948	78.63601799688323	10
360.92444250495384	365.68534288386013	9
388.1631833263492	309.60134266579945	10
395.4360477137849	149.66794118668642	8
464.39375833477015	479.17592303856395	10
368.5166208153969	142.49019655031964	6
543.5058983561999	589.2533379991678	5
388.742454297418	345.7983298954074	5
337.0386358345751	383.76431566902187	5
325.76467489652265	247.1544732534643	2
388.9305601711368	485.3385746136334	8
506.58491002197536	327.27413978374636	5
560.1229153584184	358.90953943892185	9
438.1926876356424	367.7470440627487	6
413.22420324290965	514.8260249389948	6
302.04204125690006	349.1014958873152	6
425.3608229938997	462.7856395300327	6
314.4109029884	103.23187997003183	7
403.0390625	432.5	2
323.21673113479983	362.8557408919896	5
491.5718080857144	81.71144444571625	8
198.98828125	165.25	3
356.838430117407	425.63087421991224	3
443.676897881692	138.84279121039685	2
238.906217261459	177.60638416258536	2
498.40089597549127	542.5569332296202	3
262.1588036229727	203.27871133697883	4
591.525940149445	361.14384332499577	7
458.59371178527505	210.98734283042847	5
540.8271283940029	47.79879817654372	3
376.3410442286977	404.93396750971687	2
571.3641060333553	87.8332097173346	8
488.90625	265.5	3
398.9013819381298	456.11258776634304	4
317.203125	430.5	2
543.8777954196447	203.74146734728066	6
242.75915427074656	127.3081983557822	2
263.94849098016823	312.91312045240375	5
518.3862186567816	367.0009314679618	7
497.1359123126618	196.98619727725904	9
544.4929937997988	309.1130478040004	4
292.0079502446697	5.560829272886856	6
352.8432055983876	81.59622815102145	7
602.0360263466125	429.9839427448935	5
270.2565139897837	251.8585294863297	2
419.8201671588736	27.143566773543693	3
550.7773732259261	31.49140918445547	6
613.6421839034217	139.84279121039685	2
610.8246110749571	385.218281082226	2
550.167703986255	301.24138458531365	2
539.9146350931371	95.12556931533607	4
539.6485822064149	140.81915050561568	2
405.40042012625963	232.7990550004304	2
538.8811369224418	424.8997964050836	3
322.578125	103.5	2
499.4140625	481.5	2
400.2421875	442.0	2
507.89527235933605	487.717985909656	2
498.5515752490163	331.0665696982158	5
499.24946404934826	257.0156397968261	1
599.3371795982773	370.0356402818069	1
558.3790364497062	494.32242022378784	1
368.515625	395.0	1
613.515625	339.0	1
613.515625	412.0	1
400.84375	281.0	1
509.84375	452.0	1
437.84375	462.0	1
336.3125	254.0	1
568.9712666390494	444.0449138844967	1
438.5315566210614	64.58392920247734	1
474.10602298960356	7.928296072870275	1
363.4299053985834	415.05831088795355	1
458.29514904802926	287.25374313046785	1
294.91611831842806	254.31442154348701	1
590.0524318944819	22.42159757114185	1
582.5401693258973	162.0035405055659	1
425.234375	557.0	1
405.234375	265.0	1
347.234375	90.0	1
426.234375	112.0	1
449.234375	245.0	1
430.234375	32.0	1
560.234375	459.0	1
563.234375	434.0	1
418.234375	216.0	1
301.33901385088376	226.53577473457457	1
