470.54689002323505	331.5146077672276	8
293.1203988715431	197.8043888365859	8
397.4300527183444	254.2714879481207	4
565.6320645800433	386.93567233055956	9
372.87313940593754	232.82534640948097	5
338.7777438533145	13.142348839554515	6
584.1620641774645	487.6344411390408	3
301.229017254259	80.54076987147651	5
413.92213228751274	9.163499750256449	3
607.8718683751492	162.43609791169285	2
608.565965927595	422.27895058014434	5
462.4417979443914	408.190280113712	8
585.4567933882261	255.73930895652555	8
276.86894290198745	10.429625004043736	3
607.4035663848379	519.471819868118	2
419.9727091885611	295.3435508184872	6
451.42074365368455	524.3657048509106	7
410.34677973777724	405.70329101715424	4
553.8011288603168	526.4600595054121	5
267.15244193274043	157.54498858158544	3
561.706453405533	568.2272506981649	6
283.00376081284264	359.33840874442603	5
338.1435349423399	195.13782200912402	8
521.9124512845924	435.7203985833945	4
334.2298456970313	45.74239506398078	7
253.99107540671622	134.0635639543964	2
505.02243549134727	287.30684363480674	3
322.7869564492697	155.37836304912207	6
529.2734375	429.0	2
534.1299598694172	298.566949443542	3
438.08581314274676	338.06097641047285	3
431.2700392942479	455.77962009202395	4
250.5239203370778	225.26616729294383	4
207.97484350938106	149.38660599062692	2
368.6939619749595	172.56290091297245	4
488.0229335507794	473.14118891526755	3
583.2372370540422	495.17652680612946	5
401.3111193546124	248.15720247885008	5
561.163023902949	532.8554824042573	2
524.7997033800251	411.35864804499084	2
377.4512106278173	197.07450799828737	2
225.51812198008543	231.68351338782298	2
437.6180823771225	256.6701001151995	2
492.3694706278591	255.24156086463876	2
237.3125	261.0	1
377.3125	377.0	1
288.94080947102293	254.41574262064657	1
361.3268767862039	13.838513196938935	1
609.3556074396917	215.02920506012808	1
548.6790510137312	22.354521318132125	1
203.78073027669234	15.967515227237232	1
320.87583916889685	126.67562080274871	1
544.4210470540146	340.64032484772764	1
612.5491104094791	340.64032484772764	1
276.1667975918733	124.54661877245042	1
272.9732946220859	32.99953146962361	1
417.45039136562895	287.25374313046785	1
370.01776954090604	221.37509995650618	1
310.72699226000236	155.49645678254447	1
248.80106932216967	275.3955873591548	1
607.1808786645207	511.2411299219376	1
586.234375	350.0	1
556.234375	323.0	1
192.234375	70.0	1
525.234375	367.0	1
