517.1054448232155	112.03905152976775	6
255.29967260020112	382.2212612035198	3
565.0758657087565	414.09728352323856	4
254.4951201910244	299.6854305757956	2
521.9415745180197	463.39400624031646	4
375.766424823272	215.90359353289008	7
368.31330781568874	286.62482074209197	5
454.9347839138826	211.47310909315115	2
411.55582282489956	293.1426051963201	4
110.8762672338537	21.029327699817895	6
275.0304237853826	309.312949088869	3
204.30354381542372	199.91179973889385	6
194.8845113500123	223.913013811661	5
198.74915982081842	242.74038107215392	3
506.4401151342974	293.71891493642966	4
485.555811025602	269.966954074409	4
282.5554003092311	368.6726106344611	2
190.0564635314717	21.524953600758145	5
432.40190810469466	263.0277621830595	4
277.05859375	354.5	3
336.578125	70.0	2
395.30090735808744	250.99709520690817	3
86.18490735723614	18.69540172500846	4
322.203125	195.0	2
275.6198980821488	396.92838676589406	3
562.0265083662207	229.22996651639514	2
524.0889588584422	338.45858237923073	4
307.08536240529065	15.987696955421978	2
466.23048086332784	8.811595034285546	2
454.0939701065759	251.02429698424916	2
442.84338311154534	357.374604645823	2
406.45858390589	198.83048643704433	2
107.7734375	205.5	2
399.3006186436379	311.1945683951377	2
382.234375	122.0	1
328.234375	293.0	1
215.234375	194.0	1
499.234375	301.0	1
348.234375	349.0	1
237.234375	399.0	1
223.234375	251.0	1
131.234375	116.0	1
373.234375	33.0	1
470.234375	79.0	1
481.234375	131.0	1
375.234375	355.0	1
330.234375	265.0	1
576.234375	136.0	1
398.3180855738139	62.92660409293738	1
204.29439358336228	17.829204492998922	1
275.61121009877155	280.0233882135713	1
530.4639514700134	395.3888290506232	1
542.0004953180943	110.12155716264041	1
571.3662432950275	120.60932451146331	1
409.8546294218948	352.38898292044934	1
589.19544742388	428.9496845668565	1
144.3125	39.0	1
111.3125	56.0	1
572.3125	26.0	1
599.2337231206444	127.4239987189215	1
428.72080922997134	203.73747024806775	1
487.14831119250965	340.8632394020024	1
450.1839732162099	29.647363322202864	1
507.4190771795127	367.0959952401464	1
547.9606091535189	473.2194165853654	1
547.9606091535189	499.45217242350947	1
248.66871134541452	290.7825237110002	1
38.171875	11.0	1
69.171875	59.0	1
103.171875	70.0	1
51.171875	181.0	1
353.171875	395.0	1
564.84375	135.0	1
165.0533841845475	246.70376520825567	1
467.19621076353644	232.84400311790424	1
255.1418416507598	253.63364625343138	1
239.89610269493926	245.31778899922054	1
235.73817388880636	310.4586708238723	1
