381.1208668098634	332.6364483332657	7
563.2167708572669	121.56400590859602	10
546.9509161135662	337.49243536580707	9
400.41570517656163	213.22479081691648	7
480.3705881703537	207.1655958367552	8
454.68939745213845	117.44741841371545	3
421.06006844154854	303.6756462905996	7
415.0451905061792	143.0196282708898	10
561.6419544976159	552.1828311357773	4
354.0318700066736	311.5250446768132	4
273.0293721106473	218.45937687287733	8
330.32780570414025	222.3498605768164	10
250.11665846453047	90.73600029102903	9
463.96298062702067	88.50770639016537	7
577.4764261734674	194.40888004732096	8
509.9412409209139	281.3631634065116	8
535.8584689157639	116.25068806388433	6
489.93213724050736	419.7084084800126	8
568.2452399892145	357.5310158158684	7
396.53047051158444	296.90644669474585	4
577.3891551141242	85.43118682563954	7
222.40379685341634	128.96347794477833	4
587.3212399696239	529.4035728964957	5
387.2458886279826	447.99333037361066	2
606.7431216654229	14.378252348361492	4
509.76692915954897	502.7323388766076	4
548.1460566232918	36.205942483502156	10
467.70708572508204	283.90899587362856	2
509.26967406433016	318.9524433031494	6
341.2946770254771	286.3458734692389	4
504.61889444184663	539.2374219297019	5
601.0190561496697	170.75677251097733	10
317.6283259953427	48.69365198230691	3
403.5113398605872	118.82098665078465	5
252.42740665450856	28.746364658484822	9
301.34409763296986	143.53783759193306	10
379.0340124639664	381.77808992746964	4
545.3026177705597	532.1059647658371	7
505.4416516584284	16.016943680777974	5
367.29827048315167	159.98915621417666	7
496.53275288729054	50.28941178652532	10
437.3795095747103	47.34721439892536	5
225.6784381598025	47.772852500619976	3
400.35718850398746	25.162086094864016	7
274.1935249920448	146.7481400894428	5
465.2102266042823	343.6240176936441	2
436.67051636230985	475.26350929636124	3
356.89312147818305	4.540045036148635	2
419.08881732957195	367.56176316154904	3
307.80215242648063	313.8316233672502	6
401.54603842031986	104.05380932953545	4
351.78662683840264	51.520651874335925	5
506.74812418833415	506.28138010419934	4
598.0570566587945	494.31542574005044	7
421.22002165965876	417.5322260348571	3
542.7885048782246	68.36855974086441	3
458.7054291205711	95.26811817202648	2
471.39543336877966	279.2900591181128	8
557.2734375	483.0	2
593.2202853012795	445.88348488805707	5
401.07868462638965	272.5846902476256	5
345.5714865936285	302.6214032928143	2
465.3756296386975	135.89655331883247	4
529.3491632350067	120.28027388829051	2
404.8690772281914	378.4682421896882	2
426.80839461226634	45.11526229641852	4
478.72729882538295	419.2309586090168	2
396.8656358711945	223.02865014021094	2
419.9123163586404	316.7566931279281	2
600.6116622749237	555.4913221074701	2
603.3900540037957	240.06934645434734	2
467.9153017473511	271.5430119867817	2
554.4779655259397	397.9298636627235	1
321.85604312528704	58.47208108867158	1
226.8389081360726	185.85768631756324	1
463.85967343883834	2.0882886103096996	1
402.234375	425.0	1
279.234375	231.0	1
359.234375	163.0	1
525.234375	285.0	1
559.234375	385.0	1
493.234375	334.0	1
402.234375	259.0	1
365.234375	49.0	1
583.234375	275.0	1
592.8699538422057	604.5441427803826	1
393.0742020065044	19.926757962763503	1
494.80554321230875	19.926757962763503	1
534.659058323861	62.92660409293738	1
332.2451526257142	280.0233882135713	1
494.80554321230875	345.0475457762733	1
548.2931555988657	479.29096784120634	1
581.8540104296466	441.5350053854439	1
543.0492720315561	389.0961686413295	1
543.0492720315561	429.99846130173876	1
288.3125	318.0	1
211.3125	48.0	1
607.3125	216.0	1
376.3125	390.0	1
556.3125	437.0	1
420.374023235323	495.8749784455807	1
346.44534728272356	34.4169552927745	1
