402.1042161846685	395.8428037523537	9
452.44198661944654	41.103464136232034	7
505.0612752250098	230.9931751521537	8
310.1734828198886	37.83567612130451	4
170.073340036677	49.08550885081269	8
562.7653118444614	618.6268899760132	6
483.45451090106457	293.5678534272252	7
367.8944179415844	153.48047264259722	5
163.66983554443243	87.78128522796372	5
458.5533720783535	69.85130095228743	2
324.7846145549282	322.2506265739326	5
452.59625177081034	308.4820732433367	8
323.402108813758	169.36515609729645	5
263.52286894061456	16.522449789920145	2
545.0831059362545	372.2840213708134	3
587.2174197250531	432.1313774825331	9
433.2741583244581	369.1414467977591	4
547.0123256372603	157.37369145519637	4
376.46931110828297	471.6433083253558	5
236.42715841666845	139.6190386225341	9
538.230394286907	110.8550627290841	9
220.77005551594473	167.77488782307213	7
461.05668749010636	491.53801054050206	6
588.0770743467689	588.8656074989859	3
444.48550825746975	251.95814328275748	7
584.1505826803527	238.3067703332139	9
269.02668066206644	249.4230588452564	7
497.4746024871848	153.22185845572983	7
514.5618725474252	544.2865741552962	5
259.6318850432639	119.17007622238779	8
160.81709264395897	116.34563306034794	3
229.61993095582994	58.39783939723873	7
548.8885171122483	571.9611482262046	5
588.9812265038518	504.8669864348309	7
267.1103558193626	289.54074470257177	3
399.2026976162276	207.31831914037468	9
422.7801510974452	543.5495949871283	5
407.47552726740344	70.49923753502566	9
306.5974528886648	381.38145122123126	3
307.84278267020113	144.7662358051327	7
471.855084790931	249.0118184458095	7
481.1911329148299	427.2586970209992	8
463.2932818535629	223.36377679329942	9
268.8604981955382	33.92454298952393	2
467.61131226795305	76.94539461365571	3
539.5084488044363	566.8774356921592	4
399.65438050147884	516.9179737125373	2
294.5869614041985	232.3464956623555	7
336.7830721714861	72.2658963726993	7
436.14654801293784	476.72105685066435	5
469.4751221464691	334.7035273573724	7
318.4779044901816	42.83096056537765	3
319.5073806372506	216.56178286570164	8
601.2237104495139	333.55801673917176	4
285.1870852118793	75.86061930208035	5
362.2754238114096	396.4837910370536	6
300.53507103299273	51.512599279799474	2
312.2284772184046	288.1070922242594	4
511.3480590012882	313.4036339445712	2
338.39133537606415	154.864295642026	4
458.6406487042107	76.81737540238458	3
337.40989795653354	425.52263102853004	3
392.176818319419	508.28521885349977	2
430.70378528217975	361.9227112177924	4
609.4535637159338	96.3423295664414	2
567.9797924228268	391.8887548620429	5
520.5029316300258	528.6448617876927	3
453.8322183978803	17.848104573266653	2
527.2826816832446	394.20203663117695	2
590.2636879254019	331.30427758116633	2
605.9758748392702	270.58439759963073	1
292.39163751416197	376.510847822742	1
260.92833611030494	5.243883674411448	1
287.14775394685245	271.633174334513	1
595.4881077046513	570.5345437759655	1
575.234375	501.0	1
464.234375	346.0	1
413.234375	357.0	1
554.234375	611.0	1
491.9179213840011	229.97022608621177	1
437.40873140174614	356.7335415833505	1
490.1691173777642	7.009545040425533	1
265.5606170798587	273.82483550636397	1
507.7137357415527	149.3126356371435	1
388.6812809198994	461.51178287844357	1
292.5	66.48333740234375	1
347.5	77.48333740234375	1
315.5	228.48333740234375	1
292.5	244.48333740234375	1
330.5	285.48333740234375	1
348.5	391.48333740234375	1
481.5	324.48333740234375	1
465.5	15.48333740234375	1
599.5	322.48333740234375	1
573.5	372.48333740234375	1
571.5	404.48333740234375	1
527.5	404.48333740234375	1
444.5	468.48333740234375	1
401.5	499.48333740234375	1
