301.15573306404406	46.13227668389871	6
501.51805612784165	456.2626002736673	5
588.0181735383829	362.4972107503527	5
283.42645646064807	107.39826832268952	4
284.86973597516396	168.99956536506255	7
365.9261569981143	430.8611329149106	4
442.06879572510115	505.89927133666407	8
468.3724404038635	29.79746895849091	4
374.20626079903434	64.74349263092014	7
512.9609286008388	226.9536874496437	4
525.0541537099284	117.50316435666278	5
579.4797761967459	303.91248831266586	7
570.7284579459042	442.3768314849873	2
441.9039149868063	557.9005321208114	2
399.5521555816002	473.76704480559425	5
459.4536799041148	290.4268446078488	7
550.5429668382151	289.638665975884	8
563.0521504478156	570.8625220840258	2
447.0284494856595	102.36391853705116	2
440.36274527189136	463.6505532136881	7
535.6430455504023	575.1125547308676	8
322.7299916626363	33.48473493396613	3
472.4363389768675	533.5727511907037	2
349.93329527188314	386.11345660889174	6
388.40149050284873	319.2081995939724	6
450.03355431561124	426.9410717296648	8
469.36283414128707	232.21182438784692	8
283.20415495165014	368.6666481741954	7
536.5390625	188.5	2
351.89382034063425	194.5543300231966	3
480.64689572688116	531.7408181872206	5
519.5278651855306	505.7313149505864	5
298.1707404903996	251.23785881316297	2
608.7456103618168	442.3211238301685	2
602.4770113635298	484.9251581043105	2
213.22345667028276	29.877848048568985	3
304.1455572882452	203.09703923631707	4
344.71035101120407	275.5707660619696	2
256.62883086443054	208.7280237298346	4
343.84432284826113	253.63364625343138	1
581.9229059107595	435.07557715674363	1
501.31246376527093	291.52272174969625	1
534.4400427291703	9.938274605103281	1
337.8830742100338	265.0206561360875	1
184.171875	160.0	1
249.171875	345.0	1
508.25839256954185	281.36199060427185	1
345.4549158435432	319.04776609381116	1
610.7642853229485	566.2664533051891	1
580.6154933366523	524.0583847569051	1
289.6796506688955	281.36199060427185	1
603.234375	398.0	1
346.234375	337.0	1
341.234375	285.0	1
279.234375	199.0	1
505.234375	204.0	1
494.234375	141.0	1
495.84375	448.0	1
608.84375	230.0	1
596.2628988757535	562.3782582195514	1
407.86401499654835	379.9413653451862	1
