510.12017367941314	219.7608601691634	8
400.4367530500947	142.54953926689916	9
519.113029704043	464.31369427860227	8
349.4550553388449	296.5370485181744	4
292.0160976946945	238.16123270720254	8
382.3422783572042	300.85205283371	7
586.6633741589606	260.6982441688675	7
354.6004504902629	354.04604067043124	4
341.09944748165185	22.838326391441743	7
399.1570484028159	259.7263246078502	9
286.8232386486677	163.3030778794618	10
495.3388301880417	571.7425952450461	7
279.97183103096506	120.47397557052534	10
504.46813242500133	439.4258547600343	10
195.33575523333317	72.28383716754018	4
331.7997817323061	244.43599547017928	10
216.84723097815635	101.75257576899043	4
309.74519243133125	86.61401255957126	7
581.4245810120643	367.3098357529767	3
355.1517866369474	108.31483350495226	8
413.0254979817382	370.6991032518686	3
221.83739874979477	56.455204541786145	6
313.83599192173233	22.28935857364591	9
535.8084785430683	210.78757512536822	6
360.3487228470009	327.0075943696369	9
420.525715382484	171.480750920889	8
595.2303199294674	81.29418365427479	2
285.2292244021444	311.68773627143037	4
491.6143406254113	246.88125770716954	3
599.8189286225872	469.8549094944327	6
334.80859534315755	395.51763285954496	2
450.40227929847487	299.47929692941614	2
281.174252667	46.15056215413364	4
496.3685192385101	11.04879327062774	3
552.139979921625	608.7737545565005	2
610.4324825355102	534.3277896106947	3
183.0594992254457	40.04518582666198	3
313.5069242712836	109.442560889498	2
580.84375	254.0	1
396.2463312118263	172.82133374980478	2
244.23176789399935	128.804622833047	1
435.0573058374721	346.73535844471445	1
401.2301810181909	56.754768686617446	1
527.234375	473.0	1
410.234375	180.0	1
187.234375	77.0	1
215.234375	175.0	1
439.234375	337.0	1
351.234375	440.0	1
589.234375	464.0	1
560.234375	433.0	1
487.234375	112.0	1
469.234375	373.0	1
365.3143933720597	109.07278042775812	1
