398.61696897718275	212.01652490887
355.5511163241135	384.27995139732684
385.365937391623	441.7010935601458
553.21233747538	368.82041312272173
605.1122111854891	518.9987849331714
608.424969081879	484.76695018226
203.1642530901762	376.5501822600243
