528.9782608695652	257.39130434782606
551.2391304347824	268.5217391304349
394.0217391304348	179.47826086956522
343.8252766224532	139.9869084486729
311.9698470514579	146.3579942875886
317.27908531329047	97.51300285590142
287.5473510470282	156.97647068578146
255.6919214760329	252.54275826951726
136.76498441098374	284.3981874640958
358.6911437555844	34.86399210656352
491.42210030139813	23.18366806855137
579.5554554478185	95.38930757626285
562.5658930099544	188.83189988036006
525.4012251771264	200.51222391837223
584.8646937096511	406.5106660433138
525.4012251771264	451.10826691572385
542.3907876149906	412.88175188222954
516.9064439581944	362.974912810723
538.1433970055245	308.82068317993946
302.41321818015933	365.0986080903616
282.23811278519565	334.30502653560234
242.94974964763475	82.64713589843142
240.82605434290173	321.5628548577709
345.9489719271862	369.3459986496388
585.9265413620176	473.40706735192884
606.1016467569813	394.83034200530165
565.7514359670539	386.3355608867474
448.94819420673775	384.2118656071088
505.2261197821628	484.0255437501217
