528.9235606721162	198.21880289275273
450.2653071624737	197.17002615787044
416.70445233169283	157.31651023234343
397.82647148937866	184.58470533928298
339.0949755355122	140.53608247422682
311.8267809855028	144.73118941375597
326.5096549739694	186.68225880904757
250.99773160471256	105.92645022311126
283.5098097220315	151.02384982304972
292.9488001431886	256.950300046161
550.9478716548161	456.217879673796
521.5821236778829	443.6325588552085
507.9480264028782	486.6324049853824
142.97373011813679	287.36482535774735
284.5585864354934	37.75596245576243
132.4859629835178	75.51192491152486
349.5827426701312	373.36451761809514
351.680296097055	336.657331897215
276.16837272779816	332.4622249576858
307.6316741316552	359.7304200646253
