522.3125	202
548.3125	262
553.3125	313
583.3125	413
540.3125	418
527.3125	455
557.3125	456
506.3125	484
303.3125	365
282.3125	333
254.3125	281
295.3125	253
138.3125	283
285.3125	152
313.3125	149
344.3125	143
255.3125	107
133.3125	74
101.3125	241
448.3125	196
398.3125	182
417.3125	157
363.3125	295
308.3125	306
324.3125	343
348.3125	370
454.3125	418
373.3125	407
329.3125	187
244.3125	18
94.3125	198
608.3125	393
