582.234375	440
567.234375	311
465.234375	544
439.234375	522
467.234375	424
424.234375	447
490.234375	330
429.234375	314
350.234375	493
276.234375	445
270.234375	222
208.234375	255
468.234375	64
