196.4639467711987	36.381209286308724
246.9281996508903	83.3247051396103
344.3359435814578	19.95098573765317
376.02280004079904	80.97753034694522
418.2719419865873	90.36622951760553
471.0833694188227	62.20013200562459
385.4114982509742	134.96255057824203
271.57353245260015	218.28725571785233
210.54699408646147	242.93259104083566
153.04121754913848	127.9210262002468
232.84515233562752	301.61196085746263
430.0078147493063	308.6534852354579
483.99282945781357	200.68344477286425
483.99282945781357	323.91012138778086
542.6721932714084	321.5629465951158
572.011875178206	312.1742474244555
513.332511364611	268.7515137601515
580.2269861121092	276.9666255344793
580.2269861121092	436.57451143570466
475.7777185239103	483.5180072890062
473.43054397136655	532.8086779349729
437.0493384069377	516.3784543863173
424.13987836794684	441.2688610210348
462.86825848491947	411.92917611272134
466.38902031373516	460.04625936235544
513.332511364611	563.3219502396189
460.52108393237563	622.0013200562458
453.47956027474424	584.4465233736046
373.6756254882552	558.6276006542888
358.4189908967206	483.5180072890062
161.25632848304176	249.9741154188309
