228.416257992986	138.43852900446223
198.00173330259088	184.58470533928298
155.00188805065295	157.31651023234343
244.14790869491452	20.97553469764579
217.928490858367	92.29235266964149
179.12375246027668	144.73118941375597
150.80678119680536	117.46299430681644
301.83062793531906	123.75565471611017
282.9526470930048	89.14602246499462
257.7820059699192	71.31681797199569
285.05020051992864	52.43883674411448
319.6598320641714	40.902292660409294
313.36717178339995	67.12171103246654
340.63536633340937	61.877827358055086
373.1474444507283	50.341283274349905
432.92771711805665	56.63394368364364
439.220377398828	108.02400369287584
521.0249610488563	9.438990613940607
512.6347473411611	52.43883674411448
504.2445336334659	88.09724573011233
484.31777607768976	34.609632251115556
527.3176213296276	81.80458532081859
551.4394857392514	146.82874288352056
493.75676649884684	128.99953839052162
480.12266922384214	177.24326819510694
453.90325138729463	145.77996614863827
435.0252705449804	265.3405139252193
469.63490208922315	348.19387598092015
494.80554321230875	386.9986151715649
546.1956021719419	360.77919679950764
495.85431992577065	226.53577473457457
418.24484312959004	158.36528696722573
387.8303184391949	173.04816125557778
406.7082992815091	132.1458685951685
612.2685351200416	198.21880289275273
340.63536633340937	246.46253269733808
357.4157937487998	273.7307278042776
272.46487995838584	250.65763963686723
314.41594849686186	167.80427758116633
193.8066264487433	245.41375596245578
212.6846072910575	285.26727188798276
238.90402512760502	324.0720110786275
285.05020051992864	381.75473149715344
290.29408408723816	291.55993229727653
345.8792499007189	359.7304200646253
392.02542529304253	363.9255270041545
428.73261026420903	405.8765963994461
510.53719391423726	505.5103862132636
543.0492720315561	431.047238036621
583.9515638565704	420.5594706877981
543.0492720315561	467.7544237575012
451.8056979603708	386.9986151715649
516.8298541950087	328.2671180181567
566.122359727718	478.24219110632407
600.7319912719607	491.87628865979383
543.0492720315561	518.0957070318511
568.2199131546419	518.0957070318511
470.68367880268505	461.46176334820746
387.8303184391949	426.8521310970919
377.3425513045759	370.2181874134482
390.9766485795806	325.12078781350976
325.95249234494275	298.9013694414526
571.3662432950275	390.14494537621175
580.8052337161846	535.92491152485
488.5128829315374	499.21772580396987
459.14713495460416	440.48622865056166
519.9761843353944	384.9010617018003
596.5368844181131	378.6084012925066
310.22084164301424	418.4619172180336
360.5621238891855	420.5594706877981
205.34317029682418	310.43791352515774
177.02619903335287	27.26819510693953
217.928490858367	6.292660409293738
356.3670170353379	24.12186490229266
444.46426096613754	280.0233882135713
468.58612537576124	306.24280658562856
596.5368844181131	452.0227727342668
