482.0959226346053	169.43938056102698
473.7628388974442	354.15608232017934
494.59554824034694	384.7107247164301
551.5382871109479	430.5426883108062
547.3717452423673	466.65272023364804
541.8163560842598	520.8177681179108
508.4840211356155	508.3181416830809
469.59629702886366	465.2638728520003
468.2074497393368	445.8200095089316
304.3234695751685	122.21856958500307
230.7145632302454	136.1070434014807
230.7145632302454	91.6639271887523
429.319725632585	52.776200502614955
523.7613413204108	86.10853766216125
502.9286319775081	77.77545337227467
393.20969610488686	163.88399103443592
404.32047442110166	134.71819601983293
547.3717452423673	363.87801399171366
437.6528093697461	262.492155131427
429.319725632585	399.98804591455547
273.76882920557773	258.32561298648375
345.98888826097397	244.43713917000613
325.1561789180712	298.6021870542688
293.21269125895367	381.93302995313456
389.04315423630635	327.76798206887185
451.5412822650146	380.54418257148683
441.81935123832665	98.6081640969911
548.7605925318941	155.55090674454934
491.81785366129327	123.60741696665082
319.6007897599638	162.49514365278816
391.82084881536	361.10031922841813
