449.21653044901177	146.82874288352056
483.8261619932545	174.09693799046008
545.7039880875067	519.1444837667334
376.8509372201406	362.87675026927224
387.3387043547596	324.0720110786275
304.4853439912695	133.19464533005078
228.97342062201264	140.53608247422682
278.26592615472197	251.70641637174953
291.9000234297267	289.46237882751194
402.0215783432262	132.1458685951685
434.53365646054516	268.48684412986614
471.24084143171166	351.340206185567
550.9478716548161	359.7304200646253
