347.3125	21
430.3125	72
580.3125	54
567.3125	188
424.3125	207
431.3125	249
394.3125	266
357.3125	203
338.3125	245
264.3125	116
222.3125	122
171.3125	70
136.3125	121
93.3125	115
56.3125	61
36.3125	117
26.3125	164
7.3125	210
267.3125	191
261.3125	276
331.3125	325
149.3125	240
190.3125	202
160.3125	181
118.3125	279
163.3125	299
196.3125	315
129.3125	325
96.3125	313
75.3125	222
121.3125	381
263.3125	388
230.3125	371
309.3125	369
376.3125	355
559.3125	272
543.3125	302
508.3125	320
479.3125	329
460.3125	427
467.3125	490
147.3125	429
182.3125	402
187.3125	455
213.3125	441
228.3125	397
31.3125	217
535.3125	377
452.3125	346
