430.33854960669754	61.877827358055086
440.8263167413166	91.24357593475919
259.38794531240774	114.31666410216957
219.53443020085552	127.95076165563934
162.9004876739129	58.73149715340822
336.9974221085884	241.21864902292663
397.82647148937866	264.291737190337
427.1922194663119	202.4139098322819
429.28977289323564	251.70641637174953
566.6795223567447	189.82858901369443
589.7526100529064	53.48761347899677
132.4859629835178	123.75565471611017
162.9004876739129	180.38959839975382
187.02235208353662	200.31635636251733
266.72938230664107	272.6819510693953
161.851710960451	306.24280658562856
328.6072084008932	321.9744576088629
479.6310551394069	285.26727188798276
545.7039880875067	303.0964763809817
505.8504729759544	317.7793506693338
450.2653071624737	338.7548853669796
477.5335017124831	360.77919679950764
304.4853439912695	369.16941067856595
345.3876358162836	20.97553469764579
103.12021500658456	47.19495306970303
52.77893276041333	59.78027388829051
93.68122458542746	113.26788736728729
22.364408070018218	167.80427758116633
261.48549873933155	383.85228496691803
238.41241104316975	328.2671180181567
30.75462177771342	212.9016771811048
461.80185101055457	421.60824742268045
436.63120988746897	525.4371441760271
464.9481811509403	488.72995845514697
199.60767264507942	465.6568702877366
216.38810006046984	435.2423449761502
180.72969180276522	452.0227727342668
128.29085612967017	383.85228496691803
149.2663903989082	426.8521310970919
215.33932334700793	348.19387598092015
588.7038333394446	277.9258347438068
376.8509372201406	342.9499923065087
