163.42242515327584	66.34069328010085
221.84992711581415	125.96059291224636
258.8142650921139	117.61380696374599
584.3389188833987	57.993907331600475
592.6857048780471	10.297987625884073
423.36518898660955	203.46646243403552
430.5195769820224	257.12437210296645
399.51722900190003	267.8559540367527
329.16574704700696	247.58518816182317
564.0681528963956	230.89161626482243
475.83070095297046	284.5495259337534
326.780951048536	322.7062616983265
308.8949810600039	372.78697738932874
335.1277370431843	372.78697738932874
541.4125909109216	302.43549582339705
555.7213669017474	267.8559540367527
580.7617248856923	277.39513797789596
446.0207509720836	344.1694255658989
137.18966917009539	121.19100094167472
127.65048517621157	94.95824510353069
96.6481371960892	80.64946919181577
101.41772919303111	53.224315361028836
94.26334119761825	112.84421499317435
71.60777921214421	7.913191640598253
63.26099321749587	25.799161530241904
56.106605222083026	62.763499302172114
22.719461243489707	171.27171663267694
6.025889254193049	209.42845239725006
144.34405716550822	240.4308002059657
217.08033511887226	236.853606228037
261.19906109058485	271.43314801468136
239.7358971043463	327.47585366889814
268.3534490859977	385.90335530840076
234.96630510740437	377.5565693599004
220.65752911657867	402.59692720540147
120.49609718079871	385.90335530840076
158.65283315633394	306.0126898013258
193.23237513416274	315.55187374246907
58.49140122055398	340.59223158797016
479.4078949506769	358.4782014776138
449.59794496979	424.0600910729739
467.48391495832215	489.64198066833393
429.3271789827869	531.3759104108358
214.6955391204013	350.13141552911344
187.27038513798536	202.2740644413926
69.22298321367326	224.9296263016079
601.0324908726955	468.1788168007615
375.6692690171905	342.977027573256
367.3224830225422	513.4899405211921
530.6810089178024	379.9413653451862
161.03762915480488	180.81090057382022
110.9569131869149	272.6255460073243
178.92359914333701	25.799161530241904
345.85931903630365	22.221967552313174
504.4482529346219	323.89865969096945
481.7926909491479	329.860649654184
561.6833568979247	195.11967648553514
