431.94369247873874	104.11111510685436
516.2683535004684	169.98975828081603
530.7616546135782	221.37509995650618
584.7821405806237	278.03073308611323
562.3834024967268	318.8754918539695
450.3897120772421	193.70606982344225
487.28175127424885	222.6926728199854
372.6529151978351	169.98975828081603
371.33534236937055	221.37509995650618
314.67971074539594	252.9968486800078
443.80184793491946	338.639084806158
413.49767288023537	408.4704465705574
368.70019671244154	390.02442648184814
399.00437176712563	350.4972405774711
338.39602165775744	299.111898901781
238.26048669445348	164.71946682689912
229.0374768952018	106.74626083381281
205.3211659828403	143.63830101123136
160.52368981504645	22.42159757114185
255.3889334644923	56.67849202160193
294.91611831842806	32.96218047897572
229.0374768952018	26.37431616157955
416.13281853716444	275.3955873591548
504.41019804428765	382.1189893009727
489.9168969311779	437.4570495671005
545.254955726688	494.11268269670757
579.5118492667657	465.12607970016444
568.9712666390494	508.60598419497916
587.4172862375528	375.53112498357655
377.9232065116932	332.0512204887618
333.1257303438993	404.5177279801197
327.8554390300412	429.5516123862251
483.3290327888553	475.6666626079983
277.78767154838926	395.29471793576505
312.0445650884669	384.75413502793117
202.68602032591127	274.0780144956755
268.56466174913754	222.6926728199854
317.314856402325	114.65169801468822
550.5252470405461	118.60441660512592
425.35582833641615	434.82190384014206
466.2005860188164	415.05831088795355
601.9105873506626	420.32860234187046
475.4235958180681	355.76753203138804
447.75456642031315	384.75413502793117
201.36844749744674	1.3404317554741052
242.21320517984705	299.111898901781
