433.7129441013849	101.12759643916914
549.7435520036603	113.90160862095892
600.8395995202586	86.22458222708106
393.2619064840779	110.70810557551148
443.29345301074704	124.54661877245042
517.8085223057864	169.25566140871467
455.00296389996754	188.41667968139936
483.7444906280541	223.54521318132126
316.6178352091803	116.03061065125723
282.5538035314481	23.419022333281276
221.87724710548758	53.225050757457446
298.5213183803851	14.903014212088085
255.94127878321981	54.28955177260659
418.80993024237705	406.63938778697485
373.03638767542435	397.05887865063255
401.7779144035109	355.5433390598157
383.6813975747157	335.3178197719819
344.2948609473378	304.44729033265656
365.58488074592043	327.86631266593787
318.7468371890386	254.41574262064657
379.42339361499916	177.77166952990785
370.90738569556606	223.54521318132126
540.1630430942981	219.28720912072467
582.7430826914634	278.899265969077
564.6465658626681	311.8987974387006
590.1945896209673	374.7043573325004
502.90550844677847	387.4783695142902
581.6785817015342	410.89739184757144
579.549579721676	480.0899578322661
60.0730966362595	17.032016242386383
160.13618968959793	27.67702639387787
202.7162292867632	8.516008121193192
182.4907104781097	53.225050757457446
202.7162292867632	121.35311572700297
150.55568078023572	119.22411369670468
166.5231956291727	196.93268780259254
236.78026096449543	171.38466343901297
290.00531046095205	149.03014212088084
447.5514569704636	334.25331875683275
541.2275440842272	240.57722942370765
346.42386292719607	246.96423551460254
364.5203797559913	303.38278931750745
203.78073027669234	279.96376698422614
327.26284510847165	430.05841012025616
281.489302541519	436.44541621115104
271.9087936321568	395.9943776354834
313.4243322393929	377.89786037794784
341.1013579775504	410.89739184757144
398.5844114337235	486.476963923161
418.80993024237705	444.9614243323442
482.67998963812494	475.83195377166953
494.38950052734543	425.80040605965957
473.0994807287628	525.8635014836796
324.06934213868425	192.67468374199595
228.2642530450624	140.51413399968766
229.3287540349915	105.38560049976574
138.84616989101528	56.41855380290489
127.13665900179483	12.774012181789786
276.1667975918733	228.867718257067
222.94174809541673	203.31969389348743
274.03779561201503	271.44775886303296
