451.04045440517496	187.84251968503938
487.7615482625146	224.56361375880647
381.8353159817272	168.06962287608786
366.29946858054507	221.73891421467053
322.51662590448626	190.66721922917532
588.0383814883266	275.4082055532532
561.2037359771939	305.0675507666805
597.9248298345335	372.8603398259428
580.9766326696075	416.64318276004974
575.3272336146322	475.96187318690426
542.8431890485241	499.97181931205967
542.8431890485241	240.0994612515541
321.1042761407424	115.81268130957315
297.09433015709726	156.77082469954414
268.84733488222065	69.2051388313303
236.3632903161125	111.57563199336926
271.6720344097083	227.3883133029424
315.4548770857671	255.6353087443017
345.1142221243876	249.98590965602983
338.0524733056684	296.5934521342727
363.4747690530574	300.83050145047656
373.3612173992642	337.5515955242437
400.195862910397	357.3244923331952
379.01061645423954	386.98383754662245
421.3811093665545	410.99378367177786
418.5564098390668	442.0654786572731
345.1142221243876	406.756734355574
330.99072448694926	429.35433070866145
319.6919263769986	384.15913800248654
278.73378322842746	398.2826357231662
277.32143346468365	358.7368421052632
449.62810464143115	336.1392457521757
516.0085435373913	161.00787401574803
229.30154149739334	28.246995441359303
256.1361870085261	50.84459179444675
227.8891917336495	56.493990882718606
181.28164953010304	53.66929133858268
162.92110260143323	31.071694985495235
242.01268937108782	169.48197264815582
223.652142442418	209.02776626605885
438.3293065314805	118.63738085370908
134.6741073265566	56.493990882718606
105.01476228793612	59.31869042685454
