423.234375	410
378.234375	390
341.234375	408
319.234375	392
380.234375	342
341.234375	316
318.234375	260
361.234375	222
271.234375	272
479.234375	223
227.234375	110
198.234375	132
130.234375	158
140.234375	115
101.234375	96
108.234375	54
143.234375	57
159.234375	25
292.234375	26
431.234375	99
515.234375	159
452.234375	191
377.234375	174
504.234375	237
537.234375	223
417.234375	276
362.234375	293
200.234375	294
162.234375	193
331.234375	438
399.234375	366
589.234375	374
591.234375	405
