250.15842528362128	84.71969028051349
262.6580508893629	101.38585886028663
264.0468981788898	55.553895265910484
275.1576764951046	37.49887930448958
216.8260903349769	69.4423690823881
183.49375538633248	168.05053317937922
214.0483957559232	170.82822794267474
347.3777355505008	245.82598655165387
347.3777355505008	279.1583237112002
344.60004097144713	359.7114718467704
465.4297551602831	424.98729878421517
569.5933018747969	266.65869727637033
486.26246450318587	338.87876112205396
573.7598437433775	347.2118454119405
389.04315423630635	440.26461998234055
347.3777355505008	426.37614616586296
325.1561789180712	451.37539903552266
345.98888826097397	469.43041499694357
548.7605925318941	548.594715750866
564.0379127166894	601.3709162534809
482.0959226346053	486.09658357671674
461.2632132917025	488.87427834001227
415.43125273731647	495.81851524825106
439.041656659273	516.6512259729675
364.043903024823	391.6549616246689
208.4930065978158	138.8847381647762
144.60603127958066	147.21782245466278
119.60678006809736	115.27433267676425
