268.234375	128
253.234375	98
120.234375	117
158.234375	142
238.234375	293
203.234375	214
489.234375	201
570.234375	104
573.234375	75
572.234375	260
509.234375	263
486.234375	338
454.234375	244
496.234375	156
464.234375	427
351.234375	454
467.234375	359
469.234375	491
508.234375	498
582.234375	427
534.234375	309
520.234375	130
247.234375	76
412.234375	38
