323.60148729399555	34.422096140657146
152.7659072707737	58.64505268408254
117.06892040024974	95.61693372404763
82.64682591795876	121.114782717127
99.22042696498775	163.18623355570796
85.19661069442476	47.17102063719683
231.80923534121965	38.24677348961905
243.28326683531662	113.46542801920319
210.13606474125865	121.114782717127
403.91970775267447	25.49784899307937
340.17508834102455	110.91564311989525
539.9423688081527	-0.5420011733659899
541.2973664475184	53.65790940698232
500.8115292583824	128.7641374150508
410.2941696938395	248.60402768252382
442.16647939966447	119.83989026747302
231.80923534121965	86.69268657646985
178.2637550354337	167.01091090466986
111.96935084731774	243.50445788390795
134.91741383551172	209.0823617432508
531.4089465759744	145.33773926055238
490.6123901525184	99.44161107300954
488.06260537605243	25.49784899307937
460.0149728349264	36.97188103996508
511.0106683642464	66.29440738200636
309.5776710234326	72.66886963027619
73.72257920032777	89.24247147577779
46.9498390474348	95.61693372404766
59.69876292976479	186.13429764947938
230.53434295298663	178.48494295155558
262.4066526588116	142.78795436124446
244.5581592235496	155.53687885778413
205.03649518832665	165.73601845501588
389.8958914821115	149.1624166095143
425.59287835263547	149.1624166095143
511.0106683642464	187.40919009913335
500.8115292583824	226.93085603840638
9.97795978867783	100.7165035226635
6.153282623978835	132.5888147640127
