414.3125	413
401.3125	471
432.3125	447
457.3125	475
494.3125	384
513.3125	425
550.3125	439
589.3125	467
557.3125	509
547.3125	488
595.3125	350
568.3125	316
567.3125	275
490.3125	324
527.3125	277
519.3125	242
426.3125	282
426.3125	225
340.3125	262
314.3125	272
277.3125	212
329.3125	195
339.3125	146
207.3125	286
264.3125	298
283.3125	316
215.3125	331
246.3125	325
191.3125	342
160.3125	283
128.3125	188
146.3125	205
181.3125	223
188.3125	247
255.3125	127
217.3125	108
247.3125	100
281.3125	58
86.3125	61
75.3125	30
72.3125	109
40.3125	138
132.3125	135
171.3125	33
93.3125	225
265.3125	363
289.3125	385
337.3125	403
374.3125	364
396.3125	310
