252.75378780756324	129.1449995129598
244.8483508367761	96.20567792597895
207.95631163976938	112.01655228772975
142.07767021654308	50.09062770420576
92.0099027348911	67.2190749294358
69.61116465099417	32.96218047897572
279.10524437685376	200.29393414083842
337.0784488292929	193.70606982344225
339.71359448622195	154.17888391906524
313.36213791693143	270.1252959052378
352.8893227708672	237.18597431825697
434.5788381356678	270.1252959052378
596.6402960368044	353.1323863044296
574.2415579529076	275.3955873591548
608.4984514929852	247.72655722609085
516.2683535004684	238.50354718173622
530.7616546135782	279.3483059495925
492.55204258810693	320.1930647174487
516.2683535004684	343.9093762600749
497.82233390196507	384.75413502793117
395.05165328173206	316.24034612701104
392.416507624803	364.99054207574267
258.0240791214214	292.5240345843848
287.0106813476409	312.2876275365733
219.8144670959501	320.1930647174487
192.14543769819505	241.13869290869468
281.74039003378283	60.63121061203963
455.66000339110025	104.11111510685436
608.4984514929852	184.48305977908763
567.6536938105849	314.9227732635318
412.18010005177086	407.15287370707813
367.382623883977	375.53112498357655
302.8215552892152	235.86840145477774
219.8144670959501	173.94247687125375
130.21951476036236	121.23956233208439
251.43621497909874	318.8754918539695
470.15330450421	293.841607447864
608.4984514929852	299.111898901781
159.20611698658192	284.6185974035094
211.90903012516296	278.03073308611323
240.89563235138252	14.516160390266444
182.9224278989434	133.0977181033975
175.01699092815622	169.98975828081603
26.13126131166482	64.58392920247734
37.98941676784555	11.881014663307976
292.28097266149905	382.1189893009727
264.61194326374397	367.6256878027011
293.59854548996356	328.0985018983241
514.9507806720039	421.6461752053497
186.87514638433697	86.98266788162431
