514.7323007680849	246.46253269733808
453.90325138729463	103.82889675334667
585.0003405700322	152.072626557932
568.2199131546419	278.97461147868904
608.073428266194	256.950300046161
577.658903575799	239.12109555316204
528.3663980430896	275.8282812740422
493.75676649884684	326.1695645483921
531.5127281834752	305.1940298507463
590.2442241373417	354.48653639021387
565.0735830142561	319.8769041390983
496.90309663923256	383.85228496691803
519.9761843353944	428.9496845668565
558.7809227334847	448.87644252961996
413.0009595622805	412.1692568087398
435.0252705449804	454.1203262040314
439.220377398828	293.6574857670411
336.44025947956175	194.02369595322358
37.53889614292009	8.390213879058317
84.73384824870561	63.97538082781967
54.3193235583105	31.46330204646869
129.83124692756735	69.21926450223111
129.83124692756735	127.95076165563934
248.3430155487621	132.1458685951685
242.0503552679907	100.68256654869981
290.29408408723816	63.97538082781967
285.05020051992864	308.34036005539315
258.83078268338113	291.55993229727653
207.440723723748	286.3160486228651
214.7821607179813	323.02323434374523
248.3430155487621	324.0720110786275
298.68429779493334	233.8772118787506
466.48857194883743	425.8033543622096
423.4887266968995	273.7307278042776
595.4881077046513	466.7056470226189
504.2445336334659	463.55931681797205
198.00173330259088	248.56008616710264
209.5382771506718	100.68256654869981
389.9278718661187	364.97430373903677
66.9046441198533	149.97507308816742
38.58767285638199	133.19464533005078
14.465808446758277	72.36559470687799
272.46487995838584	195.07247268810588
333.2939293391761	135.29219879981537
341.68414304687127	162.56039390675488
266.1722196776144	371.26696414833054
282.9526470930048	336.657331897215
