510.16147509357614	237.00193174500967
529.5651428555295	275.8092655979937
537.8810004677954	306.30074219676686
490.75780733162276	325.70440912325887
596.0920037536556	356.1958857220321
568.3724783794364	271.6513369708883
565.6005258420145	316.0025756600129
456.1084006138488	105.33419188667096
515.70538016842	428.26664859185956
429.7748515083406	449.05629172738674
411.7571600150981	410.24895787440266
292.5632009059557	339.56417121361034
287.01929583111183	320.16050428711833
299.49308224951045	239.77388416307994
334.1424889672844	188.49276442877962
392.3534922531447	363.1257667672078
366.01994314763647	370.0556478123835
292.5632009059557	383.91540990273495
216.33450612685294	322.9324567051886
253.75586538204882	130.28176364930357
242.66805523236116	95.63235842342495
206.63267224587625	102.56223946860067
203.86071970845433	282.7391466431694
343.84432284826113	151.0714067848307
313.35284493662004	271.6513369708883
424.23094643349674	271.6513369708883
158.1235028409927	288.28305147931
190.00095702134473	246.70376520825567
494.91573613775563	386.6873623208052
440.86266165802823	286.8970752702749
