416.234375	410
340.234375	394
292.234375	392
259.234375	368
219.234375	331
202.234375	284
194.234375	254
225.234375	180
251.234375	140
250.234375	103
216.234375	110
288.234375	69
139.234375	135
134.234375	190
276.234375	213
330.234375	198
336.234375	143
392.234375	291
421.234375	266
441.234375	299
484.234375	293
511.234375	246
529.234375	280
565.234375	280
574.234375	241
609.234375	261
607.234375	302
573.234375	305
543.234375	311
494.234375	329
498.234375	384
514.234375	430
473.234375	417
427.234375	455
456.234375	479
410.234375	479
387.234375	369
297.234375	344
289.234375	308
169.234375	302
147.234375	262
93.234375	67
76.234375	33
316.234375	271
303.234375	235
452.234375	96
517.234375	354
595.234375	353
