526.5083338712874	514.7631424413408
369.8866827901647	499.10097786401815
567.2299631523794	382.156815686675
214.3091760495828	293.40454974851275
282.17855818473595	97.10542037940102
179.8524128117358	35.50090637526489
158.96952600091944	53.251359562897335
488.919137611818	465.68836009906295
