282.6704426035348	98.27849331713244
181.0792004475766	47.48286755771567
164.51541096562687	47.48286755771568
101.573010934218	89.44447144592952
139.11760042663735	98.27849331713244
298.1299794533545	204.28675577156744
272.732168914365	238.51859052247875
418.4935163555224	272.75042527339
567.5676216930698	368.82041312272173
513.4592427187007	409.67776427703524
530.0230322006504	442.80534629404616
484.7486742833212	464.89040097205344
507.9379795580508	486.9754556500607
531.1272848327803	511.26901579586877
535.5442953613003	576.4199270959903
599.5909480248391	482.5584447144593
368.80214790967324	493.60097205346295
268.31515838584505	363.2991494532199
261.6896425930652	304.7737545565006
213.10252677934602	300.3567436208991
