542.172354952759	388.85766280753904	5
605.0791170564839	373.29997283162396	2
197.2974810334975	25.817005368569735	6
566.1215868277286	371.8373108961001	5
147.2391540480784	69.42845653903215	5
379.38808336476075	39.50364501073492	7
591.9641595072031	203.18297888038396	3
493.2269932334633	380.93257064153363	4
368.6404026326053	253.85205278227443	8
191.93586470255426	93.24904843761654	5
465.22811067216713	371.9195530724144	5
272.17298503813333	152.7519831064807	3
444.6441458469007	430.3021118829839	5
505.2759271335175	447.79885213611357	2
596.0592555212422	394.9900512318128	3
588.2010197772829	204.13176729861925	5
135.88025010868046	144.3144919583446	3
188.97517043800426	88.90440391507224	3
426.95388808244036	354.0661931522148	2
276.8522368599623	338.9783288348186	2
396.2172179718096	402.23975472928134	2
246.37179123777503	121.59425089676785	3
39.65734101723062	63.86602430793666	6
502.0619655274006	444.9360146552711	5
244.63620655935415	124.7121359614807	3
464.5011246364258	378.82721749696236	2
597.4293242771786	389.099508730288	5
443.010724631191	434.48566221142164	2
134.47251407800783	149.76709157227566	4
142.03750139494832	71.33871385646759	4
194.92687483085217	30.170150562466198	2
272.4763428355583	345.20468466740755	2
427.60246256337444	349.0476752526957	2
549.8154129592683	381.5808653994399	2
459.70429758363076	377.55962455762426	1
497.4602592682592	457.2666564086783	1
194.20022136733016	7.451507106044042	1
551.8725539835185	276.7702639387787	1
470.9704787489045	376.8333593627987	1
36.654074857818586	154.35264719662658	1
212.2967381961254	189.4811806965485	1
260.19928274293636	158.6106512572232	1
222.94174809541673	153.28814618147743	1
200.58722730690494	207.57769795408404	1
275.1022966019442	350.22083398407	1
399.64891242365263	399.18788068093085	1
514.6150193359989	408.76838981727315	1
79.23411445498388	238.44822739340935	1
93.0726273240626	254.41574262064657	1
78.16961346505474	263.9962517569889	1
195.61717113263367	87.80385714767323	1
546.234375	394.0	1
571.234375	359.0	1
375.234375	295.0	1
392.234375	320.0	1
328.234375	331.0	1
338.234375	366.0	1
254.234375	134.0	1
104.234375	216.0	1
401.234375	409.0	1
555.42084273964	387.59270959902796	1
368.80214790967324	263.91640340218714	1
283.77469523566475	342.318347509113	1
201.36844749744674	196.34121555040068	1
126.55101651573162	152.77321198125384	1
45.997873723174294	61.10928479250153	1
45.84375	68.0	1
139.84375	149.0	1
238.84375	127.0	1
590.84375	398.0	1
510.84375	447.0	1
526.84375	402.0	1
452.84375	434.0	1
