458.6721904283527	95.1426249705589	3
414.83580310972746	143.59835707473005	8
401.009906463981	24.417161327969627	3
506.1744333760879	13.115846436632598	2
253.72010906969285	87.88623340315843	3
580.2861953858278	87.43136028273022	3
305.4526476633283	311.6262184136149	2
599.1458347311834	496.75212137410756	3
353.7987142402899	313.4070403222873	3
495.80506982207834	47.87013449795084	8
551.0573885155671	336.2692498893708	3
421.97764436295654	304.19719392512707	5
305.06566206262994	145.98240065002233	2
275.0131845109072	148.8636067682985	4
472.5897244650505	283.72685449149037	5
380.15850053083847	382.492172347459	3
489.1092900130017	419.37779808944526	5
608.741581209537	12.995639505634049	3
401.87025526571665	107.74548962867374	3
564.9787142024159	124.77560878464394	8
546.8611279586191	36.68161203160534	8
341.42043595724044	289.09191411136925	2
604.8581883485936	171.134951639794	8
421.1369833977916	416.2847167258151	2
440.55635463292936	48.49324686598412	2
271.61632693135044	218.84345973324903	5
506.74384251308174	505.1368958639409	5
400.7026893407657	213.34471258683362	6
470.1948890338399	278.25133614120057	3
587.730028305117	531.0430994098477	4
301.42974499093725	141.6721749696233	2
576.4453305675852	85.74883549188837	2
387.2458886279826	447.99333037361066	2
596.0150260626313	443.6156520704967	2
404.33563405477815	118.12806156654548	4
253.9689400324204	31.374541852573483	4
507.9581950619803	281.2638241470613	7
437.69004761230985	473.51350929636124	2
508.679039914901	315.86528696722576	2
595.7465098809747	493.57995771061553	3
480.6920313720959	208.3405989031402	5
579.5161425273999	192.84303096334642	3
402.18348335074467	29.267453057294176	2
330.56610895752164	222.35360971896162	7
402.68348335074467	274.4231377673843	2
248.69749976228346	90.06593258236418	5
383.20094920095016	331.45592104377846	5
542.7885048782246	68.36855974086441	3
546.3262447122995	339.0821062013455	6
550.4929089264929	532.4002354545692	4
467.9153017473511	271.5430119867817	2
275.50527782286815	221.53277734491644	2
396.06869088768883	25.256489258932632	2
319.06548638206584	48.700498377424005	2
368.95903071319833	164.41588171578772	4
463.08799528782095	88.04658956066369	6
581.1923585353461	82.19577644140948	2
568.8277579685468	356.45268352588823	6
490.91875794830037	416.88882858209433	3
434.1236372459804	49.11450666789537	4
534.3875076383873	114.3364517810308	4
224.48290223067542	46.86782875908837	2
312.0089584293525	311.96379634045843	2
506.91352960873	17.000567882502402	3
509.2276378212009	322.52912134358513	3
374.7396864388261	334.2798892137252	2
414.11766728114026	140.2680412371134	2
529.3491632350067	120.28027388829051	2
395.50209833463543	298.00450813383065	3
402.86953939759167	267.46410878663164	2
425.0810639308901	43.775693125932875	2
252.8480763151676	26.841757835356283	4
540.6020571864133	531.7449883096479	3
468.45902690134255	134.62171103246652	2
504.7236406275531	538.192903367363	4
576.0598392582536	195.96035696843236	3
588.194957846	446.5950762713568	2
492.70098699374387	47.62186490229266	2
478.9341736298585	202.46949016615815	2
562.2565495962979	550.4157050899207	3
419.9123163586404	316.7566931279281	2
603.3900540037957	240.06934645434734	2
298.92224808392683	145.36381974961574	5
341.41604871484856	284.0607791439079	2
455.1954002037417	117.29792565468257	3
354.7043095596872	47.647532080564105	2
421.14197504224694	366.9793297067035	2
223.62835336146955	128.6163967115644	1
365.52371527049115	158.42634652763715	1
420.374023235323	495.8749784455807	1
355.98453127660736	53.49532317506107	1
359.56172527431374	6.9918014619875715	1
462.10795320856465	343.2480353872882	1
402.4880532467908	99.99884488813454	1
272.51667133012404	144.11757061592223	1
346.44534728272356	34.4169552927745	1
405.46089071505395	213.77646330559185	1
429.37009894565205	49.22484352431391	1
510.9426917323985	275.65912373615794	1
413.8994347964415	296.7554852465782	1
408.2737387421831	378.3280830868698	1
503.9105716645755	548.5053992709264	1
400.6570697358846	225.81418595514106	1
466.1518302461866	284.18985599211436	1
602.8365478329039	492.06419319694623	1
599.9889495498472	558.98264421494	1
592.8699538422057	604.5441427803826	1
504.59440706745085	510.57355198915724	1
536.0319459274363	109.38140656077128	1
470.15330450421	139.68558242079368	1
313.36213791693143	47.455481977247295	1
543.9373828982234	30.32703475201725	1
354.20689559933174	305.69976321917716	1
554.4779655259397	397.9298636627235	1
505.7277708727522	498.0654012871453	1
475.234375	420.0	1
402.234375	425.0	1
376.234375	377.0	1
318.234375	316.0	1
331.234375	231.0	1
279.234375	231.0	1
359.234375	163.0	1
473.234375	214.0	1
480.234375	280.0	1
525.234375	285.0	1
590.234375	453.0	1
513.234375	501.0	1
434.234375	482.0	1
248.234375	98.0	1
576.234375	202.0	1
559.234375	385.0	1
493.234375	334.0	1
402.234375	259.0	1
365.234375	49.0	1
583.234375	275.0	1
404.234375	293.0	1
601.234375	552.0	1
558.234375	486.0	1
563.5331922163589	116.41421757193415	1
413.5581221913072	305.1940298507463	1
298.1926837104981	137.38975226957993	1
398.87524820284057	269.53562086474847	1
364.75723074303306	163.60917064163718	1
393.0742020065044	220.24311432528083	1
393.0742020065044	19.926757962763503	1
494.80554321230875	19.926757962763503	1
553.5370391661752	36.70718572088014	1
604.9270981258084	18.877981227881214	1
534.659058323861	62.92660409293738	1
558.7809227334847	118.51177104169874	1
603.8783214123464	178.29204492998923	1
395.1717554334282	116.41421757193415	1
349.0255800411046	54.53639021387906	1
332.2451526257142	280.0233882135713	1
344.830473187257	306.24280658562856	1
494.80554321230875	345.0475457762733	1
482.22022265076595	418.4619172180336	1
548.2931555988657	479.29096784120634	1
581.8540104296466	441.5350053854439	1
543.0492720315561	389.0961686413295	1
543.0492720315561	429.99846130173876	1
560.8784761604085	560.0467764271426	1
401.4644157141996	378.6084012925066	1
272.46487995838584	227.58455146945684	1
571.3662432950275	194.02369595322358	1
419.29361984305194	420.5594706877981	1
228.56206362916575	126.98906439854191	1
336.77882157790384	221.95479951397326	1
584.1314111750195	525.6243013365735	1
288.3125	318.0	1
307.3125	319.0	1
218.3125	133.0	1
211.3125	48.0	1
343.3125	48.0	1
461.3125	136.0	1
371.3125	159.0	1
539.3125	117.0	1
596.3125	170.0	1
607.3125	216.0	1
468.3125	344.0	1
346.3125	299.0	1
411.3125	368.0	1
376.3125	390.0	1
568.3125	362.0	1
556.3125	480.0	1
556.3125	437.0	1
228.92719681715425	52.20721525774248	1
258.1632383522971	28.19189623918094	1
354.2245176820524	2.0882886103096996	1
321.85604312528704	58.47208108867158	1
219.5298977522869	124.25317231342711	1
226.8389081360726	185.85768631756324	1
463.85967343883834	2.0882886103096996	1
327.07676482799116	226.57931421860238	1
513.9786017847975	320.5523016825389	1
