92.62213886744556	67.1095374647179	2
276.7734375	212.5	2
427.7576460967824	454.2159867757952	3
216.7734375	109.0	2
302.4395537722107	235.83956492417664	4
315.0346853566939	271.2220791095158	4
496.91870165035084	383.921056562882	6
593.7561818916779	353.201976316466	7
329.7734375	196.5	2
75.7734375	31.5	2
607.8664132464926	300.55594945089047	2
566.7271440773209	279.4873057393445	2
414.7410030698842	410.56932421156057	7
512.9833378840424	246.23126634866904	2
575.9466392878994	240.06054777658102	2
217.2734375	331.0	2
528.347480087852	278.249098096285	7
543.9447931870224	309.14579166025544	2
456.7734375	477.0	2
248.7734375	101.5	2
287.14228775996435	308.1701800276966	2
608.653901633097	258.97515002308046	2
337.7734375	144.5	2
516.4469693398199	429.6030729933393	4
493.42509288972195	326.87804245975	6
288.9469149825165	66.7726633146851	4
453.03198779184083	98.24349939246659	2
453.75119716324986	104.57672430664181	4
207.0868257296491	285.5640826910321	5
423.8598365651981	272.69103238758294	2
336.49293734426885	192.8794263566652	4
247.45028896209732	324.8283966764118	3
391.15643590254626	364.51622908025604	3
595.2423006624335	465.1324819202955	2
257.9635059801497	292.89590796605887	3
298.9628791094467	232.30404677642716	2
208.87474885754398	102.20784557163373	3
37.76415645538282	10.135614271183147	2
216.27396986462915	321.9650298260673	5
268.0239660623206	371.26696414833054	2
585.6701285046558	153.88613101894168	2
467.88885469116946	424.36607572302455	2
86.30160711954986	62.69722868851494	3
242.52134599104272	98.63155922341431	4
566.271693963703	317.80412068499226	4
574.6556470086737	274.56315758171615	2
291.7072238111102	339.15952829029493	2
240.90442616723976	15.884138545276205	3
188.61392865383544	245.60843091585065	3
252.5844322106813	127.10620317265402	5
281.31360143409194	314.7921218649023	2
191.1649870683732	342.71130012150667	2
159.75930849329097	283.8092987017547	2
281.52644501689144	59.31560530601982	2
431.0436757541703	448.02814586369334	2
567.8424891897182	273.3256684854441	2
290.86729339186365	384.0085998009269	3
514.131640336002	423.32308760267483	2
517.7904267502342	240.2517735908681	2
264.962221631872	365.31284390135056	2
288.1533198719778	312.9477019821384	2
538.9211531788078	305.5372483766337	2
158.00669900691986	289.90288661450313	2
510.70610627400845	238.86451386764458	2
309.1725057746543	15.459538274605103	1
187.70471624035648	79.50619684082625	1
515.6677479829607	457.1606318347509	1
290.40021102844463	376.5501822600243	1
287.01929583111183	320.16050428711833	1
366.01994314763647	370.0556478123835	1
343.84432284826113	151.0714067848307	1
440.86266165802823	286.8970752702749	1
207.95631163976938	112.01655228772975	1
142.07767021654308	50.09062770420576	1
69.61116465099417	32.96218047897572	1
279.10524437685376	200.29393414083842	1
339.71359448622195	154.17888391906524	1
352.8893227708672	237.18597431825697	1
434.5788381356678	270.1252959052378	1
608.4984514929852	247.72655722609085	1
516.2683535004684	343.9093762600749	1
395.05165328173206	316.24034612701104	1
192.14543769819505	241.13869290869468	1
608.4984514929852	184.48305977908763	1
367.382623883977	375.53112498357655	1
219.8144670959501	173.94247687125375	1
130.21951476036236	121.23956233208439	1
251.43621497909874	318.8754918539695	1
470.15330450421	293.841607447864	1
211.90903012516296	278.03073308611323	1
182.9224278989434	133.0977181033975	1
175.01699092815622	169.98975828081603	1
26.13126131166482	64.58392920247734	1
293.59854548996356	328.0985018983241	1
186.87514638433697	86.98266788162431	1
401.3125	471.0	1
550.3125	439.0	1
589.3125	467.0	1
557.3125	509.0	1
547.3125	488.0	1
426.3125	282.0	1
426.3125	225.0	1
340.3125	262.0	1
264.3125	298.0	1
128.3125	188.0	1
146.3125	205.0	1
181.3125	223.0	1
72.3125	109.0	1
40.3125	138.0	1
132.3125	135.0	1
171.3125	33.0	1
93.3125	225.0	1
337.3125	403.0	1
374.3125	364.0	1
396.3125	310.0	1
606.5330374682968	487.6811817202647	1
256.2416151720221	288.4136020926297	1
239.46118775663166	386.9986151715649	1
241.55874118355544	91.24357593475919	1
308.6804508451171	276.87705800892445	1
531.5127281834752	305.1940298507463	1
558.7809227334847	448.87644252961996	1
435.0252705449804	454.1203262040314	1
439.220377398828	293.6574857670411	1
54.3193235583105	31.46330204646869	1
129.83124692756735	69.21926450223111	1
129.83124692756735	127.95076165563934	1
248.3430155487621	132.1458685951685	1
504.2445336334659	463.55931681797205	1
198.00173330259088	248.56008616710264	1
66.9046441198533	149.97507308816742	1
38.58767285638199	133.19464533005078	1
14.465808446758277	72.36559470687799	1
272.46487995838584	195.07247268810588	1
333.2939293391761	135.29219879981537	1
341.68414304687127	162.56039390675488	1
282.9526470930048	336.657331897215	1
340.234375	394.0	1
292.234375	392.0	1
259.234375	368.0	1
202.234375	284.0	1
194.234375	254.0	1
225.234375	180.0	1
251.234375	140.0	1
139.234375	135.0	1
134.234375	190.0	1
392.234375	291.0	1
421.234375	266.0	1
441.234375	299.0	1
484.234375	293.0	1
573.234375	305.0	1
473.234375	417.0	1
410.234375	479.0	1
387.234375	369.0	1
297.234375	344.0	1
169.234375	302.0	1
147.234375	262.0	1
517.234375	354.0	1
