577.2290832329595	546.9985541306257	6
404.02756190988464	365.90139620869184	3
517.0235257406439	448.42088057780904	2
557.0822146169269	110.23082799960176	5
532.585485664126	348.6509286521372	2
489.7325920093506	226.24357540907056	6
379.75099036524284	430.7199097988887	3
467.38748666678805	167.88650970054874	7
414.019538475858	459.28292210528696	4
251.99788741175166	91.80579415898798	2
195.46896361071003	160.43238760289267	3
417.23386750425266	44.94749661815333	3
141.2218431086049	6.908348071861166	4
295.4882501391277	380.6666304725181	4
398.3583106484041	180.44931784821085	6
509.35569088198315	281.1219616517509	4
312.6408531247319	264.9981258784944	2
215.31046564106265	81.00098122214752	4
423.007118359209	198.40833798616552	6
539.8030749843504	6.205029847780531	4
545.8153654273772	258.65924876303063	5
454.32051551603274	516.3819563501519	5
500.56480102444965	557.2888344790947	3
463.186880431877	85.93434661240127	3
281.09105586527585	393.1242432543022	2
610.3846411406835	148.84747903339297	3
434.22376449991884	440.10708048942047	6
510.38802096042593	66.67816492331013	4
605.5419897349522	459.367718257067	2
153.46634088508245	131.46681243167265	2
453.02794400403627	226.18536563288052	3
227.24104543829247	165.18104983367306	2
310.14790680497686	239.62001345731068	3
446.67476460882534	414.97365542701544	2
421.1342214271704	511.3225840729036	2
297.0870082043082	184.4321028232308	3
158.32135969870149	127.98378811873336	3
538.0754510801999	324.0848337525008	2
529.9012280880886	393.59077294908263	3
610.1655625769693	153.2272229650455	3
502.58540398552213	402.9356195199741	4
459.44777281665006	85.62796279926692	3
607.068758620188	451.571457753922	2
354.79984069735883	301.36714315280335	2
580.1253267573254	607.857476058549	3
220.09651497821744	58.38694626375107	2
309.6512620649564	259.7230277015317	2
98.43155360689182	6.808658932694879	2
124.70902851929849	80.50489136894993	4
338.17416608586325	412.49732664321346	6
447.60036843609294	409.94609657736027	5
310.2421875	253.5	2
612.6293661212644	449.71543134872417	2
529.1171875	399.5	2
227.5967971283619	191.21739811993586	2
231.40569064780908	158.3763234992914	2
282.76650566192086	263.82403303115643	3
517.7309667520267	66.93504100791222	2
451.14841766093423	232.64422364994215	3
411.84567930511673	453.1350192798641	2
392.29998941149364	429.7988307714238	2
362.046875	255.0	2
160.58311220213912	160.79494160015636	3
504.2735483308304	314.25176184690156	2
515.9697266464609	438.76736764713576	3
305.7923303928547	160.6191645309643	2
199.14499240963187	235.18271299826017	2
371.38612489340846	445.8457799429759	2
224.171875	187.0	1
515.171875	398.0	1
493.58269534036106	225.26755771567437	1
224.14505310064584	59.62964763061969	1
257.27263206454523	98.27849331713244	1
169.77869201643017	143.3948937465644	1
292.1825500485519	181.05697701398782	1
427.14064993012204	509.5540366242921	1
382.15461663626536	360.99804151389975	1
382.15461663626536	289.8585508976555	1
495.921875	404.0	1
440.921875	440.0	1
569.921875	552.0	1
533.921875	560.0	1
460.921875	522.0	1
425.921875	515.0	1
500.921875	551.0	1
598.921875	573.0	1
529.921875	357.0	1
492.921875	233.0	1
392.921875	185.0	1
549.921875	115.0	1
422.921875	80.0	1
460.921875	27.0	1
225.921875	51.0	1
216.921875	89.0	1
233.921875	200.0	1
299.921875	188.0	1
204.921875	223.0	1
316.921875	232.0	1
537.921875	289.0	1
598.921875	279.0	1
564.921875	294.0	1
557.921875	344.0	1
555.921875	309.0	1
306.921875	155.0	1
373.921875	451.0	1
486.921875	50.0	1
488.921875	17.0	1
197.921875	154.0	1
589.921875	346.0	1
575.921875	317.0	1
251.921875	102.0	1
564.921875	368.0	1
379.921875	380.0	1
404.921875	371.0	1
386.921875	356.0	1
307.7689258606731	166.79723311607228	1
550.4667013503563	260.2579563301298	1
532.3774261585787	388.3895929945635	1
500.7211945729678	406.4787652295424	1
429.8715334051721	344.6740934266979	1
484.139358980505	20.57642421665969	1
429.8715334051721	201.46814656644847	1
434.3938522031165	432.1050925624291	1
523.3327885626899	552.699574128955	1
499.21375497365307	316.032904054648	1
390.3125	363.0	1
581.3125	550.0	1
446.3125	521.0	1
370.3125	250.0	1
222.3125	67.0	1
556.3073951481673	104.7684368587062	1
158.04646340351837	165.5807344834946	1
200.9727913759955	162.0035405055659	1
365.52371527049115	454.14104870307887	1
383.40968525902326	421.9463029017203	1
299.94182531254	381.4047711518613	1
510.99627117721917	435.0626808207923	1
534.8405381446524	395.9943776354834	1
507.163512406495	405.57488677182573	1
295.3278154105977	190.54568171169765	1
283.61830452137724	270.38325784788384	1
529.5180331950068	556.7340309230049	1
604.0331024900461	566.3145400593472	1
335.77885302790474	418.3488989536155	1
368.77838371570783	450.28392940809	1
277.23129858180243	347.0273309386225	1
613.6136113994082	265.0607527721381	1
588.065587641109	279.96376698422614	1
225.070750075275	200.12619084803998	1
215.49024116591278	54.28955177260659	1
429.4549401416684	351.2853349992191	1
505.03451042663676	323.6083086053413	1
452.87396192010925	333.1888177416836	1
