27.53303580135372	47.447546626842865	4
399.6104758704049	249.77869110489047	3
458.9460585968515	423.470457920672	5
273.50958656323445	399.5544395202925	3
347.019146084903	186.88728886967493	4
80.02587235707793	359.02487256164085	6
385.1543681646798	530.3001017371909	3
402.37108165165046	309.1519472744789	3
392.9535240197406	277.9832397589474	4
284.94131975191726	166.60548121063454	3
271.32537723175705	100.01598724613986	6
599.1557355350678	519.5531236741915	4
523.7648664062847	445.7750316534315	6
546.1027786172269	558.0224571256184	2
454.3231241715971	311.6842511310853	7
203.7539243675187	385.496136710321	3
378.9963350057891	401.4668952771515	4
112.08785611052113	29.305482787134494	2
373.9037982694365	465.19497627608234	2
530.1251327660725	250.69945511098246	2
171.93457106288145	365.54724505965396	5
125.7857572116491	399.6177412203791	2
526.0484088441797	248.27512585471882	3
106.07936184116397	31.78507551669287	2
395.9631984697374	245.68603230356945	2
390.5092684414102	274.8170670749096	2
128.72136526984258	216.15812161801148	2
382.28753004014493	535.426343492175	3
342.7504550612513	188.4056166392666	3
208.26531256417425	324.0113476987776	3
597.4967349774304	525.492155131427	2
551.3454045045117	552.5528711981424	3
47.7598192274347	93.76584711088778	1
271.9306430837041	403.7893251980444	1
280.27742907835244	168.88692064739112	1
122.88089317926966	403.7893251980444	1
402.9316271315748	316.65720301568973	1
204.32646472923523	327.76798206887185	1
527.234375	382.0	1
513.234375	188.0	1
503.234375	90.0	1
256.234375	103.0	1
338.234375	38.0	1
296.234375	164.0	1
295.234375	96.0	1
365.234375	323.0	1
100.234375	273.0	1
166.234375	370.0	1
200.234375	381.0	1
282.234375	398.0	1
342.234375	490.0	1
330.234375	469.0	1
356.234375	416.0	1
343.234375	385.0	1
538.234375	247.0	1
38.09605877194672	90.19479919987691	1
473.37069021116747	585.9629171727732	1
387.36103036948015	539.2416210207246	1
354.44375314611835	410.75805660259095	1
383.1136397600141	396.9540372849402	1
288.3282541761055	159.44917537298218	1
496.5047610735005	79.07723070074891	1
462.24786753342283	428.2340395227459	1
206.63873881130485	378.166270710535	1
213.2266029536275	326.78092903484486	1
48.52999939556176	101.47596937989589	1
273.8349530629957	391.34199934532734	1
538.6670915843654	552.0858886897939	1
351.5717499424027	378.166270710535	1
337.0784488292929	482.2545269253945	1
335.7608760008284	458.5382153827683	1
523.3975164078705	252.87387606318347	1
178.87069518331663	371.0289185905225	1
210.89402151508608	319.12904009720535	1
