551.6478221832102	376.06599547253114	3
190.94552717959732	113.55053734932152	3
573.4098860852808	353.416175624109	6
505.4492750167127	143.13656471522648	7
444.2908431242601	264.3009399801964	7
234.51144949225383	31.91276843837095	6
268.1926575237352	156.66430075392242	2
197.85971580863617	227.5024705441651	5
215.5966930334793	268.86264683264653	7
586.056773040747	236.1405707380665	10
170.75736917073536	53.35633211822711	2
505.5839007799526	426.71261906832115	3
425.39160815288756	330.7043814595198	2
474.632978614315	306.24280658562856	2
454.3908143422192	392.650498057744	3
479.35247382489354	379.1327896599477	2
176.0281365445545	262.23312847454207	4
100.2469856273736	27.752951692540044	4
195.2543567891072	224.19136017843257	2
411.9378296651146	258.99755980778053	3
559.3357520147338	205.4817993464118	6
264.5763956253453	92.37178796737959	3
334.53639118354045	357.6526038424874	2
486.61694420176497	343.5233053640752	5
521.1072370908039	302.36128403877274	3
482.68782862730336	426.52010209001173	3
295.89015268661626	145.4995690427623	5
232.39227240452647	164.30311084313053	4
499.8885782665383	364.5089633198894	2
261.62907848923334	159.08397439028295	5
83.76874594836173	46.785747313152015	6
445.99999683006695	459.0977979841299	2
558.5366744453929	414.73291911252073	3
479.1712746348592	238.28182887515916	6
590.4728375932365	440.4860587393855	2
415.7194999995674	445.42745804242804	2
514.5085213374691	302.9068512536896	3
501.4839330610534	147.43875980920143	2
483.19824483982336	421.6458602985908	3
393.1852147013683	323.83942630445097	4
230.66734866773726	28.658485920910913	2
291.5818733581324	146.38998307431913	2
454.8388350753271	436.2964120904106	4
186.6674260417683	116.68272041852593	2
586.4453602165661	444.3232053085277	2
604.2180693709877	413.6931102274218	3
179.99499085114508	261.92045964719455	4
498.9330243049692	358.05025512442035	2
176.1472615557562	47.296636522863814	3
230.83003759452197	36.24712645843433	2
76.22155991529829	105.78033172983245	2
427.0636402425274	414.2684700025751	4
232.9209312873632	158.22016364988235	3
392.04844832857987	319.1396716142216	2
238.5003373183356	222.50692588092346	2
484.07365462269365	381.27947128376104	3
194.53404088251648	118.71824936253113	3
563.9472824363695	420.23895049195687	2
414.9644636362948	265.53037638606907	2
80.92114499768013	105.87077831643695	3
448.36254502758095	262.95820170109357	2
481.1207255163349	310.03851598648794	3
276.1911373929329	237.59593159456506	3
448.843620198217	436.3546152278748	2
580.8227471505558	495.1162355168797	3
108.76807196244107	29.855989043714853	2
165.2318985871981	7.984241583025574	2
349.8236095302235	235.80228056069558	2
141.72264091805084	272.0593403494603	2
294.02285973342	140.08545289159275	2
177.3956551193284	56.737418200608616	2
477.01890585841136	231.89307411907654	1
493.58269534036106	363.2991494532199	1
555.42084273964	468.20315917375456	1
545.4825690504701	489.1839611178615	1
581.9229059107595	530.041312272175	1
248.4386110075054	310.2950182260024	1
342.3000847385537	265.0206561360875	1
318.00652683169415	332.3800729040097	1
438.370063733862	460.473390036452	1
293.71296892483457	422.9287970838396	1
285.98320049992475	470.41166464155526	1
497.99970586888094	526.7285540704738	1
404.13823213783263	347.8396111786148	1
125.86656884107758	253.97812879708383	1
90.5304846129182	242.93560145808019	1
46.360379327718995	39.753098420413124	1
500.84375	141.0	1
262.84375	152.0	1
476.84375	246.0	1
509.84375	296.0	1
387.84375	324.0	1
565.5410973435044	210.51273268393788	1
470.5724025866718	236.13906001682463	1
404.2450602168205	261.7653873497114	1
267.0680566791735	98.96283723490149	1
271.59037547711785	166.79723311607228	1
110.294338350434	19.068993197078118	1
53.6860906966847	42.580040605965955	1
220.81274611555844	273.57676089333125	1
356.0043718365582	160.7396532875215	1
348.5528649070543	191.6101827268468	1
348.5528649070543	269.31875683273466	1
594.4525935806838	369.38185225675466	1
420.9389322222353	453.4774324535374	1
460.3254688496132	389.6073715445885	1
7.912548129732021	19.16101827268468	1
122.8786550420783	76.64407309073871	1
312.3598312494638	325.7373106356396	1
70.71810653555082	219.28720912072467	1
31.331569908172927	201.19069186318913	1
98.39513227370826	233.12572231766362	1
86.6856213844878	248.02873652975168	1
115.42714811257437	256.5447446509449	1
100.52413425356652	272.51225987818214	1
81.36311643484214	295.9312822114634	1
120.74965306222003	310.83429642355145	1
176.1037045385349	310.83429642355145	1
203.78073027669234	283.1572700296736	1
331.52084906818817	277.83476495392784	1
64.33110059597603	159.67515227237234	1
410.29392232294396	349.1563329689208	1
430.5194411315975	368.31735124160554	1
397.5199104437944	381.0913634233953	1
398.5844114337235	402.38138372637826	1
384.7458985646448	450.28392940809	1
488.0024945877706	380.02686240824613	1
588.065587641109	449.2194283929408	1
509.2925143863533	525.8635014836796	1
286.81180749116464	305.51179134780574	1
264.4572867026529	290.6087771357176	1
30.267068918243798	30.870529439325317	1
593.2037057967533	361.10031922841813	1
561.2602181376358	411.0988249677376	1
139.3125	277.0	1
578.6101480143695	534.4583232077764	1
517.8762532472206	295.9397326852977	1
30.900842477899268	295.9397326852977	1
225.82709048162693	160.46284043699032	1
157.09944147757676	11.536544083705186	1
71.0997509737009	111.1703338975227	1
596.5368844181131	416.364363748269	1
398.3180855738139	329.31589475303895	1
421.3911732699757	410.0717033389752	1
239.9528018410669	231.77965840898602	1
158.14821819103867	226.53577473457457	1
590.2442241373417	366.0230804739191	1
171.171875	45.0	1
160.171875	4.0	1
