81.17448559104385	162.2016478742499	3
397.37014677130344	373.16984913962756	4
177.08214379185122	247.7902707884804	5
425.9208024164826	401.8909719666918	3
516.3754503589696	65.430476803132	3
262.5837710232304	61.34134192001946	2
338.8125957369989	198.39937768567972	2
292.39197791913074	96.33464683369024	4
227.90890114678234	357.6152642769405	3
247.7140121399329	161.5459500599075	2
489.61469846558896	462.5866805548634	2
580.2061651415811	134.44142460888077	6
429.2981877450643	448.8577261241371	3
516.4101506644665	202.80575350215884	2
338.973984743111	253.33963790826428	2
127.60722096594891	171.31245200388724	2
158.8309908290587	158.40701482301185	3
569.5492182536088	327.07305100258424	5
352.26605925069055	359.14133126203683	5
567.4440344052924	519.914497119667	2
205.91345419156545	210.01946251779987	2
489.9207558013567	528.7760021418442	3
233.04083369756404	90.08942778445943	3
337.513047243111	533.8199343005423	2
480.1858563987389	397.2464158145333	5
311.46574645301826	361.17089380015153	2
98.18196834684854	105.61181514759485	2
324.1076102723238	278.33293940653584	2
240.06500367569126	211.75847209259655	2
498.0107758005447	420.56515911708175	2
305.703125	272.0	2
490.703125	428.5	2
357.2679694986464	490.8436180583527	5
83.26809651729451	205.69550425273388	2
423.3230018653115	406.68250303766706	2
397.75834919256545	377.0736933465553	3
428.08080778838945	455.1438380674821	3
273.8200632441026	148.43711430486835	4
266.2734375	66.0	2
369.69873227135076	229.36323337440854	2
210.39052113165206	394.6599150645108	2
174.03930919699604	256.07131521325584	2
225.90797692018123	366.22400980822823	3
342.45965478300684	247.37332531840963	4
186.63216192784105	178.8983687760402	2
156.76925043606622	152.95552302831803	2
254.69700671910695	249.06580462774554	3
417.15596887870856	157.31204830840716	2
467.2559410878039	66.82915077073682	2
153.7571400203875	156.44469059079418	2
107.60117791286405	104.13049521260166	2
240.83100368553892	219.00100845355257	4
465.3169228397783	587.7307731905694	2
339.3268908915746	204.3017828068982	3
204.91861496837845	401.97399756986636	2
374.44606764238694	227.23803159173752	2
124.61339389563416	175.84021871202916	2
330.25676236765736	536.8334143377886	2
45.652975910039714	92.75722964763062	1
65.52952328837937	35.336087484811664	1
201.35259704036696	215.32928311057108	1
328.3416497353147	283.79295261239366	1
299.6310812999352	276.06318347509114	1
330.55015499957466	106.008262454435	1
495.08379718694175	432.8670716889429	1
413.3691024093232	161.22089914945323	1
510.54333403676145	210.91227217496962	1
322.8203865746648	424.03304981774	1
373.6160076526439	417.40753341433776	1
401.2223234558934	437.28408262454434	1
482.93701823351194	506.8520048602673	1
562.4432077468705	220.8505467800729	1
338.27992342448454	85.02746051032807	1
461.9562182230423	594.0879708383961	1
408.95209188080327	605.1304981773998	1
486.2497761299019	536.6668286755771	1
533.7326393114911	202.0782503037667	1
289.6928076107654	320.2332928311057	1
272.0247654966857	358.88213851761844	1
258.171875	64.0	1
107.171875	209.0	1
345.171875	201.0	1
481.171875	402.0	1
558.171875	600.0	1
321.171875	417.0	1
211.3125	220.0	1
109.3125	203.0	1
86.3125	200.0	1
293.3125	90.0	1
248.3125	157.0	1
372.3125	219.0	1
231.3125	362.0	1
219.3125	398.0	1
499.3125	413.0	1
563.3125	600.0	1
344.21859082688826	255.43333676516008	1
283.38517704414215	94.82855569403786	1
569.0562032705712	321.23173241355323	1
430.3694395008941	405.39207559201185	1
331.984812211294	541.7081244021913	1
373.234375	236.0	1
337.234375	213.0	1
292.234375	103.0	1
329.234375	114.0	1
571.234375	219.0	1
546.234375	202.0	1
567.234375	334.0	1
553.234375	305.0	1
487.234375	471.0	1
306.234375	367.0	1
279.234375	326.0	1
198.234375	227.0	1
245.234375	147.0	1
227.234375	98.0	1
212.234375	388.0	1
469.234375	594.0	1
437.234375	594.0	1
545.234375	584.0	1
568.234375	608.0	1
502.234375	404.0	1
117.234375	183.0	1
577.234375	141.0	1
487.234375	511.0	1
193.234375	174.0	1
77.234375	158.0	1
54.234375	30.0	1
115.234375	213.0	1
329.234375	290.0	1
368.70019671244154	224.01024568346463	1
529.4440817851137	245.0914114991324	1
214.544175782092	383.43656216445197	1
247.48349649370516	247.72655722609085	1
416.13281853716444	151.54373819210676	1
338.39602165775744	94.88810506249972	1
280.42281720531827	332.0512204887618	1
558.4306840113333	210.8345170486723	1
279.10524437685376	146.27344673818985	1
298.86883680382164	267.49015017827935	1
326.5378662015767	419.01102947839127	1
383.1934978255513	422.963748068829	1
363.4299053985834	484.88967265235294	1
186.87514638433697	172.62490400777452	1
460.9302947049583	64.58392920247734	1
