512.375	176.0	2
565.4252640357039	539.2965255415029	3
523.8359375	625.0	2
134.24145712957008	126.35283437217186	6
544.8526173482762	464.8613001215067	4
479.91006681488955	433.77393915388575	5
388.92422233284964	97.52207710374961	5
570.3787460245553	91.05735048163969	3
487.38772804794695	557.6553630005327	5
548.1518926722656	402.7530223858546	7
250.30007413932358	70.4619689205939	8
442.5372239837094	338.343025323231	5
585.7192933255899	147.98282055286586	2
610.6217224324878	153.52049900554675	4
486.6084788494401	359.936796211918	5
183.375	270.0	2
121.10632897644957	64.2097733091248	3
603.3046875	488.0	2
507.7325468739673	483.47991503719	4
330.914673544165	62.37052943932532	2
480.10272473708926	122.64354157622184	4
499.12991695098253	252.83963790826428	2
297.293012577472	29.424127744805922	4
369.4100619419885	170.49487914040802	2
481.7048552968749	463.91879495324156	4
570.4538343628408	341.23294374660776	3
170.0420471696969	235.67237753803323	4
421.6259927895186	472.9482510240434	3
400.22975535987507	509.09893068681345	3
366.4039397208196	278.9345936219768	7
192.68255256674237	25.10203544514268	5
286.3789939244382	158.37112688336308	2
328.3528060831595	159.17746830385056	4
333.4462866842956	66.79060522495885	3
305.0840591278131	419.34885563283103	2
487.1803080856746	561.5468329113635	3
515.0564593787719	183.50188867980353	6
332.8203378896907	284.2334204722714	3
543.5016126127857	458.78701546362754	2
237.15769011963891	293.38187148250006	8
301.1387099803753	30.504730944269006	3
420.659956011279	313.4613866317659	2
336.9923060590663	219.71067305814444	2
486.8855995513567	364.3364846061317	2
363.03050746512804	393.3196699764066	4
568.5322036550201	195.978165244757	2
347.8448432758248	239.83170377692568	2
413.0216428412194	153.83500696560796	2
526.7318439759251	211.51260331981405	3
606.3073937334191	491.9005264486429	3
369.3770194600295	175.3085811732752	4
266.1685465128407	378.3073268168155	5
169.84854106484784	183.48721489815975	3
116.5735880819282	65.81830387628537	4
570.0964397947298	546.8546780072904	2
523.5163704014738	205.08671687061084	4
564.7502322763879	341.191161706739	6
169.7083872815692	240.45783718104497	3
611.050702885655	299.69197323299886	3
422.52185677705984	304.53350218461463	3
511.1982006577495	487.8124004473515	3
495.4022898316531	256.4279244611426	7
160.61639484042203	78.32722629101497	5
431.71578344328213	410.20454804550707	6
340.96291805205016	364.14423444415024	6
308.2425028873272	413.09951397326853	2
438.7862466119276	333.6620277304296	2
338.53758357182767	54.97002979008672	3
301.5118293538644	197.30749638260926	6
343.9999967343167	224.60405278775573	3
179.3709045978952	267.0526781109676	4
318.72348314977154	153.32837727853274	2
496.7680437032333	360.4839190700512	2
342.6533726554196	162.57960822855594	2
579.9431378232498	148.0370595382746	2
337.83142192096597	185.7070071559387	4
294.78786272852136	447.2202286563545	4
177.17047943694814	103.56396519782854	3
375.57472036553315	171.92137646684	2
300.8374308407415	363.55621022241445	3
484.1764137047426	431.3910597300037	3
288.43935075029424	407.61399387035084	2
522.508316380019	620.23914203193	5
205.46942549658127	127.20653155873171	2
564.9628082129504	545.5495730581056	2
547.4379545468962	468.42020265975214	2
163.5411760202342	155.0692018919952	2
285.0369854424398	165.94893978385596	2
359.27060113753913	387.68338055753793	2
563.2206300721723	207.06113311667679	2
237.45830317652988	152.63597928588985	2
193.99513919029133	328.77723174514375	2
251.61269117194274	409.8187634950027	2
171.35975619678976	136.3853923337109	2
307.1833955652436	422.8613718778595	2
291.171875	27.0	1
188.171875	27.0	1
98.171875	144.0	1
210.171875	115.0	1
330.171875	153.0	1
180.171875	275.0	1
576.171875	630.0	1
422.171875	288.0	1
299.171875	357.0	1
316.12479747404194	156.61531162097128	1
142.5452894134572	160.81114251292297	1
485.95591319327417	463.68023264422214	1
562.5175638828099	7.451507106044042	1
615.7426133792665	147.9656411057317	1
195.26472235725927	34.06403248477277	1
244.23176789399935	155.41714821177573	1
314.4888332293221	226.7387162267687	1
336.84335401783386	261.8672497266906	1
338.97235599769215	286.350773075121	1
605.0976034799752	496.05747305950337	1
577.4205777418177	635.5071060440418	1
459.26096785968406	572.701546150242	1
426.26143717188097	504.57348118069655	1
491.19599755755803	467.31594565047635	1
398.5844114337235	385.3493674839919	1
445.42245499060533	383.2203654536936	1
295.3278154105977	405.57488677182573	1
316.6178352091803	422.6069030142121	1
176.1037045385349	130.9336248633453	1
212.2967381961254	122.41761674215212	1
175.03920354860577	182.02967359050444	1
595.5170945706129	242.70623145400594	1
479.4864866683376	127.74012181789786	1
260.19928274293636	293.8022801811651	1
539.9613058898202	403.05224787363306	1
563.1506111645498	94.96573511543134	1
130.2835793695975	130.301822600243	1
505.7294742937908	492.49671931956254	1
495.791200604621	560.9603888213852	1
374.234375	182.0	1
244.234375	63.0	1
493.234375	124.0	1
509.234375	181.0	1
302.234375	369.0	1
240.234375	164.0	1
478.234375	428.0	1
555.234375	460.0	1
494.234375	590.0	1
390.234375	102.0	1
331.234375	291.0	1
323.234375	265.0	1
140.234375	130.0	1
582.234375	140.0	1
586.234375	246.0	1
450.234375	341.0	1
600.234375	498.0	1
304.3125	192.0	1
191.3125	31.0	1
548.3125	408.0	1
428.3125	499.0	1
526.3125	615.0	1
236.3125	145.0	1
365.3125	389.0	1
256.3125	414.0	1
381.3125	210.0	1
566.3361209821204	13.198587526787211	1
607.1808786645207	296.4767531748225	1
500.4574795588941	486.2072455158322	1
605.8633058360562	503.33569274106225	1
437.2139837925969	407.15287370707813	1
453.0248577341712	359.72025062182576	1
140.76009738807855	122.55713519556363	1
300.1864096322862	188.4357783695253	1
198.7333018405177	342.5918033965957	1
566.3361209821204	552.0858886897939	1
608.4984514929852	143.63830101123136	1
381.87592499708677	90.935386472062	1
343.6663129716155	355.76753203138804	1
290.9633998330345	368.9432606661804	1
395.05165328173206	379.48384357401426	1
594.0051503798754	237.18597431825697	1
242.21320517984705	148.9085924651483	1
238.4375	158.0	1
197.4375	29.0	1
467.4375	280.0	1
