372.0228838757622	573.1826397870299	4
415.41039154033683	363.5451897366005	2
262.5387536228592	218.3364456508803	2
154.81548066401714	80.1127114232215	7
327.18877005019294	234.75430706086823	4
494.40665846377186	502.25728424801883	5
274.8833389395751	268.32440462764527	5
377.39686757746	257.17346152356157	5
447.2734375	561.5	2
331.53982529844853	358.42976728747385	2
275.4570137527411	167.78274547604093	7
183.0833347814389	268.38887855400134	5
133.29210921179066	239.4528917552667	5
405.53560541539633	275.6110803861511	4
212.85590116776194	279.47842306001405	4
353.6653873440852	387.4825313379273	2
417.8539618423475	450.2699995521132	3
306.6859688457691	248.6892848781155	5
469.69388831852496	313.3710191145976	6
313.8527519879493	282.0730400291462	3
259.4691929584233	282.04844559567124	2
519.005458755358	109.9160348136156	2
366.5104422792026	28.738027139605514	2
550.6774530664932	147.21730594054623	4
207.848045530777	280.9308100798487	3
529.4897291836419	480.63065259703694	2
166.003797065353	156.98828042125194	3
288.6551513827012	387.076133002583	2
508.98053344155016	320.85565750660396	2
129.14495300286146	171.29764360874066	2
102.04452433262571	102.27406728026918	2
427.310940121916	585.4706410893366	3
234.5004808630171	262.3290787133693	2
108.90909238882752	142.4283302815843	2
254.20914320846532	284.5886159665778	2
590.8399522444215	144.13084471803433	5
575.2188220666822	278.81206284703995	4
543.9612992057821	372.9326011988444	2
230.36192040065498	106.34332074974516	2
371.3125	578.0	1
198.64602467845083	123.28192605642634	2
181.29757109344956	64.89402876711951	2
135.43740840506	232.3703044738428	1
446.1806308882415	553.9572460403851	4
210.09543977969844	274.77950453915986	1
518.5347644627238	117.306903481873	2
374.05743753014156	253.52102786643314	2
372.655830366293	257.99907678104324	1
149.5204557203228	299.26478606479753	1
314.97311112588847	463.55931681797205	1
276.16837272779816	259.04785351592557	1
544.989784908628	151.00095075774746	1
350.6289110332455	307.2050877939687	1
286.23941907452985	382.326161330472	1
150.3060471616856	306.0126898013258	1
498.4862629384445	352.5162115143993	1
608.1868788681082	246.39279016918027	1
266.3125	220.0	1
214.3125	54.0	1
430.3125	127.0	1
469.3125	480.0	1
547.3125	366.0	1
373.3125	328.0	1
321.3125	343.0	1
550.3125	154.0	1
437.3125	478.0	1
349.3125	302.0	1
398.89360576886315	213.48821538315798	1
279.6283081991035	215.5805533424593	1
380.0622429946906	143.3948937465644	1
222.08803305579843	149.6719076244683	1
173.96343929957962	113.05599333669552	1
196.97954935690166	153.8565835430709	1
543.2673870375196	301.36640967381265	1
542.2212002167322	232.3192570168697	1
523.3898374425596	115.14833129599683	1
427.14064993012204	137.11787986866048	1
183.3791206866659	93.17878272333317	1
128.9774060057229	97.36345864193576	1
519.2050901594102	392.38311090341927	1
504.5584746683871	351.5825206970439	1
354.9537592957938	302.4125786534633	1
563.1449366324796	231.27308803721905	1
116.42316415627452	37.73182680184868	1
253.4736376794194	356.8133655952971	1
444.9258258835073	438.41454600804786	1
497.2351669228755	257.4273125284853	1
459.5724413745304	228.1345810982671	1
501.419914206025	84.80943088612796	1
162.4553842709186	12.623771290233066	1
305.78297871878766	432.137532130144	1
463.7571886576798	482.3536431533752	1
584.0686730482269	591.1552170370429	1
552.683068424606	553.4931337696195	1
601.853849001612	515.831050502196	1
571.5144311987784	546.1699509120649	1
608.1309699263362	418.5373353946855	1
153.03970288383232	228.1345810982671	1
163.0547243264521	150.21549190067498	1
332.3268420096951	255.96918632643235	1
346.391082145341	80.16617373959694	1
368.8938663623745	108.29465575349062	1
436.402219013475	120.95247265974275	1
419.5251308506999	149.08095467363643	1
164.96238439550842	164.55161978127794	1
432.1829469727812	587.8852740903776	1
292.234375	214.0	1
307.234375	286.0	1
212.234375	285.0	1
340.234375	440.0	1
315.234375	401.0	1
266.234375	359.0	1
306.234375	255.0	1
474.234375	322.0	1
426.234375	592.0	1
288.234375	411.0	1
235.234375	257.0	1
316.234375	575.0	1
300.234375	366.0	1
257.234375	428.0	1
478.234375	584.0	1
99.234375	92.0	1
