447.00857891969764	390.4951181620612	2
276.04914163664876	244.54426073418782	2
516.3854383815295	198.62814386245827	2
350.4441139615525	152.72869149693292	2
452.9444673588771	339.0377470155198	2
543.3467535216174	284.25419082765825	5
194.3402912367948	205.97957553501112	2
191.03608820440832	190.74446168233078	2
194.12385415811292	90.0703332882372	4
505.64842831718556	273.0282318617358	2
388.77627533825006	212.11947057849724	7
471.6012691504792	145.76375097434507	2
437.9219364446586	370.7208120107093	3
333.4931194836422	336.5890975022876	2
503.90666346936814	402.1630836704191	2
447.9765821193869	425.56399610550505	4
239.5634204590374	202.99684780325225	2
244.98745387886134	237.36497717163982	3
338.6363868855547	262.76210231862706	2
471.978648246803	292.55318103268473	3
264.6205402637157	409.50123382217737	4
398.7080984780091	412.322484793154	3
431.74389780486274	352.726147062222	2
375.0300219549907	466.43649691126836	5
304.60114296658344	288.54215088930766	2
213.4951242721249	376.37594875590935	5
472.2201507891187	211.5128666897471	5
504.9867778620754	248.9630023917274	2
241.3671875	209.0	2
410.36520916447796	234.35873963325395	2
208.76936711820443	139.75706699984383	2
403.4350510604515	416.55164256039393	4
238.20463147217686	132.9990629392472	2
480.6890869588004	445.0091876939217	6
565.1556488625001	212.44653898266694	3
268.3462233378316	108.97157582383258	4
554.9330157949157	39.40494811945864	4
507.4210435301948	30.682874288352053	2
332.8671875	260.5	2
193.671875	186.5	2
514.0673736705805	191.98745960917063	2
368.171875	381.5	2
434.2138585590283	245.23126634866904	2
103.14106910664152	71.69303451507106	2
485.93327639557583	99.26811817202648	2
510.4139728415529	403.3453459315946	3
588.3274529446127	286.72727536957893	3
231.05925125623017	168.49941433702952	3
581.6628334203481	56.87076370451351	3
505.2027542233892	277.9173824769639	2
228.78548702446824	271.3165871672565	2
334.24167392312313	442.650671650322	5
133.171875	124.5	2
412.666540887083	160.0022476697661	3
296.91055968400474	291.27996614863827	2
271.825239122462	251.3288198184336	2
367.4418783679248	387.2069342495705	2
189.0390625	210.0	2
339.66715271800774	335.8626908254389	4
403.5706456916846	53.67702639387787	2
434.8840157302726	97.21934143714418	2
302.8293634944413	155.31805248717728	2
319.203334626605	393.5704634528884	2
362.975981035338	232.2331242723488	4
11.737153059676947	32.747942985353866	2
528.4178272623171	231.92043985575026	2
610.2955450613692	505.5820463446881	2
579.660880500433	186.49283037020774	2
441.99036629759564	102.01532484634797	4
595.5104632758657	340.7542439823693	2
301.53386729714964	117.90111022618673	3
541.5425828766727	157.0699521715483	3
144.33353574011383	264.1518566137964	2
215.8980426736955	40.1219618348953	2
429.73137744548734	243.29711856440366	2
604.4958245843944	154.26141361216156	2
25.465595993485046	148.45383086964182	2
129.0319277361129	243.00335483321516	2
531.8139240936271	324.07760588326016	3
133.79073363785952	64.45497137595888	2
221.47603405212016	416.30785461605996	2
570.158992973407	407.8468814758007	2
380.5041123014122	297.4241879665914	2
109.98884199089274	8.445248859992326	2
123.86946898926635	157.3199521715483	3
540.0408546309679	420.5029615555891	2
253.73971291476676	50.17064163717495	2
446.6783938397997	332.2311124788429	2
97.5814594051242	162.3045853208186	2
179.98375123013835	16.865825511617174	2
234.7763341368787	208.30450838590554	2
454.4943755022637	189.9124682790578	2
362.42452558363277	381.52291232188924	2
415.9736232869499	281.2417593726813	2
251.62254875597787	44.5963210606365	1
262.1848342424249	115.01156484058886	1
327.9057217136512	436.57451143570466	1
453.47956027474424	333.2988205584412	1
481.6456549052698	77.45676815794761	1
548.540129652768	281.66097511980945	1
510.98533681206726	393.1517777714007	1
218.76210502036474	369.6800298447499	1
297.39245253058186	157.2607111085603	1
33.34378928907249	60.8290506231728	1
82.63629482178182	25.170641637174953	1
212.6846072910575	45.097399599938456	1
255.68445254299542	115.36544083705186	1
526.2688446161658	119.56054777658102	1
473.83000894307077	73.41437144176028	1
469.63490208922315	139.48730573934452	1
471.73245551614696	171.99938452069551	1
449.708144533447	195.07247268810588	1
585.0003405700322	61.877827358055086	1
523.1225144757801	13.634097553469765	1
280.855093666081	31.46330204646869	1
187.5139661679719	198.21880289275273	1
156.05066476411486	29.36574857670411	1
50.124216704462896	106.97522695799354	1
71.0997509737009	263.2429604554547	1
81.58751810831991	295.75503923680566	1
222.1235977122146	381.75473149715344	1
599.6832145584988	531.7298045853208	1
614.3660885469654	420.5594706877981	1
200.0992867295147	140.53608247422682	1
346.9280266141808	157.31651023234343	1
206.3919470102861	255.90152331127868	1
397.269308860352	421.60824742268045	1
311.26961835647614	349.2426527158025	1
420.34239655651385	354.48653639021387	1
223.1723744256765	167.80427758116633	1
102.56305237755792	83.90213879058317	1
105.70938251794364	60.8290506231728	1
39.63644956984389	163.60917064163718	1
71.0997509737009	203.46268656716418	1
282.9526470930048	264.291737190337	1
336.44025947956175	255.90152331127868	1
354.26946360841407	65.02415756270196	1
599.6832145584988	110.12155716264041	1
69.55936017580375	272.6819510693953	1
213.24176992008412	245.41375596245578	1
484.8749387067164	446.7788890598554	1
461.80185101055457	142.63363594399138	1
588.7038333394446	48.24372980458532	1
211.84375	31.0	1
188.84375	97.0	1
101.84375	66.0	1
130.84375	71.0	1
152.84375	11.0	1
509.84375	43.0	1
523.84375	197.0	1
485.84375	214.0	1
366.84375	234.0	1
259.84375	408.0	1
79.23411445498388	30.870529439325317	1
147.36217781044834	8.516008121193192	1
164.39419364931445	23.419022333281276	1
284.68280551130636	270.38325784788384	1
456.06746488989666	195.8681867874434	1
472.0349797388336	151.15914415117913	1
320.87583916889685	357.672341090114	1
357.0688728264874	156.48164922692487	1
384.7458985646448	167.12665937841638	1
257.00577977314896	55.35405278775574	1
275.1022966019442	30.870529439325317	1
67.52460356576343	197.9971888177417	1
512.4860173561407	32.99953146962361	1
583.8075836813925	11.709511166640638	1
559.3240609130224	14.903014212088085	1
449.68045895032185	369.38185225675466	1
605.0976034799752	529.057004529127	1
528.4535322050776	128.804622833047	1
482.67998963812494	88.35358425737935	1
106.9111401931413	167.12665937841638	1
208.03873423640886	245.8997344994534	1
419.87443123230616	287.4152740902702	1
381.5523955948574	267.18975480243637	1
364.5203797559913	272.51225987818214	1
316.6178352091803	88.35358425737935	1
341.1013579775504	98.99859440887084	1
127.13665900179483	83.03107918163361	1
166.5231956291727	131.99812587849445	1
137.78166890108614	130.9336248633453	1
247.234375	51.0	1
63.234375	194.0	1
216.234375	390.0	1
467.234375	297.0	1
358.234375	241.0	1
344.234375	149.0	1
506.234375	258.0	1
485.234375	380.0	1
371.234375	473.0	1
568.234375	220.0	1
218.5	30.0	1
252.5	238.0	1
282.5	252.0	1
292.5	282.0	1
362.5	281.0	1
365.5	123.0	1
403.5	109.0	1
386.5	66.0	1
379.5	24.0	1
441.5	44.0	1
440.5	89.0	1
479.5	72.0	1
545.5	162.0	1
579.5	151.0	1
524.5	125.0	1
580.5	178.0	1
528.5	238.0	1
441.5	189.0	1
471.5	159.0	1
509.5	253.0	1
480.5	289.0	1
448.5	324.0	1
424.5	346.0	1
343.5	345.0	1
303.5	360.0	1
313.5	383.0	1
337.5	394.0	1
273.5	422.0	1
194.5	212.0	1
212.5	240.0	1
121.5	168.0	1
201.5	92.0	1
161.5	32.0	1
127.5	65.0	1
69.5	192.0	1
123.5	243.0	1
146.5	271.0	1
550.5	276.0	1
555.5	366.0	1
545.5	405.0	1
575.5	410.0	1
533.5	438.0	1
499.5	490.0	1
587.5	531.0	1
576.5	476.0	1
536.5	499.0	1
493.5	531.0	1
413.14313628380904	286.89707527027485	1
375.7217770286132	386.6873623208052	1
305.0369873243543	160.77324024807672	1
356.31810926665986	228.6860744907988	1
372.9498244911913	297.984884942556	1
478.28402091322414	439.3544582641407	1
339.68639404212826	440.74043447317587	1
363.2479906102146	167.70312129325245	1
436.70473285189536	102.56223946860067	1
449.178519270294	187.10678821974446	1
427.00289897091864	248.0897414172908	1
583.618217335257	284.1251228522044	1
524.0212377806857	115.03602534991697	1
