378.19757028277627	327.929243394977	3
168.8363224721483	139.8808960180143	5
543.8165128585708	542.9282465928052	5
500.04647660053183	433.34500612642864	5
300.005114915813	421.98542753924494	6
139.5537438401904	63.7329351005276	6
486.64859177896926	383.46938863208345	2
459.78615832574764	410.1280589302662	3
374.79875024412763	332.06261658105433	2
222.75166456272615	265.2021694837432	3
225.72435664572248	217.036704388614	4
301.46541007923963	204.45246302305785	3
167.89943232514372	134.50329410419732	3
300.04170416428343	131.1363323959083	3
401.66815972513166	298.4257175456708	3
380.89471372054953	515.7409061048525	3
548.0638425880428	505.3361145601773	4
600.5338349131573	527.7185290928961	7
318.9731696794354	465.5488924564286	5
570.966875089103	142.91524377995236	2
270.8186252385589	354.1093397720937	3
415.4909505066759	485.8890921057826	5
274.2208381111212	248.126097507689	2
408.0909072077251	299.4718659098346	2
371.0912640869666	329.5336573511543	2
538.182170928535	542.2116737897998	3
469.75435867944736	552.3769439644532	2
141.1272230170983	56.57095699967975	2
415.7453269552675	480.0868921254011	1
438.1792917067788	502.52085904714886	1
321.52267499891985	458.7746235497408	1
303.5755031977108	335.38780548012835	1
266.5594613577171	344.3613922488274	1
109.52170809713773	192.93211552703036	1
364.1472080267914	179.47173537398172	1
356.29532036376247	150.3075783757097	1
479.6821264970748	385.8642310540607	1
220.49243493298582	220.37021723658793	1
584.1314111750195	60.733900364520046	1
260.5853899609352	351.1523693803159	1
552.921875	507.0	1
555.921875	602.0	1
385.921875	516.0	1
442.921875	421.0	1
501.921875	441.0	1
390.921875	261.0	1
279.921875	252.0	1
292.921875	198.0	1
309.921875	133.0	1
230.921875	219.0	1
448.921875	511.0	1
484.921875	391.0	1
311.921875	338.0	1
587.921875	64.0	1
392.921875	220.0	1
367.921875	174.0	1
252.921875	390.0	1
245.921875	406.0	1
248.171875	399.0	1
555.171875	608.0	1
398.171875	303.0	1
484.139358980505	376.33014483791095	1
503.73607377159743	432.10509256242915	1
360.5293118366912	154.73778495941968	1
307.7689258606731	127.60402660695138	1
245.96390228876623	19.068993197078118	1
227.8746270969886	267.79511142803767	1
372.58882863120965	444.1645407190817	1
301.73916746341393	195.43842248812217	1
574.5857349393932	135.14118170485924	1
446.453368997635	505.9692125219262	1
277.4414688339596	241.7590036445031	1
276.2678815576877	352.07621889976184	1
392.4530219086056	225.32878009584758	1
581.4005733883811	65.7208941946222	1
410.05683105268406	484.69159468533877	1
378.94849064706443	510.75426988767504	1
305.5341207047314	122.70687798122789	1
254.14406174509824	400.63271272503465	1
150.3151671123701	8.390213879058317	1
