386.6767345386349	375.0562301740798	4
188.35523896077896	88.78741014135309	5
172.40373624540246	280.1973853509596	7
205.26438429168115	56.816971841821825	2
422.90604775683596	260.7253683765962	5
577.2930181382694	255.82765344569694	3
504.04423713414906	113.90839474812013	4
463.56688971873916	248.30443145099247	2
316.8038211327515	191.05496591947687	7
475.2734375	371.5	2
587.2839685466508	298.72538459842644	7
304.65597543173794	230.02011840748398	6
212.36021402596015	124.14729114194705	3
591.6512598248848	448.01888585266306	7
369.9207143264156	404.938298199723	2
221.5234229389189	277.93892331642354	7
140.1183933728984	192.84500309831418	3
568.2897067965739	57.72164108593728	4
510.6922405612412	217.9254317934916	7
569.7271440773209	409.5602400369288	2
182.47714486823452	257.5331557650971	3
192.21806180568956	85.76863417218487	5
45.701772715256396	146.49029800507503	2
477.43070800598105	274.83854789933986	3
374.96978353416745	397.05521154946234	3
298.23284138599394	9.373090971107061	6
344.2280331235211	278.10781961115964	2
273.37103296286944	24.28734834656624	5
363.91506841260616	338.06986649124804	3
393.17870921115104	143.83916840138357	2
422.23513587358195	436.1795823545318	4
551.2873930968032	358.35996641743463	2
444.60224933740096	304.5659635828042	5
387.7331441735025	368.4262136232407	4
231.2452068169003	334.2359163368126	6
484.56578425197597	367.0299255566822	2
388.5797482345522	142.94306331606475	6
92.90088054612207	236.3848591232359	3
352.0593174287244	448.496886487155	3
359.8193676254202	343.2646357220674	4
219.10346523468928	124.05692962162983	6
358.75512347900195	366.1693592910814	2
143.9804356662516	199.23497416880207	5
344.44204044707067	388.6942313509285	3
172.68713213874395	252.50880066229465	3
255.64255068834026	230.58098973094994	4
568.7226957071201	476.58336713621486	4
503.68210948962	452.07052928873895	5
534.8281531289384	246.42481526006807	4
599.6511327648573	160.48491827044333	4
436.88927968671055	307.46868749038316	3
585.9209718598352	293.1144921258098	2
478.8229617800974	368.15110775092313	6
340.13299160319764	272.19161366550605	6
259.301445942742	395.6944145253116	2
573.798771454294	250.71146798039314	5
426.2809757051129	226.66739717645996	3
195.56540510686813	359.00571056756417	3
259.0964070595877	399.95414561020596	5
338.61413846704755	389.0887558096289	3
109.67103735269308	296.0948670096949	4
199.01487652955095	55.41087402066644	2
375.9097111612655	402.1392083326592	2
306.7799872811487	353.70050374984254	3
431.091205730528	260.1786150920329	3
311.77644301945713	194.72636695018224	2
35.7421875	147.5	2
271.29564300898755	19.93827460510328	2
568.2421875	250.0	2
176.9691587755933	253.88481166464157	2
301.1122942858008	353.39931725172414	2
353.89473737591857	363.2991494532199	2
9.745513070434423	153.09489714933244	3
471.5288352053012	278.3720439041207	2
425.83053160091674	441.53498313819335	2
474.8452006337194	253.81148501814454	2
114.29541938618544	291.59033594786314	2
97.69350264859246	236.07742233677908	3
507.5094132782809	450.9932758269374	2
149.1113944510892	62.205058297593965	3
486.88830310903774	488.34059086013235	2
226.8851554985179	281.89647630619686	2
532.8241450485202	251.98906439854193	2
546.9156002840019	427.6788339247257	2
38.11249148219865	208.73290647388131	2
257.7820059699192	34.609632251115556	1
380.4888814449616	373.36451761809514	1
138.22146063526256	308.34036005539315	1
525.2200679027039	490.82751192491156	1
586.0491172834941	454.1203262040314	1
565.0735830142561	477.1934143714418	1
609.122204979656	420.5594706877981	1
611.2197584065798	378.6084012925066	1
540.9517186046324	506.5591629481459	1
593.3905542777275	524.3883674411449	1
427.6838335507471	457.2666564086783	1
467.08063216924154	272.75042527339	1
421.8062742519123	267.2291616038882	1
36.42210563854917	140.2400972053463	1
596.2781901284492	346.73535844471445	1
313.58951630317426	348.9438639125152	1
297.0257268212245	358.88213851761844	1
198.7472425616563	353.3608748481166	1
367.6978952775433	399.73948967193195	1
566.4633690609397	405.26075334143377	1
469.2891374335015	253.97812879708383	1
390.3125	135.0	1
316.3125	198.0	1
337.3125	280.0	1
218.3125	132.0	1
33.3125	215.0	1
186.3125	254.0	1
167.3125	283.0	1
475.3125	261.0	1
557.3125	416.0	1
339.3125	396.0	1
359.8773611562425	334.71221897711064	1
254.32496715220185	43.05426883108063	1
96.05174777356811	230.7888213851762	1
193.22597940100638	364.40340218712026	1
426.22328478043227	258.3951397326853	1
419.59776898765233	224.163304981774	1
563.1506111645498	53.0041312272175	1
217.171875	280.0	1
503.171875	211.0	1
593.171875	306.0	1
598.6476948742245	168.88692064739112	1
32.258645237373514	207.04365641196424	1
167.0955945277605	276.87705800892445	1
518.8104697647454	216.54245676226418	1
606.241966525004	162.27494005732757	1
147.98032833330407	202.97557758603003	1
146.47288873398927	55.24733766703587	1
95.21994235728597	224.07961186017204	1
261.03829828191425	231.61676695807992	1
306.2614862613583	347.68895546586106	1
282.1424526723215	294.928869780506	1
336.4102782476544	383.8672999358188	1
473.5872817853014	418.53821338619497	1
613.7791645215781	368.79298974000307	1
539.9146241551528	246.69107715389563	1
382.234375	143.0	1
424.234375	86.0	1
531.234375	107.0	1
75.234375	104.0	1
123.234375	151.0	1
164.234375	245.0	1
273.234375	302.0	1
359.234375	192.0	1
168.234375	58.0	1
425.234375	217.0	1
345.234375	449.0	1
420.234375	442.0	1
472.234375	409.0	1
112.234375	273.0	1
570.234375	462.0	1
