211.83193040446588	519.0751077107315	5
502.943554243083	260.0940376660509	2
298.3605416866435	462.6692460820634	3
15.84921125694446	443.86343137218586	3
569.3046268561602	473.9127305263333	3
464.71222621021934	467.703826940433	4
533.1892598536936	271.1878327167649	3
184.30780234090008	580.2223900288561	2
293.14466785147573	424.9874816472509	2
176.55355121146644	442.1766860285689	2
517.795912662076	391.05374552722935	4
245.14982344345376	555.8492709969942	2
601.5264755393	401.40593086529213	3
369.49900889528476	482.35453560843234	4
532.698930737849	363.2273475869456	3
553.673241246971	347.6266521170712	3
444.57331633250794	420.5978626313447	3
481.1691201400407	386.19206194901346	2
272.25673187703404	631.0313300251823	2
279.52117245403196	401.36704244484724	2
517.4022030244162	395.9820392650695	4
363.2693583231308	364.7107928287633	4
277.62628883485513	626.9661294430094	3
475.0009419715354	217.52400369287585	2
510.6787232113133	218.20432358280678	5
578.3910009311685	554.9258347438067	2
613.1394729840652	602.7145527043024	3
561.4889231446855	520.1043145749726	3
46.05028521825737	438.2823211956122	3
438.5272639258857	330.1180891034528	3
339.368828723142	279.67356428255437	2
359.8156488022307	365.48063850771166	4
205.03404675397587	521.7754768686618	2
535.2704991680043	368.209517118307	4
595.2939416034213	538.3482528313181	2
572.4022126322437	377.66669206880204	4
576.9606637628656	548.6294476738833	3
172.58528513728766	540.6444068318203	2
430.1392792395843	269.65418644832613	3
303.64054921556624	249.01441493539795	2
65.71641504417099	540.8451804040162	2
470.4945432969236	214.12380398006331	2
339.5936629830057	289.69127344693425	3
387.91373178354854	270.4652574477527	2
595.8831489165502	257.61724389040506	2
434.48916187516124	297.4205510633751	2
259.0663214729474	290.63914976544663	3
106.40182830640578	385.0871569174957	2
454.88746473961606	403.96777176860746	2
439.899473198475	248.5639516463604	2
308.71789410804524	255.9263732881982	2
507.7882310301948	263.6214802277274	2
159.8035241657122	342.9993845206955	2
199.2302817214883	300.4994614556085	2
425.2734375	268.5	2
520.0847585114806	407.46925880923453	1
535.5442953613003	378.758687727825	1
502.4167163974009	276.06318347509114	1
477.01890585841136	224.163304981774	1
246.23010574324545	568.6901579586877	1
372.1149058060632	495.80947752126366	1
211.99827414721605	531.1455650060753	1
189.91322150461644	590.775212636695	1
173.34943202266675	553.2306196840826	1
334.57031631364384	298.1482381530984	1
44.15187406345903	445.0138517618469	1
13.232800363819582	458.26488456865127	1
66.23692670605864	557.647630619684	1
291.50446366057463	461.57764277035244	1
558.234375	334.0	1
536.3125	360.0	1
482.3125	210.0	1
369.3125	363.0	1
505.2933103469278	220.24311432528083	1
555.634592593099	264.291737190337	1
293.4404142276238	420.5594706877981	1
302.87940464878096	364.97430373903677	1
11.319478306372575	444.6813355900908	1
446.56181439306135	371.26696414833054	1
486.41532950461357	389.0961686413295	1
460.19591166806606	492.92506539467615	1
461.24468838152796	464.6080935528543	1
511.58597062769917	554.8028927527312	1
172.83109217950528	434.19356824126794	1
437.1228239719042	455.1691029389137	1
550.3907090257895	438.38867518079707	1
546.1956021719419	317.7793506693338	1
398.3180855738139	401.6814894599169	1
323.85493891801895	385.94983843668257	1
220.0260442852908	375.46207108785967	1
236.80647170068121	423.70580089244504	1
130.88002364102925	600.949069087552	1
144.51412091603396	566.3394368364364	1
107.80693594486743	438.38867518079707	1
499.00065006615637	480.33974457608866	1
381.5376581584235	375.46207108785967	1
365.80600745649497	249.60886290198493	1
441.31793082575183	571.5833205108479	1
162.34332504488626	314.63302046468687	1
274.56243338530965	250.65763963686723	1
480.3316637548013	218.64204131227217	1
568.6718743251997	260.603645200486	1
372.1149058060632	250.66537059538274	1
332.3618110493839	277.1674362089915	1
411.8680005627425	253.97812879708383	1
553.21233747538	318.024787363305	1
554.3165901075099	353.3608748481166	1
450.5168426872918	327.9630619684083	1
309.1725057746543	363.2991494532199	1
172.24517939053675	343.42260024301333	1
446.0998321587719	427.34580801944105	1
574.1931374858497	560.9603888213852	1
590.7569269677994	518.9987849331714	1
541.0655585219502	516.7902794653706	1
565.3591164288098	526.7285540704738	1
597.3824427605792	544.3965978128797	1
597.3824427605792	580.8369380315918	1
506.8337269259208	557.647630619684	1
291.50446366057463	628.3198055893074	1
265.0024004894551	607.3390036452005	1
244.02160047898548	562.0646415552856	1
189.91322150461644	581.9411907654921	1
139.11760042663735	570.8986634264885	1
72.86244249883852	542.188092345079	1
338.9873268421638	495.80947752126366	1
294.81722155696457	393.1139732685298	1
443.8913268945119	363.2991494532199	1
472.6018953298914	454.95212636695015	1
431.74454794108215	452.74362089914945	1
465.97637953711154	484.76695018226	1
457.14235848007166	548.8136087484812	1
46.360379327718995	428.4500607533414	1
150.16012674793714	416.3032806804374	1
147.9516214836772	373.2374240583232	1
163.7737811002113	349.64019354603994	1
300.6541946529384	459.73965874777167	1
500.02349265364955	267.80950995015826	1
253.04361602590285	288.63913850183724	1
559.5367159374439	267.80950995015826	1
278.33673592151547	395.7629424819005	1
192.04256216001363	577.2782770036745	1
102.77272723432205	380.8846363735584	1
449.4372528624243	416.5925710335795	1
551.9741409496711	343.16666240711635	1
230.8895062956182	421.55307542535814	1
316.81356345656195	362.76326566167677	1
113.3092175490636	383.8672999358188	1
458.5128857921534	417.0307823666134	1
503.73607377159743	254.22823225180352	1
567.0485369428192	466.7760060128053	1
205.171875	579.0	1
542.171875	264.0	1
288.171875	421.0	1
563.4448282506999	263.4018482217866	1
567.2622463003289	374.10697283674045	1
465.46443164355424	446.637916549986	1
460.3745409107155	483.53962475497065	1
124.44175254335887	570.067768132176	1
