580.7433667199839	373.4588996030433	5
298.85186561110936	408.00414764705306	4
606.0676837028952	333.6436394423033	5
283.94174149281366	400.02855407047383	3
348.92560053133366	514.0296476306196	2
550.5878815108777	347.317928184694	3
266.9814901672362	60.12056593063752	4
294.2650952408996	19.32442284325638	2
398.47779830465635	185.3093560145808	2
385.7480298797465	158.95407047387607	2
494.6470050540198	434.2592297050353	3
220.93539498480783	15.00311920646925	2
582.7996204246185	272.64290567906886	5
434.6847082733532	97.14815503976276	4
556.4318615019499	349.5240583232078	2
458.0292156197049	8.877088108445616	2
190.96522585671667	339.068469164395	2
499.234375	431.0	1
306.234375	408.0	1
153.234375	303.0	1
274.234375	162.0	1
499.234375	196.0	1
298.234375	333.0	1
340.234375	366.0	1
497.70631537433826	439.642247660337	1
238.42670429219223	275.33226652594556	1
297.2168486654695	14.546700138333398	1
172.0993619223409	264.7802493888745	1
493.18399657639384	579.8333324814233	1
582.4111730586732	364.97430373903677	1
396.40846371292275	178.88894289185905	1
615.0504848746589	339.0055893074119	1
489.1656848118411	587.4624544349939	1
170.0366741262768	244.03985419198057	1
164.5154109656269	270.5419198055893	1
151.26437938006714	308.0865127582017	1
504.6252216616609	298.1482381530984	1
432.84880057321215	108.21676792223572	1
452.7253479515518	7.729769137302552	1
