21.263638495430328	44.09394475519164	2
515.2268756845957	188.69208164468677	2
169.836457122007	220.22441303962523	6
512.9272490597243	138.64699665493785	4
68.6153041306375	168.66034892838906	4
401.8793885246752	77.16782447439873	7
527.2726937970162	404.37387307242955	3
551.0756957579449	158.60629964091697	5
483.7534290439533	65.93614455084557	2
592.6811868103578	489.0407040886122	5
534.2554864415861	495.7442954920891	2
229.3472833481517	200.23407328322423	2
295.2855864546756	220.76264840845784	5
445.17234794607344	470.10126634676186	2
570.8198760417129	514.6291272962512	4
275.96125275425294	403.3072518131678	6
141.08621149740608	289.30827013487817	2
303.8966044439811	106.88265684157366	4
310.84419764913116	394.2521650759125	4
461.43904556747225	62.343751127737036	5
47.424847053123045	210.91409157229435	2
436.7851449356741	97.5164125421166	2
346.2875990389008	231.55333139573764	2
296.40855121424033	266.41782520598065	8
554.1006788118403	17.41321381711058	2
335.83130261337527	193.78140355376263	4
378.0036338763431	331.17764203858314	3
151.11479126596683	250.0992540867386	2
434.9030138649815	291.71800019707456	3
608.2887810866914	109.76847473816387	2
455.05139940286324	330.637553054758	5
607.3612770397476	185.36051388027482	5
471.98708347512354	192.47442647546106	3
324.59357861627893	60.06457494422952	3
118.33470121406044	209.95878691966297	2
344.7404176568315	86.04218436930543	5
285.3125036608815	156.34053237639083	8
112.5255160741892	261.38269367485566	2
471.08481736238707	370.5866077225536	7
424.253105204299	207.50265083217818	2
500.7768788964828	90.42944756323888	4
524.9071345200002	409.83888213851765	2
139.84039243396958	280.2943270721185	3
321.8777961508316	55.741923903435804	5
518.9225660977078	140.62004860267314	3
315.3614020333391	391.8255640297035	4
557.8546574848887	75.88515295961807	5
13.27265018190979	74.99246658566221	2
574.3603575866392	306.62350356556567	4
293.34755604727366	215.85838396111785	3
449.24639817182293	474.4832320777643	3
114.01614494382389	201.98699878493318	2
438.2421875	102.5	2
488.2302017949278	463.42047387606317	3
360.3359500968068	444.86535315469706	3
144.69993455474113	251.5668474395631	6
392.092082659202	43.076826151247545	4
271.91808182505247	102.29562575941677	2
598.7444525077267	29.52578611797165	5
450.7421875	160.5	2
112.80104908742521	266.57376396222423	5
545.7421875	270.0	2
18.856530041023156	36.88739257836854	4
46.332981048275954	200.85347745807047	3
384.011029221714	337.84641555285543	3
424.40207953630386	357.6844471445929	5
565.1648295540626	514.3698735219944	3
382.05317949523305	202.63037667071688	2
515.3432079297254	194.29973344810315	4
484.81466563635956	461.3324671892251	5
584.9030953868216	71.0949954381991	3
145.93661929364362	282.7922235722965	2
457.86435230875014	389.3201092273535	4
350.6633947033298	226.57576052005328	4
482.8144618479359	72.21468686948114	5
430.4796971960533	9.855478335718692	3
540.3673333931281	120.16190616293524	2
224.53811057345553	205.09037937320448	5
503.0804769049782	369.26749639411935	2
416.05794993288333	355.61310843826186	2
58.79056900458361	43.538098709419224	2
452.57104659731874	326.60549860164326	3
275.05287948554064	98.79464139749697	2
434.3056224271494	101.5265232254705	2
376.9795819451157	337.7663224897615	2
329.266807311394	194.31237173209368	3
327.4406057221835	274.5157958687728	3
418.77410116584645	38.9267579627635	2
264.0141351125976	138.01579586877278	2
165.47914561494343	214.11251518833535	2
398.9256719885914	391.0569866342649	2
522.3769993389415	402.88952146484075	2
518.4357935374973	517.0469302969688	1
366.36317008552163	444.6813355900908	1
317.0706645528123	420.5594706877981	1
74.80324374311324	198.21880289275273	1
67.171875	57.0	1
120.171875	326.0	1
369.171875	410.0	1
509.171875	192.0	1
528.171875	502.0	1
386.171875	200.0	1
338.234375	233.0	1
292.234375	159.0	1
350.234375	92.0	1
314.234375	398.0	1
312.234375	347.0	1
261.234375	275.0	1
419.234375	320.0	1
280.234375	417.0	1
347.234375	128.0	1
294.234375	105.0	1
248.234375	202.0	1
443.234375	435.0	1
600.234375	343.0	1
467.234375	60.0	1
381.234375	115.0	1
44.15187406345903	112.63377885783719	1
3.294526674649758	114.8422843256379	1
41.94336879919907	132.51032806804375	1
26.483831949379347	174.4719319562576	1
87.21772671652826	198.76549210206562	1
96.05174777356811	13.251032806804375	1
205.37275835443617	13.251032806804375	1
155.68138990858705	9.938274605103281	1
149.05587411580717	58.52539489671932	1
110.40703199125785	87.2359659781288	1
185.4962109760965	25.397812879708383	1
89.42623198078823	114.8422843256379	1
105.99002146273793	145.76136087484812	1
80.59221092374838	245.14410692588092	1
183.28770571183657	166.74216281895505	1
208.6855162508261	283.79295261239366	1
185.4962109760965	309.19076549210206	1
218.62378993999593	114.8422843256379	1
263.8981478573251	24.29356014580802	1
220.8322952042559	61.83815309842041	1
255.0641268002853	51.89987849331713	1
340.0915794742938	188.82721749696233	1
260.5853899609352	213.12077764277035	1
258.37688469667523	282.6886998784933	1
231.8748215255557	304.7737545565006	1
205.37275835443617	331.27582017010934	1
206.47701098656614	373.2374240583232	1
255.0641268002853	363.2991494532199	1
282.6704426035348	408.5735115431349	1
314.6937689353042	353.3608748481166	1
327.94480052086396	305.87800729040094	1
294.81722155696457	312.5035236938032	1
313.58951630317426	159.0123936816525	1
383.157432127363	121.46780072904009	1
330.15330578512396	139.13584447144592	1
371.01065317393324	160.11664641555285	1
395.3042110807928	167.8464155528554	1
406.3467374020926	140.2400972053463	1
604.0079585533591	78.40194410692588	1
545.4825690504701	124.7805589307412	1
464.87212690498154	128.09331713244228	1
583.0271585428894	139.13584447144592	1
607.320716449749	192.13997569866342	1
605.1122111854891	150.17837181044956	1
429.5360426768222	192.13997569866342	1
442.78707426238196	228.58031591737546	1
418.4935163555224	217.53778857837182	1
531.1272848327803	361.0906439854192	1
595.1739374963192	344.52685297691374	1
590.7569269677994	274.9589307411908	1
547.69107431473	274.9589307411908	1
471.4976426977614	283.79295261239366	1
406.3467374020926	267.2291616038882	1
376.5319163345831	291.52272174969625	1
358.8638742205034	414.0947752126367	1
416.2850110912624	438.3883353584447	1
461.5593690085916	396.42673147023083	1
584.1314111750195	379.8629404617254	1
559.8378532681598	460.473390036452	1
525.6060216721305	513.4775212636695	1
592.84375	63.0	1
318.84375	65.0	1
247.84375	212.0	1
289.84375	256.0	1
105.84375	212.0	1
341.84375	81.0	1
469.84375	362.0	1
571.84375	312.0	1
283.84375	400.0	1
268.84375	95.0	1
390.84375	35.0	1
425.84375	18.0	1
147.39957703854913	246.71799954601894	1
148.5919750377846	101.24544444358392	1
557.5844887755528	354.0338188838809	1
526.5821407954304	358.8034108544525	1
446.69147484665353	168.01973203158687	1
493.19499681683715	91.70626050244064	1
249.94580497280003	359.9958088470954	1
259.48498896668383	132.24779225229958	1
596.9336227503235	350.45662490595214	1
253.52299897050648	210.94605976673165	1
441.68282163025196	98.27849331713244	1
562.0463585324198	73.98493317132443	1
602.9037059212291	29.814823815309843	1
273.83642154649493	92.75722964763062	1
262.7938952251952	128.09331713244228	1
545.4825690504701	118.155042527339	1
120.34530568042767	304.7737545565006	1
82.80071618800835	192.13997569866345	1
40.83911616706909	198.76549210206562	1
153.47288464432708	99.38274605103281	1
17.649810892339502	70.67217496962333	1
5.3125	180.0	1
116.3125	300.0	1
112.3125	77.0	1
63.3125	46.0	1
486.3125	78.0	1
520.3125	198.0	1
598.3125	489.0	1
474.3125	131.0	1
353.3125	233.0	1
390.6781038229873	205.99043962519318	1
550.4667013503563	123.08173354820666	1
583.6303725352819	65.79935480410688	1
600.2122081277448	23.591286255822837	1
437.40873140174614	8.516976060007106	1
577.6006141380228	302.46602487841386	1
490.1691173777642	456.2239888757343	1
452.48312739489415	165.2898020964907	1
416.3045770113389	34.14330339289385	1
423.84177500791293	349.1963864854426	1
4.773566398397831	174.33438821398013	1
196.21839551137774	279.85455958469026	1
357.51443263806163	438.13481664075545	1
