378.95614829942156	227.23803159173752	2
116.95142270685423	302.3089674993405	7
224.9372904287398	210.56524980945196	8
371.11181440136784	255.4549353942899	4
509.987328163703	310.33468196901777	4
26.157035410911664	238.45570336580914	3
60.32172070283707	156.02980930123425	9
29.635890360881493	209.3532851207878	2
510.8477855795196	313.9204245741883	5
595.9219257591433	432.7417774916254	6
369.28434265413733	259.3911587908699	5
205.39324112961233	375.86567951051757	5
220.45861555043774	206.70652478297396	2
376.274545024637	223.102641330141	2
11.734514108470826	33.036142946300174	3
121.65173200345384	302.4616445549047	2
11.15883871227927	27.98656920916326	2
467.08063216924154	470.41166464155526	1
117.50494962406175	296.7445136742147	1
506.8337269259208	323.5460510328068	1
182.27008260066236	352.3889829204494	1
590.171875	430.0	1
200.171875	374.0	1
