460.36420004308036	53.8117391962366	3
554.5265409760891	140.67399361680222	2
391.66498313163356	304.1811805984145	5
460.73815469648594	414.08585860592007	7
506.88519077703484	600.2750085812065	4
374.9822417311616	260.5743572793443	6
355.9052490021353	159.49329321711278	3
418.9347071338013	527.606977693626	7
241.42822025915834	70.80099513113038	4
444.5173121424171	485.4656350336666	5
307.2308112827908	51.92927799975344	4
478.0821662154477	539.4582062932811	7
552.6299582431446	272.32800789313217	2
548.3926206097033	437.5566588086853	4
384.7114996572717	482.02164438689726	5
364.3151762644367	95.81089776588078	3
276.8169000462926	136.74674763526107	4
586.4171514722542	302.1670845316114	6
186.2734375	186.0	2
525.8318786791423	474.97724621006626	3
463.3262364392034	314.4215820249433	5
552.7734375	69.5	2
375.7421875	361.0	2
460.44059260671725	158.99568355268934	4
437.38484040023275	441.133751346361	3
526.9360176715653	389.09089802796655	4
204.2959095323939	86.90286478875758	3
515.1570656330948	199.20273445816002	6
415.7560238751611	407.30284155255845	2
502.7734375	301.0	2
398.8831083798659	311.29226294656644	3
219.04660133865633	26.358423365613994	4
310.5399371995457	49.33400571210713	2
359.13845550697346	163.98123267104415	3
444.63136853228457	442.80801790684995	2
179.2135755492872	67.15934666506406	5
200.20830810789573	134.20733342413925	5
231.2656709927242	148.0197451859713	4
314.1017848519122	465.95614311668726	2
279.10850924838473	307.74431440000535	4
303.703125	97.5	2
536.914802443851	352.99013437498246	4
467.2670449793401	312.27835756146095	3
409.5275593882061	169.67187993227537	2
537.203125	289.0	2
458.1307139911096	163.73123267104415	3
555.886705887508	10.707955690675753	3
416.203125	115.0	2
508.48411085591533	605.6113744660879	3
541.1932963835475	350.5790906713745	3
317.875699251738	462.19671707751024	2
546.5491539431346	227.28124938450847	3
269.0979038653006	57.882365762729236	3
208.02548171761083	93.25833164039105	2
227.35348584591455	30.809860986021253	2
594.9457914899579	210.62286566992856	2
486.2175890521524	370.18499044105056	4
265.19280779982273	384.8600217465763	2
183.01795537853246	180.93252325336238	3
553.6687064645147	60.045803618062465	4
410.3474718821917	252.35320818587476	2
385.60471837620435	486.9973119117218	2
237.84778137831583	283.6092475765503	2
507.11558905817003	199.63378981381751	2
455.7768275604684	258.9569220542165	2
399.8775932891559	168.07607276063817	4
557.4020982909854	459.4412992603407	2
298.16461331878895	332.14811327130496	2
523.2503346625758	392.8613502424192	3
608.1408352914768	549.691539212522	2
414.2148374014886	249.29850171514101	2
445.0500208130961	490.40723772263976	2
235.28902525045106	155.89313291465047	2
319.234375	300.0	1
283.234375	313.0	1
240.234375	203.0	1
179.234375	218.0	1
269.234375	278.0	1
332.234375	269.0	1
384.234375	262.0	1
395.234375	491.0	1
356.234375	534.0	1
413.234375	561.0	1
474.234375	376.0	1
402.234375	292.0	1
517.234375	385.0	1
532.234375	482.0	1
351.234375	501.0	1
569.234375	126.0	1
459.234375	45.0	1
419.234375	214.0	1
347.234375	126.0	1
284.234375	141.0	1
266.234375	66.0	1
361.234375	92.0	1
456.234375	565.0	1
259.234375	378.0	1
233.234375	355.0	1
227.234375	381.0	1
548.234375	144.0	1
355.234375	370.0	1
514.234375	465.0	1
540.7057825438258	296.1342530629054	1
453.69002621203913	421.0439617008133	1
445.2691465670275	449.1135591475342	1
334.3942312410414	273.67857510552864	1
568.775381360531	115.08534953155565	1
558.9510217746841	63.156594255122	1
184.2218775716678	65.96355399979409	1
601.0554199997422	616.1276639555235	1
362.46383005774675	371.92216616905176	1
297.90375277932446	336.83516936065064	1
271.23763390345437	310.1690517862658	1
313.3420321285124	398.5882837434366	1
299.30723272015973	380.34304540306806	1
540.2201929116861	227.31442228689372	1
554.5289689025119	276.202739985253	1
599.84009287346	208.23605440460716	1
437.6739649774352	487.25718468304814	1
312.4721750577103	470.5636127860474	1
406.6716169973128	548.0694823078366	1
234.96630510740437	68.72548926538667	1
609.3792768673437	617.2285658811253	1
153.88324115939204	11.490385618526982	1
376.74255384581505	254.66645354915582	1
603.9779514522482	610.3854128886168	1
597.6068655380492	418.19099008132594	1
344.8871242748197	192.01744279981793	1
357.6292961032179	152.72908012650433	1
411.46056876438337	525.4371441760271	1
240.50996447009354	60.8290506231728	1
310.7780042720409	290.5111555623942	1
264.63182887971726	271.633174334513	1
526.8260072451924	461.46176334820746	1
385.24115092783586	367.07185720880136	1
224.77831376816505	25.170641637174953	1
408.31423862399765	407.9741498692107	1
202.33188315255816	126.74743880391426	1
411.2304183289559	552.7596636726261	1
452.3059729984724	557.4540132579563	1
550.8873042053118	564.4955376359515	1
610.7402552951785	544.5445518982983	1
609.5666680189066	609.0918586965879	1
265.171875	11.0	1
356.171875	119.0	1
246.171875	284.0	1
321.171875	279.0	1
345.171875	204.0	1
316.171875	404.0	1
481.171875	373.0	1
531.171875	471.0	1
550.171875	446.0	1
557.171875	128.0	1
246.171875	70.0	1
489.3125	376.0	1
540.3125	358.0	1
535.3125	294.0	1
323.3125	294.0	1
276.3125	312.0	1
310.3125	100.0	1
565.3125	11.0	1
401.3125	173.0	1
346.3125	197.0	1
195.3125	136.0	1
