327.94480052086396	236.310085054678	2
320.17053257856423	128.06782354041513	5
407.32662122890235	126.94330370021504	7
394.1477339970244	423.0935631676017	4
456.206978064585	198.31392580603602	4
288.75210288209234	286.0007290400972	2
568.1525033940873	62.63435319571143	5
502.0335674945343	391.4427495424051	3
477.8661428445836	557.2115259743979	2
234.76659583503624	189.56694622246044	4
602.351579605164	40.3052247873633	2
529.2601708572847	20.048110170641447	4
411.5933361167074	497.0178521649083	2
392.8374740438796	196.73007649841364	7
482.9081483255956	306.4911300121507	2
381.46056315136633	274.5876544807653	3
602.0145325470311	388.87801544454317	3
209.23269300058024	215.45794393348046	3
555.2434498464729	594.0596445051863	2
411.8903374973911	323.0566996386184	6
497.38767321118996	3.3196102135086947	2
481.64141355923636	47.39521224423565	8
482.6100793285931	362.0824967943907	2
452.1732216354868	281.58444714459296	2
591.8716457977022	494.1033647074355	3
540.6652409327795	393.02067220467256	3
431.1304388746045	183.33150802696633	5
573.7320892567911	184.5893695309993	5
195.8818540062274	189.72620132308123	2
386.672545284128	13.524897142496048	2
284.20887455238517	386.9834131897089	2
487.7041005123268	473.4316746768339	4
523.4726380399337	181.18875688891882	6
589.056368074476	332.9874419930759	6
454.6678084911132	337.9757130986765	5
335.99353447288695	278.7400972053463	2
358.52812513545626	132.48481964426986	3
587.824270494976	575.3049053307777	4
460.516813504232	153.16057120334958	6
467.40892815307893	520.3021411781272	2
578.5476133730582	522.5305225053035	2
373.08802141460797	455.2792804253929	2
501.74216938263544	243.07205346294046	2
442.9181255742981	411.1730635781336	3
548.7132898447326	517.0892662439869	5
216.42943032743693	131.1961075981967	2
445.6534154872806	38.65317092628837	4
159.9887612915477	114.88741487842974	4
576.2782287995408	12.20705622017524	6
566.659220093934	108.96993796005025	2
207.00940173563367	219.597655271696	4
376.9819577833945	278.0895568380318	3
587.0918332196397	162.66257594167678	2
503.012860310395	395.7119601439863	3
285.06270058058203	283.04948337619305	3
571.655395895352	189.77078233256935	3
555.1215540811407	449.3029649823583	5
598.7173490124196	383.6399756986634	2
605.0850315116318	522.4907707865523	2
271.88835012936113	6.645361704923877	3
209.65447750691055	131.07191871001874	6
481.59536972327317	426.5282909511209	5
230.87796535218956	190.22123406279118	3
515.9901239914803	323.32515188335356	2
498.8757314940365	8.103012769872263	2
315.011945998	125.12890105338023	4
573.1640101867773	528.3168980943517	6
410.6519659251759	4.766929979657316	3
367.4853098876032	224.91216864472074	2
263.92307524472756	134.25516403402187	2
188.7215055531108	189.20927445538166	5
304.4115588070022	253.0411907654921	2
506.9588680240071	68.84799360263425	2
369.9268719956824	459.3786017203022	4
374.61738713218745	272.44827691067826	2
518.8826392929668	184.41477559144528	3
365.24313418602986	220.07278042775812	2
596.5143471442339	38.69474520062255	3
354.2530881545001	167.61708435545933	4
258.1171397165548	130.6367606001499	3
519.3906371428222	326.3686553178198	2
510.3211820553894	134.9116878793685	4
590.8823149287487	500.38606665846737	3
459.0169887416025	280.31174805005617	5
309.7581513186643	254.6030770911157	5
285.1471088870098	277.8618898382323	2
416.1978381413303	322.771903795096	2
553.3065679678484	443.52879205909915	2
368.87556784778303	235.12736217398094	2
506.22165873926645	246.28660658670515	2
468.07698838452313	99.96704669686085	2
482.7334897636883	312.82513147455825	5
524.2540141226805	473.78697485553647	2
547.0817261535833	376.06630289302996	2
161.2337037006124	110.26901441463892	2
360.5773938478063	136.62621310292053	3
517.1434468043955	421.52198085040663	2
232.078125	196.5	2
420.7233888455787	443.04807989292703	2
600.36931055994	523.6500661381838	2
582.3443348018861	578.3836468195834	3
505.4320735727928	63.09555068566317	2
604.8739920206865	384.426142483459	2
513.6157868190717	328.5180556411224	2
160.36271857746826	122.10274889323587	1
370.88470970275836	449.1135591475342	1
439.65522680368645	415.43004221146913	1
488.77702473292084	317.18645114794606	1
508.42574390461454	398.5882837434366	1
523.8640232538025	266.66117574384845	1
355.87540295090264	128.99953839052162	1
276.16837272779816	388.04739190644716	1
311.8267809855028	349.2426527158025	1
407.26546191053575	325.12078781350976	1
591.3125	327.0	1
364.3125	230.0	1
498.3125	198.0	1
598.3125	44.0	1
382.2172872597878	17.723383395773762	1
584.9249471298186	157.23394853499425	1
359.56172527431374	225.20063411564013	1
479.9939231970968	477.98900855593706	1
519.3430571718675	477.98900855593706	1
541.9986191573415	480.37380454122285	1
538.4214251596351	551.9176840997975	1
359.56172527431374	5.799403469344662	1
524.1126491688094	57.072517152989796	1
462.10795320856465	96.42165091020583	1
510.99627117721917	322.97726951235876	1
538.4214251596351	404.0603330120766	1
476.4167291993904	21.30057737370249	1
358.36932727507826	59.457313138275616	1
143.84375	92.0	1
214.84375	123.0	1
387.84375	164.0	1
472.84375	106.0	1
426.84375	181.0	1
459.84375	202.0	1
510.84375	130.0	1
284.84375	207.0	1
370.84375	279.0	1
455.84375	287.0	1
583.84375	330.0	1
379.42339361499916	163.93315633296893	1
389.0039025243613	202.25519287833828	1
367.71388272577866	9.58050913634234	1
523.131027255432	20.22551928783383	1
530.5825341849359	56.41855380290489	1
574.2270747720303	64.93456192409808	1
582.7430826914634	163.93315633296893	1
436.9064470711723	185.22317663595192	1
465.64797379925886	178.836170545057	1
527.3890312151485	257.609245666094	1
320.87583916889685	281.0282679993753	1
546.5500490338729	365.12384819615806	1
467.7769757791171	388.5428705294393	1
491.19599755755803	425.80040605965957	1
357.0688728264874	391.7363735748868	1
376.22989064521175	399.18788068093085	1
327.26284510847165	403.44588474152744	1
305.972825309889	361.9303451507106	1
461.38996983954235	499.25097610495084	1
544.4210470540146	557.798531938154	1
416.68092826251876	522.6699984382321	1
484.8089916179832	558.8630329533031	1
296.171875	369.0	1
488.171875	468.0	1
571.9846322215897	76.19343863912515	1
527.8145269363904	50.795625759416765	1
463.7678742728516	104.90400972053463	1
515.6677479829607	135.82308626974483	1
454.9338532158117	152.3868772782503	1
411.8680005627425	129.19756986634266	1
486.9571795475812	309.19076549210206	1
533.3357900970403	556.5433778857837	1
246.23010574324545	13.251032806804375	1
315.7980215674342	250.66537059538274	1
464.87212690498154	394.21822600243013	1
363.28088474902336	400.8437424058323	1
558.7336006360299	443.9095990279465	1
483.64442165119124	420.7202916160389	1
425.11903214830227	525.6243013365735	1
401.9297268735727	511.26901579586877	1
558.7336006360299	369.9246658566221	1
305.8597478782644	368.82041312272173	1
283.77469523566475	435.07557715674363	1
151.26437938006714	100.48699878493316	1
