105.53498858370051	342.3830306101879	4
452.8870301508055	479.28661919525956	7
17.621713693992504	103.74805411112925	4
583.0938502667708	181.95875534179837	4
33.27333724528181	244.4245841752822	4
250.84264775562383	6.622585186616672	4
78.30753876741127	309.48424336637476	2
433.8248686179814	380.4376673930758	2
451.90404769906604	343.7101065403226	4
373.4437107569439	359.149361229365	4
493.65313338906867	209.0764448735564	5
187.51120247413252	127.6155695584001	2
382.3132723535116	301.95868597916467	5
183.82793871480914	353.44771280324323	8
286.3375222585142	368.5479976200732	2
8.046211300331645	194.7018689260673	4
31.921868185539807	249.1402794653706	3
589.2552228279852	180.9570948913419	3
501.30350661511346	533.057551315961	3
264.1737937269818	110.33027742775654	6
588.3890774562603	496.03569779966153	2
327.3163766302538	297.95068472072626	2
596.404060223177	325.8385474527588	5
81.96541927793919	319.0645200486027	2
523.067830688486	435.54530255679515	3
362.03578926105774	507.8411079614924	2
415.97080695594747	454.40663218961686	2
190.1259245683732	134.25516403402187	2
141.38330710003578	346.0635381484519	2
451.7372214720888	406.02581883594985	4
283.277722236906	373.61523325817734	2
386.6913801236474	304.3216424128236	2
504.88133042386755	534.800079255003	1
376.24569454650725	356.53338617000196	1
361.05250920666157	422.3705171388944	1
494.75254019730374	213.71745591440458	1
450.2653071624737	337.70610863209725	1
206.94910963931272	264.291737190337	1
28.65706835078962	240.16987228804433	1
489.04015908223954	204.16056510222103	1
514.234375	536.0	1
532.234375	443.0	1
447.234375	493.0	1
414.234375	461.0	1
375.234375	372.0	1
388.234375	311.0	1
356.234375	424.0	1
333.234375	293.0	1
222.234375	277.0	1
264.234375	199.0	1
100.234375	348.0	1
491.234375	218.0	1
579.234375	465.0	1
246.23010574324545	11.042527339003644	1
22.066821420859423	104.90400972053463	1
193.171875	130.0	1
454.171875	351.0	1
224.171875	269.0	1
262.97750553078976	115.50001879249238	1
598.0413433159584	320.5924735270729	1
5.419537695927035	189.4286943363528	1
522.9202693641234	429.1006908575778	1
363.13893746656976	501.83696840879526	1
414.4120514336952	449.3714567325072	1
531.2670553587718	469.6422226074367	1
