597.046875	230.0	2
563.2519699363695	304.7236451663283	2
610.5578343715266	316.9951375745169	4
336.5857271354117	405.9417537364924	3
507.21064773572874	435.25641115915056	3
498.2322495740979	302.88509147459183	3
423.0237955555588	395.7163439012963	3
528.046875	215.0	2
378.9271254600458	281.4680092372478	2
592.0904828054482	51.015773856005	2
350.2330762095407	358.1613122325613	2
443.765842496477	430.03802904888335	4
348.2696204484917	191.3050913634234	2
607.0742402299168	351.61041699203497	2
323.086690602142	377.86839708586183	5
247.08797207895003	124.40713797211643	8
334.28586302402323	265.4981258784944	2
542.5458430770401	539.3855407047388	2
425.38182500395646	72.66825495100737	2
366.6254442472902	327.0108577424109	6
327.3974776255402	38.079082716028495	2
604.3008089867891	573.126118917227	4
345.9113773347242	225.01939702295644	4
398.18864222693264	111.85405278775573	2
480.0157377916229	148.10031493075593	2
522.6171875	406.0	2
600.3133217642151	246.59182306715704	2
593.879231703599	497.0098451809653	4
296.93125851653866	231.0273339846246	3
588.6953555781076	109.32180228018117	3
422.49490460104676	506.78674059034824	2
566.1171875	36.5	2
373.01138183267676	378.9166796813994	2
450.20354960079925	270.63410674941235	6
414.3014016312594	316.84452600343593	3
429.47521577545683	60.404892375593235	3
543.0820037492265	49.88646791052753	4
506.42498219339643	427.7561037968211	2
412.61201160457847	217.8738259982492	3
467.884594269172	494.40098208396654	3
391.14271743220587	137.89669641903686	3
379.8679468074996	277.4173824769639	2
384.098219527762	38.8126517195189	3
458.62563825390134	76.10365958512813	4
609.5970422581595	458.6435406218995	3
379.5532408166986	87.09623616023956	2
454.1375434912293	468.9090640022423	3
487.0461158884881	332.1480159960737	2
427.3259381618101	102.72434796189286	2
608.7739760866981	570.4591802397226	2
433.49759118795896	349.15549224154654	4
546.49943168603	534.0999400688363	5
483.5315864250859	93.34217334765651	5
337.0874061210245	131.80714038426663	2
586.8026278418068	491.6318675920645	2
514.4362104277395	372.645240729681	5
530.9152665975034	458.9322192722161	2
325.5413104425333	32.84852348365493	3
206.44198275151518	59.61205684835234	2
305.17491314990923	229.46610963610806	2
445.60326258401125	298.20033934909577	4
594.4525935806839	223.54521318132126	2
345.7769255246551	357.70719920114834	3
136.71716791115702	47.37029517413713	2
337.0697547421298	158.18164912790303	2
609.0847572769699	63.77020684137876	2
462.4201324953915	492.70116667284606	2
461.9157359097003	360.93292206778074	2
573.0900081356466	151.80943996744583	3
346.0183527810699	351.2387280491431	2
386.3312034445616	34.57167473299473	3
441.06218476445724	426.9794728347737	2
532.5444811616865	464.69550879912634	2
547.614550023802	403.44588474152744	1
441.1644510308888	302.31828830235827	1
517.8085223057864	199.06168983289083	1
530.5825341849359	223.54521318132126	1
606.1621044699043	245.8997344994534	1
423.06793420209357	472.6384507262221	1
493.32499953741626	471.57394971107294	1
466.05008378872736	76.35137194117789	1
393.69298302161684	124.58916456778823	1
577.6006141380228	156.24521597900127	1
458.5128857921534	25.09871727540441	1
429.8715334051721	109.5148543719725	1
472.0798421859866	236.13906001682463	1
610.7642853229485	150.21549190067498	1
533.8848657578935	411.0010582882871	1
384.64834542572805	282.8694216238534	1
523.3327885626899	213.52759472310103	1
261.03829828191425	252.72080123222193	1
209.78535190521097	53.7399066474543	1
259.53085868259944	80.87366499992261	1
538.407184555838	299.4511628392507	1
422.3343354085981	313.01804201548487	1
483.6930564996253	199.53408713620135	1
502.9286319775081	337.48991374040617	1
255.171875	285.0	1
446.171875	277.0	1
317.171875	375.0	1
240.70884258259554	125.88481166464156	1
129.17932673746753	47.48286755771567	1
379.84467423097306	35.336087484811664	1
484.7486742833212	88.34021871202916	1
437.265811101732	342.318347509113	1
388.3125	371.0	1
437.3125	433.0	1
455.3125	81.0	1
430.3125	95.0	1
350.3125	197.0	1
342.3125	229.0	1
394.3125	116.0	1
602.3125	230.0	1
552.3125	304.0	1
521.3125	371.0	1
593.3125	485.0	1
612.5491104094791	352.3498360143683	1
610.4201084296208	240.57722942370765	1
612.5491104094791	47.9025456817117	1
576.3560767518886	146.90114009058254	1
518.8730232957155	204.38419490863657	1
544.4210470540146	224.6097141964704	1
541.2275440842272	329.99531469623616	1
489.06699557769974	464.12244260502894	1
320.87583916889685	371.51085428705295	1
423.06793420209357	422.6069030142121	1
481.6154886481958	238.44822739340935	1
469.9059777589754	441.7679212868968	1
361.3268767862039	395.9943776354834	1
538.0340411144398	421.542401999063	1
528.4535322050776	404.51038575667656	1
514.6150193359989	341.7048258628768	1
410.29392232294396	246.96423551460254	1
400.7134134135818	118.15961268155553	1
457.13196587982577	32.99953146962361	1
453.93846291003837	12.774012181789786	1
545.4855480439437	162.8686553178198	1
293.19881343073945	317.2213025144464	1
261.2637837328655	287.4152740902702	1
608.921875	453.0	1
450.921875	441.0	1
519.921875	383.0	1
553.921875	236.0	1
577.921875	162.0	1
605.921875	74.0	1
540.921875	55.0	1
545.921875	333.0	1
537.921875	307.0	1
580.921875	582.0	1
475.921875	486.0	1
456.921875	474.0	1
430.921875	475.0	1
532.921875	424.0	1
510.921875	337.0	1
463.921875	369.0	1
486.921875	339.0	1
449.921875	303.0	1
487.921875	99.0	1
460.921875	82.0	1
466.921875	47.0	1
459.921875	162.0	1
434.921875	106.0	1
341.921875	164.0	1
319.921875	178.0	1
395.921875	368.0	1
436.921875	353.0	1
552.921875	405.0	1
494.921875	207.0	1
399.921875	175.0	1
332.921875	143.0	1
380.921875	94.0	1
387.921875	46.0	1
550.921875	207.0	1
392.921875	402.0	1
417.921875	224.0	1
504.921875	117.0	1
383.921875	141.0	1
391.921875	329.0	1
