189.2301463859928	249.37169493871482	5
193.51033934034658	35.456453163799594	6
562.1091167662099	621.2950182260024	2
331.79799272139195	54.56107955876941	5
106.53771512098368	162.51766000222054	7
337.90715149942304	500.0304935186631	3
498.11612519375586	12.632959524792563	3
372.25486191508935	177.26197405247188	6
228.83064156532393	13.786695018226002	3
597.7863038858549	542.0813648218043	7
254.5925161104322	193.6652346668478	3
108.97123986249969	53.29974196671556	4
372.9083069738299	289.6108223723906	7
184.594885553587	75.11849860824803	4
459.6774192730245	254.60116936840032	5
600.7421875	216.5	2
165.86701946288343	158.8763234992914	2
145.45749560970862	289.76136087484815	2
284.09035007424546	410.97756938822556	4
385.88434120236127	218.52678801177805	8
464.78217162052135	179.31889781065615	5
413.6171875	569.5	2
572.4488087120501	588.6290034050181	4
192.7734375	243.5	2
150.04931488362735	26.66907940981503	3
371.4642049914047	128.61970469520995	5
417.2607236581851	421.4103783196359	2
479.6171875	59.0	2
558.8404477855809	265.8544438893265	5
332.92631361967756	190.1884516158594	6
464.05631921983695	521.0774132916575	3
583.1685399965496	476.5651291758188	4
516.6008887133153	284.3612807535919	5
424.16521774934733	341.03863308583857	8
190.15960919877136	272.28838044666566	2
172.8712550923413	161.50232748829302	5
407.3118056026217	183.34779942298084	5
434.11331715631894	548.4603351671622	3
448.91467134364586	483.88347509113	2
191.61286075230822	38.272296476306195	2
106.47483511576986	47.75405019239055	3
380.1781935944124	93.49646301972012	6
262.3651043165398	43.32141790607899	4
338.9526329203468	465.2011607543973	7
219.19874366246302	229.9491719000757	5
212.4379456292798	367.54991669838336	5
484.9329030510793	382.801421379479	4
576.75002716486	125.01960136681784	2
552.9294649867238	437.75495861315005	2
344.26095798572356	498.7981050057733	2
468.38167588452313	523.8672497266906	2
584.2250316248469	248.39840108870573	3
458.5276716259175	259.0624794442835	3
542.5807542899993	191.95022859151365	3
143.078125	125.0	2
612.7125975568796	148.39880586689682	3
286.0153313749812	173.0658566221142	3
395.0071365445223	505.8756938705324	3
380.1215491048092	510.3534945323643	2
516.7948114914803	289.15710814094774	2
552.2790769367535	376.051304400119	3
560.2936044508103	560.2442932753462	3
575.2297066612156	593.0189159817971	2
456.7161995743995	483.47854110668214	3
198.38668509689313	205.69550425273388	2
532.4598102906972	583.5879078975269	4
241.44781946714141	13.419256598469467	2
190.4696745683732	267.5624544349939	2
191.40134873644354	75.53413491910024	4
402.44683610794317	17.5699126114372	3
107.70893837594127	169.41411397133737	2
520.4511904396753	229.29015795868773	2
545.578125	147.0	2
499.46079043444047	505.9260024301336	2
234.254316497354	162.36982664376075	2
504.2856891885602	535.7082550977198	2
460.6854366601804	180.80042527339003	3
594.2221338879601	279.2605218671801	3
130.09678807194274	143.32557205644906	4
568.3128601313813	623.0845331841525	3
164.8689742975049	257.1014909621779	2
553.7516860222415	263.24614741378724	3
266.33067632504066	105.98454865289204	2
251.28416066355555	195.11030716850843	6
571.0725835832795	398.5049509291716	3
433.87508636350447	506.4450993140032	3
465.23457346934833	515.3196865296688	2
137.7933807513698	117.94682008023344	5
163.308896542826	164.30270800973625	4
300.14761025198436	451.56582587665787	2
216.25506577992087	225.10031705782006	2
602.7092801193887	222.59179277432867	6
233.1265279727939	17.817960543225354	4
499.14303217653355	499.85334694702397	2
290.1996537957235	172.31616121599706	5
311.06879040665143	496.54117053773973	2
583.1099279989917	80.91127707859167	2
557.0124533568611	434.5610752511891	3
536.9828693577425	533.184838604436	2
278.78882521935	497.0605464425314	2
142.46625527562938	284.9999926488816	2
452.90286919909363	478.6931712716046	3
519.9820763103539	169.19502442389137	2
223.62061369572166	227.4327222447841	2
335.750666117143	199.80258778781499	2
517.0007713642096	278.8120179571213	2
492.70027450082716	413.8433501479612	2
128.72180521189424	82.35974539220794	4
242.12622688009952	383.64119871856326	2
567.3339118231049	397.7804967207721	2
596.5361660451898	275.89931414335894	2
333.81488702451236	59.631099853099506	2
423.9030973276656	419.21811761897607	3
553.4797318702922	381.4185104293988	3
271.2586130472039	263.59461088574005	2
265.2304211959486	50.37829616015057	2
587.5768889922031	471.7469098966699	2
484.13837686475665	378.12758520676056	3
298.06946157993775	455.0032172419178	3
504.82986604414884	508.9658736440562	2
414.9576516312594	135.09581446197097	2
332.90986252905867	519.8027487115414	2
573.1456051390109	119.754079127171	2
259.8600858569712	455.79165507359187	2
362.78062589310196	129.37006090894891	2
152.3848752596209	30.931638552630154	4
412.22336755791844	564.7193694613457	3
258.37688469667523	47.48286755771567	2
494.686947972491	533.9061968408262	2
491.7132226701805	209.85188335358444	2
251.8886193198177	143.77642770352372	2
262.4620087965326	460.63244228432563	2
326.840547888734	54.10838396111786	1
377.6361689667131	98.27849331713244	1
187.70471624035648	239.6228432563791	1
537.7528006255602	111.52952612393682	1
442.78707426238196	579.7326852976913	1
554.3165901075099	562.0646415552856	1
219.7280425721259	366.611907654921	1
184.39195834396654	362.19489671931956	1
461.234375	267.0	1
398.234375	226.0	1
373.234375	182.0	1
256.234375	201.0	1
118.234375	62.0	1
201.234375	31.0	1
385.234375	105.0	1
463.234375	79.0	1
520.234375	72.0	1
545.234375	106.0	1
577.234375	131.0	1
540.234375	203.0	1
521.234375	179.0	1
186.234375	269.0	1
348.234375	468.0	1
303.234375	468.0	1
381.234375	522.0	1
586.234375	275.0	1
578.234375	83.0	1
467.84375	256.0	1
511.84375	222.0	1
362.84375	170.0	1
195.84375	239.0	1
547.69107431473	182.20170109356013	1
220.8322952042559	220.8505467800729	1
227.45781099703578	161.22089914945323	1
124.7623162089476	146.86561360874848	1
420.70202161978233	429.5543134872418	1
547.69107431473	374.34167679222355	1
517.8762532472206	442.80534629404616	1
501.84100745684935	10.645010151491489	1
366.64938173584954	6.387006090894893	1
121.81415405214916	78.77307512103701	1
226.1352510652041	108.57910354521319	1
210.16773621626712	139.4496329845385	1
375.16538965528264	169.25566140871467	1
484.8089916179832	56.41855380290489	1
467.7769757791171	75.57957207558957	1
501.84100745684935	86.22458222708106	1
511.4215163662115	73.45057004529127	1
526.3245302252194	166.06215836326723	1
499.71200547699107	157.54615024207402	1
608.2911064497625	152.22364516632828	1
336.84335401783386	194.80368577229424	1
247.42527086378675	147.9656411057317	1
382.61689658478656	222.4807121661721	1
599.7750985303295	279.96376698422614	1
591.2590906108965	252.28674059034827	1
591.2590906108965	541.8310167109167	1
542.2920450741564	546.0890207715133	1
497.58300349713284	538.6375136654693	1
236.78026096449543	424.7359050445104	1
89.87912435427519	4.258004060596596	1
449.68045895032185	568.4435420896455	1
458.5128857921534	172.82695719439857	1
562.5262181448747	430.59766154284756	1
113.3092175490636	52.232475627872724	1
452.48312739489415	468.28343703238687	1
328.87308025108035	183.37897433146958	1
615.2866041208928	371.8078517791662	1
292.6945298675251	447.17940275824486	1
321.3358822545064	114.03714743071721	1
257.1026617312555	449.9865516538749	1
350.15543012955453	526.3731576445018	1
436.26396208021924	540.2616314609794	1
491.81785366129327	501.3739047748421	1
491.81785366129327	541.6504788426272	1
282.10191294273886	166.66168579773145	1
136.27294754241956	147.21782245466278	1
133.49525296336586	115.27433267676425	1
407.0981690001554	174.994770087618	1
362.6550557352962	180.55015961420906	1
369.1009274627471	289.5901257183573	1
450.18399141075946	252.62578794642704	1
512.1886873710042	282.4357377624998	1
228.397963552961	96.42165091020583	1
128.23653161718104	77.34328302791927	1
134.19852161335842	280.050941777214	1
539.6138413534202	187.04389835106699	1
404.8728674398114	567.4188580041554	1
361.9465394673343	2.2222094914159314	1
402.4880714413404	11.761393432559212	1
488.3407273862947	407.63752699000537	1
561.921875	273.0	1
608.921875	228.0	1
493.921875	217.0	1
392.921875	226.0	1
528.921875	171.0	1
498.921875	170.0	1
588.921875	80.0	1
548.921875	116.0	1
501.921875	153.0	1
528.921875	73.0	1
501.921875	94.0	1
468.921875	84.0	1
507.921875	120.0	1
526.921875	143.0	1
567.921875	404.0	1
454.921875	572.0	1
438.921875	551.0	1
441.921875	514.0	1
417.921875	509.0	1
395.921875	536.0	1
360.921875	551.0	1
294.921875	460.0	1
267.921875	455.0	1
230.921875	438.0	1
236.921875	396.0	1
215.921875	362.0	1
375.921875	298.0	1
249.921875	202.0	1
144.921875	280.0	1
255.921875	147.0	1
355.921875	529.0	1
315.921875	488.0	1
288.921875	498.0	1
334.921875	515.0	1
300.921875	539.0	1
331.921875	538.0	1
413.921875	184.0	1
416.921875	143.0	1
516.921875	62.0	1
448.921875	116.0	1
341.921875	84.0	1
271.921875	103.0	1
240.921875	91.0	1
213.921875	146.0	1
157.921875	37.0	1
228.921875	113.0	1
199.921875	40.0	1
317.921875	110.0	1
280.921875	417.0	1
246.921875	423.0	1
530.921875	540.0	1
476.921875	384.0	1
527.921875	503.0	1
537.921875	26.0	1
234.3125	96.0	1
499.3125	5.0	1
578.3125	119.0	1
546.3125	197.0	1
510.3125	216.0	1
368.3125	175.0	1
537.3125	578.0	1
522.3125	163.0	1
558.3125	379.0	1
257.171875	40.0	1
419.171875	340.0	1
495.171875	384.0	1
534.171875	18.0	1
578.171875	599.0	1
387.171875	503.0	1
207.171875	366.0	1
511.171875	290.0	1
