197.8828125	280.0	2
255.6642528351037	344.55207320833256	5
449.22985398019637	365.06192409807903	2
240.49747917031863	257.47608815897235	6
236.16985103142855	282.84773971236245	8
551.0302271136204	433.2869498681986	5
99.20861189073926	268.0952551388863	6
179.8807055439369	154.48631245747018	5
434.0078125	416.0	2
43.84451166767443	203.68436756201694	3
124.07816827967753	258.8488449792497	5
348.0254464160249	280.63398838978185	6
595.5779921451709	300.547321568015	3
226.20334824193174	360.0135632500462	7
484.81391180074263	297.5025791101372	5
538.4090148853987	392.4875154705659	6
528.453585619445	272.3943410201185	6
224.30351779360365	317.24758653175275	5
104.54296875	91.75	3
377.86985217491997	384.3062939149158	8
485.1953125	459.75	3
222.27606594962805	321.1132725194934	4
431.55703572350694	475.4933729429141	4
454.0441007152608	417.0418354804118	5
482.1520239367455	300.5417010718855	4
372.94863994932336	387.5238079864232	2
545.4667411921175	504.39762278738885	2
116.2246899297158	220.55210606172398	3
200.85889838292786	274.2465696030672	6
555.5178642635573	429.32615162190143	2
344.17771521307	280.47565639954774	2
6.738103252104232	47.91328156791488	4
591.6844824014581	408.3784761899542	3
152.34056600609856	325.32515188335356	2
288.09524543854775	202.59582204451635	5
224.38408060994288	366.83088913043724	3
112.32017233790475	226.15359149257634	4
577.8074270900595	469.794123493263	2
234.46892051876222	276.856580111317	2
541.2370561206471	504.66784637053115	2
76.52666548242613	52.362886715582114	2
430.30817005230585	418.1364323009197	5
152.11755128645626	320.9663590024851	3
595.7576480184023	293.10323086045275	3
261.3046875	347.5	2
204.00855313331073	278.44963298453854	2
452.3046875	363.0	2
177.36286412959828	156.8865375605185	4
585.716370166823	410.8586138097331	5
61.02973631309432	126.87006090894893	2
43.144539903732124	31.967515227237232	2
122.36801452607457	263.9658753709199	2
69.75548977784628	160.36982664376075	2
66.69098878791715	42.75776979540841	2
258.996077881539	350.57816648446044	2
346.2372742236689	379.2311806965485	3
32.98128643898016	205.25659846946743	2
61.997485818129746	210.85334999219117	2
98.32056514692499	272.28838044666566	3
49.729661655323426	203.25229074436322	3
531.8952215085718	266.3305878719242	2
436.375	478.5	2
554.6171875	437.5	2
118.6171875	229.0	2
158.6796875	327.5	2
598.921875	307.0	1
538.921875	276.0	1
550.921875	390.0	1
459.921875	417.0	1
481.921875	309.0	1
355.921875	279.0	1
89.921875	276.0	1
189.921875	161.0	1
81.921875	61.0	1
55.921875	174.0	1
550.921875	514.0	1
446.921875	372.0	1
107.921875	104.0	1
113.921875	79.0	1
330.921875	339.0	1
309.921875	296.0	1
334.921875	309.0	1
241.921875	262.0	1
464.921875	355.0	1
432.921875	231.0	1
366.921875	187.0	1
148.921875	85.0	1
225.4375	330.0	1
51.4375	31.0	1
545.4375	514.0	1
74.3125	57.0	1
543.5127424254962	387.36044476474825	1
427.3259381618101	424.7359050445104	1
480.5509876582667	465.18694362017806	1
148.42667880037746	79.83757613618617	1
46.23458376718078	180.9651725753553	1
493.32499953741626	441.7679212868968	1
45.171875	208.0	1
537.171875	269.0	1
449.0721392487776	358.4026777583465	1
488.59932410271335	444.0449138844967	1
451.7072849057066	408.4704465705574	1
105.18563101953636	86.98266788162431	1
55.11786353788438	204.24665273127613	1
340.0915794742938	377.65443499392467	1
143.73770560724222	318.2076775417871	1
425.14363342681446	418.36910892379154	1
546.768229348833	380.21237315921843	1
588.5021593220746	297.9369116668576	1
110.84375	233.0	1
145.84375	323.0	1
256.84375	309.0	1
458.84375	448.0	1
448.84375	420.0	1
597.84375	406.0	1
