438.54941352412743	254.9675640536903	2
400.80240117772234	477.501791790206	3
520.8611790540158	444.8475936759688	2
288.50289808571665	490.45974624192115	3
592.0541331891034	447.19165875257255	3
335.28631968726575	248.25345901470925	4
403.9112806148504	353.9885367845959	4
521.9717001956724	315.8408985997846	2
456.9505111766947	460.80506562997556	5
520.3659881100807	267.30406209797303	3
488.38172817355104	479.12109555316204	3
371.9841651831465	503.73080473919066	2
537.8783077285063	466.8846025103841	4
444.79305270371856	296.48836266911064	4
461.1374996296187	98.63203670907762	2
503.3759703833619	398.59432356338357	4
414.6915181506532	316.23029063978106	4
600.9921772789783	111.84658037866187	2
370.91671495561314	148.45052383552263	7
556.9579446942056	235.50559194352914	3
597.2190844124132	240.54444814110107	3
327.78649119520855	5.412094667918325	3
365.78141766882834	504.0511780590932	2
308.5870566765703	424.9084077158627	3
522.0597766572955	274.32364756083143	4
516.3467113151671	448.9871864609627	4
487.3559302464532	487.07224753718316	2
231.0518371699717	67.69508179223962	2
329.29626002312125	248.9849920735545	2
519.1227059920848	320.53159330884716	5
328.46744715632747	396.48512873527636	5
453.6488332606367	316.6025126808984	2
368.5098895105066	440.9730304813088	2
597.1357665699843	116.31619033955229	3
427.24207511297766	33.56270074318291	5
438.1806576763468	425.604702134787	4
495.14944632675673	454.9057491767893	3
295.9827190983562	395.5337968150757	2
600.2235740816618	451.6063791638762	2
442.94102338669126	255.3951362080022	2
263.4779770888681	35.09845602190062	3
521.6114322123415	119.84550047083735	3
201.49243399574658	104.17259058552045	3
367.87446201222997	508.9799631887395	4
317.5571083350006	375.35965860938353	2
307.63568907126216	420.8080194410693	3
559.483987818015	383.1399756986634	2
445.4379337110537	292.51749435802844	4
466.83142669863014	103.18262820074222	4
138.1107975811887	64.07545565006075	2
604.3712427395242	299.70236408723434	2
416.8639456777612	172.07958687727825	2
506.3985483308304	47.189307411907656	2
409.3948088331763	356.9410692588092	2
60.94376927270437	13.22976913730255	2
113.56827125988889	47.13718104495747	2
367.8242940209016	70.88821385176185	3
435.18490291873604	431.8814094775213	2
457.7078979900358	319.0645200486027	3
375.9259073825639	398.7028206351514	3
554.8396357385026	231.37599906645357	4
252.03193445194768	195.77849331713244	2
597.2470210465034	448.21187118112596	3
331.71471670862695	252.88481166464157	2
443.5667571972559	371.46233292831107	3
284.18485405003025	180.4139749438579	2
131.91926238299374	279.4379708383961	3
322.84983249617204	9.364884568651275	2
492.80428253805053	488.09198055893074	2
156.94481863822853	105.5041312272175	2
519.2734375	515.5	2
299.2734375	286.5	2
335.36138912382717	40.340229245400856	2
302.7734375	318.0	2
263.7734375	320.0	2
470.7421875	98.5	2
493.2734375	376.0	2
578.703125	328.0	2
323.50085331427215	399.29959926645387	2
497.70631537433826	50.72504460829115	1
316.81356345656195	7.009545040425533	1
601.7196477270596	236.13906001682463	1
515.7955905661158	442.65710969950015	1
556.4964597476155	389.8970240141451	1
458.5128857921534	314.52547303506645	1
460.0203253914682	468.28343703238687	1
389.1706642236725	469.79086805196846	1
375.60370782983927	68.81421684327003	1
541.4220637544676	471.29829907155005	1
408.7673790147649	322.0626281329743	1
435.234375	261.0	1
556.234375	191.0	1
560.234375	231.0	1
557.234375	308.0	1
501.234375	416.0	1
481.234375	346.0	1
444.234375	362.0	1
440.234375	394.0	1
430.234375	487.0	1
492.234375	458.0	1
523.234375	450.0	1
304.234375	186.0	1
409.234375	313.0	1
493.234375	172.0	1
466.234375	109.0	1
395.234375	549.0	1
469.234375	253.0	1
447.234375	494.0	1
334.234375	296.0	1
323.234375	141.0	1
222.234375	222.0	1
383.234375	92.0	1
522.372494030884	126.38511172994635	1
516.8171048727766	273.6029341846091	1
440.4305039487998	368.0445561366569	1
419.59779460589704	318.0460503973375	1
390.4320015258332	337.48991374040617	1
333.4892626552323	340.2676085037017	1
138.171875	18.0	1
485.171875	351.0	1
526.171875	455.0	1
575.3125	320.0	1
549.3125	383.0	1
572.3125	536.0	1
535.3125	460.0	1
444.3125	499.0	1
566.3125	618.0	1
316.3125	459.0	1
310.3125	418.0	1
250.3125	456.0	1
269.3125	364.0	1
188.3125	284.0	1
206.3125	249.0	1
518.3125	44.0	1
541.3125	184.0	1
235.3125	114.0	1
264.3125	94.0	1
166.3125	247.0	1
329.3125	181.0	1
212.3125	348.0	1
451.6210953194218	461.5776427703524	1
301.44273734974445	397.53098420413124	1
514.5634953508306	315.81628189550423	1
516.7720006150906	118.155042527339	1
224.14505310064584	67.35941676792224	1
465.97637953711154	24.29356014580802	1
143.53461095515726	24.29356014580802	1
88.32197934865825	30.919076549210207	1
424.01477951617227	37.54459295261239	1
326.840547888734	41.96160388821385	1
268.31515838584505	39.753098420413124	1
443.8913268945119	53.0041312272175	1
548.7953269468601	82.81895504252734	1
590.7569269677994	113.73803159173754	1
515.6677479829607	126.98906439854191	1
543.2740637862101	106.008262454435	1
304.7554952461344	45.274362089914945	1
482.54016901906124	157.90814094775212	1
563.1506111645498	141.34434993924665	1
524.5017690400005	323.5460510328068	1
460.45511637646166	323.5460510328068	1
474.81040059415136	352.25662211421627	1
335.67456894577384	257.2908869987849	1
335.67456894577384	186.6187120291616	1
321.3192847280841	151.28262454434994	1
258.37688469667523	98.27849331713244	1
234.08332678981566	119.25929526123937	1
161.20265306923696	102.6955042527339	1
228.56206362916575	71.7764277035237	1
279.35768470714487	185.51445929526125	1
473.7061479620214	182.20170109356013	1
599.5909480248391	189.9314702308627	1
571.9846322215897	326.8588092345079	1
503.5209690295309	378.758687727825	1
509.04223219018075	406.3650060753341	1
526.7102743042605	479.2456865127582	1
502.4167163974009	454.95212636695015	1
461.5593690085916	457.1606318347509	1
440.57856899812197	437.28408262454434	1
449.41259005516184	377.65443499392467	1
395.3042110807928	332.3800729040097	1
580.8186532786295	514.5817739975698	1
128.07507410533754	12.14678007290401	1
98.26025303782806	68.4636695018226	1
64.02842144179868	69.56792223572296	1
104.88576883060796	89.44447144592952	1
129.17932673746753	114.8422843256379	1
199.85149519378626	212.01652490887	1
301.44273734974445	293.73122721749695	1
272.732168914365	330.171567436209	1
271.627916282235	369.9246658566221	1
338.9873268421638	342.318347509113	1
267.21090575371505	274.9589307411908	1
215.311032043606	266.12490886998785	1
232.9790741576857	294.8354799513973	1
354.44686369198354	481.4541919805589	1
318.00652683169415	463.7861482381531	1
381.63125901336787	292.89631188225377	1
293.3938070699427	289.319117904325	1
347.05171703553907	487.25718468304814	1
406.67161699731287	477.71800074190486	1
282.6622250768234	487.25718468304814	1
280.27742907835244	177.23370659589148	1
366.1300850233067	190.3500845149635	1
56.106605222083026	87.80385714767323	1
56.106605222083026	10.297987625884073	1
508.0254469323283	248.7775861544661	1
257.290391885484	195.07247268810588	1
320.216994693198	393.2912755808586	1
195.41256579123183	405.8765963994461	1
195.41256579123183	102.78012001846439	1
267.778159020103	31.46330204646869	1
388.3874810682215	329.31589475303895	1
563.5331922163589	345.0475457762733	1
511.0943565432639	40.902292660409294	1
491.1675989874878	57.68272041852593	1
600.2403771875255	295.75503923680566	1
