205.30310170204535	28.21527557819469	2
585.4684631156415	226.1128571132305	2
470.9855372402601	246.2104415611469	3
158.911391273544	95.67368603069104	5
530.7721388304919	119.96350908865077	5
448.1875531655146	216.32258809047548	3
474.8436701236893	388.986135431851	4
342.8214075458234	72.18629347725019	5
325.617064381518	333.4343867749137	3
369.9537574260729	144.7218867768609	2
440.2746850995079	257.15906584092676	3
99.28495596191637	38.41225861885802	5
598.5328286595391	397.5086833622595	2
397.66393486837364	165.62196939105075	4
283.9929158719614	213.33681480105267	5
536.6297926014101	178.5001124206405	6
149.67277536021118	188.25760588487066	6
249.29278760580104	361.6297721473927	3
340.5627491584296	362.42228870474366	2
541.3337847710261	402.52561823554345	5
140.12437265387496	266.451527294769	4
160.42439537237948	242.2033189318746	6
26.068035196367703	137.22768038309903	5
573.7220143328547	107.38080858593631	5
314.6796868486174	201.56249585325338	4
404.3448469869058	311.18022854696926	3
211.07480145133064	176.4380167314278	6
407.22009872400827	218.60406908671087	3
195.65837283344945	299.42575780889365	2
574.1131410353644	338.412102967123	6
493.6915276783337	333.3370580235564	5
533.8332412601374	329.2953815762584	5
282.3221303448241	50.23448264976846	6
210.78283285295407	253.17131434613853	5
99.1550906938497	121.77437504462434	2
241.96533684180145	271.14609552009495	6
514.6167908122901	232.57595744926482	7
394.727453573445	274.8653639021388	2
576.6518364952615	256.21087021637084	7
85.4528616243528	145.93875980920143	2
596.4559086306947	87.59650530817257	3
501.2330715885096	136.1375069012393	2
373.1665213686332	366.98715186951836	2
427.9347159186426	351.12132635790124	2
480.110111658228	363.89923334286755	5
380.2320700209244	317.9397561492734	7
406.4438232488745	307.388232059318	3
453.4247717772829	215.7394459013704	5
81.87444561308035	140.21419270886122	6
139.90593371431413	51.05755230876167	2
569.0694497729248	102.25335929925174	4
595.9840397291248	82.80161467385636	2
171.28760394282548	55.741912776593125	4
214.5247426512351	256.6215471454833	2
203.39769832063124	216.51611990216762	3
350.8242056116097	358.1133686045549	3
425.69433077173585	344.73451617506123	2
493.6856961771657	328.2325009482235	4
601.5904048139308	202.83685023440034	2
543.8555033696537	177.9175074296606	2
476.0855254401607	244.35178661515218	3
345.68826203862875	363.9017704979341	2
281.97516777504427	338.63310409220446	2
373.60284427566387	147.59841031367483	3
473.1112710106822	386.14431530614684	3
103.42667786738684	123.87689344512972	3
494.9250325996127	135.47922011257106	5
21.71936482154721	134.64609939990768	2
475.98824088102856	250.15504884334945	2
437.88723399427886	252.96284895161773	5
348.46844572487964	73.85941352771299	3
571.457368675425	436.81534016729745	2
344.2646179736689	356.30392003748244	2
373.5001045257555	141.33121646403586	2
320.0368956367722	200.63620499044887	5
204.96035375764876	22.199928224979903	3
153.9248121671911	191.9653797074642	3
289.4568498475933	216.26225972967467	3
217.22465631225185	178.1918087346329	2
401.26137733693764	169.19817399958356	3
74.20478769761422	142.2764277035237	2
600.5369872601293	389.3681867874434	2
199.73726688933942	306.0646957607708	3
194.71829867862965	228.46610963610806	2
534.4102114967152	116.52539489671932	2
144.7421875	48.0	2
535.4990227856033	404.65160207037775	2
435.2882310401096	257.968382802418	2
104.30170302698093	118.68957811202185	2
200.44986365345247	301.09464313602996	2
616.8071143691956	219.28720912072467	1
614.6781123893373	368.31735124160554	1
146.29767682051923	57.48305481805404	1
41.97657980746425	68.12806496954553	1
251.6832748235033	364.0593471810089	1
300.65032036024337	356.6078400749649	1
268.7152906623694	311.8987974387006	1
255.94127878321981	318.2858035295955	1
209.103235226338	21.290020302982978	1
16.428556049165078	35.128533499921915	1
202.3125	221.0	1
385.3125	312.0	1
577.3125	248.0	1
534.3125	334.0	1
107.3125	114.0	1
43.3125	60.0	1
271.3125	49.0	1
368.3125	140.0	1
96.05174777356811	35.336087484811664	1
591.8611795999293	293.73122721749695	1
418.4935163555224	345.6311057108141	1
520.0847585114806	439.4925880923451	1
572.3709964538506	111.10779053182097	1
158.49450417484917	190.27209128574341	1
468.2074497393368	393.0438090063167	1
29.331706248852093	130.55165387488964	1
94.80573057753163	42.40720754134523	1
207.2469493802755	182.19898224610924	1
234.59751611607808	270.3285793425909	1
140.39000847053592	259.69224865853266	1
562.8043169457089	435.95144285149604	1
23.39036187849159	142.6926111338933	1
582.5575040326775	84.95253027757775	1
253.171875	358.0	1
257.171875	313.0	1
475.171875	381.0	1
611.171875	372.0	1
606.171875	209.0	1
508.234375	238.0	1
469.234375	255.0	1
487.234375	328.0	1
155.234375	100.0	1
162.234375	246.0	1
252.234375	281.0	1
539.234375	129.0	1
505.234375	132.0	1
571.234375	73.0	1
575.234375	262.0	1
544.234375	187.0	1
455.234375	212.0	1
458.234375	85.0	1
600.234375	343.0	1
398.234375	347.0	1
414.606898904769	191.92614248345902	1
512.1431332567258	225.48699799969228	1
301.33901385088376	362.87675026927224	1
378.6185870284688	144.18576782234868	1
399.72274141887607	175.84181923356172	1
545.9443825524119	328.0923522113006	1
604.7345269256892	347.68895546586106	1
280.6350130730067	44.69532052996486	1
164.5621639257669	237.64649103640622	1
108.7868987511192	121.57430252862508	1
603.2270873263744	394.4193170728898	1
230.5138114199098	9.438990613940607	1
567.1711364411799	439.43745191567933	1
572.4150200084894	79.70703185105401	1
594.4393309911893	349.2426527158025	1
605.9758748392702	141.5848592091091	1
431.87894040459474	380.7059547622711	1
487.4641062180755	202.4139098322819	1
423.4887266968995	183.53592860440068	1
238.90402512760502	204.51146330204648	1
166.53843189873388	57.68272041852593	1
173.87986889296718	9.438990613940607	1
447.61059110652326	386.9986151715649	1
