512.2946825432854	299.6262454434994	2
461.8656220042958	342.6591737545565	2
276.63093685897354	298.59811135333393	2
257.04108681029845	43.56768591805202	2
526.7102743042605	513.4775212636695	2
229.7822677879393	170.5672539489672	3
433.593714102671	453.8718104495747	2
295.76917563452656	67.49526376775475	2
546.4671956010984	436.2020186130683	2
186.90435548804825	22.594653705953828	2
380.7460310983744	455.22007897934384	4
307.51612682645936	351.1523693803159	2
322.7494975437701	179.0124898174874	4
244.18011405555774	85.46160388821386	2
229.03949436730665	27.01463108152788	6
526.3253814262239	397.02349965596926	3
446.73403769369764	417.8242585295576	4
305.4794678167308	148.72739975698664	3
387.1389004997422	191.77702879861158	4
359.6541953029965	242.26960955502875	4
59.87157118237334	43.206758443548324	3
488.849736591988	478.25797107019656	5
90.31723967432913	80.25309842041312	2
390.3115605659772	323.01938303924646	6
518.392092810405	298.95415408103133	4
332.0515113118855	225.35382175630266	3
316.51353583680304	219.50612927443007	2
300.8060549751355	350.9412174139286	3
130.90313489185112	192.77726537365086	3
422.6503844519939	133.28300597105255	2
519.2810456086613	404.5716385604652	2
329.4164794462203	173.43052496017896	2
593.0582623390042	401.88405899022155	2
230.9244703128158	166.19479780416998	4
465.05945706332255	347.3076934562678	2
452.3994352695025	422.55435998237704	2
302.31508542889947	247.31884542053888	5
327.537461444367	236.10291616038882	2
465.8959491940211	291.95700387067143	2
421.0724509420212	139.62004860267314	2
426.0455146032713	239.82324551820312	2
324.901958812237	311.6996354799514	2
395.8044431669272	192.08017893097062	2
587.8262082196397	399.369744835966	2
374.4114331340162	408.0782647532888	2
175.08724740729838	289.60928954549763	3
366.37476295608946	111.07431661490484	2
291.368300214696	68.05853120683341	3
435.53491569412563	448.41312530555956	4
467.9350116940211	340.5759001839766	2
125.08689737213362	6.004772520212766	2
244.8844813447257	76.42197046079815	2
528.5838036803171	507.49203728054465	2
376.95810391491966	277.91984877276354	2
325.5853505262254	306.7478744783701	2
48.3125	9.0	1
296.3125	61.0	1
300.3125	147.0	1
284.3125	301.0	1
516.3125	304.0	1
386.3125	459.0	1
303.24660706272874	141.17090578318553	1
251.99366068602544	46.202751549546434	1
190.18863711411854	29.62101033414913	1
524.8402281620047	147.20062986151183	1
141.95056993604484	190.91612942937743	1
93.71250275797118	73.33650990201474	1
550.4667013503563	368.79298974000307	1
230.8895062956182	255.73566327138508	1
381.63346622709844	447.17940275824486	1
444.9459293983202	88.41082009783048	1
125.36873434358203	65.79935480410688	1
298.171875	141.0	1
522.171875	511.0	1
543.171875	431.0	1
385.171875	328.0	1
483.64442165119124	481.4541919805589	1
548.7953269468601	428.4500607533414	1
555.42084273964	373.2374240583232	1
369.90640054180324	282.6886998784933	1
397.51271634505275	118.155042527339	1
273.83642154649493	308.0865127582017	1
297.0257268212245	205.3910085054678	1
451.6210953194218	507.95625759416765	1
290.234375	77.0	1
256.234375	54.0	1
55.234375	52.0	1
127.234375	195.0	1
391.234375	198.0	1
346.234375	232.0	1
527.234375	137.0	1
460.234375	354.0	1
373.234375	413.0	1
356.234375	378.0	1
381.234375	285.0	1
313.234375	211.0	1
359.234375	103.0	1
387.234375	112.0	1
241.234375	261.0	1
177.234375	282.0	1
278.234375	304.0	1
550.234375	415.0	1
542.0389292739283	425.4946961737893	1
439.47668538931725	453.21422035449217	1
496.30171240646655	478.1617921171248	1
384.03763464087893	451.828244145457	1
66.64906910606943	42.96526248008947	1
305.0369873243543	256.4055986715017	1
136.90909516237738	196.5569866342649	1
375.4276637024531	283.79295261239366	1
597.3824427605792	405.26075334143377	1
