125.95196326989915	129.5192064169562	6
347.12260257194373	247.63140144804575	5
374.03693362926384	317.45412966777343	5
415.91005002280053	506.818639952401	4
318.5873724057151	75.82494377581597	2
410.11277128038296	280.21023544902306	2
451.7543571132453	431.09571751342776	5
367.3240105829925	232.6885721770738	5
314.2254818014829	160.7558137193822	4
178.28535331095392	33.28960971096217	3
150.97197693231666	176.42786185396676	5
585.9845743667379	184.20757033915658	7
264.59455159221	360.9709307582518	2
51.52339377042985	146.56953017346916	2
210.2699043562081	363.3602879151464	4
151.83506775914782	184.08371810449574	3
409.37578818076656	285.01870948460817	5
254.08834448140257	94.6455453670597	5
362.7263798745117	232.9465370595383	2
412.8994336068848	500.7931147083775	5
168.73441595311664	247.34869202017904	4
377.847069301071	283.11763102051776	5
603.7627225341191	395.1942165593245	4
78.22063208335682	166.60307448315248	3
63.74175642986487	63.81147102099324	2
471.6036362992236	212.03845686512759	3
280.95240880176743	123.3381530984204	2
146.56328857703303	252.19859589348124	2
91.9214923064591	331.5857837181045	2
586.4331351205185	446.3990820536012	2
483.64442165119124	436.179829890644	2
487.8039598960428	439.64460002059093	2
605.0434418452983	456.9919918730743	7
308.15868189310316	162.2350400384862	4
71.1450955236827	194.8022314828031	4
46.76567704618819	147.87689981947256	4
470.7228524539022	205.01401289714585	3
305.20113650786885	286.9683827608935	3
174.08295652249285	248.5062287655719	2
434.4320112516222	195.7367048521748	3
321.005696497858	79.93613594143473	5
363.1473625584557	318.7949655101411	2
330.96455707482494	394.1038151154159	3
380.86511358431113	287.12687156523396	2
550.0761873673014	232.96847412891185	3
243.6148866339781	138.423167915257	3
249.8602908333932	202.90350562852578	3
260.44679988917517	370.9716303330902	2
283.5028042595882	116.14342187082335	2
340.7603075715755	295.89716301915087	2
74.46304944077463	161.8052247873633	3
297.65092722667725	288.65710814094774	2
335.52373466452923	299.25827265428234	2
267.15745024472756	428.2250303766707	2
456.6401466739709	432.82928311057105	3
179.47378512641103	61.60254577551142	3
90.04368770685728	325.810245417048	1
291.79474165649424	438.3660952378924	1
580.617303100185	150.60538484686575	1
553.0092641386558	154.85277540614288	1
402.2268975026113	337.49056945506015	1
13.590656736468546	109.19332689391358	1
380.3125	319.0	1
206.171875	238.0	1
604.171875	401.0	1
268.171875	417.0	1
368.80214790967324	86.13171324422844	1
183.28770571183657	67.35941676792224	1
125.86656884107758	134.71883353584448	1
67.34117933818862	71.7764277035237	1
329.234375	75.0	1
247.234375	92.0	1
247.234375	136.0	1
185.234375	181.0	1
122.234375	93.0	1
129.234375	38.0	1
324.234375	302.0	1
164.234375	252.0	1
174.234375	218.0	1
342.234375	189.0	1
365.234375	82.0	1
580.234375	186.0	1
547.234375	237.0	1
264.234375	423.0	1
285.234375	438.0	1
156.234375	213.0	1
437.234375	203.0	1
524.234375	489.0	1
460.9302947049583	428.2340395227459	1
176.33456375662075	55.3609191581227	1
69.61116465099417	201.61150700431767	1
70.92873747945869	61.948783475518866	1
607.1808786645207	318.8754918539695	1
275.1525258914602	416.3758837514328	1
561.0658296682623	160.7667482364614	1
332.9907513002061	304.5551322969216	1
245.97499496841957	209.1185009780706	1
247.37847490925483	141.7514671059405	1
130.88963981992765	140.34798723360444	1
558.7336006360299	153.49113001215068	1
609.5292217140089	459.3691373025516	1
331.2575584172539	294.8354799513973	1
240.70884258259554	143.5528554070474	1
185.4962109760965	56.31688942891859	1
76.17520039522846	192.13997569866342	1
228.56206362916575	405.26075334143377	1
329.04905315299396	399.73948967193195	1
167.0955945277605	241.21864902292663	1
201.70522607200323	233.8772118787506	1
280.3634795816458	272.6819510693953	1
