527.4210276696585	322.2162319048649	5
400.2474194794445	347.59663025080783	3
586.9573842788519	580.534800483332	2
414.9851946789313	376.9714342308599	3
364.3803536844656	311.88170712622707	5
497.1203408499124	131.31980394277534	5
322.43727168567443	281.3285120787814	4
320.5784691776779	203.3590865048719	7
524.6041059247236	549.6053599989057	3
493.65531681558025	104.53997928324065	8
458.21225903900415	119.15545247167097	4
603.9245002533219	493.37402686890874	4
334.31292888304995	166.35336205570087	2
278.5117331969396	103.82889675334667	2
439.0996456144975	257.72167988650153	3
544.7004027728643	197.19317717592634	2
536.9290817917374	128.41631668147122	4
548.571858072788	235.78253209158078	3
363.10357876395517	235.49133993408697	6
488.3423789657687	411.60901677181107	2
574.4125367177066	455.63332820433914	2
316.32815374336496	358.2490383135867	3
486.68643919954576	247.52220821918206	3
472.9765536148044	201.73134328358208	2
474.0191189364193	175.78141561336537	4
534.9448808897854	18.62277992767857	3
354.2275309474761	395.7431912601939	2
324.0202686022785	239.6093245114633	2
460.108017767498	394.15973291786014	4
376.732824795557	491.9869210647792	2
379.6350657224808	254.9751500230805	2
482.97918810937836	438.3052515225559	6
429.89062688119293	233.60178599778732	2
428.9347159186426	441.2431143252808	2
556.5107775596928	493.75536820936827	2
380.4487593596543	430.24607085753235	4
542.4466368527869	126.99181678349538	3
387.3240085709531	252.43507020574103	3
338.65411582815887	160.792614950759	2
492.34334503805053	415.54738760631835	2
481.2338976751595	269.8819956325003	4
500.30149358898774	127.30189790110609	3
498.2934988965269	411.74436531883623	2
554.6596497723322	232.79763789345776	4
501.12791301648224	303.06758332330025	4
408.913320546611	343.0381236161728	4
368.14817968964087	235.93904006406336	3
543.0320427066729	192.12251393015765	6
387.80121382064885	431.5480073857517	2
506.5180356312462	300.4994614556085	2
339.34027508358383	169.92651753661207	3
469.5078125	174.5	2
513.2734375	511.5	2
583.546875	185.5	2
320.78125	199.0	1
452.78125	114.0	1
542.78125	239.0	1
301.78125	17.0	1
283.171875	100.0	1
280.171875	253.0	1
595.171875	442.0	1
285.171875	322.0	1
345.3125	385.0	1
531.3125	125.0	1
311.3125	309.0	1
602.7037636374104	485.77765450391337	1
425.50384701309736	462.5590669477077	1
392.5080004692598	468.66922156776184	1
420.61557345104734	377.01690226694996	1
551.3768912358852	601.8705922849418	1
534.2679337687101	10.407625063702303	1
552.234375	248.0	1
541.234375	208.0	1
577.234375	203.0	1
499.234375	138.0	1
326.234375	214.0	1
273.234375	108.0	1
330.234375	85.0	1
188.234375	26.0	1
155.234375	72.0	1
241.234375	39.0	1
292.234375	168.0	1
440.234375	60.0	1
362.234375	320.0	1
376.234375	129.0	1
383.234375	80.0	1
355.234375	37.0	1
319.234375	46.0	1
264.234375	152.0	1
305.234375	308.0	1
487.234375	405.0	1
575.234375	441.0	1
565.234375	349.0	1
473.234375	267.0	1
441.234375	262.0	1
406.234375	156.0	1
453.234375	124.0	1
352.234375	282.0	1
597.234375	385.0	1
599.234375	352.0	1
540.234375	387.0	1
469.59629702886366	168.05053317937922	1
319.6007897599638	270.8252394213136	1
457.096671423122	149.9955172179583	1
537.3137743798114	120.60932451146331	1
562.484415502897	491.87628865979383	1
383.14359750091205	244.36497922757349	1
542.9295033537824	11.531838099170253	1
463.0352045900978	109.5148543719725	1
464.5426441894126	225.58704287975362	1
601.7196477270596	181.87154331188802	1
351.4846742408024	383.8672999358188	1
488.6616777784494	444.1645407190817	1
325.85820105245074	270.8099734672008	1
329.04905315299396	277.1674362089915	1
505.7294742937908	305.87800729040094	1
460.45511637646166	388.6969623329283	1
548.7953269468601	200.97399756986633	1
577.658903575799	192.97491921834128	1
495.85431992577065	306.24280658562856	1
478.0251157969183	274.77950453915986	1
553.5370391661752	498.1689490690876	1
562.9760295873323	597.8027388829051	1
549.3419323123276	566.3394368364364	1
377.3425513045759	434.19356824126794	1
457.04958152768035	225.48699799969222	1
545.14682545848	89.14602246499462	1
612.2685351200416	65.02415756270196	1
582.9027871431084	61.877827358055086	1
257.7820059699192	270.58439759963073	1
273.51365667184774	310.43791352515774	1
272.46487995838584	253.8039698415141	1
612.2685351200416	170.95060778581322	1
456.00080481421844	552.7053392829666	1
597.5856611315751	185.63348207416527	1
371.0498910238045	124.80443145099247	1
406.7082992815091	47.19495306970303	1
216.8797141449051	155.21895676257887	1
331.1963759122523	388.04739190644716	1
390.9766485795806	475.0958609016772	1
420.34239655651385	465.6568702877366	1
471.73245551614696	488.72995845514697	1
447.61059110652326	464.6080935528543	1
