553.3960082093383	126.8498247355552	4
559.5711554497268	204.3294302133392	2
306.83843644991134	534.6326836241262	3
539.2428273702566	56.167580295766456	4
228.51088912661984	49.667978244664454	3
565.6306132880632	33.521957314834715	6
574.8850853626668	242.51612922525356	6
250.91607570870326	517.9417970250564	6
474.34182351710575	264.97986806931476	3
45.220177567488655	325.4284335555557	3
452.0218553015336	283.28060312733226	3
500.6379935246085	25.877553759012272	5
85.59129742241242	146.57963500801955	6
205.2099841185768	483.79837448440844	3
74.19604405527696	89.88089493443015	5
547.9397394531672	366.8162947167357	2
305.68008205330307	363.3789237452389	7
462.8468999810724	59.593152662121696	2
425.409911891551	224.89005849946886	3
470.3196169780143	158.231470360481	3
477.2639984757207	393.12507062845054	2
208.38614168031637	226.36642177176287	2
152.6139342039756	271.45932139343415	6
277.7738587651471	217.6476395077086	2
570.5751224466687	490.91718933048844	2
243.86371754204524	328.21695450558866	4
605.3841241158207	267.0176630520532	3
208.90715346675165	368.0443796768624	6
405.4606973778827	443.3715194763948	7
307.487643709254	202.68421111015857	2
449.15378925449807	396.228941464837	8
212.77204264933926	410.8566040119898	2
304.2878268593855	481.6545140905983	3
363.0610185723218	287.3149010488	5
578.1132539443752	296.73675293009126	2
374.8588691413413	40.4641153290691	5
501.3342586418713	289.4048123518528	2
415.08392660640783	300.2693428467968	2
455.19832080793844	278.8914003991522	4
310.42337775972857	198.9674362089915	3
280.583763382862	394.200218647509	3
238.14037774112387	177.42679212868967	3
345.0699071086322	343.76342648845684	2
419.09978768871883	304.70817267650017	6
254.59712458407765	417.1516403402187	2
109.4553480432499	407.89372169295643	3
91.38330303534016	391.42658559769126	3
280.8958961208141	220.83281473656126	3
507.66669320828294	369.7231766359519	2
481.7790989233664	389.7381834750911	4
442.958659720817	176.55348452151358	6
267.1534341696684	295.7157993071049	3
158.18528234479896	440.3839606434484	2
189.55604570884225	451.6097141964704	2
599.8094242651648	392.900437295018	2
319.6756893391374	106.0041312272175	2
221.89014891819295	47.74143377885784	2
349.88467526566683	347.41980558930743	2
566.9591647709833	68.67169067563259	2
378.078125	36.5	2
366.32969463745167	8.771091852471347	5
101.64118007433436	12.073390036452004	2
224.92720115754827	51.449939246658566	2
372.67444383771215	478.48047790098394	2
73.45937162129911	327.71657816648445	3
55.95846800640386	121.3215824086864	4
347.4004319585626	355.2394190223333	2
345.86818146359803	560.4637669842261	2
352.5294339384209	419.20669998438234	2
544.3345230320427	444.9807121661721	2
306.1426626549445	196.99859440887084	2
307.765731916716	144.04899785925835	3
423.17330638905014	123.55272325453458	4
507.5109594736487	27.788585677772172	3
391.75495274707436	390.8036857722942	2
211.23490066786826	486.044853272568	3
557.6155868858368	208.56928112529033	5
59.63992031677344	366.24040789509297	6
433.9804715557279	486.77073246915506	2
429.8514695758696	510.4479931282211	2
528.9475170924679	499.1254880524754	2
568.8834480930265	63.414678853643366	3
455.15009143936186	311.43732735395713	4
560.4386918515772	130.07515105490768	4
182.9057220030754	400.9694126519142	5
118.96657554118087	368.0941746056536	2
471.86244253479583	269.90112186862143	3
472.6737398694168	510.9157426206466	2
315.25350928919465	395.02128991403447	4
232.96553059654457	114.37882959914205	2
517.4328435287965	454.2017045093345	3
105.06295407568605	336.87894704582015	4
24.275727158624683	92.82648845686512	2
451.0750393609777	482.4604763980432	3
112.81396186274317	375.44592952612396	2
302.19710405988553	359.87111220788745	2
474.78267934370376	158.16802136678825	3
513.657667325926	192.6921020656136	2
19.504614447759828	117.05078979343864	2
24.473751292344737	45.274362089914945	2
20.450986868865463	249.3271777031916	2
288.2125559087642	441.7146315641457	2
141.1309199534336	245.05695063579896	3
224.78645037408535	126.8124667412697	2
568.4543961860529	445.5000126952945	2
212.32605495779563	13.524897142496048	2
442.1543114327603	20.563408897219162	2
537.3990989167206	443.35747266099634	2
351.61878562234256	381.6012805358363	2
480.61222095218386	396.0816476375039	3
146.60249356133244	28.422371120463165	3
418.85014790617504	253.70443692004184	2
465.2378211325362	54.764752850396206	2
379.0819076069211	410.8397044292535	2
419.71622428887883	29.278175612168432	2
336.2987131240047	240.10003634004337	2
77.76428488840745	86.17814773565475	2
580.7163669951174	133.91060607411964	2
96.71106534977403	13.58452472062287	2
186.12246270696136	337.63432746914464	2
371.4713941086138	445.5000126952945	2
337.9352162510993	262.3198243381131	2
587.0010866511799	26.612525378728723	1
404.9714173732983	19.16101827268468	1
612.5491104094791	72.38606903014212	1
609.3556074396917	102.19209745431829	1
241.03826492421197	109.64360456036233	1
235.7157599745663	47.9025456817117	1
151.62018177016486	344.89832890832423	1
477.3574846884793	316.1568014992972	1
292.13431244081033	113.90160862095892	1
323.00484114875513	101.12759643916914	1
365.58488074592043	112.83710760580978	1
387.9394015344322	114.96610963610807	1
450.744959940251	135.19162892394192	1
144.16867484066094	426.8649070748087	1
377.29439163514087	260.8027487115415	1
317.6823361991095	235.2547243479619	1
252.7477758134324	226.7387162267687	1
245.2962688839285	261.8672497266906	1
288.94080947102293	250.15773856004998	1
270.8442926422277	255.48024363579572	1
288.94080947102293	272.51225987818214	1
394.326407474007	243.7707324691551	1
514.6150193359989	182.02967359050444	1
503.9700094367076	199.06168983289083	1
462.45447082947146	232.06122130251447	1
489.06699557769974	220.35171013587382	1
493.32499953741626	237.3837263782602	1
506.0990114165659	294.86678119631426	1
522.0665262655028	312.96329845384975	1
535.9050391345816	335.3178197719819	1
606.1621044699043	369.38185225675466	1
604.0331024900461	331.0598157113853	1
467.7769757791171	356.6078400749649	1
575.2915757619595	499.25097610495084	1
572.098072792172	469.44494768077465	1
477.3574846884793	476.8964547868187	1
20.686560008881607	106.45010151491489	1
26.00906495852727	79.83757613618617	1
27.073565948456398	40.45103857566766	1
5.783546149873756	51.09604872715914	1
188.8777164176845	7.451507106044042	1
301.7148213501725	32.99953146962361	1
315.5533342192512	77.70857410588786	1
321.940340158826	54.28955177260659	1
260.19928274293636	418.3488989536155	1
38.78307683767685	288.4797751054193	1
4.719045159944624	168.19116039356553	1
511.42151636621134	522.6699984382319	1
489.06699557769974	540.7665156957677	1
434.777445091314	550.3470248321099	1
463.5189718194006	542.8955177260659	1
351.7463678768417	572.701546150242	1
397.5199104437944	579.088552241137	1
378.35889262507	593.9915664532251	1
615.7426133792665	201.19069186318913	1
45.17008277725164	188.41667968139936	1
69.65360554562169	203.31969389348743	1
86.6856213844878	212.90020302982978	1
111.16914415285784	243.7707324691551	1
86.68562138448779	251.22223957519915	1
73.91160950533822	240.57722942370765	1
284.68280551130636	508.83148524129314	1
274.03779561201503	534.3795096048727	1
333.64985104804646	510.9604872715915	1
353.8753698567	522.6699984382321	1
400.7134134135818	530.1215055442761	1
376.22989064521175	531.1860065594253	1
395.3909084639361	547.1535217866625	1
404.9714173732983	609.9590816804623	1
22.066821420859423	256.18663426488456	1
345.61284263494366	29.814823815309843	1
373.2191584381932	263.91640340218714	1
458.24661111220166	130.301822600243	1
312.48526367104427	166.74216281895505	1
599.5909480248391	269.43766707168896	1
504.6252216616609	300.3567436208991	1
521.1890111436105	341.21409477521263	1
398.61696897718275	395.3224787363305	1
373.2191584381932	374.34167679222355	1
239.60458995046557	333.4843256379101	1
366.5936426454133	472.620170109356	1
346.71709526707366	431.7628189550425	1
241.8130952147255	115.94653705953827	1
313.58951630317426	108.21676792223572	1
451.90959792292057	274.41013303962205	1
436.49995750406754	176.02550650705777	1
207.726065131865	14.816961827193415	1
463.7631674758845	363.3119040027825	1
429.38781577228923	460.51117358917134	1
501.69459004536884	375.1654734645373	1
57.7997548634695	113.73803159173754	1
34.61044958873991	195.4527339003645	1
109.69962857357858	77.29769137302551	1
51.174239070689616	327.9630619684083	1
36.81895485299987	378.758687727825	1
247.7312075898261	112.63377885783719	1
216.8121338901867	164.53365735115432	1
240.00143916491626	188.82721749696233	1
181.4760496620273	335.6928311057108	1
273.1290181288157	389.80121506682866	1
312.88211288549496	239.6228432563791	1
381.34577607755375	113.73803159173754	1
411.1605971450632	24.29356014580802	1
562.4432077468705	209.80801944106926	1
434.3499024197928	512.3732685297691	1
364.78198659560405	447.2223572296476	1
570.1729761717804	29.814823815309843	1
529.3156287829711	337.9013365735115	1
523.7943656223213	308.0865127582017	1
339.3841760566145	257.2908869987849	1
21.171875	41.0	1
21.171875	262.0	1
67.171875	412.0	1
118.171875	374.0	1
156.171875	445.0	1
272.171875	39.0	1
147.3125	348.0	1
185.3125	343.0	1
253.3125	331.0	1
89.3125	397.0	1
273.3125	215.0	1
413.3125	32.0	1
508.3125	187.0	1
281.3125	439.0	1
219.3125	401.0	1
222.3125	162.0	1
472.3125	472.0	1
424.3125	555.0	1
530.84375	36.0	1
566.84375	39.0	1
581.84375	245.0	1
580.84375	127.0	1
314.84375	160.0	1
306.84375	139.0	1
424.84375	232.0	1
286.84375	394.0	1
474.84375	323.0	1
451.84375	317.0	1
426.84375	308.0	1
481.84375	266.0	1
330.84375	261.0	1
279.84375	209.0	1
186.234375	326.0	1
145.234375	342.0	1
214.234375	378.0	1
189.234375	409.0	1
215.234375	482.0	1
310.234375	397.0	1
518.234375	309.0	1
445.234375	401.0	1
247.234375	527.0	1
126.234375	360.0	1
435.234375	497.0	1
493.234375	545.0	1
539.234375	431.0	1
550.234375	200.0	1
422.234375	222.0	1
330.234375	541.0	1
408.234375	605.0	1
361.3604930263648	10.297987625884073	1
438.8663629766707	183.19569655910604	1
474.638302953735	354.9010074996851	1
65.64578921596683	370.40218140404295	1
177.73120114410156	396.63493724218694	1
599.84009287346	385.90335530840076	1
604.6096848704018	104.49742904467396	1
605.8020828696373	72.3026832433154	1
590.3009088795761	21.029569559670264	1
561.6833568979247	61.571101309529205	1
343.4745230378327	358.4782014776138	1
169.38441514945322	232.08401425746536	1
