103.46216454550992	197.08501307893522	2
526.428492314693	408.04172654753006	4
64.93084290109095	152.24643019917124	7
570.278362885902	280.85265578985184	6
402.25829149769754	267.39970994696444	3
241.13417358349824	231.49096159360704	5
199.40928308023416	193.095121980849	5
254.33602701547179	194.80423601223674	7
536.6682493564792	313.03997441225334	6
394.7030652167141	352.69449146022464	2
282.75240277057435	39.407949717995926	4
463.7442411135215	168.63972892735904	4
276.01136604681363	123.52823444950269	2
410.6297023852411	102.72470819573189	8
395.90908389261295	199.74133587056355	4
434.4761572191417	127.60068869367134	4
43.16498624574557	23.278516145681984	5
378.1455209758202	434.7179566087091	2
333.35225855101095	282.1287575974395	3
604.6686570238683	267.4100216295588	4
505.1639103867823	208.666522465271	2
462.3417743026289	257.003130818645	10
146.71664623305207	81.72541285047535	4
534.3380958903317	372.49226302707825	3
509.6548374648343	366.307262157056	6
509.56503519923444	161.8370965567747	3
338.56352832061793	133.66730201775889	7
99.37458503793876	74.02302430728993	4
446.2701413793062	16.663023233123738	5
242.0417041421528	301.42647408166533	5
440.037361540912	307.3896818502968	3
91.13044176473852	11.743883674411448	2
143.5277155381987	185.02184431776305	2
136.83443649562378	150.96951871659502	6
430.9936844842091	168.90450723682207	9
455.8543144739068	404.1368508179729	2
322.58371945900944	305.6214032928143	2
219.38039303131146	146.84717824613452	2
86.0036428743528	216.77400369287585	3
564.8850876863168	403.53137655144343	3
534.7419360960231	272.5892433336553	2
119.75864795728869	256.43652614460774	3
384.17483079852883	89.28205386876155	2
330.4261805133037	406.40098476688723	2
521.5300193807124	194.93807923020006	2
159.14418688658287	35.08883480922876	7
379.572304866242	68.92272707353564	4
454.2262584250872	336.17234582722404	4
332.67765886976076	6.800578032685104	4
358.58616696030134	203.67384364639406	7
285.7705206352732	340.31977440299625	3
431.10874500564614	336.1329435297738	2
209.35339737287364	281.22059141906567	4
384.77218780846783	23.93452261794383	7
175.68025732364464	286.46386483049923	3
522.8943446924993	9.413399325938178	3
164.92517173332993	172.29819480861295	5
379.59968514585086	430.2758913157368	6
514.0208595779353	159.58369958716779	4
246.36145552042177	307.23769874825155	4
437.49417370781026	402.3943948632006	2
354.078125	241.0	2
290.3362856305068	338.6876655668913	5
497.75852559425323	314.5825406491375	4
339.32321852571664	127.44348977789852	3
286.451781474392	38.89661232476645	6
579.3766725344658	120.05753867732152	3
335.5859162336277	277.52599101640584	6
459.7439754575034	407.6049474649381	2
324.17330163657084	310.50439784500566	7
253.04840166035882	87.58376294624179	4
394.61471115564984	206.44051516637995	2
499.52507394989595	309.0886335547507	2
375.3310193512266	71.33608748481166	2
531.4549904045101	266.97317982559053	4
609.7949912198458	270.7238794315165	2
102.49419786255746	68.17665487370759	5
162.45729318021793	36.524687301177465	3
197.5086518881556	128.80287043243217	5
240.14101098370327	235.8576037492359	2
521.682701127716	412.9809464313603	2
206.25144036115307	188.361482381531	2
216.9365847344703	154.7287267051887	4
106.68315558786954	192.53522056858628	6
407.21285144133003	265.9682258601062	3
398.7340200498311	208.76878456111672	4
399.864393416634	352.4308822703711	4
460.01351417695446	402.4276906481223	3
348.12747337857644	257.9674293262889	2
143.0045364714914	189.32783510315602	4
280.3109078862347	128.68770434971304	6
164.4746781285711	165.31778371658638	2
248.3815510658701	88.676121011207	4
441.0441868741036	20.876699642182366	3
101.5609472677564	135.48748173746776	2
430.6578903017602	407.2278544537935	6
530.7453925874325	371.28767765110103	2
571.5289778330167	285.1116145625086	2
444.1363615025259	312.3988314880636	3
457.7291395750251	168.98903145157914	3
92.70806178935834	7.395821189148693	3
92.27164555573313	223.1521442333746	3
513.001938653987	360.3231961196169	3
528.6728518533532	411.56329412226273	3
433.10921843390577	134.3548443695555	4
358.23073512227097	197.36321249930907	2
262.04008091188	191.9004571830273	3
542.5537414345995	316.5128056390721	3
456.54518055610083	330.13791008505467	2
495.05445120720583	307.1214032928143	2
567.84375	407.0	1
405.16790848361194	348.19387598092015	1
135.63229312390348	144.73118941375597	1
442.78707426238196	14.355285540704738	1
43.04762143132905	28.710571081409476	1
426.22328478043227	339.0055893074119	1
566.4633690609397	398.6352369380316	1
27.588084581509325	236.310085054678	1
389.7829479201429	26.50206561360875	1
503.5209690295309	316.92053462940464	1
355.5511163241135	205.3910085054678	1
353.34261105985354	251.76962332928312	1
260.5853899609352	374.34167679222355	1
152.3686320121971	87.2359659781288	1
512.3549900865708	206.49526123936818	1
208.6855162508261	313.6077764277035	1
141.3261056908973	244.03985419198057	1
459.8743660021757	337.48991374040617	1
436.26396208021924	343.0453032669972	1
404.32047442110166	273.6029341846091	1
115.44023819951681	197.2163281939822	1
208.4930065978158	195.82748081233444	1
506.0990114165659	155.41714821177573	1
427.3259381618101	172.44916445416212	1
430.5194411315975	142.64313602998595	1
612.5491104094791	39.386537560518505	1
607.2266054598334	15.967515227237232	1
29.202567928314664	112.83710760580978	1
222.94174809541673	236.31922536311106	1
309.1663282796764	73.45057004529127	1
430.5194411315975	342.76932687802594	1
7.912548129732021	15.967515227237232	1
447.234375	88.0	1
453.234375	10.0	1
336.234375	65.0	1
310.234375	66.0	1
275.234375	135.0	1
378.234375	97.0	1
413.234375	111.0	1
595.234375	127.0	1
514.234375	199.0	1
564.234375	284.0	1
387.234375	425.0	1
428.234375	400.0	1
340.234375	280.0	1
350.234375	246.0	1
321.234375	316.0	1
202.234375	318.0	1
176.234375	277.0	1
156.234375	179.0	1
145.234375	88.0	1
60.234375	156.0	1
145.234375	146.0	1
464.234375	396.0	1
251.15815987541262	302.6992147843254	1
436.2520482740922	121.87701735272513	1
160.3125	169.0	1
132.3125	151.0	1
206.3125	309.0	1
217.3125	137.0	1
106.3125	73.0	1
251.3125	95.0	1
327.3125	56.0	1
514.3125	368.0	1
467.3125	401.0	1
607.0246515527322	39.853515925527006	1
98.36794552371033	229.68210493922143	1
191.70907302181948	131.0970918602862	1
256.7332292564573	92.29235266964149	1
585.0003405700322	125.85320818587476	1
491.6592130719231	314.63302046468687	1
424.5375034103614	406.92537313432837	1
353.22068689495217	256.950300046161	1
325.95249234494275	335.60855516233266	1
576.610126862337	435.2423449761502	1
136.12390720833875	246.46253269733808	1
384.6839882988092	44.04862286505617	1
