567.7268283888407	535.9501050598163	4
478.7734375	459.5	2
209.56755102162586	220.82551731951136	7
165.43744838489604	368.89494936954844	7
503.28851796273193	349.9920899513654	5
72.7165429044984	96.13211042432306	8
91.1134327236448	215.3384025346319	4
343.627773754364	359.3472828724198	7
172.7143400186405	242.2933557686365	8
191.8603098383415	290.3691552808575	9
92.75433806354738	314.4389823488132	7
143.29441420266645	345.228822220284	7
410.4145857619766	148.37423356169123	7
53.974954419945625	298.55421553431336	8
268.4977016676496	346.4457447487273	6
305.3701126613104	412.8787571181705	5
374.2421875	432.5	2
604.2421875	398.0	2
99.3158344051242	142.8168179719957	2
310.4981631023559	445.1116371133461	4
135.10127233386132	249.92998995437128	9
185.80494243917062	332.78632640016747	4
136.1959609306778	378.9140700796579	6
11.58039120476123	118.01221734437902	7
413.09488244535396	533.2210696003481	3
598.9857925921876	399.8775395571452	2
268.117793047453	275.9360064073681	7
29.163724074710082	269.4521057207283	4
264.7646860358879	384.58784933171324	2
501.7497193640886	411.4923570817127	5
306.63781633833776	449.6780409809753	2
368.7894118327067	437.0230374812137	6
24.316225343076773	235.61803683415545	2
237.20544991094306	380.0108188674361	6
467.54433625529566	227.28385201739232	7
451.67419401187465	423.42704174338064	4
101.22290348848156	147.03040762080428	2
271.226060177867	342.3621482646373	2
182.58725336575125	327.16682286269133	5
305.7610207248473	409.2540822064048	4
242.22013625968071	379.1571113880757	2
485.77723911076225	461.00870913159594	5
596.4281488302506	386.71248981238455	2
259.6114804824043	381.64817674076005	3
606.9378485754767	404.5855592608467	2
91.1075183871104	210.25296275256966	3
562.621677885915	540.0107818916402	2
511.2605819116677	349.4731518993105	2
307.9692086053061	276.79164779808525	3
28.056047894402532	262.88269367485566	2
98.46958805568698	136.94647549737886	2
88.52493006420282	315.44347549500355	1
271.72061090645144	462.8672303655207	1
595.6898893298004	192.42356044895902	1
307.7689258606731	282.8694216238534	1
173.6068015216557	236.13906001682463	1
598.70476852843	392.91188605330825	1
459.234375	225.0	1
493.234375	345.0	1
446.234375	400.0	1
415.234375	469.0	1
214.234375	232.0	1
233.234375	201.0	1
40.234375	230.0	1
598.234375	408.0	1
405.47694343967	152.91104605663605	1
103.21091983909143	138.68676270253036	1
348.5798095854434	356.79244079881744	1
368.73087782548197	440.95278397727606	1
571.4269171811641	529.8545549404365	1
141.49178761646118	378.37150506659435	1
59.719187762514636	300.7568373606263	1
517.8786309084705	356.58408985997846	1
265.171875	341.0	1
413.171875	143.0	1
418.171875	528.0	1
166.01651281220757	376.5501822600243	1
142.827207537478	406.3650060753341	1
301.83958656419514	277.1674362089915	1
506.1263235082415	343.42260024301333	1
489.5625340262918	464.89040097205344	1
562.4432077468705	533.354070473876	1
273.3125	278.0	1
249.3125	376.0	1
473.3125	225.0	1
