85.4691014505449	48.6126436011177	4
336.7421875	18.0	2
588.4204843571749	252.4372555409199	5
62.55573434504234	232.16943773358477	3
181.24234475740974	188.4861221293054	7
508.71513378477096	190.09872749832527	2
68.09168765845666	104.56687032529695	5
434.8003434671476	150.72527269112072	5
375.42701078110264	284.8944259530416	8
479.80271243293447	413.2405724206602	2
262.3774089689625	198.76874044767067	5
170.42957801463012	166.50303669578375	4
406.2817112995832	259.8257493582058	2
330.78502920862695	423.96439854191976	2
533.1994908521681	67.79269026714456	2
411.13608263607205	13.282394709855776	3
547.3160632321345	193.19623178419715	2
283.2871444834337	261.94080290589676	2
73.05968733511989	184.91240029501407	4
554.22335623769	338.9506682867558	2
235.1112389220454	295.69095914368415	3
12.433263497260205	94.57300538937542	3
424.92660538443636	278.694710095711	7
422.0703048302552	107.64850568704952	2
298.85885892257437	276.91632990232176	2
87.33676541110877	43.99022395362705	2
373.8639684833104	10.619850427677672	3
380.4660899218733	254.70385179057087	5
329.62032128293737	246.3881214129994	5
152.92528738822853	335.39854191980555	3
119.10599831783992	101.15031236934374	3
587.9331363739602	49.41863509042176	4
372.62711910051434	44.5041030244638	2
375.61432358343075	192.0504331543092	4
502.00943668591935	184.4261379844339	6
299.2542558820384	78.10853503349317	2
155.675309723398	44.01962173837327	3
458.29261937216586	361.14957472660996	2
402.1052493928263	262.14347221061746	5
300.2948489103461	282.2883047384348	2
422.58315881635224	97.0067876103091	2
328.2003466992737	33.13348532293652	4
439.5274880785821	347.453878723373	3
529.7735639295249	69.52003196716939	4
394.37499503770755	326.9261747918561	5
129.92975942491333	199.41203196953856	3
219.2781168194818	275.51300001991183	3
144.40273633103357	274.1302371438298	2
301.98091241569716	168.00584800551434	5
162.1846995364023	48.098596566162314	2
335.01129270172225	247.97137514211715	4
548.3966124661893	340.80353183558134	3
174.04439889763688	171.09515642180054	3
483.81206445231857	384.9889669287279	2
434.5751873420105	157.92757152705963	2
274.71884612720237	25.804088378224392	4
286.40731698589866	267.17314344501665	2
423.8580257943592	102.25045940906692	3
549.2844792426977	346.24559796713936	2
356.63896197486883	145.25011429394783	2
372.31076854584865	5.756690967533993	2
61.66976221060842	112.01352580519806	2
427.98593635966824	155.68837309912715	2
129.05854900399407	105.5758020552063	2
73.09262016322693	192.42008772395246	3
297.5868076038839	88.91060609480775	2
494.5394154958906	16.52163936271057	2
165.69105176254084	50.74946957799135	2
149.2663903989082	225.48699799969228	1
149.2663903989082	270.58439759963073	1
67.46180674887994	189.82858901369443	1
299.3125	84.0	1
241.3125	418.0	1
268.5754962784883	35.42462896016696	1
339.425157446284	32.40976692100382	1
526.3476677613195	231.39066150577145	1
579.1080537373376	293.19533330861594	1
586.6452517339116	258.52441985823975	1
87.68274436071196	53.513801195145845	1
9.295885196342239	106.2738868805009	1
132.90593234015603	211.794058251211	1
420.8268958092833	284.1507471911265	1
375.60370782983927	201.24204111414	1
304.75404666204355	177.12314480083484	1
551.9741409496711	351.9851430722973	1
377.111147429154	293.19533330861594	1
211.29279150452578	281.13588515196335	1
440.42361060037575	355.00000511146044	1
236.91926469287742	308.2696435044317	1
392.1855434223021	336.91083287648155	1
374.09626823052446	15.828025705606517	1
253.50110028534024	107.78131790008247	1
283.6498922716363	329.3736777785737	1
551.9741409496711	254.00212679949504	1
607.7494061243189	362.5371602093683	1
194.71095591206293	131.90021421338764	1
16.833083192916252	160.54140358543754	1
380.12602662778363	391.1783495814182	1
104.26457995317479	288.67304024987124	1
37.93723758332349	246.4649717015872	1
69.89370708824322	109.59223039208429	1
367.99320689711215	52.3571267452246	1
127.12881105154605	209.75366177408873	1
283.33294895139335	323.0314710751652	1
137.86039304466533	270.56595939887717	1
30.544573113472516	239.56361159016149	1
187.9411090125553	276.5279493620917	1
384.6867788864088	381.45897271466777	1
174.82473102096495	196.63728385501673	1
226.234375	270.0	1
196.234375	276.0	1
56.234375	142.0	1
276.234375	265.0	1
415.234375	268.0	1
374.234375	262.0	1
545.234375	241.0	1
462.234375	317.0	1
312.234375	313.0	1
135.234375	263.0	1
380.234375	325.0	1
595.234375	258.0	1
306.234375	363.0	1
97.36500990901116	48.03063803712308	1
3.3920192603375354	122.16488370311741	1
10.701029644123262	156.62164577322744	1
4.436163600878354	186.90183062271808	1
174.63169110903172	27.147751934026093	1
56.64338062791926	228.6676028289121	1
175.67583544957253	162.88651160415654	1
186.1172788549807	128.42974953404652	1
257.1190940117563	98.14956468455587	1
147.48393825497044	265.2126535093318	1
101.54158727117444	281.91896239180943	1
213.26503170904198	273.5658079505706	1
380.32812619557285	191.0784078433375	1
371.9749714712463	255.81535476293817	1
494.139859314522	6.264865830929098	1
406.43173470909335	5.220721525774248	1
437.75606492531784	38.63333929072944	1
592.2894273253589	459.4234942681339	1
586.0245612821141	491.7919677279342	1
575.5831178767058	470.9090816248372	1
478.47769420640975	382.156815686675	1
515.0227461253384	411.3928562310108	1
544.5940506633136	380.54418257148683	1
458.48551871264885	370.82225089995245	1
448.7635876859609	345.82299803029275	1
312.4293536115491	290.7122733966269	1
151.1117720407732	220.48043266620917	1
124.77420770268732	96.47733887656527	1
179.64413340703288	31.732360703211384	1
271.627916282235	29.814823815309843	1
440.57856899812197	342.318347509113	1
436.1615584696021	404.1565006075334	1
388.67869528801293	377.65443499392467	1
378.74042159884306	422.9287970838396	1
287.171875	81.0	1
324.171875	245.0	1
581.171875	46.0	1
327.171875	428.0	1
154.171875	378.0	1
230.171875	299.0	1
