427.06221592594954	460.9522478423729	4
239.41491398959704	150.68799866781032	2
336.21367083045305	69.0663943212256	2
404.3647094780979	73.95322673003278	5
471.2012388805025	179.96188620160706	5
303.58067835851926	246.3968620153775	4
374.93011191603375	216.92721943210108	8
549.6616296815928	341.6955217402405	2
486.5546841356386	525.1022927464446	2
520.301470226761	350.5233669649839	3
427.5798582779893	29.809934878902062	2
294.1080513856129	303.1288520948758	3
551.4039290618521	124.20001918130859	5
607.4342667117605	91.08883075887499	4
572.8841333478122	416.07886103096996	3
329.7452891380599	129.05144309547035	4
582.1249461163909	598.048712868317	2
259.35633977982684	188.78908194979516	4
519.1122777339268	509.6006808874203	6
456.5993142271401	433.4322147375977	9
516.4020239352845	473.9215321454758	3
451.4247662899639	66.07780604646705	5
393.88035143555305	45.77262829998993	4
433.1643148735416	34.829204492998926	2
591.701034604152	192.02371067208514	5
357.49813121318823	306.2169893851545	3
562.407943437945	567.2605870726218	3
566.8168999842339	410.6603553245138	6
403.1280459666633	191.10870744524027	3
290.3473756042058	300.35593108588466	6
399.43238393233526	396.6613262502935	3
525.196802686942	79.70226339932046	4
490.2990404168055	521.7048338074446	7
476.40519324229024	178.95020385638904	3
554.8336648282666	347.2408631922262	5
307.5390625	249.0	2
375.2734375	462.0	2
198.30986883176166	206.09604872715914	3
513.0607778721715	547.5047461065043	3
338.8661091401884	74.95346567672024	4
237.0959851321216	154.48965304231442	2
609.4511245254595	87.55326499489857	5
397.18847961743245	47.227219191971315	5
326.11029076843255	129.56007412745805	2
410.0455840526553	455.36373931843923	2
344.32943044302647	71.78873674456914	2
516.025289079668	347.09445272374523	6
508.68963967003083	478.4432855628729	2
215.30442754756214	14.041524377995238	2
597.2458291084906	193.8180046927077	3
307.1246222360376	243.64855928220183	3
362.88418938303107	307.28814618147743	2
271.078125	147.5	2
575.8020378809797	34.06426674996096	2
245.57394572275487	153.8984049065274	5
398.52933489117885	402.2671291947123	3
510.77360112969944	543.9585563500409	2
218.96006006281465	76.85428705294393	2
184.89579372898396	78.41878806809308	2
214.43602311284093	20.55300601257774	2
525.5196391226805	71.72528502264564	2
518.339743934529	76.4701544317279	2
405.63062192558584	186.97378540476944	2
445.171875	62.0	1
531.171875	73.0	1
557.171875	122.0	1
508.171875	355.0	1
523.171875	475.0	1
344.171875	67.0	1
599.86068440215	617.2614400964104	1
366.74308608598307	462.8030652408191	1
454.84375	71.0	1
423.84375	56.0	1
476.84375	172.0	1
560.84375	294.0	1
450.84375	426.0	1
407.84375	399.0	1
332.65508272231403	120.87950182225156	1
202.38689505613343	197.16268258386663	1
263.4134334222721	183.07963382787614	1
584.9763471207721	593.835222544265	1
223.51146602902756	62.20013200562459	1
569.9690708123138	569.5080431047946	1
408.1649203430857	68.12806496954553	1
431.5839421215266	39.386537560518505	1
176.1037045385349	63.87006090894893	1
363.45587876606214	124.54661877245042	1
395.3909084639361	127.74012181789786	1
371.97188668549524	145.8366390754334	1
399.64891242365263	155.41714821177573	1
201.65172829683408	234.19022333281276	1
419.87443123230616	458.79993752928317	1
393.3125	400.0	1
551.3125	116.0	1
220.3125	69.0	1
394.3125	189.0	1
352.3125	14.0	1
312.3125	414.0	1
186.3125	15.0	1
288.0793931934776	294.7307731905693	1
403.1647483419695	78.59487285081849	1
264.220234199278	192.27674251003808	1
227.72975573756108	65.96355399979409	1
213.69495632920842	89.82271182950684	1
209.48451650670262	22.45567795737671	1
528.234375	514.0	1
505.234375	483.0	1
412.234375	192.0	1
575.234375	595.0	1
409.234375	153.0	1
454.234375	61.0	1
549.234375	132.0	1
597.234375	92.0	1
514.2406866836496	482.43729804585325	1
547.8015415144305	120.60932451146331	1
327.5584316874313	122.70687798122789	1
300.29023713742185	237.02354208339747	1
367.41194679898354	218.14556085551624	1
205.95602132525624	15.662164577322745	1
394.9461469631443	40.721627901039135	1
449.2416526712669	58.47208108867158	1
398.0785799847668	182.7252534020987	1
600.6425820496855	199.4315622845763	1
