438.72737619941404	290.2555777811971	2
53.091700950950795	219.6112776127564	4
67.62705010073368	153.47327573698828	3
181.703125	144.5	2
455.59320155037824	275.4141406370211	2
427.31297763680465	456.3333186586577	7
89.078125	211.0	2
188.578125	299.0	2
465.8052613088439	496.0422372672719	3
410.6101863246206	162.0291616038882	3
477.09783887332844	418.3835791010068	6
603.0428482463557	369.53015848592094	3
130.40312423189184	95.57308816741038	3
218.90319293193627	95.54972071140939	7
503.578125	457.5	2
593.7734375	342.0	2
523.8845685860074	263.78905430680413	6
455.6772462899277	148.48320170109355	4
593.6395488829639	281.46735540596336	3
233.078125	377.5	2
475.8149677024743	383.66986600184407	7
475.9103586775743	340.36387470346455	5
332.7734375	49.0	2
148.30650580103017	197.57172515305427	7
73.73196238888625	234.26736446881603	4
339.0117160120283	117.33883990890745	7
282.0390625	320.5	2
593.578125	241.5	2
535.0670599782616	418.0153911833067	2
272.578125	272.5	2
157.01644499501018	329.4214505740689	2
170.0390625	262.0	2
150.078125	110.0	2
323.0292830636266	335.0305190724067	3
532.1922567886324	411.97296385905184	5
371.4390931731759	277.6933294345499	5
22.305814695055883	218.00928159131223	4
365.41108784450864	347.96479826316215	3
586.7730930989082	235.2317916459159	5
403.1098845696183	164.5297786404594	5
321.8503640748561	327.9889757828025	4
495.46879188248477	148.3127489255287	5
589.0573563110183	344.74623828990303	5
598.8828125	310.5	2
176.14871732739834	152.14131227217496	2
342.8828125	40.5	2
278.8927043166627	268.61081269831755	8
420.578125	361.0	2
82.95771083954716	205.3534733706348	6
476.5050270654614	313.0199014458568	4
475.146807713011	426.1391767012042	2
8.14165588311385	154.16394516693128	4
447.7858445393093	292.198123774853	2
378.7774381068823	279.1455609221511	2
126.17771612668014	90.13190629239406	2
54.26378876625979	225.60962532460348	3
346.6481735525268	114.89750770092411	2
586.9808628354816	279.57585749658125	2
133.7995555384947	306.3425152670883	2
221.66077573364743	99.26267152058247	2
219.81181805497013	350.6862836942495	3
181.17465950677953	150.27320870792408	5
409.0625179495592	166.71072528703445	2
535.8125314587626	510.67434492985586	5
280.7643189681124	315.1933774962869	5
221.06181805497013	234.82145794870365	3
597.2810855426112	382.3845066054796	2
593.9424408355719	310.2448192135745	5
399.96759354356806	409.15587151270586	2
164.6608490661427	293.6471620970575	3
341.2634952655714	48.89448142804699	3
536.1700447016483	409.0043405208625	3
282.81420214693003	62.00264676783526	2
429.0442458174559	40.99961975487214	3
497.0990618618981	155.39330719686365	2
181.4990729675842	299.6149263900282	3
151.36432809840267	309.1945683951377	2
366.2056325066417	353.6804374240583	2
219.40306254829113	252.443964544919	5
425.4708283589198	365.38438737827414	4
250.72999870130485	364.98715186951836	2
165.705765092636	329.1091706416372	2
207.65691100514306	317.3408985997846	2
213.35201785899065	278.4385290044622	2
174.9636453987955	260.45705258566113	5
280.13246354181047	56.63243409734213	4
593.0953014386413	235.9268031140185	2
430.52386475002123	454.2925015101865	3
502.6358675770788	450.51251825375374	4
363.46170030132373	343.4749961532543	2
449.43931478338465	148.57115059230156	4
25.553304768399926	219.0091763355157	2
592.8325909394058	278.2937679852694	2
532.4828378499001	284.0872413534099	3
432.3685331443405	36.529614470741336	2
577.9887715126222	41.0517144798486	2
75.39755128309677	16.78078108874827	2
491.8972164674275	155.73208637079006	2
151.65471416402693	9.961025989114285	2
590.4049473148243	337.49499632241935	3
603.9457613635298	376.91878792874627	2
572.2483116109437	39.39109575134187	3
68.72381475854786	238.79210503831135	2
143.171875	98.0	1
61.171875	233.0	1
377.171875	284.0	1
317.171875	322.0	1
593.171875	299.0	1
88.171875	201.0	1
530.171875	274.0	1
334.57031631364384	40.857351154313484	1
156.78564254071702	193.2442284325638	1
67.34117933818862	149.0741190765492	1
147.9516214836772	2.208505467800729	1
336.44025947956175	46.146176334820744	1
58.514430412158106	16.780427758116634	1
88.92895510255322	58.73149715340822	1
164.44087847181007	105.92645022311126	1
98.36794552371033	239.12109555316204	1
165.48965518527197	145.77996614863827	1
247.2942388353002	338.7548853669796	1
228.416257992986	373.36451761809514	1
467.53734866229934	384.9010617018003	1
472.78123222960886	429.99846130173876	1
589.1954474238798	275.8282812740422	1
184.36763602758617	335.60855516233266	1
173.87986889296718	359.7304200646253	1
370.0011143103426	415.3155870133867	1
612.2685351200416	265.3405139252193	1
86.83140167562942	11.536544083705186	1
163.0547243264521	196.94585350770373	1
585.1378121345967	240.66135307556937	1
539.9146241551528	284.376852643435	1
372.58882863120965	359.74840362251365	1
428.36409380585735	355.2261105637689	1
444.9459293983202	285.88428366301656	1
478.1096005832458	377.8375758574925	1
71.3125	228.0	1
29.3125	227.0	1
281.3125	308.0	1
471.3125	311.0	1
532.3125	506.0	1
224.3125	91.0	1
478.921875	343.0	1
595.921875	398.0	1
534.921875	294.0	1
401.921875	416.0	1
440.921875	329.0	1
576.921875	46.0	1
459.921875	151.0	1
428.921875	32.0	1
272.921875	55.0	1
169.921875	102.0	1
130.921875	86.0	1
70.921875	23.0	1
79.921875	231.0	1
132.921875	302.0	1
431.921875	314.0	1
460.921875	276.0	1
254.921875	348.0	1
455.28465017787676	156.51414169700365	1
565.9897736171192	52.17138056566788	1
523.9981750711997	274.8541024922991	1
507.4560301894738	454.2727527303277	1
436.1975599297315	325.75301036124335	1
426.017778464054	371.56202744329323	1
216.0597857344561	257.0394847381686	1
217.3322584176658	285.033884066088	1
182.97549597100434	267.2192663119574	1
142.25637010829445	105.61523382805937	1
282.84375	50.0	1
337.84375	111.0	1
582.84375	285.0	1
466.84375	423.0	1
501.84375	445.0	1
539.234375	507.0	1
485.234375	305.0	1
536.234375	288.0	1
592.234375	319.0	1
418.234375	371.0	1
359.234375	347.0	1
371.234375	297.0	1
421.234375	317.0	1
488.234375	162.0	1
422.234375	44.0	1
561.234375	46.0	1
291.234375	59.0	1
215.234375	348.0	1
213.234375	271.0	1
159.234375	291.0	1
215.234375	235.0	1
362.234375	272.0	1
444.234375	325.0	1
433.234375	359.0	1
130.234375	311.0	1
