508.2598202861688	330.7944780516781	6
383.3367306488194	10.583056791895817	2
308.40481871743987	260.9545340322912	4
443.15900298199	115.4446767019059	3
345.06599846792653	49.50791633522739	5
286.55073425056787	245.1755833756165	4
592.15895010693	138.02841167885256	3
557.0363186028094	463.6168666237417	2
358.21263261762044	316.891485637805	2
495.57840728898816	411.49843657654213	2
580.6748007814595	408.75786605263136	8
549.8742230288876	317.0678331605611	6
419.71322269772827	163.84742536471788	3
307.8243116772945	297.02967209645874	5
447.8366699684194	23.90401087821808	4
565.9615195534452	427.5108432599808	4
586.0074143178019	64.41086938450667	4
322.6463578180387	273.9023407438945	5
256.05871100542487	188.96077190702428	5
445.8688509084832	409.2179408024262	2
402.61849182401477	85.7102762373383	7
521.4393130107654	472.1944981311465	3
392.05286403555885	84.39075377236537	2
353.88785467640406	320.0395448214231	2
330.79016567109693	346.21426627924006	4
562.378753976805	432.21989772431715	4
496.6378921909579	561.2586312489525	6
416.0733002238544	381.7944345638191	5
304.5667654037683	322.9468482956566	3
561.4565285208255	373.32963127607525	3
333.3354075297158	392.20406194420025	3
172.56703954480622	105.60710672883522	3
455.58014981673136	60.32536202758635	4
548.6984543151224	366.0896643491641	2
441.3173680344187	409.52759995747004	6
591.3932947576752	616.152423536606	4
556.3578017203076	492.16078891628064	2
377.8756203456177	10.372914092145024	2
529.1285039975464	371.91003112182347	3
581.04377909494	19.533241503921964	5
551.5984512504085	287.05970201328864	2
267.42973187258156	277.7835815411171	3
414.20019684952126	162.59109625096187	2
497.45985151856814	182.2284278523819	4
327.7071172404577	341.791612288652	5
527.8621766059141	365.7473255546761	2
278.71265353750744	59.86695018226003	2
339.6756122055126	393.0850130789352	3
265.2421875	106.5	2
310.45187510831795	185.44729522320762	3
414.80167667018554	48.7958282020021	4
302.9636851230672	331.0857837181045	2
391.1097994800357	331.29289185905225	3
470.7111350580838	386.1442303146115	4
446.2582923954509	116.02539489671932	3
382.1792720369941	409.0358516694876	2
295.0648607784823	219.2688942891859	2
578.4613240071848	513.1345078979343	2
251.92768181981768	70.33608748481166	2
509.95615849558374	335.66116920745964	2
348.21472334049014	44.274690673234275	2
420.01073891487545	379.80556281224034	2
585.3100606031512	68.78962437739706	4
443.20763821351363	123.43580957360352	2
273.92490452719505	56.56928058248967	2
426.79900729596557	459.91838793792016	2
328.496926836929	278.27168894289184	2
372.3576301268441	370.0991646345442	2
434.6236319036954	434.3640309444175	1
445.02142359516415	17.829204492998922	1
176.5345849489176	103.82889675334667	1
246.80262475086496	302.04769964609943	1
375.4276637024531	6.625516403402187	1
611.7377269782689	486.9754556500607	1
527.8145269363904	546.6051032806804	1
415.18075845913245	295.9397326852977	1
357.7596215883735	323.5460510328068	1
407.45099003422257	270.5419198055893	1
597.3824427605792	167.8464155528554	1
537.7528006255602	69.56792223572296	1
315.7980215674342	262.81215066828673	1
186.6004636082265	26.50206561360875	1
269.41941101797505	108.21676792223572	1
548.7953269468601	242.93560145808019	1
554.3165901075099	282.6886998784933	1
216.41528467573596	115.94653705953827	1
193.22597940100638	90.54872417982989	1
373.2191584381932	412.99052247873635	1
467.08063216924154	528.9370595382746	1
503.5209690295309	524.5200486026731	1
457.14235848007166	205.3910085054678	1
338.9873268421638	223.05905224787364	1
308.0682531425243	109.32102065613608	1
290.40021102844463	88.34021871202916	1
153.47288464432708	27.606318347509113	1
483.64442165119124	491.3924665856622	1
404.13823213783263	195.4527339003645	1
340.0915794742938	171.1591737545565	1
358.8638742205034	193.2442284325638	1
354.499553439432	88.41082009783048	1
579.1080537373376	401.95647217079767	1
490.1691173777642	407.9861962491239	1
499.21375497365307	129.11145762653294	1
472.0798421859866	205.99043962519318	1
250.48622108671063	10.024407079588679	1
440.42361060037575	415.52335134703185	1
562.3125	460.0	1
283.3125	62.0	1
354.3125	49.0	1
582.3125	27.0	1
342.3125	182.0	1
351.3125	314.0	1
289.3125	251.0	1
435.3125	453.0	1
530.3125	551.0	1
492.3125	470.0	1
377.3125	184.0	1
315.3125	196.0	1
409.3125	289.0	1
377.3125	374.0	1
572.171875	21.0	1
362.171875	287.0	1
427.171875	433.0	1
337.81423156514273	231.09842917588995	1
421.29243021053645	462.09289727280213	1
515.0624615656362	473.52826698057004	1
496.76587008171435	520.4132827824186	1
526.4978312430875	529.561578548633	1
559.6604033076959	424.35617723716797	1
552.7991815012252	454.08813847736457	1
171.16284139510861	50.94791982762164	1
396.5260632506135	79.56547165105148	1
276.0938653278305	65.25669573933656	1
414.41203323914556	59.294705776122015	1
441.8371872215616	-26.557949694167515	1
440.64478922232604	25.907561982120534	1
487.14831119250965	96.25904354805222	1
582.5401511313478	73.60348168783693	1
365.5237152704912	39.023939901192534	1
544.3834151558127	314.4678762017049	1
571.8085691382286	517.1755349509993	1
587.3097431282896	137.99297329055395	1
609.965305113764	151.10935120962606	1
594.4641311237026	163.0333311360552	1
569.4237731397575	476.6340032011406	1
406.0652472444973	203.57486288591426	1
307.09621330795284	189.26608697419928	1
223.62835336146955	179.72690303305612	1
462.11090585705074	64.56007412745804	1
337.2011911227119	338.2386492329867	1
335.79771118187665	398.5882837434366	1
424.2169474544985	384.55348502007615	1
498.60138431876766	567.005868423762	1
229.13323567839635	181.04890353134968	1
502.81182414127346	182.4523834036858	1
