172.3942909092434	243.1106122795801	2
41.8781939975386	153.72920458065965	2
92.60997938246156	36.69627536308091	4
405.3150375692576	478.73188913683964	2
302.23641094335926	163.38884857130557	3
595.8726031035314	459.4171978041098	5
309.63621681957136	443.5762646629439	5
438.22248779985927	90.04755499140435	4
391.72253745579667	144.62230553402694	5
58.826353161726495	77.31168949967206	3
262.4416869072794	307.0262903111536	5
138.01993934651063	24.15443958218478	2
332.5803342813641	152.35241349778923	7
229.23769397264732	138.73199774949362	7
338.27869606996444	443.37233354657747	2
299.4806759518773	399.8051192645847	4
184.7446191439785	30.084420085761316	3
517.4802330767659	456.2983581596369	7
132.72999783083696	103.42719419392908	7
136.10564998598358	237.3011420799944	5
12.45893302844725	102.5709315077001	2
278.2743526072489	264.9964514491031	2
593.163564822157	226.3332558753949	7
305.16201738209196	166.46481697853122	4
297.63884503990255	394.8464979693943	3
534.4868821620232	121.88829639601	3
364.661528584318	119.94534895593739	5
517.4038433275757	74.4017082049846	2
332.7342715678152	443.50064254612136	3
450.4952256329722	111.09089046551796	5
563.0576939889803	501.274218949902	3
575.9106187874241	117.35775902342789	3
433.26847815095044	151.18073073006414	3
552.5972506851733	34.498108365073556	3
276.48852710931504	478.8581527755126	2
135.0404850811887	231.9465370595383	2
269.6274054389015	203.9952198125966	2
506.0414799115272	167.21072528703445	2
87.3794428993991	130.16530720487043	4
40.42063426428084	148.23790967373802	3
334.36219314618626	439.7561456278193	3
310.1136593784985	449.1558368772391	2
519.9834186507992	81.34421857929789	5
601.5850010208187	522.167963149642	3
574.9468998888728	113.51614075207283	2
279.74270305184245	259.92370449637565	3
312.8741639277058	126.55778684523692	3
247.24454682635638	437.2729625642682	2
384.29404876261384	342.37309600419974	3
483.8076670888675	378.1702503518462	3
574.2620823156813	432.43104054395974	2
278.695405931319	102.18554373987516	2
384.6584367699512	144.8862291683846	2
608.9409829443609	91.11051186296646	3
491.52537352659004	270.2727683507138	2
530.6308327218744	120.41992471595249	3
44.42905931020883	157.62402141002497	2
438.04682435354937	147.5521125669584	3
455.75626168860555	68.60619420451833	2
178.37815021074113	31.281337002238566	2
211.92101207360804	255.59331713244228	2
288.0698541981574	263.95820170109357	2
90.7392436225241	134.91154313487243	2
269.84375	323.0	1
165.84375	245.0	1
125.84375	234.0	1
292.6087162927046	400.8437424058323	1
318.00652683169415	443.9095990279465	1
524.5017690400005	458.26488456865127	1
451.6210953194218	300.3567436208991	1
150.16012674793714	316.92053462940464	1
312.48526367104427	164.53365735115432	1
361.0723794847634	156.80388821385176	1
441.68282163025196	494.7052247873633	1
569.7761269573297	502.43499392466583	1
441.68282163025196	93.86148238153099	1
599.5909480248391	565.3773997569866	1
493.58269534036106	246.24835965978127	1
394.1999584486628	215.32928311057108	1
385.365937391623	247.35261239368165	1
350.0298531634636	196.5569866342649	1
554.3165901075099	72.88068043742406	1
228.56206362916575	186.6187120291616	1
245.12585311111545	277.1674362089915	1
52.985895120498874	217.53778857837182	1
101.573010934218	282.6886998784933	1
510.14648482231075	512.3732685297691	1
471.4976426977614	200.97399756986633	1
110.40703199125785	87.2359659781288	1
19.858316156599464	78.40194410692588	1
46.360379327718995	40.857351154313484	1
357.7596215883735	13.251032806804375	1
606.216463817619	49.691373025516405	1
265.6862203796338	198.50574068888267	1
265.3479013680264	207.77791229725867	1
437.7055842431719	500.96510070206693	1
595.8482004894395	561.3794304339668	1
558.5336505886348	35.41938335625016	1
359.522717784343	117.15641769940882	1
574.5256005461225	438.7738789192288	1
172.0993619223409	25.09871727540441	1
325.85820105245074	153.23035393983812	1
452.48312739489415	308.49574895674016	1
453.99056699420896	59.76963072578059	1
135.92081153878564	225.58704287975362	1
49.9967543778419	153.23035393983812	1
512.7807113674862	174.33438821398013	1
377.111147429154	8.516976060007106	1
135.92081153878564	19.068993197078118	1
615.2866041208928	237.64649103640622	1
215.81511030247017	248.19850817347722	1
445.7626512496382	301.3877497012044	1
391.6084209789462	21.0599727889128	1
422.40200289757496	388.4592561663859	1
336.39234305588764	252.54275826951726	1
302.41321818015933	113.44071745319073	1
408.31423862399765	483.4860747807355	1
113.60798214120356	79.70703185105401	1
308.6804508451171	225.48699799969228	1
174.171875	34.0	1
141.171875	20.0	1
436.171875	433.0	1
245.171875	443.0	1
601.171875	558.0	1
417.171875	452.0	1
393.0833282470703	139.98333740234375	1
525.0833282470703	82.98333740234375	1
82.74698914143971	139.91533689074987	1
107.80645331441934	80.39911149692342	1
582.8921282604916	112.76758495672377	1
492.0515706334404	253.72706615262848	1
