203.81305564566108	92.80084328995386	2
477.4703330274995	198.5766161222461	3
500.22129306657047	221.42527339003647	2
519.6074404396753	177.89234507897936	2
382.0223432358971	262.4971246717359	3
411.1187577818758	331.5324389586484	4
478.5101346461944	262.75564306569913	2
582.6268907275128	336.6680021818446	4
324.88108249617204	183.60085054678007	2
324.48533512830204	149.64131227217496	2
539.6091660118976	516.0802982375221	3
540.3705366442549	427.0483266317594	2
431.00544897960833	204.66895935071187	2
514.8677235712837	180.65910969241185	2
506.68210935263465	122.67944838021873	2
500.578744920359	481.1400718522573	3
328.44331409933017	323.12607590395237	3
509.88532135941693	520.985246578169	2
549.9816815628858	108.35053992709265	2
411.6604808846562	293.17453057294176	2
210.60116391478772	96.61520737327189	2
428.3814022126427	537.3044540940413	2
523.7697201812972	558.439837031506	2
222.3351742783918	61.22865656913781	2
477.0179591962054	359.97080364214446	2
432.9585962103491	569.998025991042	2
496.09692025402603	215.4021510415634	2
564.6541993373652	226.39303210828302	1
541.9986373518911	203.73747024806775	1
581.3477713266618	284.82053374778565	1
518.1506773671816	299.12930965950056	1
606.3881293106068	382.5971691445043	1
561.0770053396587	377.82757717393264	1
533.6518513572428	418.36910892379154	1
507.4190953740623	514.9533463278673	1
545.5758313495975	497.0673764382236	1
475.22434939470446	259.7801759022845	1
464.4927674015852	562.6492660335837	1
400.10327544286946	226.39303210828302	1
426.33603142604994	200.160276270139	1
329.75179348797644	283.6281357551427	1
425.14363342681446	506.6065603793669	1
416.79684743216615	487.52819249708034	1
582.5401693258973	197.7754802848532	1
453.7611854084659	373.057985203361	1
387.234375	266.0	1
534.234375	432.0	1
539.234375	395.0	1
528.234375	302.0	1
392.234375	233.0	1
394.234375	372.0	1
436.234375	443.0	1
388.234375	449.0	1
504.234375	339.0	1
489.234375	296.0	1
532.234375	202.0	1
442.234375	167.0	1
409.234375	149.0	1
363.234375	145.0	1
268.234375	183.0	1
266.234375	304.0	1
354.234375	414.0	1
496.234375	425.0	1
576.234375	432.0	1
600.234375	391.0	1
485.234375	245.0	1
428.234375	246.0	1
301.234375	259.0	1
289.234375	150.0	1
418.234375	359.0	1
382.234375	347.0	1
469.234375	566.0	1
570.234375	380.0	1
585.234375	289.0	1
324.234375	288.0	1
258.234375	271.0	1
544.6968680579487	198.30579819795034	1
489.84633152892957	164.55161978127794	1
478.5949394204128	205.33791870142375	1
449.06003513555635	253.156338125043	1
406.86731472861857	234.8728248160121	1
323.8882979283075	175.8030125868354	1
373.11313840306826	97.04326294793314	1
380.14525847089124	431.77219891326774	1
394.2094986065372	450.0557122222986	1
375.9259864301975	450.0557122222986	1
460.3114272440731	414.89510970493154	1
553.1354121393363	464.1199532292455	1
533.445475949432	475.3713460348029	1
564.3868042478531	247.53064172226425	1
411.0865867693123	116.7332003576587	1
484.2206354746712	298.16190934727285	1
433.58937098634584	533.034734163285	1
528.9187795685204	557.647630619684	1
334.57031631364384	324.65030376670717	1
422.9105268840423	536.6668286755771	1
338.9873268421638	471.5159173754557	1
228.56206362916575	290.4184690157959	1
