576.3342883759443	267.0948774012182	2
238.0395684772123	292.868889583008	2
398.44845571686176	171.69233171950648	2
466.0031674767861	426.0415720227983	5
549.3548928848036	549.0399408461969	3
262.406780083738	100.62801242708166	3
275.662237043489	36.84595690978032	2
387.12595076721607	435.69045759800093	2
141.7399269427827	33.64690081103766	4
520.6054808928222	127.33781040137436	3
162.25659533976352	50.015773856005	2
295.3524082002634	425.40020302982975	2
120.42851353614545	110.88630329533032	2
575.7135379831366	347.0006698807849	5
377.335696312535	155.74082461346245	2
561.7818841306481	602.5965163505793	3
566.5762844162277	102.06379821958457	2
250.92085005356228	83.34313422349898	2
184.58898441711477	169.1853478016215	2
463.44798640466485	101.09604872715914	2
574.7952258759443	74.75753553022021	2
534.6419248273615	309.195396689052	4
324.08051003341313	452.95866625210465	2
406.95355392154283	41.97551928783383	3
346.530727454934	460.70116479801675	2
140.6115854404722	144.95057004529127	2
478.8994933341688	331.9976573481181	2
427.3837200708342	548.6412619084804	2
269.83396766253964	127.06520064163422	4
597.9470477802711	321.80415430267067	2
218.86360677608582	70.14903883052283	4
158.12078135486985	139.6603154771201	2
388.59370027225157	531.6575042948618	2
508.1989437032475	260.8368733406216	2
317.1073870997821	447.6111786148238	2
460.78785664585126	488.93713917000616	2
264.38207045366005	55.89845926546846	4
203.7734375	213.0	2
237.2421875	287.5	2
344.10521826946774	358.8723394076221	3
344.352098819516	425.20634390864296	4
349.7734375	453.0	2
349.5436526376252	278.53958092780005	3
117.1705944875541	114.96879948252992	4
345.8451177752504	246.91299327582692	2
247.7734375	78.0	2
438.6770783296365	514.3256129864837	2
369.55732395483665	375.32721749696236	2
486.2484197515929	338.43938056102695	2
255.203125	97.0	2
158.171875	54.0	1
168.171875	8.0	1
171.171875	130.0	1
239.171875	33.0	1
204.171875	206.0	1
594.171875	192.0	1
285.171875	419.0	1
477.171875	626.0	1
489.234375	201.0	1
570.234375	104.0	1
572.234375	260.0	1
454.234375	244.0	1
496.234375	156.0	1
467.234375	359.0	1
469.234375	491.0	1
508.234375	498.0	1
582.234375	427.0	1
412.234375	38.0	1
348.9256005313336	355.5693803159174	1
314.6937689353042	179.99319562575943	1
431.74454794108215	545.50085054678	1
214.0483957559232	170.82822794267474	1
569.5933018747969	266.65869727637033	1
389.04315423630635	440.26461998234055	1
345.98888826097397	469.43041499694357	1
482.0959226346053	486.09658357671674	1
415.43125273731647	495.81851524825106	1
364.043903024823	391.6549616246689	1
208.4930065978158	138.8847381647762	1
144.60603127958066	147.21782245466278	1
244.02160047898548	80.61044957472662	1
257.27263206454523	101.59125151883353	1
261.6896425930652	132.51032806804375	1
181.0792004475766	143.5528554070474	1
346.71709526707366	271.64617253948967	1
562.0463585324198	607.3390036452005	1
249.3125	253.0	1
222.3125	186.0	1
264.3125	121.0	1
521.3125	396.0	1
171.3125	124.0	1
143.3125	185.0	1
192.3125	174.0	1
448.3125	406.0	1
409.3125	350.0	1
574.3125	411.0	1
500.3125	522.0	1
550.3125	554.0	1
525.3125	549.0	1
593.3125	598.0	1
482.3125	558.0	1
449.3125	586.0	1
512.3125	591.0	1
512.3125	634.0	1
357.3125	168.0	1
401.3125	234.0	1
450.3125	174.0	1
439.3125	125.0	1
514.3125	91.0	1
606.1621044699043	8.516008121193192	1
376.22989064521175	380.02686240824613	1
347.4883639171252	365.12384819615806	1
176.1037045385349	120.28861471185382	1
214.42574017598366	136.25612993909107	1
346.42386292719607	432.18741215055445	1
387.9394015344322	496.05747305950337	1
507.163512406495	521.605497423083	1
482.67998963812494	491.7994689989068	1
353.8753698567	274.64126190848043	1
590.1945896209673	123.48211775730127	1
613.6136113994082	108.57910354521319	1
448.61595796039273	169.25566140871467	1
312.3598312494638	161.80415430267064	1
204.84523126662148	221.41621115102296	1
192.07121938747187	39.386537560518505	1
173.97470255867663	3.1935030454474465	1
236.78026096449543	43.6445416211151	1
270.8442926422277	57.483054818054036	1
291.06981145088116	92.61158831797596	1
326.19834411854254	97.9340933937217	1
330.45634807825905	40.45103857566766	1
302.7793223401016	60.676557863501486	1
460.3254688496132	72.38606903014212	1
350.6818668869126	244.83523348430424	1
257.00577977314896	327.86631266593787	1
488.0024945877706	368.31735124160554	1
590.1945896209673	437.50991722630016	1
602.9686015001168	270.38325784788384	1
543.3565460640854	84.09558019678275	1
541.2275440842274	106.45010151491489	1
519.9375242856446	94.74059034827425	1
581.6785817015342	153.28814618147743	1
608.2911064497625	212.90020302982978	1
609.3556074396917	160.7396532875215	1
492.26049854748715	392.80087459003596	1
445.42245499060533	30.870529439325313	1
325.1338431286134	64.93456192409808	1
345.3593619372669	63.87006090894893	1
381.5523955948574	212.90020302982978	1
554.0015559633769	311.8987974387006	1
611.48460941955	367.25285022645636	1
577.4205777418177	417.2843979384664	1
507.163512406495	606.7655786350149	1
524.1955282453611	593.9915664532251	1
253.81227680336156	388.5428705294393	1
242.1027659141411	364.0593471810089	1
219.74824512562932	317.2213025144464	1
279.3603005616607	274.64126190848043	1
249.554272843645	268.25425581758554	1
301.7148213501725	269.31875683273466	1
269.7797916522985	238.44822739340935	1
450.744959940251	205.44869592378572	1
508.22801339642416	164.99765734811808	1
370.90738569556606	12.774012181789786	1
229.3287540349915	189.4811806965485	1
436.9064470711723	507.766984226144	1
409.22942133301484	423.67140402936127	1
450.744959940251	458.79993752928317	1
436.9064470711723	454.5419334686866	1
516.7440213158571	442.8324223020459	1
556.1305579432351	444.9614243323442	1
