320.3125	505
577.3125	631
533.3125	174
297.3125	417
323.3125	378
233.3125	277
97.3125	20
93.3125	59
267.3125	324
359.3125	469
495.3125	216
498.3125	88
469.3125	88
554.3125	104
577.3125	149
493.3125	35
537.3125	15
345.3125	50
371.3125	29
356.3125	89
379.3125	95
303.3125	135
488.3125	475
548.3125	447
430.3125	329
473.3125	353
566.3125	587
