304.7114173094819	260.97257389492745
233.16753735535335	275.28134980664237
273.7090693293595	326.5544634902875
266.5546813339467	355.17201531371734
322.59738729801404	374.2503831960039
412.0272372406747	355.17201531371734
412.0272372406747	250.24099196114122
375.06289926437495	319.40007553443
344.0605512842526	299.12930965950056
344.0605512842526	270.51175783607073
332.13657129189784	234.7398180567834
295.1722333155981	166.77313247613753
468.06994320474206	86.88246696906255
551.5378031512254	102.38364087342038
381.0248892605523	91.65205893963419
193.81840338058265	46.34093521920361
223.62835336146955	82.11287499849091
268.9394773324176	108.34563083663492
302.3266213110109	134.57838667477895
354.7921332773719	95.22925291756292
308.2886113071883	65.41930310149017
310.6734073056593	26.070169344274134
346.44534728272356	51.11052718977525
466.8775452055066	51.11052718977525
404.8728492452618	63.034507116204345
417.98922723685206	97.61404890284874
389.37167525520067	132.19359068949313
408.45004324296826	177.5047144099237
469.26234120397754	156.04155054235133
540.806221158106	53.49532317506107
540.806221158106	14.146189417845033
499.0722911848644	4.607005476701751
598.0413251214089	65.41930310149017
574.1933651366994	79.72807901320509
222.43595536223407	10.568995439916302
93.65697144480269	54.68772116770398
165.20085139893123	68.9964970794189
236.74473135305976	381.4047711518613
149.69967740887003	182.27430638049535
167.58564739740217	225.20063411564013
431.1056052284423	488.72059048972324
401.29565524755543	485.14339651179455
469.26234120397754	506.6065603793669
494.30269918792254	584.112429901156
469.26234120397754	572.188449974727
425.14361523226495	531.646918224868
456.1459632123873	439.83227279136395
541.9986191573415	388.5591591077188
600.4261211198799	395.71354706357624
540.806221158106	536.4165101954396
562.2693851443446	590.0744198643706
550.3454051519899	446.9866607472214
428.72080922997134	322.97726951235876
481.1863211963323	346.82522936521696
497.87989318562893	91.65205893963419
421.5664212345585	153.6567545570655
369.1009092681976	231.16262407885466
344.0605512842526	185.8515003584241
262.97748733624024	270.51175783607073
557.4997931474028	29.647363322202864
586.1173451290541	18.915781388416672
524.1126491688094	308.66849360064384
534.8442311619287	352.7872193284315
459.72315721009375	271.7041558287136
481.1863211963323	294.3597176889289
342.8681532850171	140.5403766379935
421.5664212345585	32.03215930748868
365.52371527049115	22.4929753663454
