497.9997058688811	215.32928311057108
429.5360426768222	325.7545565006075
373.2191584381932	313.6077764277035
404.13823213783263	295.9397326852977
463.7678742728516	276.06318347509114
554.3165901075099	446.1181044957473
471.4976426977614	511.26901579586877
323.5277899923441	376.5501822600243
346.71709526707366	298.1482381530984
338.9873268421638	263.91640340218714
226.35355836490578	276.06318347509114
269.41941101797505	270.5419198055893
147.9516214836772	183.3059538274605
220.8322952042559	82.81895504252734
344.5085900028137	50.795625759416765
361.0723794847634	17.668043742405832
403.03397950570263	57.42114216281895
418.4935163555224	94.96573511543134
461.5593690085916	54.10838396111786
343.4043373706837	179.99319562575943
344.5085900028137	141.34434993924665
373.2191584381932	120.36354799513973
393.0957058165328	139.13584447144592
378.74042159884306	96.06998784933171
534.4400427291703	13.251032806804375
534.4400427291703	59.62964763061969
560.9421059002898	32.02332928311057
552.10808484325	102.6955042527339
575.2973901179797	80.61044957472662
97.1560004056981	57.42114216281895
269.41941101797505	111.52952612393682
