411.46056876438337	316.73057393445146
302.38779056434566	355.5353131250962
367.41194679898354	346.09632251115556
452.3628605893975	425.8033543622096
519.4845702509591	80.75580858593631
453.4116373028594	115.36544083705186
425.0946660393881	131.0970918602862
187.02235208353662	266.38929066010155
141.92495340467488	197.17002615787044
103.12021500658456	157.31651023234343
84.24223416427036	92.29235266964149
39.14483548540863	46.146176334820744
173.3882548085319	98.58501307893522
231.07097404893645	209.75534697645793
234.21730418932214	249.60886290198493
221.63198362777933	337.70610863209725
