453.9225085101683	431.4229248340471
355.2096388609161	379.7179812933112
303.5028976160697	360.9161836421345
414.7507348398301	324.8794048107126
497.7948950209471	375.017531880517
320.7384780310185	208.9349859617897
234.56057595627442	255.93948008973138
187.5544475518686	266.9071953862511
142.1151900942763	199.53408713620135
99.80967453031106	155.6632259501224
81.00722316854872	97.69101652566098
46.53606233865112	39.71880710119955
90.40844884942989	42.85244004306233
173.45260903054685	100.82464946752377
350.50902602047546	78.8892188744843
424.15196052071127	130.59416241522018
519.7310882763364	89.85693417100403
372.4452192758649	64.78787063610179
450.78876661654124	114.92599770590627
604.3421194042669	340.54756952002646
