497.515625	371
451.515625	428
411.515625	462
297.515625	357
353.515625	385
412.515625	325
187.515625	264
143.515625	196
104.515625	148
74.515625	94
48.515625	41
206.515625	24
226.515625	212
229.515625	254
316.515625	209
427.515625	130
455.515625	140
392.515625	151
450.515625	116
520.515625	86
368.515625	67
343.515625	85
126.515625	119
236.515625	106
602.515625	341
495.515625	402
587.515625	5
366.515625	347
173.515625	109
