521.234375	87
455.234375	118
421.234375	134
180.234375	268
141.234375	202
105.234375	160
80.234375	99
41.234375	46
170.234375	98
317.234375	209
418.234375	313
501.234375	369
506.234375	398
456.234375	430
354.234375	384
374.234375	344
302.234375	366
228.234375	250
