411.78225821339447	61.27706174536216
518.8104697647454	19.068993197078118
564.0336577441896	127.60402660695138
333.3953990490248	55.24733766703587
493.18399657639384	162.27494005732757
505.24351337091224	129.11145762653294
457.0054461928386	19.068993197078118
362.036751436006	71.82907888243318
568.555976542134	245.18364613431407
429.8715334051721	35.65073441247542
600.2122081277448	64.29192378452531
