454.95202810075654	14.682874288352055
515.7810774815467	20.97553469764579
540.9517186046324	46.146176334820744
566.122359727718	132.1458685951685
536.7566117507848	104.87767348822896
524.171291189242	69.21926450223111
502.1469802065421	132.1458685951685
518.9274076219325	50.341283274349905
444.46426096613754	95.43868287428836
471.73245551614696	144.73118941375597
499.00065006615637	165.70672411140177
573.4637967219513	242.2674257578089
560.8784761604085	192.97491921834128
595.4881077046513	67.12171103246654
427.6838335507471	31.46330204646869
406.7082992815091	60.8290506231728
363.7084540295712	49.29250653946761
331.1963759122523	55.58516694876135
363.7084540295712	72.36559470687799
288.19653066031435	40.902292660409294
259.87955939684304	40.902292660409294
225.2699278526003	30.4145253115864
199.05051001605278	27.26819510693953
170.73353875258147	10.487767348822896
145.56289762949586	88.09724573011233
169.68476203911956	29.36574857670411
186.46518945450998	57.68272041852593
217.928490858367	62.92660409293738
249.39179226222402	65.02415756270196
233.6601415602955	104.87767348822896
230.5138114199098	74.46314817664256
98.36794552371033	72.36559470687799
81.58751810831991	155.21895676257887
114.09959622563883	174.09693799046008
121.44103321987214	202.4139098322819
130.88002364102925	232.8284351438683
130.88002364102925	259.04785351592557
87.88017838909133	249.60886290198493
96.27039209678652	281.07216494845363
77.39241125447232	214.99923065086938
76.34363454101042	188.77981227881213
193.8066264487433	246.46253269733808
170.73353875258147	255.90152331127868
168.63598532565766	143.68241267887367
458.09835824114225	200.31635636251733
439.220377398828	177.24326819510694
417.19606641612813	265.3405139252193
414.0497362757424	225.48699799969228
437.1228239719042	217.09678412063397
416.1472897026662	198.21880289275273
382.5864348718854	139.48730573934452
393.0742020065044	160.46284043699032
422.4399499834376	132.1458685951685
374.1962211641902	102.78012001846439
366.8547841699569	130.04831512540392
338.53781290648556	102.78012001846439
306.0257347891667	103.82889675334667
200.0992867295147	134.24342206493307
603.8783214123464	312.53546699492233
600.7319912719607	345.0475457762733
578.7076802892608	305.1940298507463
544.0980487450181	381.75473149715344
573.4637967219513	399.5839359901523
611.2197584065798	392.24249884597634
586.0491172834941	435.2423449761502
523.1225144757801	529.6322511155563
503.195756920004	469.85197722726576
504.2445336334659	436.2911217110325
398.3180855738139	286.3160486228651
406.7082992815091	325.12078781350976
441.31793082575183	481.38852131097093
592.3417775642655	509.70549315279277
567.1711364411799	483.4860747807355
523.1225144757801	409.02292660409296
550.3907090257895	429.99846130173876
533.610281610399	453.07154946914915
