455.171875	195
442.171875	180
162.171875	292
344.171875	414
488.171875	408
444.171875	479
504.171875	468
527.171875	535
567.171875	482
593.171875	510
485.171875	162
607.171875	306
477.171875	263
454.171875	13
526.171875	55
