240.70884258259554	125.88481166464156
129.17932673746753	47.48286755771567
429.5360426768222	58.52539489671932
379.84467423097306	35.336087484811664
484.7486742833212	88.34021871202916
573.0888848537196	151.28262454434994
512.3549900865708	369.9246658566221
437.265811101732	342.318347509113
345.61284263494366	352.25662211421627
321.3192847280841	374.34167679222355
542.1698111540802	537.7710814094775
594.0696848641893	495.80947752126366
442.78707426238196	298.1482381530984
