336.9974221085884	117.46299430681644
266.72938230664107	391.193722111094
489.070045560564	533.8273580550855
570.8746292105923	573.6808739806124
593.9477169067541	601.9978458224342
607.5818141817588	567.3882135713187
529.9723373855782	42.99984613017388
575.0697360644399	136.34097553469766
607.5818141817588	294.7062625019234
582.4111730586732	335.60855516233266
363.2168399451359	219.19433759039853
