564.6541993373652	226.39303210828302
541.9986373518911	203.73747024806775
514.5734833694752	179.88951039520953
581.3477713266618	284.82053374778565
518.1506773671816	299.12930965950056
582.5401693258973	336.0936474314308
606.3881293106068	382.5971691445043
561.0770053396587	377.82757717393264
533.6518513572428	418.36910892379154
507.4190953740623	514.9533463278673
545.5758313495975	497.0673764382236
477.6091453931754	197.7754802848532
497.8799113801785	216.85384816713974
475.22434939470446	259.7801759022845
478.8015433924109	359.941607284289
499.072309379414	481.5662025338658
525.3050653625944	557.8796740630121
464.4927674015852	562.6492660335837
203.357605569016	92.8444569322771
222.4359735567836	59.457313138275616
381.02490745510187	262.16497188757035
400.10327544286946	226.39303210828302
426.33603142604994	200.160276270139
332.13658948644735	325.36206549764455
329.75179348797644	283.6281357551427
434.68281742069826	570.996051982084
427.5284294252854	537.6089081880825
425.14363342681446	506.6065603793669
416.79684743216615	487.52819249708034
407.25766343828235	331.32405546085914
582.5401693258973	197.7754802848532
453.7611854084659	373.057985203361
