293.71296892483457	219.74629404617255
371.01065317393324	75.08918590522478
515.6677479829607	179.99319562575943
591.8611795999294	364.4034021871203
161.20265306923696	121.46780072904009
224.14505310064584	223.05905224787364
248.4386110075054	183.3059538274605
265.0024004894551	247.35261239368165
331.2575584172539	128.09331713244228
166.72391622988684	48.58712029161604
209.78976888295608	43.06585662211422
439.474316365992	430.65856622114217
351.1341057955936	442.80534629404616
559.8378532681598	472.620170109356
504.6252216616609	531.1455650060753
527.8145269363904	482.5584447144593
528.9187795685204	379.8629404617254
565.3591164288098	392.0097205346294
449.41259005516184	511.26901579586877
372.1149058060632	503.53924665856624
329.04905315299396	304.7737545565006
509.04223219018075	309.19076549210206
501.31246376527093	88.34021871202916
552.10808484325	107.11251518833535
511.2507374544413	461.57764277035244
533.3357900970406	533.354070473876
362.17663211689336	59.62964763061969
219.7280425721259	276.06318347509114
331.2575584172539	199.86974483596597
469.2891374335015	255.0823815309842
537.7528006255602	119.25929526123937
410.7637479306125	521.207290400972
372.1149058060632	251.76962332928312
447.20408479090185	103.79975698663426
230.77056889342572	333.4843256379101
375.4276637024531	472.620170109356
527.8145269363904	342.318347509113
580.8186532786295	411.88626974483594
553.21233747538	265.0206561360875
502.4167163974009	154.59538274605103
505.7294742937908	110.42527339003645
470.3933900656315	110.42527339003645
252.85562153602532	68.4636695018226
196.53873729739632	152.3868772782503
182.18345307970657	182.20170109356013
477.01890585841136	288.20996354799513
297.0257268212245	314.7120291616039
565.3591164288098	368.82041312272173
323.5277899923441	336.79708383961116
215.311032043606	305.87800729040094
