207.00016566579706	43.85406081650369
154.79294863875617	114.85587356703347
171.49925808740926	53.251359562897335
177.76412413065415	180.63696479178898
196.5587222603889	147.2243470268338
253.98666099013388	66.82523552991039
375.1074044928688	78.31082288661372
360.48938372529733	57.427936783516735
340.6506412550218	123.20902800827227
319.7677544442054	101.28199760002042
252.94251664959307	179.59282048663414
217.44160907120525	223.44688130313784
218.48575341174606	266.2567978144867
215.3533203901236	300.7135598845967
335.4299195523177	193.1666964536472
295.7524346117666	217.18201547220875
444.02093096856277	108.59100773610437
469.0803951415424	114.85587356703347
503.53715837938944	91.88469885362677
551.5677980442671	111.72344065156892
502.49301403884857	150.35677994229835
509.8020244226343	178.5486761814793
509.8020244226343	211.9612939464345
324.98847614690953	299.6694155794419
291.57585724960336	348.7441979217198
462.81552909829753	245.37391171138967
473.2569725037057	287.1396839175837
551.5677980442671	264.168509204177
612.1281697956344	203.60813950519568
526.5083338712874	348.7441979217198
438.8002092658587	426.0108765031787
351.09208466043	443.7613296908111
374.063260152328	508.4982766104118
410.6083120712566	502.2334107794827
420.00561113612395	524.1604411877346
446.10921964964444	499.10097786401815
566.1858188118385	389.4658258227589
564.0975301307568	364.40636249904253
602.7308707307672	364.40636249904253
584.9804169415733	407.21627901039136
557.832664087512	474.04151454030176
527.5524782118282	489.7036791176245
502.49301403884857	530.4253070186636
