571.234375	377
373.234375	330
336.234375	314
508.234375	205
262.234375	264
225.234375	228
259.234375	190
380.234375	81
333.234375	197
217.234375	283
288.234375	341
269.234375	366
447.234375	426
359.234375	446
507.234375	462
556.234375	476
445.234375	510
510.234375	535
526.234375	383
563.234375	211
521.234375	178
498.234375	151
470.234375	110
335.234375	123
248.234375	71
214.234375	48
298.234375	218
189.234375	160
229.234375	129
473.234375	285
463.234375	253
510.234375	315
581.234375	416
519.234375	491
373.234375	502
