555.634592593099	4.1951069395291585
599.6832145584988	112.21911063240499
501.0982034930802	102.78012001846439
424.5375034103614	36.70718572088014
440.2691541122899	110.12155716264041
218.9772675718289	14.682874288352055
457.04958152768035	124.80443145099247
577.658903575799	187.73103554392983
585.0003405700322	263.2429604554547
447.61059110652326	197.17002615787044
484.31777607768976	254.85274657639638
410.9034061353567	241.21864902292663
233.6601415602955	179.34082166487153
165.48965518527197	103.82889675334667
460.19591166806606	283.1697184182182
341.68414304687127	276.87705800892445
373.1474444507283	310.43791352515774
372.0986677372664	341.90121557162644
356.3670170353379	318.82812740421605
459.14713495460416	342.9499923065087
494.80554321230875	379.65717802738885
352.17191018149026	340.8524388367441
361.6109006026474	370.2181874134482
596.5368844181131	421.60824742268045
608.073428266194	587.3149715340822
469.63490208922315	461.46176334820746
360.5621238891855	419.51069395291586
378.39132801803777	358.68164332974305
467.53734866229934	422.6570241575627
461.24468838152796	379.65717802738885
383.6352115853473	457.2666564086783
453.90325138729463	491.87628865979383
438.1716006853661	433.1447915063856
405.65952256804724	414.2668102785044
390.9766485795806	380.7059547622711
451.8056979603708	399.5839359901523
612.2685351200416	216.04800738575167
529.4151747565514	90.19479919987691
269.3185498180001	209.75534697645793
346.9280266141808	404.8278196645638
446.56181439306135	474.04708416679495
