456.18523625548846	342.5655260290877
494.6278130767527	381.0080404436799
473.27082595382814	462.1644597633745
588.5985564176208	265.6804971999033
483.23741994452627	255.71391938871275
463.30423196313	287.03744965245454
459.0328345385451	121.87701735272513
609.9555435405454	586.0347839881715
