408.234375	243
452.234375	199
341.234375	276
455.234375	346
485.234375	258
495.234375	383
595.234375	416
599.234375	330
585.234375	271
374.234375	368
433.234375	41
435.234375	111
462.234375	132
505.234375	97
595.234375	112
571.234375	193
606.234375	219
457.234375	291
368.234375	344
474.234375	462
462.234375	382
