387.65430694677946	143.0512803097195
343.2111936819203	276.38062894790465
430.70857292211184	259.7144603681315
472.37399160791733	277.7694763295524
425.15318376400444	229.15981797188073
473.7628388974442	252.7702234598927
483.48476992413214	365.2668613733614
587.648316638646	297.2133396726211
573.7598437433775	254.15907084154045
534.8721196366256	245.82598655165387
390.4320015258332	377.7664878081913
359.8773611562425	334.71221897711064
358.4885138667156	365.2668613733614
343.2111936819203	387.4884194797256
426.5420310535313	440.26461998234055
505.70632655656175	449.9865516538748
222.3814794930843	280.5471710928479
170.99412978059084	280.5471710928479
182.10490809680564	259.7144603681315
145.99487856910753	199.99402295727774
95.9963761461409	236.10405488011955
220.99263220355743	124.99626434829858
189.04914454443988	88.88623242545677
275.1576764951046	23.610405488011956
254.32496715220185	43.05426883108063
112.66254362046311	291.65795014603003
375.1546813410378	395.8215037696122
318.21194247043695	193.04978604903891
