279.3125	415
309.3125	452
355.3125	501
463.3125	415
323.3125	353
240.3125	323
306.3125	282
256.3125	159
263.3125	57
208.3125	57
180.3125	32
174.3125	180
167.3125	221
402.3125	12
406.3125	38
512.3125	36
527.3125	126
586.3125	126
457.3125	178
565.3125	231
345.3125	280
563.3125	537
518.3125	542
435.3125	407
395.3125	426
445.3125	338
