400.8254742414427	12.14678007290401
506.8337269259208	33.12758201701094
583.0271585428894	122.57205346294046
532.2315374649104	126.98906439854191
565.3591164288098	228.58031591737546
596.2781901284492	268.33341433778855
539.9613058898202	153.49113001215068
490.2699374439711	235.20583232077763
457.14235848007166	192.13997569866342
371.01065317393324	35.336087484811664
439.474316365992	56.31688942891859
245.12585311111545	166.74216281895505
279.35768470714487	173.36767922235722
230.77056889342572	195.4527339003645
182.18345307970657	179.99319562575943
324.632042624474	223.05905224787364
301.44273734974445	284.8972053462941
324.632042624474	348.9438639125152
230.77056889342572	311.39927095990276
265.0024004894551	282.6886998784933
337.8830742100338	277.1674362089915
579.7144006464995	330.171567436209
440.57856899812197	331.27582017010934
460.45511637646166	419.6160388821385
396.40846371292275	333.4843256379101
352.23835842772354	419.6160388821385
503.5209690295309	544.3965978128797
566.4633690609397	535.5625759416768
607.320716449749	506.8520048602673
528.9187795685204	545.50085054678
208.6855162508261	57.42114216281895
284.87894786779475	422.9287970838396
310.2767584067843	457.1606318347509
394.1999584486628	429.5543134872418
427.3275374125622	409.67776427703524
525.6060216721305	609.5475091130012
590.7569269677994	488.07970838396113
167.82816886201684	220.8505467800729
