202.59953885770736	60.3483354622264
247.19714025710078	160.16201360523934
327.89756183695556	219.62548143511938
481.86547143009955	233.4295007527701
527.5249204818595	125.12104149120287
584.8646937096511	122.9973462115643
511.59720569636187	29.55475390746709
408.59798341681034	76.2760500595157
589.1120843191171	328.9957883365059
595.4831702333162	265.2849299473487
443.6389559449052	332.18133125596376
391.6084209789462	427.7476188396995
429.8349364641406	403.3251231238559
502.0405768250632	545.6127068596403
520.0919869152939	613.5709558080747
291.79474165649424	52.91540198349139
371.4333155839825	206.88330975728795
458.50482307803634	182.46081404144434
420.27830759284194	266.346777587168
379.9280968029146	233.4295007527701
180.30073815801066	176.08972820252862
283.29996043756216	169.7186423636129
229.14573016687012	197.32668099891436
521.1538345676604	532.8705351818089
529.6486157865925	558.3548785374718
350.1963625366523	498.8914107075917
354.44375314611835	418.19099008132594
539.2052446578911	149.54353720704646
268.434093304431	84.77083117806998
266.31039799969795	280.1507969048187
333.2068000987881	292.89296858265016
414.9690693310094	465.97413387319386
