443.97264688170225	332.4622249576858
520.5333469644211	618.778273580551
560.3868620759732	218.14556085551624
529.9723373855782	131.0970918602862
180.72969180276522	26.21941837205724
222.68076034124124	163.60917064163718
180.72969180276522	181.43837513463612
372.655830366293	230.73088167410373
366.36317008552163	457.2666564086783
429.28977289323564	403.7790429296815
324.4121015470456	353.4377596553316
363.2168399451359	374.4132943529774
375.8021605066787	34.609632251115556
352.7290728105169	422.6570241575627
392.58258792206914	428.9496845668565
461.80185101055457	423.70580089244504
