361.0603501169115	134.73406774426027
321.762911773524	129.12014825491607
208.08103656586735	129.12014825491607
236.1506353825727	192.27674251003808
208.08103656586735	221.74981982909503
192.6427572166794	190.87326263770206
160.36271857746826	122.10274889323587
351.2359905310646	167.0141048079893
391.9369088152874	196.48718212704622
369.4812297619231	224.5567795737671
310.5350722468419	255.43333676516008
377.9021094069347	277.8890147225368
286.6759132526423	277.8890147225368
370.88470970275836	449.1135591475342
418.6030276911574	442.096159785854
439.65522680368645	415.43004221146913
412.9891079278164	324.20385050962625
453.69002621203913	282.09945433954493
488.77702473292084	317.18645114794606
508.42574390461454	398.5882837434366
515.4431436087909	421.0439617008133
481.7596250287445	425.2544013178215
485.9700648512503	472.972716977247
554.7405819521783	442.096159785854
539.3023026029905	392.97436425409245
589.82758047306	332.62472974364255
504.21530408210873	245.6089776588078
523.8640232538025	178.24194378667764
455.0935061528744	196.48718212704622
507.02226396377927	63.156594255122
480.3561450879092	46.314835787089464
567.3719014196957	63.156594255122
529.4779430171436	19.648718212704622
523.8640232538025	266.66117574384845
514.0396636679557	329.81776999897045
546.3197023071667	376.1326057860599
551.9336220705078	512.2701534026562
574.3893011238721	523.4979923813446
589.82758047306	501.04231442396787
578.5997409463779	578.2337074024502
