574.1931374858497	183.3059538274605
501.31246376527093	245.14410692588092
522.2932637757406	179.99319562575943
459.35086374433166	154.59538274605103
431.74454794108215	182.20170109356013
407.45099003422257	126.98906439854191
481.43591638693124	48.58712029161604
444.9955795266419	40.857351154313484
568.6718743251997	110.42527339003645
568.6718743251997	62.94240583232078
601.7994532890991	40.857351154313484
577.5058953822396	14.355285540704738
530.0230322006504	19.876549210206562
496.895453236751	4.417010935601458
386.47019002375293	12.14678007290401
246.23010574324545	13.251032806804375
320.21503209595414	128.09331713244228
359.9681268526334	131.40607533414337
391.99145318440287	196.5569866342649
327.94480052086396	236.310085054678
382.05317949523305	273.8546780072904
335.67456894577384	280.4801944106926
315.7980215674342	250.66537059538274
288.1917057641847	286.0014580801944
234.08332678981566	189.9314702308627
195.43448466526635	191.03572296476307
209.78976888295608	216.43353584447144
217.51953730786596	129.19756986634266
162.30690570136693	114.8422843256379
464.87212690498154	394.21822600243013
371.01065317393324	454.95212636695015
394.1999584486628	422.9287970838396
363.28088474902336	400.8437424058323
456.0381058479417	339.0055893074119
482.54016901906124	363.2991494532199
502.4167163974009	392.0097205346294
588.5484217035394	334.58857837181046
601.7994532890991	389.80121506682866
558.7336006360299	443.9095990279465
592.9654322320594	494.70522478736336
578.6101480143695	524.5200486026731
489.1656848118411	472.620170109356
483.64442165119124	420.7202916160389
444.9955795266419	411.88626974483594
410.7637479306125	496.913730255164
425.11903214830227	525.6243013365735
401.9297268735727	511.26901579586877
465.97637953711154	518.9987849331714
586.3399164392794	574.2114216281896
555.42084273964	595.1922235722965
546.5868216826001	517.894532199271
451.6210953194218	280.4801944106926
483.64442165119124	306.98226002430135
412.97225319487245	323.5460510328068
558.7336006360299	369.9246658566221
541.0655585219502	394.21822600243013
456.0381058479417	198.76549210206562
305.8597478782644	368.82041312272173
282.6704426035348	386.4884568651276
283.77469523566475	435.07557715674363
151.26437938006714	100.48699878493316
478.1231584905413	556.5433778857837
