271.627916282235	7.729769137302552
411.8680005627425	3.3127582017010937
447.20408479090185	35.336087484811664
481.43591638693124	48.58712029161604
499.10395850101094	6.625516403402187
527.8145269363904	18.772296476306195
573.0888848537196	11.042527339003644
602.9037059212291	39.753098420413124
571.9846322215897	76.19343863912515
527.8145269363904	50.795625759416765
504.6252216616609	69.56792223572296
463.7678742728516	104.90400972053463
515.6677479829607	135.82308626974483
586.3399164392794	162.32515188335358
571.9846322215897	188.82721749696233
524.5017690400005	183.3059538274605
454.9338532158117	152.3868772782503
430.64029530895215	183.3059538274605
411.8680005627425	129.19756986634266
315.7980215674342	123.67630619684083
265.0024004894551	132.51032806804375
208.6855162508261	130.301822600243
155.68138990858705	115.94653705953827
186.6004636082265	188.82721749696233
206.47701098656614	219.74629404617255
231.8748215255557	191.03572296476307
365.4893900132833	225.26755771567437
395.3042110807928	196.5569866342649
377.6361689667131	278.27168894289184
327.94480052086396	236.310085054678
303.65124261400445	255.0823815309842
285.98320049992475	282.6886998784933
409.6594952984825	322.44179829890646
452.7253479515518	282.6886998784933
486.9571795475812	309.19076549210206
590.7569269677994	331.27582017010934
599.5909480248391	384.27995139732684
502.4167163974009	396.42673147023083
482.54016901906124	427.34580801944105
515.6677479829607	324.65030376670717
555.42084273964	448.326609963548
591.8611795999293	494.7052247873633
573.0888848537196	530.041312272175
551.00383221112	516.7902794653706
590.7569269677994	576.4199270959903
533.3357900970403	556.5433778857837
604.0079585533591	522.3115431348724
371.01065317393324	461.5776427703524
