354.3125	431
349.3125	481
343.3125	558
371.3125	590
414.3125	565
467.3125	602
581.3125	579
555.3125	538
531.3125	561
501.3125	478
509.3125	444
572.3125	475
441.3125	454
413.3125	421
410.3125	454
413.3125	375
386.3125	408
455.3125	372
290.3125	246
290.3125	222
215.3125	222
217.3125	253
178.3125	180
105.3125	185
142.3125	180
134.3125	142
42.3125	100
142.3125	257
147.3125	333
181.3125	141
257.3125	33
299.3125	80
327.3125	116
296.3125	117
346.3125	154
348.3125	215
400.3125	272
554.3125	206
562.3125	287
444.3125	156
391.3125	94
420.3125	61
452.3125	19
241.3125	428
252.3125	397
