94.17283866986273	11.536544083705186
300.78185122185715	8.390213879058317
322.80616220455704	121.6581012463456
393.0742020065044	89.14602246499462
424.5375034103614	58.73149715340822
459.14713495460416	12.585320818587476
492.70798978538494	28.31697184182182
543.0492720315561	100.68256654869981
576.610126862337	37.75596245576243
601.7807679854226	53.48761347899677
604.9270981258084	138.43852900446223
598.6344378450369	302.04769964609943
592.3417775642655	336.657331897215
570.3174665815656	356.58408985997846
553.5370391661752	334.5597784274504
558.7809227334847	278.97461147868904
561.9272528738704	221.29189106016312
537.8053884642467	206.60901677181107
500.0494267796183	166.75550084628406
435.0252705449804	165.70672411140177
448.65936781998516	209.75534697645793
470.68367880268505	308.34036005539315
431.87894040459474	230.73088167410373
492.70798978538494	234.92598861363288
537.8053884642467	305.1940298507463
515.7810774815467	341.90121557162644
511.58597062769917	440.48622865056166
496.90309663923256	477.1934143714418
528.3663980430896	556.9004462224958
557.7321460200228	530.6810278504386
589.1954474238798	576.8272041852593
595.4881077046513	459.36420987844286
569.2686898681037	475.0958609016772
609.122204979656	385.94983843668257
596.5368844181131	419.51069395291586
561.9272528738704	439.43745191567933
548.2931555988657	471.94953069703035
499.00065006615637	591.5100784736113
487.4641062180755	616.6807201107863
454.95202810075654	594.6564086782582
419.29361984305194	594.6564086782582
414.0497362757424	561.095553162025
371.0498910238045	596.7539621480228
345.8792499007189	558.9979996922604
381.5376581584235	520.1932605016157
342.7329197603332	480.33974457608866
415.0985129892043	481.38852131097093
398.3180855738139	452.0227727342668
458.09835824114225	373.36451761809514
411.9521828488186	376.510847822742
401.4644157141996	275.8282812740422
344.830473187257	220.24311432528083
206.3919470102861	161.51161717187262
210.5870538641337	228.63332820433914
224.2211511391384	262.1941837205724
142.41656748911015	327.21834128327436
147.66045105641965	262.1941837205724
178.07497574681477	140.53608247422682
121.44103321987214	151.02384982304972
91.02650852947703	113.26788736728729
260.92833611030494	6.292660409293738
282.9526470930048	124.80443145099247
344.830473187257	151.02384982304972
387.8303184391949	249.60886290198493
318.6110553507095	363.9255270041545
300.78185122185715	389.0961686413295
247.2942388353002	396.43760578550547
238.90402512760502	433.1447915063856
448.65936781998516	468.8032004923835
126.68491678718165	345.0475457762733
103.61182909101983	194.02369595322358
131.92880035449116	166.75550084628406
227.3674812795241	200.31635636251733
286.09897723339054	220.24311432528083
277.70876352569536	251.70641637174953
294.4891909410857	156.26773349746117
418.24484312959004	97.53623634405294
422.4399499834376	294.7062625019234
429.78138697767093	348.19387598092015
459.14713495460416	267.4380673949839
527.3176213296276	517.0469302969688
522.0737377623182	477.1934143714418
468.58612537576124	400.63271272503465
284.00142380646673	510.75426988767504
291.34286080070007	551.6565625480844
243.09913198145262	512.8518233574397
260.92833611030494	466.7056470226189
222.1235977122146	443.6325588552085
286.09897723339054	321.9744576088629
169.68476203911956	174.09693799046008
224.2211511391384	57.68272041852593
299.73307450839525	91.24357593475919
