406.234375	461
403.234375	280
354.234375	146
398.234375	89
307.234375	91
230.234375	102
173.234375	145
220.234375	169
178.234375	190
138.234375	183
99.234375	197
92.234375	238
205.234375	226
236.234375	200
284.234375	125
327.234375	110
422.234375	65
435.234375	161
349.234375	222
554.234375	330
459.234375	377
409.234375	377
510.234375	439
495.234375	485
526.234375	523
529.234375	562
563.234375	539
494.234375	619
498.234375	593
450.234375	471
345.234375	426
342.234375	488
381.234375	514
297.234375	166
530.234375	206
561.234375	274
237.234375	403
244.234375	433
129.234375	144
289.234375	221
595.234375	461
382.234375	590
411.234375	558
