476.1457052654034	259.6437763821682
505.618784022944	202.1011016163904
519.6535834312967	315.78297127561
497.19790437793245	356.4838875733553
577.1962610055426	395.78132399876455
542.1092624846609	395.78132399876455
589.82758047306	433.6752805518377
501.4083442004382	390.16740450942035
452.28654627120386	350.86996808401113
463.514385797886	384.55348502007615
443.86566662619225	377.53608565839596
370.88470970275836	349.4664882116751
424.2169474544985	322.8003706372902
293.69331295681866	207.71502110573456
285.27243331180705	167.0141048079893
227.72975573756108	209.1185009780706
238.95759526424322	252.626377020488
213.69495632920842	248.41593740347986
188.4323173941736	242.8020179141357
220.71235603338476	272.27509523319264
199.66015692085574	137.54102748893234
316.14899201018295	96.84011119118706
344.21859082688826	138.9445073612684
345.6220707677235	223.15329970143105
373.6916695844289	71.57747348913827
417.19954775032215	94.03315144651498
572.9858211830368	183.8558632760218
463.514385797886	435.07876042417377
361.0603501169115	383.1500051477401
330.1837914185356	359.2908473180274
297.90375277932446	399.99176361577264
286.6759132526423	53.33223514876969
