253.09528503163637	241.21864902292663
160.8029342469891	219.19433759039853
183.8760219431509	88.09724573011233
326.5096549739694	359.7304200646253
459.70429758363076	531.7298045853208
526.8260072451924	318.82812740421605
502.7041428355687	205.56024003692877
311.8267809855028	99.63378981381751
323.3633248335837	444.6813355900908
553.04542508174	148.92629635328512
572.9721826375161	186.68225880904757
425.0946660393881	324.0720110786275
475.4359482855593	260.09663025080783
340.1437522489741	140.53608247422682
162.9004876739129	13.634097553469765
462.8506277240165	431.047238036621
351.680296097055	225.48699799969228
305.5341207047314	251.70641637174953
522.6309003913448	165.70672411140177
550.9478716548161	75.51192491152486
