156.109375	16
114.109375	68
182.109375	81
208.109375	135
315.109375	107
207.109375	242
287.109375	362
402.109375	26
494.109375	40
450.109375	57
422.109375	88
342.109375	142
288.109375	170
296.109375	243
330.109375	358
370.109375	352
475.109375	176
500.109375	206
546.109375	87
585.109375	97
578.109375	184
489.109375	147
449.109375	354
484.109375	257
523.109375	316
492.109375	351
538.109375	396
573.109375	396
