135.89400669224602	237.9523942873145
90.0849900966974	128.5197423690843
41.7310281347294	153.96919630355643
134.62153400903634	101.79781573788856
177.8856052381656	30.539344721366565
305.132873559134	167.96639596751612
333.12727258974707	156.51414169700365
436.1975599297315	145.06188742649118
450.194759445038	109.43265191823019
517.6358116551513	73.8034164099692
595.256645330942	225.22766732007844
574.897082399587	117.06748809857184
504.9110848230544	165.4214505740689
280.95589257815004	258.3119574348922
265.6862203796338	309.2108653038365
298.7705101430856	403.3738448613834
333.12727258974707	444.0929711565388
310.22276429197274	444.0929711565388
563.4448282506999	500.0817698123775
390.3885433341828	146.3343601232148
265.6862203796338	198.50574068888267
