515.8445963058278	456.41750511482024
595.4831702333162	224.9347196342158
439.39156533543917	89.01822173734713
57.12641048349546	78.39974533915426
280.11441748046263	261.03753938807154
302.41321818015933	399.0777325645788
310.9079993990914	441.5516381573502
248.2589879094673	438.3660952378924
274.8051792186301	478.7163055510253
445.7626512496382	301.3877497012044
366.12407732214996	118.74995565228716
533.8960063960585	122.9973462115643
575.3080648383525	114.50256509301
232.33127312396965	138.9250608088536
276.9288745233631	103.88408869481715
391.6084209789462	21.0599727889128
554.0711117910223	34.86399210656352
385.2373350647471	343.8616552939759
422.40200289757496	388.4592561663859
481.86547143009955	377.84077976819304
572.122521881253	431.99500939897666
595.4831702333162	458.5412003944588
560.4421977052214	501.0151059872303
600.7924084951487	522.252058783616
336.39234305588764	252.54275826951726
334.2686477511546	153.79092776632362
313.0316947038244	125.12104149120287
302.41321818015933	113.44071745319073
