591.171875	226
450.171875	112
517.171875	75
576.171875	116
507.171875	169
434.171875	150
393.171875	145
334.171875	153
303.171875	164
174.171875	34
86.171875	132
38.171875	148
133.171875	232
132.171875	101
92.171875	38
141.171875	20
269.171875	202
230.171875	138
262.171875	310
436.171875	433
299.171875	393
332.171875	443
245.171875	443
594.171875	460
518.171875	456
601.171875	558
564.171875	502
278.171875	479
552.171875	36
438.171875	90
417.171875	452
