549.1760946059693	344.3961038961039
579.6046665028833	372.0584415584416
604.5007707821767	333.33116883116884
493.8514184297619	431.53246753246754
580.9877834072886	273.85714285714283
434.3773915403391	100.96753246753246
