227.3125	278
248.3125	306
311.3125	308
270.3125	258
225.3125	149
189.3125	111
168.3125	20
455.3125	89
426.3125	121
505.3125	77
527.3125	36
592.3125	38
546.3125	73
553.3125	143
610.3125	207
608.3125	242
523.3125	185
467.3125	139
395.3125	292
545.3125	476
320.3125	153
195.3125	241
