466.81860244980993	141.66243292807172
429.319725632585	122.21856958500307
509.8728684251423	72.22006384568363
557.0936762690552	131.9405012565374
557.0936762690552	152.77321198125384
526.5390358994645	181.93900699585683
604.3144841129681	206.93825986551656
402.9316271315748	237.4929022617673
401.542779842048	290.2691027643823
316.8230951809101	305.5464239625077
272.3799819160509	258.32561298648375
243.21418883598704	316.65720301568973
193.21568641302042	106.94124838687767
452.93012955454145	86.10853766216125
462.6520605812294	68.05352170074035
522.372494030884	34.72118454119405
552.9271344004746	73.60891122733139
594.5925530862802	44.443116212728384
