165.171875	16
228.171875	17
453.171875	89
426.171875	121
594.171875	51
506.171875	73
599.171875	206
523.171875	182
556.171875	151
605.171875	247
271.171875	247
313.171875	305
553.171875	514
550.171875	484
189.171875	236
469.171875	208
