301.3321067225597	7.851888422611701
334.98305384982666	17.94717353739817
282.26323668377506	31.407553690446804
216.0830406668166	14.582078499136015
177.94530058924732	7.851888422611701
207.10945476621205	133.4821031843989
217.20473890439217	87.49247099481609
185.7971882522763	57.206615650456676
273.2896507831705	60.57171068871883
328.2528644243733	49.354727227844975
365.268906264367	83.00567761046655
386.58117277830274	117.7783263391755
314.7924855734665	177.22833868180695
285.6283313965017	252.38212786966182
281.1415384461995	281.5462848679338
310.3056926231642	336.50950382621573
322.6443732364954	390.35102443841026
352.93022565103576	371.2821525549247
291.2368225843796	437.4623549740805
357.41701860133804	509.25104912367317
402.2849481043607	554.1189829671688
478.56042825949925	588.8916316958775
422.4755163807209	570.9444581584794
495.38590182313277	459.8963218958282
462.8566529334413	447.55764008886695
424.718912855872	375.76894593927426
527.9151507128242	386.9859294001481
530.1585471879753	432.97556158973094
444.90948113223226	381.3774376697112
511.08967714919066	286.03307825228336
443.7877828946567	262.4774129844483
349.56513093830904	287.15477659837074
449.3962740825345	145.82078499136014
480.8038247346504	118.90002468526289
471.8302388340459	182.8368304122439
521.1849612873708	133.4821031843989
478.56042825949925	164.8896568748457
421.35381814314536	94.22266107134041
468.46514412131916	60.57171068871883
423.59721461829645	114.41323130091335
487.53401416010377	79.6405825722044
442.6660846570811	100.95285114786472
558.2010031273645	113.29153295482597
542.4972278013065	78.51888422611701
377.6075868776982	51.598123920019745
584.0000625916025	373.5255492470995
431.44910228132545	326.41421871142927
385.4594745407272	273.6943964453221
251.97738426923473	139.09059491483583
529.0368489503998	330.9010120957788
