486.921875	205
349.921875	283
479.921875	186
456.921875	152
490.921875	129
538.921875	75
489.921875	162
419.921875	162
389.921875	124
356.921875	86
596.921875	192
522.921875	130
556.921875	107
601.921875	164
601.921875	310
513.921875	295
519.921875	84
491.921875	98
417.921875	92
438.921875	121
469.921875	73
513.921875	27
384.921875	54
339.921875	24
370.921875	165
267.921875	56
314.921875	116
341.921875	204
444.921875	264
376.921875	229
388.921875	269
306.921875	328
286.921875	282
281.921875	239
321.921875	181
296.921875	163
244.921875	145
201.921875	133
224.921875	95
189.921875	62
435.921875	382
427.921875	327
472.921875	326
579.921875	376
586.921875	426
496.921875	456
537.921875	442
492.921875	401
447.921875	430
339.921875	377
314.921875	383
346.921875	328
362.921875	503
539.921875	569
578.921875	528
556.921875	551
466.921875	596
602.921875	506
367.921875	388
523.921875	391
480.921875	311
479.921875	247
398.921875	45
397.921875	18
286.921875	43
221.921875	20
198.921875	31
604.921875	359
523.921875	351
401.921875	369
226.921875	190
609.921875	480
593.921875	566
604.921875	601
469.921875	458
440.921875	101
230.921875	240
219.921875	214
204.921875	240
513.921875	622
