434.53365646054516	379.65717802738885
521.5821236778829	290.5111555623942
384.19237421437396	232.8284351438683
532.069890812502	434.19356824126794
607.5818141817588	312.53546699492233
555.1429785086638	113.26788736728729
415.65567561823093	158.36528696722573
344.3388591028217	219.19433759039853
314.97311112588847	388.04739190644716
231.07097404893645	90.19479919987691
455.5091907297832	148.92629635328512
473.33839485863547	180.38959839975382
383.14359750091205	270.58439759963073
346.4364125297455	285.26727188798276
422.99711261246426	321.9744576088629
