278.6623180793155	252.09486959849121
281.7012699388492	294.64019233472374
306.0128848151181	328.06866019890646
340.96083119975475	282.4843858386573
336.4024034104543	376.6918861831722
385.0256331629922	124.45890138979367
357.6750664271896	84.95253027757775
246.75332355421256	142.6926111338933
201.1690456612083	130.5368046378269
216.36380495887636	89.51095771360266
185.9742863635402	60.640917285444885
508.10318347410373	25.692973609253883
462.5189055810995	65.1993447214698
486.83052045736844	89.51095771360266
532.4147983503727	68.2382963454864
550.6485095075744	110.78361908171892
489.86947231690203	122.93942557778536
433.6488629155301	116.86152232975215
482.272092668068	157.88736925397635
413.8956758285616	92.54990933761927
415.41515175832836	156.36789344196805
459.47995372156583	153.32894181795146
471.63576115970034	236.90011147840818
438.20729070483054	268.80910353058255
381.98668130345857	236.90011147840818
381.98668130345857	273.3675309666075
514.181087193171	288.56228908669055
438.20729070483054	378.2113619951805
492.90842417643563	449.6267251595708
581.0380281029106	376.6918861831722
533.9342742801394	434.43196703948774
356.1555904974228	508.88628182789466
328.80502376162025	19.615070361220667
538.4927020694399	565.1068868722019
609.90807076848	311.3544262668151
438.20729070483054	428.3540637914545
381.98668130345857	435.95144285149604
292.33760144721685	437.47091866350434
310.57131260441855	393.40612011526355
281.7012699388492	33.2903526692954
261.94808285188066	62.16039309745319
401.7398683904271	8.978739677162535
600.7912151898792	355.41922481505594
573.4406484540765	522.5615641359694
