573.7571039645014	380.84248068159303
602.1177165988801	351.4689914800872
525.1389108769952	339.31444422429166
525.1389108769952	366.6621755498316
497.7911772652729	207.64018228650684
550.4608864434047	247.1424608678423
515.0101206504313	304.876560332871
481.5851129027708	287.6576183871607
452.2116212457358	334.25004953437684
418.7866134980752	375.7780859916782
255.71309085039803	168.1379037051714
232.41687332930127	152.944719635427
296.2282517566532	155.98335644937586
285.08658250743304	232.96215573608083
281.0350664168075	203.588666534575
526.1517898996515	426.42203289082624
500.82981433324204	421.3576382009114
563.6283137379376	415.2803645730137
482.5979919254272	147.88032494551217
452.2116212457358	114.4553199920745
433.97979883792095	90.14622548048345
459.30177440433044	48.61818902318209
512.9843626051186	61.78561521696057
230.3911152839885	22.283336635625123
324.58886439103185	51.65682583713097
61.24031850037303	66.85000990687537
