374.3234110703232	123.67630619684083
386.47019002375293	139.13584447144595
399.7212216093127	162.32515188335358
496.895453236751	206.49526123936818
468.1848848013715	185.51445929526125
484.7486742833212	144.65710814094774
464.87212690498154	44.17010935601458
509.04223219018075	68.4636695018226
549.89957957899	47.48286755771567
359.9681268526334	14.355285540704738
300.3384847176145	153.49113001215068
257.27263206454523	165.63791008505467
234.08332678981566	150.17837181044956
223.04080046851584	18.772296476306195
142.4303583230273	100.48699878493316
59.61141091327876	58.52539489671932
97.1560004056981	256.18663426488456
153.47288464432708	245.14410692588092
248.4386110075054	234.10157958687728
288.1917057641847	232.99732685297693
359.9681268526334	183.3059538274605
318.00652683169415	197.66123936816524
287.0874531320547	195.4527339003645
431.74454794108215	245.14410692588092
404.13823213783263	230.7888213851762
457.14235848007166	287.1057108140948
485.8529269154512	280.4801944106926
510.14648482231075	304.7737545565006
553.21233747538	245.14410692588092
598.4866953927092	261.7078979343864
523.3975164078705	336.79708383961116
520.0847585114806	368.82041312272173
578.6101480143695	379.8629404617254
597.3824427605792	356.67363304981774
560.9421059002898	417.40753341433776
526.7102743042605	428.4500607533414
501.31246376527093	418.5117861482382
458.24661111220166	418.5117861482382
414.07650582700245	372.13317132442285
451.6210953194218	333.4843256379101
330.15330578512396	389.80121506682866
248.4386110075054	339.0055893074119
