440.0999500409597	238.44822739340935
327.26284510847165	104.3210994846166
215.49024116591278	244.83523348430424
111.16914415285784	84.09558019678276
53.6860906966847	22.354521318132125
62.20209861611776	125.61111978759956
13.235053079377682	233.12572231766362
161.20069067952704	340.64032484772764
338.97235599769215	352.3498360143683
360.26237579627474	431.1229111354053
466.712474789188	530.1215055442761
