442.462186685357	237.18809842479152
337.2011911227119	346.659528467003
210.8879964475379	238.59157829712754
158.959238636633	342.44908884999484
335.79771118187665	108.06795016987542
470.53178550206235	526.3049521260167
