340.1437522489741	349.2426527158025
357.9729563778264	428.9496845668565
158.7053808200653	336.657331897215
445.02142359516415	240.16987228804433
257.290391885484	67.12171103246654
333.8510919682027	105.92645022311126
470.1920647182498	523.3395907062626
70.60813688926565	130.04831512540392
52.77893276041333	23.073088167410372
115.70553556812737	92.29235266964149
