393.234375	359
449.234375	408
171.234375	62
272.234375	27
320.234375	155
252.234375	164
259.234375	278
286.234375	324
456.234375	246
515.234375	410
543.234375	358
569.234375	330
502.234375	198
358.234375	377
427.234375	419
503.234375	441
470.234375	388
315.234375	397
