195.84375	25
253.84375	55
107.84375	180
80.84375	191
121.84375	218
42.84375	182
22.84375	200
504.84375	364
514.84375	331
434.84375	302
222.84375	310
269.84375	382
361.84375	468
207.84375	398
360.84375	286
157.84375	291
100.84375	275
