225.2699278526003	120.60932451146331
233.6601415602955	158.36528696722573
242.0503552679907	195.07247268810588
271.41610324492393	231.77965840898602
278.7575402391572	103.82889675334667
515.7810774815467	52.43883674411448
554.5858158796372	60.8290506231728
530.4639514700134	71.31681797199569
469.63490208922315	195.07247268810588
419.29361984305194	448.87644252961996
452.8544746738327	404.8278196645638
454.95202810075654	367.07185720880136
454.95202810075654	249.60886290198493
534.659058323861	103.82889675334667
545.14682545848	151.02384982304972
552.4882624527133	115.36544083705186
601.7807679854226	35.658408985997845
505.2933103469278	466.7056470226189
506.34208706038964	523.3395907062626
502.1469802065421	431.047238036621
467.53734866229934	491.87628865979383
558.7809227334847	551.6565625480844
551.4394857392514	503.41283274349905
517.8786309084705	503.41283274349905
488.5128829315374	478.24219110632407
471.73245551614696	443.6325588552085
536.7566117507848	434.19356824126794
560.8784761604085	401.6814894599169
571.3662432950275	429.99846130173876
587.097893996956	470.90075396214803
597.5856611315751	500.26650253885214
572.4150200084894	531.7298045853208
605.9758748392702	569.4857670410832
546.1956021719419	528.583474380674
577.658903575799	585.2174180643176
525.2200679027039	412.1692568087398
500.0494267796183	339.80366210186185
532.5615048969372	380.7059547622711
460.19591166806606	346.09632251115556
438.1716006853661	317.7793506693338
535.7078350373229	268.48684412986614
533.610281610399	185.63348207416527
575.5613501488751	101.73134328358209
540.9517186046324	45.097399599938456
511.58597062769917	206.60901677181107
501.0982034930802	237.02354208339747
574.5125734354132	202.4139098322819
582.9027871431084	232.8284351438683
600.7319912719607	263.2429604554547
588.1466707104179	360.77919679950764
580.8052337161846	303.0964763809817
554.5858158796372	336.657331897215
