386.15578502504286	221.06474982100892
380.12602662778363	94.44054417615676
374.09626823052446	174.33438821398013
458.5128857921534	172.82695719439857
604.7345269256892	225.58704287975362
595.6898893298004	276.8396975455271
558.0038993469303	263.27281836929296
515.7955905661158	279.85455958469026
460.0203253914682	258.75052531054826
554.9890201483007	382.35986891623725
562.5262181448747	430.59766154284756
588.1526913332264	469.79086805196846
372.58882863120965	287.3917146825981
250.48622108671063	193.93099146854058
224.859747898359	227.09447389933518
188.68119751480373	248.19850817347722
232.396945894933	16.05413115791497
267.0680566791735	50.72504460829115
193.20351631274815	34.14330339289385
184.15887871685933	77.85880296075946
149.48776793261888	26.60614829498598
113.3092175490636	52.232475627872724
333.3953990490248	58.26219970619901
612.2717249222633	148.7080608810934
422.3343354085981	341.65923138753476
485.6467985798198	376.33014483791095
425.34921460722774	420.04564440577656
286.6647714702659	407.98619624912396
337.9177178469692	465.26857499322375
452.48312739489415	468.28343703238687
499.21375497365307	501.4469194631815
401.2301810181909	16.05413115791497
328.87308025108035	183.37897433146958
371.08138903189484	124.58916456778823
615.2866041208928	371.8078517791662
292.6945298675251	447.17940275824486
273.09781507643265	263.27281836929296
164.5621639257669	157.75264699858283
137.42825113810045	117.05200946988036
321.3358822545064	114.03714743071721
496.19887577502345	11.531838099170253
289.6796506688955	168.30466413565384
