389.04315423630635	219.4378863003464
336.266957234286	198.60517557562997
222.3814794930843	227.77097059023296
341.8223463923934	468.04156761529583
301.54577499611474	451.37539903552266
344.60004097144713	498.5962100115466
312.65655331232955	497.2073626298988
279.32421836368513	497.2073626298988
257.1026617312555	449.9865516538749
211.2707011768695	368.0445561366569
141.82833670052696	284.71371323779124
243.21418883598704	381.93302995313456
452.93012955454145	477.76349928683015
464.04090787075626	522.2066154995586
433.48626750116557	506.9292943014332
395.9873906839406	506.9292943014332
379.3212232096184	509.70698906472865
350.15543012955453	526.3731576445018
436.26396208021924	540.2616314609794
491.81785366129327	501.3739047748421
491.81785366129327	541.6504788426272
552.9271344004746	376.3776404265435
568.20445458527	395.8215037696122
491.81785366129327	412.4876723493853
480.70707534507847	383.3218773347823
422.37548918495077	340.2676085037017
518.2059521623034	277.7694763295524
462.6520605812294	255.54791822318822
376.5435286305647	288.8802553827345
282.10191294273886	166.66168579773145
172.38297707011768	165.2728384160837
136.27294754241956	147.21782245466278
108.49600175188256	170.82822794267474
133.49525296336586	115.27433267676425
129.32871109478532	80.5531481355702
552.9271344004746	265.26984989472254
407.0981690001554	174.994770087618
362.6550557352962	180.55015961420906
576.5375383224311	593.0378319635944
598.7590949548608	544.4281736059228
543.2052033737867	191.66093866739115
520.9836467413571	169.43938056102698
255.71381444172874	191.66093866739118
418.2089473163702	420.8207566392719
464.04090787075626	179.1613122325613
380.7100704991452	91.6639271887523
193.21568641302042	36.11003192284181
