152.3686320121971	34.2318347509113
189.91322150461644	37.54459295261239
258.37688469667523	47.48286755771567
229.66631626129575	12.14678007290401
326.840547888734	54.10838396111786
377.6361689667131	98.27849331713244
368.80214790967324	128.09331713244228
373.2191584381932	176.6804374240583
387.57444265588293	217.53778857837182
332.3618110493839	191.03572296476307
290.40021102844463	172.26342648845687
253.9598741681553	195.4527339003645
217.51953730786596	228.58031591737546
164.5154109656269	165.63791008505467
199.85149519378626	205.3910085054678
187.70471624035648	239.6228432563791
191.01747413674642	266.12490886998785
140.22185305876732	117.05078979343864
130.2835793695975	140.2400972053463
105.99002146273793	164.53365735115432
104.88576883060796	47.48286755771567
128.07507410533754	85.02746051032807
183.28770571183657	75.08918590522478
266.1066531215851	106.008262454435
468.1848848013715	176.6804374240583
403.03397950570263	182.20170109356013
460.45511637646166	253.97812879708383
515.6677479829607	289.3142162818955
543.2740637862101	192.13997569866342
574.1931374858497	118.155042527339
537.7528006255602	111.52952612393682
604.0079585533591	218.64204131227217
556.5250953717699	267.2291616038882
584.1314111750195	247.35261239368165
592.9654322320592	279.3759416767922
573.0888848537196	398.6352369380316
551.00383221112	379.8629404617254
579.7144006464995	473.7244228432564
555.42084273964	435.07557715674363
484.7486742833212	384.27995139732684
425.11903214830227	341.21409477521263
375.4276637024531	287.1057108140948
269.41941101797505	263.91640340218714
287.0874531320547	411.88626974483594
337.8830742100338	465.99465370595385
300.3384847176145	453.8478736330498
450.5168426872918	484.76695018226
504.6252216616609	510.1647630619684
465.97637953711154	515.6860267314703
433.9530532053421	545.50085054678
408.55524266635257	565.3773997569866
442.78707426238196	579.7326852976913
494.686947972491	532.2498177399757
554.3165901075099	562.0646415552856
596.2781901284492	544.3965978128797
535.5442953613003	531.1455650060753
532.2315374649104	580.8369380315918
571.9846322215897	592.9837181044958
562.0463585324198	620.5900364520048
261.6896425930652	458.26488456865127
219.7280425721259	366.611907654921
184.39195834396654	362.19489671931956
145.74311621941723	291.52272174969625
422.9105268840423	416.3032806804374
