470.171875	59
583.171875	30
213.171875	23
167.171875	19
269.171875	84
131.171875	136
167.171875	164
142.171875	200
218.171875	292
205.171875	363
234.171875	370
264.171875	394
295.171875	428
279.171875	455
353.171875	401
303.171875	269
252.171875	227
292.171875	180
342.171875	151
492.171875	254
545.171875	379
518.171875	423
391.171875	509
354.171875	490
315.171875	499
480.171875	483
442.171875	489
555.171875	508
605.171875	561
472.171875	629
610.171875	595
549.171875	590
