266.1066531215851	89.44447144592952
288.1917057641847	17.668043742405832
174.45368465479672	45.274362089914945
179.97494781544663	70.67217496962333
86.11347408439829	73.98493317132443
98.26025303782806	110.42527339003645
144.63886358728723	99.38274605103281
172.24517939053675	17.668043742405832
131.38783200172747	81.71470230862697
186.6004636082265	103.79975698663426
129.17932673746753	135.82308626974483
94.94749514143813	139.13584447144592
163.4111583334969	161.22089914945323
256.16837943241524	223.05905224787364
313.58951630317426	267.2291616038882
225.2493057327758	291.52272174969625
252.85562153602532	354.46512758201703
207.5812636186961	359.98639125151885
205.37275835443617	399.73948967193195
236.29183205407563	369.9246658566221
263.8981478573251	389.80121506682866
284.87894786779475	451.6393681652491
355.5511163241135	404.1565006075334
356.6553689562435	462.68189550425274
389.7829479201429	509.06051032806806
322.4235373602141	498.0179829890644
355.5511163241135	496.913730255164
409.6594952984825	608.4432563791008
500.20821113314094	549.9178614823816
446.0998321587719	489.1839611178615
471.4976426977614	459.3691373025516
419.59776898765233	410.7820170109356
473.7061479620214	354.46512758201703
522.2932637757406	428.4500607533414
607.320716449749	556.5433778857837
549.89957957899	585.2539489671932
475.91465322628136	626.1113001215067
558.7336006360299	345.6311057108141
464.87212690498154	276.06318347509114
493.58269534036106	252.87387606318347
543.2740637862101	229.6845686512758
579.7144006464995	212.01652490887
398.61696897718275	212.01652490887
366.5936426454133	168.95066828675576
344.5085900028137	157.90814094775212
292.6087162927046	182.20170109356013
311.38101103891427	100.48699878493316
363.28088474902336	108.21676792223572
478.1231584905413	61.83815309842041
526.7102743042605	77.29769137302551
604.0079585533591	53.0041312272175
584.1314111750195	38.64884568651276
368.80214790967324	54.10838396111786
330.15330578512396	62.94240583232078
210.89402151508608	18.772296476306195
211.99827414721605	210.91227217496962
175.5579372869267	219.74629404617255
140.22185305876732	198.76549210206562
210.89402151508608	242.93560145808019
322.4235373602141	336.79708383961116
567.5676216930698	485.87120291616037
555.42084273964	514.5817739975698
