355.0833282470703	398.98333740234375
466.0833282470703	272.98333740234375
536.0833282470703	227.98333740234375
364.0833282470703	169.98333740234375
401.0833282470703	215.98333740234375
326.0833282470703	335.98333740234375
310.0833282470703	263.98333740234375
475.0833282470703	65.98333740234375
340.0833282470703	155.98333740234375
256.0833282470703	223.98333740234375
386.0833282470703	511.98333740234375
446.0833282470703	489.98333740234375
517.0833282470703	417.98333740234375
418.0833282470703	415.98333740234375
493.0833282470703	251.98333740234375
246.0833282470703	344.98333740234375
223.0833282470703	291.98333740234375
468.0833282470703	455.98333740234375
483.0833282470703	493.98333740234375
569.0833282470703	207.98333740234375
585.0833282470703	39.98333740234375
