523.3327885626899	147.20062986151183
484.139358980505	77.85880296075946
414.7971374120241	55.24733766703587
551.9741409496711	55.24733766703587
517.3030301654306	23.591286255822837
586.6452517339116	11.531838099170253
530.8699865592639	192.42356044895905
336.4102782476544	255.73566327138508
435.90129180243133	285.88428366301656
594.1824497304856	290.40657672176127
556.4964597476155	258.75052531054826
487.1542381791346	201.46814656644847
349.9772346414876	156.24521597900127
342.44003664491356	101.97769927406463
291.1870902682103	91.42568213699363
357.51443263806163	126.0965955873698
258.02341908328464	8.516976060007106
197.72583511069254	56.754768686617446
155.51752632987808	76.35137194117789
143.45800953535965	25.09871727540441
452.48312739489415	139.66347476360397
481.1244797818754	153.23035393983815
417.8120166106537	133.63375068527768
384.64834542572805	195.43842248812217
289.6796506688955	236.13906001682463
265.5606170798587	246.6910771538956
330.38051985039516	198.45328452728532
524.8402281620047	329.59978323088217
530.8699865592639	364.27069668125836
577.6006141380228	347.68895546586106
609.2568457236337	380.85243789665566
550.4667013503563	420.04564440577656
487.1542381791346	424.56793746452126
503.73607377159743	474.31316111071317
604.7345269256892	546.6698500506287
390.6781038229873	432.10509256242915
331.88795944970997	371.8078517791662
345.4549158435432	306.98831793715857
282.1424526723215	335.62950730920846
368.06650983326523	355.2261105637689
487.1542381791346	261.7653873497114
399.72274141887607	17.561562177496544
447.96080859694973	13.039269118751825
255.00853988465505	135.14118170485924
280.6350130730067	166.79723311607228
603.2270873263744	133.63375068527768
405.7524998161353	496.9246264044368
536.8997449565231	531.595539854813
582.1229329359671	507.47664354150777
319.82844265519157	151.72292292025654
303.24660706272874	376.33014483791095
