256.171875	6
337.171875	106
441.171875	12
519.171875	26
584.171875	11
527.171875	146
484.171875	151
447.171875	141
421.171875	133
355.171875	131
352.171875	163
299.171875	316
278.171875	346
302.171875	377
338.171875	374
293.171875	96
196.171875	42
160.171875	67
183.171875	92
595.171875	293
554.171875	254
525.171875	330
533.171875	364
584.171875	343
611.171875	377
548.171875	412
486.171875	427
510.171875	472
576.171875	514
604.171875	543
529.171875	529
390.171875	432
372.171875	463
407.171875	502
336.171875	257
436.171875	290
530.171875	195
