338.9873268421638	257.2908869987849
439.474316365992	291.52272174969625
549.89957957899	58.52539489671932
520.0847585114806	26.50206561360875
486.9571795475812	73.98493317132443
446.0998321587719	13.251032806804375
418.4935163555224	136.9273390036452
446.0998321587719	141.34434993924665
477.01890585841136	153.49113001215068
503.5209690295309	175.57618469015796
516.7720006150906	141.34434993924663
530.0230322006504	195.4527339003645
484.7486742833212	205.3910085054678
340.0915794742938	102.6955042527339
357.7596215883735	130.301822600243
344.5085900028137	160.11664641555285
316.9022741995642	152.3868772782503
297.0257268212245	91.65297691373026
280.4619373392748	167.8464155528554
295.92147418909457	319.12904009720535
281.5661899714048	342.318347509113
297.0257268212245	372.13317132442285
338.9873268421638	366.611907654921
345.61284263494366	303.66950182260024
324.632042624474	426.2415552855407
390.8872005522729	428.4500607533414
375.4276637024531	461.5776427703524
401.9297268735727	502.43499392466583
489.1656848118411	428.4500607533414
512.3549900865708	475.9329283110571
543.2740637862101	416.3032806804374
535.5442953613003	531.1455650060753
580.8186532786295	509.06051032806806
526.7102743042605	364.40340218712026
530.0230322006504	334.58857837181046
490.2699374439711	256.18663426488456
592.9654322320592	294.8354799513973
578.6101480143695	350.04811664641556
611.7377269782689	380.9671931956258
203.1642530901762	53.0041312272175
149.05587411580717	32.02332928311057
259.48113732880523	8.834021871202916
205.37275835443617	103.79975698663426
185.4962109760965	90.54872417982989
138.01334779450735	86.13171324422844
215.311032043606	147.96986634264886
259.48113732880523	216.43353584447144
266.1066531215851	249.5611178614824
