322.3125	41
413.3125	68
452.3125	74
480.3125	58
511.3125	71
516.3125	104
603.3125	129
560.3125	154
540.3125	295
471.3125	252
477.3125	154
413.3125	24
103.3125	20
146.3125	52
187.3125	167
199.3125	70
291.3125	95
176.3125	213
448.3125	459
277.3125	373
475.3125	111
370.3125	113
291.3125	305
253.3125	138
59.3125	21
216.3125	271
575.3125	505
572.3125	420
431.3125	104
