519.921875	130
516.921875	107
512.921875	68
481.921875	62
413.921875	26
330.921875	23
309.921875	50
405.921875	72
455.921875	76
552.921875	156
600.921875	136
480.921875	154
475.921875	114
474.921875	222
520.921875	237
430.921875	144
396.921875	155
434.921875	105
413.921875	109
328.921875	94
289.921875	103
326.921875	65
187.921875	169
146.921875	57
122.921875	28
97.921875	24
179.921875	45
250.921875	138
307.921875	368
283.921875	374
114.921875	72
198.921875	73
566.921875	140
504.921875	219
321.921875	384
358.921875	323
179.921875	216
540.921875	299
471.921875	262
304.921875	16
215.921875	91
200.921875	245
164.921875	219
