519.6535834312967	72.9809533614743
484.56658491041503	60.34963451044991
455.0935061528744	78.59487285081849
418.6030276911574	72.9809533614743
469.1283055612271	223.15329970143105
467.7248256203918	252.62637702048795
478.95266514707396	152.97930608462883
428.4273872770043	140.34798723360444
317.5524719510182	43.50787604241738
328.7803114777003	32.28003706372902
313.3420321285124	15.438278595696488
285.27243331180705	96.84011119118706
182.81839763083252	168.41758468032532
202.46711680252628	70.17399361680222
146.32791916911557	54.73571502110573
359.6568701760762	318.5899310202821
561.7579816563547	161.4001853186451
