515.6677479829607	69.56792223572296
484.7486742833212	59.62964763061969
452.7253479515518	79.50619684082625
412.97225319487245	73.98493317132443
331.2575584172539	27.606318347509113
313.58951630317426	46.37861482381531
605.1122111854891	128.09331713244228
483.64442165119124	151.28262454434994
470.3933900656315	221.95479951397326
357.7596215883735	318.024787363305
308.0682531425243	13.251032806804375
199.85149519378626	66.25516403402187
144.63886358728723	56.31688942891859
189.91322150461644	167.8464155528554
