264.05317748054387	8.516976060007106
84.66786516208236	147.20062986151183
128.38361354221163	251.21337021264037
357.51443263806163	115.54457845029879
512.7807113674862	257.24309429096667
377.111147429154	530.0881088352314
383.14090582641325	403.46390319037926
416.3045770113389	224.07961186017204
478.1096005832458	144.18576782234868
185.66631831617414	106.49999233280936
114.81665714837841	111.02228539155408
101.24970075454519	74.84394092159631
463.0352045900978	11.531838099170253
313.79868425793234	38.665596451638564
438.91617100106095	56.754768686617446
245.96390228876623	133.63375068527768
43.966995980582695	181.87154331188802
453.99056699420896	536.1178329135577
280.6350130730067	404.9713342099608
265.5606170798587	463.76114397364216
268.5754962784883	50.72504460829115
339.425157446284	151.72292292025654
491.67655697707903	471.29829907155005
327.36564065176555	498.43205742401835
239.934143891507	432.10509256242915
496.19887577502345	53.7399066474543
521.8253489633751	118.55944048946193
603.2270873263744	160.76750903774598
395.20042262093165	43.187889510383286
423.84177500791293	106.49999233280936
443.43848979900537	148.7080608810934
346.962355442858	355.2261105637689
377.111147429154	255.73566327138508
597.1973289291152	270.8099734672008
429.8715334051721	347.68895546586106
422.3343354085981	403.46390319037926
500.7211945729678	386.88216197498195
60.548831573045526	350.7038175050242
369.57394943258004	20.57642421665969
51.50419397715671	245.18364613431407
