509.3125	256
486.3125	59
501.3125	89
518.3125	119
547.3125	122
263.3125	8
334.3125	24
307.3125	45
267.3125	61
288.3125	148
299.3125	174
351.3125	118
335.3125	156
160.3125	64
183.3125	104
247.3125	139
89.3125	152
31.3125	163
49.3125	189
43.3125	248
83.3125	248
123.3125	256
60.3125	360
316.3125	328
342.3125	352
382.3125	408
265.3125	464
233.3125	435
211.3125	484
381.3125	540
463.3125	542
336.3125	203
382.3125	263
168.3125	294
71.3125	310
159.3125	336
398.3125	81
479.3125	137
437.3125	50
94.3125	28
139.3125	37
279.3125	414
287.3125	369
