337.907855007763	22.354521318132125
308.1018272897473	45.773543651413405
274.03779561201503	54.28955177260659
263.39278571272376	9.58050913634234
249.554272843645	131.99812587849445
249.554272843645	114.96610963610807
287.87630848109376	112.83710760580978
353.8753698567	119.22411369670468
436.9064470711723	140.51413399968766
396.45540945386523	81.96657816648447
486.9379935978415	59.61205684835234
439.0354490510305	51.09604872715914
464.5834728093297	19.16101827268468
189.9422174076136	103.25659846946745
117.55615009243263	113.90160862095892
87.75012237441693	152.22364516632828
127.13665900179483	254.41574262064657
88.81462336434606	244.83523348430424
114.36264712264524	277.83476495392784
286.81180749116464	154.35264719662658
266.5862886825111	167.12665937841638
300.65032036024337	210.7712009995315
297.4568173904561	176.7071685147587
332.58535005811734	199.06168983289083
369.84288470563695	225.67421521161955
370.90738569556606	194.80368577229424
386.8749005445031	211.83570201468063
415.61642727258965	221.41621115102296
510.3570153762824	250.15773856004998
479.4864866683376	137.32063095424022
423.06793420209357	119.22411369670468
470.9704787489045	116.03061065125723
465.64797379925886	92.61158831797596
503.9700094367076	88.35358425737935
525.2600292352903	118.15961268155553
561.4530628928808	87.2890832422302
489.06699557769974	15.967515227237232
605.0976034799752	9.58050913634234
593.3880925907547	65.99906293924722
594.4525935806838	100.06309542401999
495.45400151727455	307.64079337810404
482.67998963812494	331.0598157113853
432.6484431114558	353.4143370295174
418.80993024237705	311.8987974387006
404.9714173732983	342.76932687802594
374.10088866535347	266.1252537872872
264.4572867026529	267.18975480243637
163.3296926593853	68.12806496954553
101.58863524349564	76.64407309073871
71.78260752547995	58.54755583320319
35.589573867889456	63.87006090894893
40.91207881753512	103.25659846946743
10.041550109590284	109.64360456036233
7.912548129732021	72.38606903014212
10.041550109590284	34.06403248477277
17.49305703909421	6.387006090894893
57.944094656401234	7.451507106044042
90.94362534420434	23.419022333281276
123.94315603200742	37.25753553022021
181.42620948818058	11.709511166640638
166.5231956291727	38.32203654536936
255.94127878321981	37.25753553022021
412.42292430280224	19.16101827268468
410.29392232294396	50.031547712009996
373.03638767542435	22.354521318132125
184.61971245796795	239.5127284085585
7.912548129732021	226.7387162267687
46.23458376718078	186.28767765110106
34.525072877960326	170.32016242386382
17.49305703909421	205.44869592378572
49.428086736968176	310.83429642355145
52.62158970675557	300.18928627206
79.23411445498388	314.0277994689989
62.20209861611776	362.99484616585977
125.00765702193655	397.05887865063255
97.33063128377913	310.83429642355145
134.58816593129876	312.96329845384975
158.00718770973967	342.76932687802594
203.78073027669234	285.2862720599719
203.78073027669234	257.609245666094
169.7166985989601	301.25378728720915
236.78026096449543	268.25425581758554
280.42480155158984	253.35124160549742
550.8080529935894	116.03061065125723
611.48460941955	130.9336248633453
599.7750985303295	170.32016242386382
610.4201084296208	237.3837263782602
604.0331024900461	274.64126190848043
460.3254688496132	276.7702639387787
415.61642727258965	287.4152740902702
258.0702807630781	306.57629236295486
315.55333421925127	316.15680149929716
316.6178352091803	335.3178197719819
320.87583916889685	364.0593471810089
338.97235599769215	391.7363735748868
343.23035995740867	352.3498360143683
294.26331442066856	367.25285022645636
283.61830452137724	410.89739184757144
249.554272843645	399.18788068093085
260.19928274293636	322.5438075901921
286.81180749116464	333.1888177416836
271.9087936321568	349.1563329689208
381.5523955948574	541.8310167109167
458.19646686975494	535.4440106200219
373.03638767542435	374.7043573325004
376.22989064521175	405.57488677182573
424.1324351920227	399.18788068093085
392.1974054941487	452.4129314383883
428.3904391517392	435.38091519600187
464.5834728093297	403.44588474152744
497.58300349713284	390.67187255973766
468.84147676904627	380.02686240824613
175.03920354860577	440.70342027174763
175.03920354860577	416.2198969233172
213.36123918605452	401.31688271122914
166.5231956291727	388.5428705294393
144.16867484066094	378.962361393097
211.23223720619626	493.92847102920507
239.97376393428283	438.57441824144934
263.39278571272376	465.18694362017806
259.1347817530072	501.37997813524913
327.26284510847165	504.57348118069655
227.19975205513325	446.0259253474934
147.36217781044834	426.8649070748087
224.00624908534584	369.38185225675466
215.49024116591278	332.12431672653446
210.16773621626712	335.3178197719819
333.64985104804646	152.22364516632828
54.75059168661384	80.90207715133532
507.163512406495	450.28392940809
481.6154886481958	446.0259253474934
489.06699557769974	475.83195377166953
530.5825341849359	419.4133999687647
545.4855480439437	468.3804466656255
568.9045698223847	477.9609558019678
583.8075836813925	436.44541621115104
562.5175638828099	409.8328908324223
548.6790510137312	367.25285022645636
523.131027255432	307.64079337810404
548.6790510137312	306.57629236295486
572.098072792172	317.2213025144464
600.8395995202586	343.8338278931751
551.8725539835185	331.0598157113853
578.4850787317469	349.1563329689208
583.8075836813925	380.02686240824613
594.4525935806838	409.8328908324223
595.5170945706129	467.31594565047635
495.45400151727455	503.5089801655474
479.4864866683376	566.3145400593472
247.42527086378675	251.22223957519913
590.1945896209673	516.2829923473372
580.6140807116051	533.3150085897236
588.065587641109	558.8630329533031
615.7426133792665	522.6699984382321
611.48460941955	570.5725441199438
610.4201084296208	545.0245197563643
48.363585747039046	245.8997344994534
64.33110059597603	258.6737466812432
