304.71143550403144	42.76373343622666
333.32898748568283	18.91577358336846
271.3242915254381	53.495315370012854
130.62132761565198	251.43338214873592
117.50494962406175	281.2433319648087
93.65698963935223	73.76608124494233
184.2792375812484	101.19123507572925
286.8254655154993	111.92281700951544
354.7921514719214	117.88480697273
332.13658948644735	153.6567467520173
252.2459235376705	133.38598087708783
45.96106966993321	188.23628853866168
45.96106966993321	6.991793656939358
73.38622365234914	55.88011135529867
62.65464165922987	362.32639546452657
94.84938763858771	309.86088378823854
500.26470737864946	86.88245916401434
427.5284294252854	49.918121392084124
407.25766343828235	18.91577358336846
392.9488874474566	45.14852942151248
395.3336834459276	78.53567321551397
417.9892454314016	113.11521500215835
432.29802142222735	141.7327668255882
477.6091453931754	136.96317485501655
510.99628937176874	253.81817813402174
494.30271738247205	306.2836898103098
499.072309379414	386.17435531738477
533.6518513572428	414.7919071408146
589.6945573213101	456.52583688331646
84.11780564546844	152.4643487593744
42.38387567222678	241.89419820759264
317.8278134956217	324.16965969995346
333.32898748568283	352.7872115233833
376.25531545816	406.4451211923142
431.10562342299187	432.67787703045826
452.5687874092304	542.378492353606
261.78510753155433	464.87262283181684
277.2862815216155	415.9843051334575
231.9751575506674	442.21706097160154
206.93479956672243	396.90593725117094
199.78041157130957	282.4357299574516
211.70439156366433	483.9509907141034
326.17459949027	501.83696060374706
379.8325094558664	538.8012983756772
257.0155155346124	499.4521646184612
158.0464815980679	339.67083360431127
167.58566559195174	296.7445058691665
175.93245158660005	238.31700422966392
113.92775562635532	113.11521500215835
90.0797956416458	26.07016153922592
371.4857234612181	260.9725660898792
413.2196534344597	221.62343233266319
547.9606273480684	122.65439894330164
556.3074133427168	82.1128671934427
460.91557340387874	89.26725514930015
332.13658948644735	197.77547247980496
257.0155155346124	33.22454949508338
474.031951395469	443.40945896424444
507.4190953740623	450.5638469201019
397.71847944439855	455.33343889067356
367.9085294635116	369.480783420384
458.5307774054078	282.4357299574516
413.2196534344597	398.0983352438139
477.6091453931754	326.55445568523925
485.95593138782374	580.5352281181791
483.5711353893528	506.6065525743187
600.4261393144294	159.61873671523185
298.74944550785403	176.31230861223258
303.51903750479596	210.89185039887698
274.9014855231445	157.23394072994603
290.4026595132057	369.480783420384
248.66872953996406	396.90593725117094
25.69030368293012	163.1959306931606
