308.171875	40
184.171875	160
284.171875	173
256.171875	207
467.171875	232
556.171875	288
288.171875	368
249.171875	345
348.171875	388
438.171875	505
440.171875	557
527.171875	503
540.171875	572
296.171875	200
453.171875	436
