375.84375	67
299.84375	49
322.84375	29
446.84375	105
526.84375	116
550.84375	289
464.84375	228
537.84375	188
515.84375	228
577.84375	303
456.84375	291
390.84375	319
455.84375	424
443.84375	462
403.84375	474
495.84375	448
444.84375	511
479.84375	530
515.84375	506
536.84375	573
560.84375	571
351.84375	196
288.84375	168
608.84375	230
586.84375	363
285.84375	373
351.84375	382
