490.234375	418
463.234375	95
454.234375	67
510.234375	15
544.234375	100
519.234375	98
537.234375	144
592.234375	116
374.234375	82
335.234375	63
180.234375	65
185.234375	102
269.234375	62
63.234375	114
10.234375	76
76.234375	28
136.234375	66
105.234375	172
248.234375	158
340.234375	105
364.234375	121
320.234375	171
351.234375	242
393.234375	163
465.234375	131
538.234375	37
538.234375	164
459.234375	184
423.234375	232
242.234375	297
273.234375	255
196.234375	236
238.234375	192
157.234375	222
206.234375	182
239.234375	357
155.234375	361
131.234375	266
79.234375	254
78.234375	205
594.234375	217
486.234375	193
492.234375	279
461.234375	331
547.234375	378
314.234375	376
393.234375	340
430.234375	283
461.234375	425
498.234375	138
300.234375	165
