315.30612385724714	114.03714743071721
211.29279150452578	52.232475627872724
233.9043854942478	114.03714743071721
268.5754962784883	157.75264699858283
547.4518221517267	103.48513029364621
511.27327176817147	31.1284413537307
561.0187785455599	19.068993197078118
447.96080859694973	332.6146452700453
313.79868425793234	261.7653873497114
268.5754962784883	255.73566327138508
340.93259704559875	319.04776609381116
597.1973289291152	139.66347476360397
541.4220637544676	377.8375758574925
571.5708557407636	401.95647217079767
408.7673790147649	397.43417911205296
419.3194562099685	438.13481664075545
346.962355442858	445.6719717386633
362.036751436006	368.79298974000307
425.34921460722774	353.71867954418735
387.66322462435767	117.05200946988036
312.29124465861753	22.083855236241263
589.6601309325412	332.6146452700453
551.9741409496711	420.04564440577656
497.70631537433826	97.45540621531991
349.9772346414876	239.15392205598778
318.32100305587676	67.30678582368846
392.1855434223021	7.009545040425533
449.46824819626454	10.024407079588679
532.3774261585787	62.784492764943735
173.6068015216557	25.09871727540441
247.47134188808104	13.039269118751825
603.2270873263744	252.72080123222193
539.9146241551528	334.1220762896269
478.1096005832458	401.95647217079767
466.05008378872736	484.8651782477842
328.87308025108035	398.94161013163455
292.6945298675251	308.49574895674016
181.14399951822972	141.17090578318553
144.96544913467446	49.217613588709575
466.05008378872736	127.60402660695138
521.8253489633751	157.75264699858283
405.7524998161353	484.8651782477842
601.7196477270596	487.88004028694735
401.2301810181909	269.30254244761926
360.5293118366912	294.928869780506
506.75095297022705	340.1518003679532
464.5426441894126	365.7781277008399
