595.921875	467
573.921875	440
500.921875	399
530.921875	364
555.921875	311
519.921875	291
590.921875	259
578.921875	214
546.921875	225
536.921875	144
570.921875	107
496.921875	47
436.921875	143
331.921875	80
259.921875	60
279.921875	20
249.921875	23
423.921875	31
403.921875	65
198.921875	156
238.921875	171
209.921875	208
247.921875	220
453.921875	232
446.921875	198
403.921875	255
486.921875	370
483.921875	449
557.921875	483
445.921875	423
375.921875	344
327.921875	314
498.921875	249
471.921875	327
412.921875	146
312.921875	192
272.921875	126
359.921875	85
388.921875	108
401.921875	336
468.921875	532
591.921875	512
510.921875	449
491.921875	338
347.921875	228
223.921875	190
291.921875	308
229.921875	216
258.921875	243
382.921875	131
488.921875	176
414.921875	365
398.921875	413
384.921875	440
466.921875	36
453.921875	102
301.921875	96
375.921875	233
288.921875	272
501.921875	162
568.921875	267
392.921875	315
414.921875	395
