248.4375	16
274.4375	19
420.4375	25
409.4375	58
463.4375	33
504.4375	45
567.4375	93
439.4375	132
458.4375	97
580.4375	209
598.4375	247
571.4375	261
531.4375	289
489.4375	178
461.4375	325
499.4375	329
511.4375	393
487.4375	369
521.4375	360
597.4375	461
582.4375	428
592.4375	510
615.4375	512
561.4375	480
556.4375	550
612.4375	576
256.4375	59
303.4375	89
331.4375	72
359.4375	87
271.4375	119
164.4375	115
197.4375	141
307.4375	186
267.4375	236
287.4375	274
379.4375	340
436.4375	413
476.4375	448
510.4375	438
469.4375	417
373.4375	467
405.4375	332
291.4375	374
288.4375	300
331.4375	307
407.4375	139
450.4375	222
446.4375	198
500.4375	240
463.4375	527
