437.265811101732	133.6145808019441
408.55524266635257	143.5528554070474
451.6210953194218	96.06998784933171
567.5676216930698	93.86148238153099
596.2781901284492	248.456865127582
568.6718743251997	260.603645200486
499.10395850101094	240.72709599027945
532.2315374649104	287.1057108140948
526.7102743042605	357.7778857837181
505.7294742937908	399.73948967193195
489.1656848118411	364.40340218712026
579.7144006464995	430.65856622114217
601.7994532890991	458.26488456865127
563.1506111645498	474.82867557715673
592.9654322320592	512.3732685297691
469.2891374335015	452.74362089914945
505.7294742937908	443.9095990279465
440.57856899812197	419.6160388821385
464.87212690498154	527.8328068043743
460.45511637646166	330.171567436209
374.3234110703232	340.1098420413123
384.261684759493	435.07557715674363
292.6087162927046	369.9246658566221
289.2959583963147	306.98226002430135
308.0682531425243	191.03572296476307
239.60458995046557	209.80801944106926
194.33023203313635	149.0741190765492
257.27263206454523	62.94240583232078
246.23010574324545	7.729769137302552
273.83642154649493	17.668043742405832
304.7554952461344	92.75722964763062
268.31515838584505	122.57205346294046
325.736295256604	78.40194410692588
372.1149058060632	471.5159173754557
579.7144006464995	210.91227217496962
291.50446366057463	274.9589307411908
