465.64797379925886	526.9280024988287
475.228482708621	452.4129314383883
505.03451042663676	400.25238169607996
521.0020252755737	362.99484616585977
505.03451042663676	440.70342027174763
561.4530628928808	480.0899578322661
386.8749005445031	125.61111978759956
386.8749005445031	100.06309542401999
498.64750448706195	242.70623145400594
464.5834728093297	329.99531469623616
440.0999500409597	418.3488989536155
396.45540945386523	411.9618928627206
374.10088866535347	343.8338278931751
307.0373262998182	192.67468374199595
269.7797916522985	122.41761674215212
302.7793223401016	90.48258628767765
258.0702807630781	58.54755583320319
324.06934213868425	75.57957207558957
199.52272631697582	149.03014212088084
234.65125898463717	162.8686553178198
343.23035995740867	382.1558644385444
381.5523955948574	437.50991722630016
565.7110668525972	97.9340933937217
610.4201084296208	161.80415430267064
410.29392232294396	139.4496329845385
599.7750985303295	465.18694362017806
584.8720846713217	431.1229111354053
525.2600292352903	288.4797751054193
597.6460965504713	254.41574262064657
447.5514569704636	224.6097141964704
276.1667975918733	17.032016242386383
249.554272843645	17.032016242386383
587.0010866511799	216.09370607527723
499.71200547699107	56.41855380290489
492.26049854748715	341.7048258628768
485.87349260791234	369.38185225675466
320.87583916889685	310.83429642355145
288.94080947102293	306.57629236295486
202.7162292867632	199.06168983289083
373.03638767542435	469.44494768077465
614.6781123893373	579.088552241137
613.6136113994082	540.7665156957677
612.5491104094791	508.83148524129314
549.7435520036603	137.32063095424022
293.19881343073945	267.18975480243637
239.97376393428283	209.70669998438234
345.3593619372669	233.12572231766362
441.1644510308888	193.7391847571451
571.0335718022429	262.9317507418398
257.00577977314896	244.83523348430424
293.19881343073945	373.63985631735125
402.84241539344004	339.57582383257846
409.22942133301484	253.35124160549742
418.80993024237705	27.67702639387787
488.0024945877706	175.64266749960956
413.48742529273136	371.51085428705295
418.80993024237705	402.38138372637826
345.3593619372669	202.25519287833828
