453.7611854084659	99.99884488813456
397.71847944439855	141.7327746306364
400.10327544286946	194.19828630692444
519.3430753664171	291.9749217036431
344.0605694788021	271.7041558287136
303.51903750479596	231.16262407885466
270.13189352620265	225.20063411564013
181.89444158277743	196.58308229221026
267.7470975277317	32.03215930748868
284.44066951702837	85.69006897641964
260.59270953231885	131.0011926968502
297.55704750861855	135.77078466742185
304.71143550403144	165.5807344834946
308.2886295017379	201.35267426278193
355.98454947115687	200.160276270139
370.2933254619826	367.0959952401464
390.56409144898566	395.71354706357624
447.7991954122885	379.01997516657553
309.4810275009733	349.21002535050275
262.97750553078976	324.16966750500166
390.56409144898566	517.3381423131531
509.80389137253326	436.2550788134352
513.3810853702397	524.4925302690106
575.3857813304844	487.52819249708034
582.5401693258973	451.756252717793
446.606797413053	344.4404333799311
575.3857813304844	628.2311556289437
218.8587795590772	22.4929753663454
317.8278134956217	10.568995439916302
496.687513380943	249.04859396849832
462.1079714031142	610.3451857393001
301.13424150632505	384.98196512979007
