235.18757942194563	232.99732685297693
197.6429899295263	108.21676792223572
157.88989517284702	108.21676792223572
249.54286363963539	92.75722964763062
265.00240048945506	115.94653705953827
343.4043373706837	68.4636695018226
315.7980215674342	87.2359659781288
267.21090575371505	135.82308626974483
298.1299794533545	280.4801944106926
320.21503209595414	249.5611178614824
440.57856899812197	35.336087484811664
443.8913268945119	177.7846901579587
400.8254742414427	136.9273390036452
430.64029530895215	206.49526123936818
467.08063216924154	204.28675577156744
512.3549900865708	166.74216281895505
555.42084273964	142.44860267314704
580.8186532786295	126.98906439854193
605.1122111854891	194.34848116646415
569.7761269573297	185.51445929526125
552.10808484325	242.93560145808019
562.0463585324198	299.25249088699877
531.1272848327803	308.0865127582017
459.35086374433166	268.33341433778855
306.9640005103944	331.27582017010934
364.38513738115336	427.34580801944105
433.9530532053421	397.53098420413124
506.8337269259208	404.1565006075334
565.3591164288098	399.73948967193195
581.9229059107595	471.5159173754557
420.70202161978233	471.5159173754557
214.20677941147602	23.189307411907656
