382.5864348718854	68.17048776734883
131.92880035449116	121.6581012463456
344.830473187257	229.68210493922143
372.0986677372664	281.07216494845363
312.31839506993805	311.48669026004
265.1234429641525	366.0230804739191
494.80554321230875	285.26727188798276
555.634592593099	226.53577473457457
604.9270981258084	300.9989229112171
572.4150200084894	319.8769041390983
549.3419323123276	304.145253115864
532.5615048969372	343.99876904139103
589.1954474238798	340.8524388367441
571.3662432950275	477.1934143714418
558.7809227334847	411.12048007385755
508.43964048731345	500.26650253885214
458.09835824114225	498.1689490690876
59.56320712562	33.56085551623327
198.00173330259088	339.80366210186185
225.2699278526003	334.5597784274504
231.56258813337172	403.7790429296815
311.26961835647614	438.38867518079707
415.0985129892043	226.53577473457457
188.5627428814338	287.36482535774735
405.65952256804724	402.73026619479924
397.269308860352	491.87628865979383
390.9766485795806	208.70657024157563
