459.35086374433166	495.80947752126366
401.9297268735727	491.3924665856622
364.38513738115336	493.60097205346295
406.3467374020926	406.3650060753341
313.58951630317426	435.07557715674363
537.7528006255602	351.1523693803159
594.0696848641893	335.6928311057108
575.2973901179796	309.19076549210206
544.3783164183401	311.39927095990276
560.9421059002898	229.6845686512758
495.791200604621	274.9589307411908
383.157432127363	61.83815309842041
512.3549900865708	501.3307411907655
186.6004636082265	119.25929526123937
340.0915794742938	230.7888213851762
294.81722155696457	58.52539489671932
231.87482152555572	403.052247873633
272.73216891436505	365.5076549210206
312.4852636710442	310.2950182260024
374.32341107032323	283.79295261239366
