366.5	111.48333740234375
340.5	116.48333740234375
292.5	108.48333740234375
322.5	39.48333740234375
424.5	53.48333740234375
455.5	89.48333740234375
495.5	60.48333740234375
511.5	89.48333740234375
477.5	112.48333740234375
432.5	125.48333740234375
438.5	149.48333740234375
425.5	176.48333740234375
408.5	196.48333740234375
424.5	217.48333740234375
407.5	231.48333740234375
390.5	215.48333740234375
363.5	193.48333740234375
337.5	205.48333740234375
353.5	241.48333740234375
275.5	162.48333740234375
284.5	193.48333740234375
237.5	211.48333740234375
235.5	255.48333740234375
179.5	242.48333740234375
261.5	251.48333740234375
264.5	277.48333740234375
290.5	273.48333740234375
225.5	321.48333740234375
281.5	338.48333740234375
281.5	369.48333740234375
286.5	439.48333740234375
335.5	358.48333740234375
340.5	381.48333740234375
357.5	346.48333740234375
338.5	316.48333740234375
380.5	306.48333740234375
453.5	238.48333740234375
486.5	235.48333740234375
516.5	212.48333740234375
579.5	168.48333740234375
565.5	189.48333740234375
562.5	253.48333740234375
535.5	276.48333740234375
513.5	292.48333740234375
514.5	255.48333740234375
473.5	321.48333740234375
468.5	276.48333740234375
437.5	314.48333740234375
415.5	340.48333740234375
601.5	339.48333740234375
591.5	370.48333740234375
587.5	406.48333740234375
607.5	438.48333740234375
536.5	404.48333740234375
522.5	442.48333740234375
500.5	452.48333740234375
488.5	483.48333740234375
476.5	402.48333740234375
462.5	421.48333740234375
455.5	378.48333740234375
426.5	391.48333740234375
348.5	433.48333740234375
436.5	544.4833374023438
509.5	575.4833374023438
494.5	542.4833374023438
473.5	567.4833374023438
452.5	536.4833374023438
338.5	533.4833374023438
502.5	613.4833374023438
