453.25331336850724	531.3499656183991
344.86343032331257	444.28225512242574
335.97901368026385	527.7961815165227
510.11357988401915	579.3260509937313
463.9146133401657	568.6646986881019
510.11357988401915	621.9714602162489
581.188913028409	609.5332158596813
524.3286465128971	435.39779486773455
485.2372132834827	408.7444141036611
424.82318011075125	438.95157896961103
503.0060465695802	451.38982332617866
575.8582630425798	406.96752205272287
607.8421629575553	451.38982332617866
609.619046286165	524.2423974146461
476.35279664043395	334.11494796425535
424.82318011075125	335.89184001519357
337.7558970088736	383.86792539052584
231.14289729228872	325.23048770956416
321.76394705138586	35.59708340663238
289.7800471364104	108.44965749509988
240.02731393533747	216.84007260233204
172.50574744816706	215.0631805513938
295.1106971222396	268.36994207954075
277.3418638361422	161.75641902324685
403.5005801674343	227.50142490796142
442.5920133968487	115.55722569885282
421.26941345353174	191.9635838891968
439.03824673962924	51.58911186507646
487.01409661209243	71.13492442539702
481.68344662626316	115.55722569885282
510.11357988401915	24.935731101002986
552.7587797706531	72.91181647633525
586.5195630142383	179.52533953262918
515.4442298698484	218.61696465327026
561.6431964137018	39.15086750850884
417.7156467963122	282.58507848704664
382.1779802241173	311.0153513020583
360.8553802808003	353.6607605245759
566.9738463995311	268.36994207954075
595.4039796572871	358.9914366773906
