378.6185870284688	255.73566327138508
366.5590702339504	28.113579314567556
152.50264713124847	80.87366499992261
163.0547243264521	150.21549190067498
469.064962987357	310.0031799763217
551.9741409496711	147.20062986151183
518.8104697647454	109.5148543719725
274.60525467574746	166.79723311607228
208.27791230589617	282.8694216238534
405.7524998161353	270.8099734672008
