544.989784908628	151.00095075774746
587.9161128811052	142.6541648092471
518.7570289254476	117.61380696374599
372.09207501948407	253.54717812503773
406.67161699731287	275.0103419926101
206.34875312575295	278.58753597053885
275.50783708141057	174.84891061060566
138.38206716933084	239.23840221332281
163.42242515327584	156.96294072096202
155.0756391586275	77.07227521388704
509.2178449315638	321.5138637056836
575.9921328887505	279.77993396318175
449.59794496979	552.8390742784081
424.55758698584503	585.0338200797668
499.67866093768	500.3735626021201
109.76451518767944	141.46176681660418
181.30839514180798	62.763499302172114
306.5101850615329	246.39279016918027
273.1230410829396	264.27876005882393
252.8522750959365	284.5495259337534
350.6289110332455	307.2050877939687
286.23941907452985	382.326161330472
187.27038513798536	272.6255460073243
150.3060471616856	306.0126898013258
498.4862629384445	352.5162115143993
469.8687109567931	315.55187374246907
372.09207501948407	571.9174421606947
608.1868788681082	246.39279016918027
