325.1561789180712	136.1070434014807
361.26620844576934	193.04978604903891
439.041656659273	215.2713441554031
384.8766123677258	229.15981797188073
434.8751147906924	270.8252394213136
486.26246450318587	258.32561298648375
479.31822805555163	313.8795082523942
565.4267600062163	286.102560619439
565.4267600062163	340.2676085037017
544.5940506633136	366.6557087550092
436.26396208021924	336.10106635875843
458.48551871264885	362.4891666100659
359.8773611562425	326.3791346872241
318.21194247043695	272.2140868029614
411.26471086873596	290.2691027643823
276.54652378463146	265.26984989472254
200.1599228606547	169.43938056102698
215.43724304545003	254.15907084154045
157.10565688532236	105.5524010052299
161.27219875390287	183.3278543775046
134.88410025289272	104.16355362358216
207.10415930828893	84.71969028051349
204.32646472923523	72.22006384568363
212.65954846639633	47.22081097602391
247.3807307045676	18.055015961420906
69.60827764513076	62.49813217414929
47.386721012701145	18.055015961420906
72.38597222418446	102.7747062419344
83.49675054039926	162.49514365278816
130.71755838431216	247.21483393330163
187.66029725491302	323.6014399239286
211.2707011768695	345.82299803029275
247.3807307045676	377.7664878081913
298.76808041706107	384.7107247164301
383.48776507819895	409.7099775860898
482.0959226346053	431.931535692454
512.650563004196	423.59845140256743
525.1501886099377	386.09957209807783
