102.171875	9
45.171875	15
69.171875	65
12.171875	81
72.171875	101
203.171875	78
146.171875	102
324.171875	138
199.171875	172
80.171875	163
428.171875	133
361.171875	204
278.171875	265
207.171875	249
361.171875	326
412.171875	285
179.171875	291
182.171875	322
566.171875	283
