569.7761269573297	346.73535844471445
562.0463585324198	286.0014580801944
357.7596215883735	327.9630619684083
407.45099003422257	287.1057108140948
488.0614321797111	310.2950182260024
492.47844270823106	269.43766707168896
438.370063733862	218.64204131227217
382.05317949523305	228.58031591737546
361.0723794847634	194.34848116646415
319.11077946382414	276.06318347509114
276.04492681075493	266.12490886998785
327.94480052086396	136.9273390036452
197.6429899295263	172.26342648845687
199.85149519378626	77.29769137302551
244.02160047898548	14.355285540704738
156.78564254071702	103.79975698663426
132.49208463385747	100.48699878493316
378.74042159884306	408.5735115431349
383.157432127363	319.12904009720535
162.30690570136693	185.51445929526125
125.86656884107758	164.53365735115432
69.54968460244858	101.59125151883353
211.99827414721605	249.5611178614824
130.2835793695975	244.03985419198054
308.0682531425243	354.46512758201703
188.80896887248647	319.12904009720535
175.5579372869267	293.73122721749695
448.30833742303184	433.9713244228432
556.5250953717699	426.2415552855407
542.1698111540802	364.40340218712026
460.45511637646166	372.13317132442285
433.9530532053421	343.42260024301333
250.64711627176536	386.4884568651276
215.311032043606	348.9438639125152
298.1299794533545	385.3842041312272
67.34117933818862	64.04665856622114
51.8816424883689	23.189307411907656
105.99002146273793	9.938274605103281
297.0257268212245	445.0138517618469
