367.234375	323
359.234375	200
327.234375	144
244.234375	15
203.234375	49
199.234375	88
162.234375	110
137.234375	101
68.234375	105
66.234375	62
21.234375	83
89.234375	134
84.234375	167
156.234375	183
200.234375	180
428.234375	131
304.234375	199
188.234375	228
133.234375	246
187.234375	322
205.234375	261
184.234375	291
280.234375	269
380.234375	236
436.234375	221
438.234375	266
410.234375	283
486.234375	275
567.234375	292
573.234375	245
485.234375	310
437.234375	339
383.234375	397
393.234375	430
332.234375	413
301.234375	384
215.234375	352
251.234375	378
216.234375	286
323.234375	271
294.234375	440
364.234375	511
513.234375	418
515.234375	387
548.234375	357
480.234375	538
353.234375	459
262.234375	442
70.234375	196
345.234375	341
461.234375	364
607.234375	172
440.234375	461
438.234375	512
