353.34261105985354	346.73535844471445
306.9640005103944	333.4843256379101
278.25343207501487	339.0055893074119
300.3384847176145	379.8629404617254
344.5085900028137	401.94799513973265
385.365937391623	403.05224787363306
408.55524266635257	453.8478736330498
291.50446366057463	163.42940461725394
396.40846371292275	371.0289185905225
439.474316365992	427.34580801944105
588.5484217035394	523.4157958687728
