575.5591307813721	291.20646172090557
563.7009753251913	235.86840145477774
355.52446842779625	112.01655228772975
355.52446842779625	36.91489906941342
260.6592247783504	3.975577482432573
218.49689426748557	23.739170434621084
205.3211659828403	63.2663563389981
148.66553435886573	88.30024074510355
119.67893213264615	69.85422065639428
109.13834950492995	7.928296072870275
258.0240791214214	209.51694418519307
254.07136063602778	349.1796677139919
144.71281587347212	187.11820550604608
113.09106799032352	193.70606982344225
60.388154851742485	220.05752709302695
525.4913632997201	144.9558738747106
551.8428198690106	35.59732620593419
400.32194459559014	350.4972405774711
426.67340116488066	364.99054207574267
496.5047610735005	280.6658788130717
301.5039824607507	380.80141643749346
167.11155395736907	278.03073308611323
119.67893213264615	267.49015017827935
97.28019404874921	238.50354718173622
447.75456642031304	112.01655228772975
478.05874147499713	69.85422065639428
60.388154851742485	61.948783475518866
314.67971074539594	447.9976324749344
424.0382555079516	494.11268269670757
359.4771869131898	370.2608335296596
358.1596140847253	474.34908974451906
