525.3050471680449	142.9251726232793
353.5997352781364	34.4169552927745
260.5926913377693	10.568995439916302
212.89677136835024	29.647363322202864
110.35054343409935	10.568995439916302
45.96105147538366	58.264915145632706
150.8920754081055	86.88246696906255
117.5049314295122	72.57369105734763
137.7756974165153	189.4286943363528
104.38855343792197	197.7754802848532
49.538245473090086	216.85384816713974
42.38385747767723	272.8965538213565
133.00610541957337	339.67084140935947
128.23651342263148	260.97257389492745
166.39324939816672	283.6281357551427
259.4002933385338	213.27665418921103
252.24590534312097	348.01762735785985
284.4406513224788	438.63987479872105
311.86580530489476	456.52584468836466
363.1389192720202	475.6042125706512
420.374023235323	499.45217242350947
435.8751972253842	534.0317142101538
443.02958522079706	568.6112559967983
565.846579142051	582.9200319085131
602.8109171183509	584.112429901156
218.85876136452762	420.7539049090774
401.29565524755543	344.4404333799311
425.14361523226495	367.0959952401464
561.0769871451091	233.54742006414048
545.575813155048	34.4169552927745
10.18911149831939	60.649711130918526
38.80666347997081	244.27900199792668
489.5331071909806	283.6281357551427
416.7968292376166	389.7515571003617
