395.3777710909512	246.83871846034486	5
566.7723228412635	383.7615720458315	5
597.0554307632274	167.4000219127509	5
396.29014444416066	201.08380883414284	6
458.5355225601375	270.291350369964	4
290.5644090547381	198.5237885439451	5
517.6665450009211	234.89755998104107	8
362.15297544797505	191.71374434115927	7
478.8317711409377	349.5981932427213	3
298.603301605846	231.41287822201656	3
380.67882634466724	129.78449107100406	7
502.6375681357987	373.91507241895545	3
490.75325147082367	314.9223590955563	5
170.76176852037958	41.42678411081129	8
603.4622036264032	322.3551168890353	6
516.1717357454431	65.02371786332046	5
438.1771382454835	249.84497853818888	5
588.3592548492315	242.0916647608314	8
417.59899477964166	281.16984877276354	4
535.5341035525047	195.57210259954454	6
437.19796673480107	430.7250303766707	2
578.6436318230278	326.46214202867236	6
517.1595667557403	112.26476306196841	2
434.26879980124687	460.98518758196303	7
598.8169863481774	175.1440461725395	3
432.9820303358454	93.82395851414685	4
378.68137043890897	365.4437396443168	4
560.9383433134551	428.76249921099554	4
171.24198901690517	172.5622706939929	4
356.78849302992677	348.8155528554071	2
429.0390625	340.5	2
233.97896343026486	272.73109808681136	5
472.01174520567554	380.6678747279801	3
396.06869088768883	331.9244985629157	2
143.83403481204607	267.36135249894505	2
162.00266019752985	124.3668458969733	2
101.24930781964505	101.42693351402716	3
297.461671042131	266.76866441700355	2
542.7194273194294	521.3815712206704	2
452.95042697848135	340.175050890786	3
298.11220450105645	33.0487012987013	3
229.078125	149.0	2
170.83134794727192	90.52597402597402	2
307.56186852413884	237.56493506493507	2
536.578125	357.0	2
153.53264652084079	104.10064935064935	2
231.68585329638853	42.438311688311686	2
563.6598818250106	486.8116883116883	2
168.81894589454376	149.37662337662337	1
171.7421875	319.0	2
468.2421875	496.0	2
144.171875	209.0	1
568.3125	445.0	1
419.3125	307.0	1
304.3125	250.0	1
269.3125	279.0	1
174.3125	264.0	1
100.3125	117.0	1
48.3125	116.0	1
96.3125	147.0	1
437.3125	395.0	1
123.3125	294.0	1
181.3125	63.0	1
207.3125	58.0	1
38.3125	171.0	1
250.3125	181.0	1
583.7540172160989	457.81168831168833	1
600.3514200689611	441.2142857142857	1
202.0137516002682	179.80519480519482	1
197.84375	163.0	1
380.234375	250.0	1
200.234375	257.0	1
167.234375	243.0	1
230.234375	189.0	1
389.234375	54.0	1
399.234375	138.0	1
368.234375	114.0	1
349.234375	130.0	1
335.234375	75.0	1
457.234375	161.0	1
298.234375	283.0	1
557.234375	359.0	1
386.234375	482.0	1
377.234375	433.0	1
419.3194562099685	326.584921191719	1
