575.745159356314	241.64621872055108	7
209.26817594080018	484.90411715448295	7
451.7865567444459	482.6000875766581	3
448.9581196034378	395.2529857033909	9
441.6495234628643	179.05315954257838	8
505.8824377978992	27.07715557235248	8
313.493571886025	395.7887068025525	5
568.320954761245	63.70586308002959	6
249.8943570869049	516.5918977813662	7
210.15915847045454	369.73609715195573	7
319.684182914223	105.06312632728924	4
279.0846617068142	220.06977040178225	7
307.6202887559598	142.93721171102018	4
75.81072328905974	88.36852482073249	7
455.47965369371474	313.13724583792646	5
286.3054785410085	440.75652598863417	3
474.0658953074736	158.2924692250151	6
186.32834058229267	399.65658641227094	7
538.2812772440891	57.032473704212315	4
403.4362990411531	443.2283662836186	7
540.5731871722544	444.17082388381505	4
91.44130836718239	392.1529525478735	4
210.91726144424825	13.50338404627238	3
556.8315643281405	128.00693622410284	8
244.54491008737102	329.8639095943753	6
421.3956838620705	301.64945407685207	9
141.1309199534336	245.05695063579896	3
224.78645037408535	126.8124667412697	2
568.4543961860529	445.5000126952945	2
480.16616433764284	394.87456667438323	9
442.1543114327603	20.563408897219162	2
366.36549592066586	8.276713374054175	6
24.371284910490324	43.534235950113754	4
422.34739099661124	123.28393982620162	4
351.61878562234256	381.6012805358363	2
104.1147964225461	337.3821954282138	4
376.51187955729097	42.27442007081514	7
99.8600251985091	12.433210112437802	4
62.92152222089928	365.0555266603716	7
521.9724081275364	309.5340809925633	3
86.8696919811623	145.01637523489467	6
155.7102743396273	273.44664216302215	6
304.13257470352136	360.8363241553312	9
432.1006859978312	511.4106308289951	3
146.60249356133244	28.422371120463165	3
418.85014790617504	253.70443692004184	2
474.80279814650396	265.9248087854245	7
517.6469309861818	455.7679256514973	3
20.418058671770204	251.82719760007697	4
19.987738568862856	114.4006177238077	3
560.2771641860785	208.1462703956687	9
48.71982838375298	326.6434667540918	4
308.0600791221219	201.3633202712383	7
183.77629231248227	337.5769753992139	4
219.56231694509336	163.26682867557716	2
337.5037174695701	259.7168684266507	4
513.3032686404131	189.1079348010283	4
315.28222454230223	237.43878380217052	2
384.642588805993	114.3520706139228	2
227.44877398608145	50.13683727169049	8
115.08107160001444	372.70079325665426	5
368.12669035210894	446.36118496247104	3
532.6103339587763	336.6095781727467	2
568.7752562607573	33.114504899016936	8
452.53024235209705	281.3584297987985	8
56.98684933394763	117.43030029732418	5
408.06600725918076	21.72728920924635	2
243.4724982523748	112.51846140134421	5
346.25734145238744	348.5967811931258	7
502.6633678526638	291.2771328949397	4
277.55940525976985	391.8508261809233	5
238.889144198582	183.09040087717085	4
39.890266182995774	191.93470679088193	2
580.7226411754599	131.70483450668343	3
379.0819076069211	410.8397044292535	2
266.2252873428139	295.9486198599707	3
345.86818146359803	560.4637669842261	2
505.78174696962515	371.26454500208627	3
425.4424336298471	225.5160264327246	5
363.8926623703022	285.5917008857962	5
468.4888554969634	357.8571479130993	3
208.38614168031637	226.36642177176287	2
109.4067898364998	407.03744338591287	3
528.9475170924679	499.1254880524754	2
336.2987131240047	240.10003634004337	2
599.8085099835298	391.12627612211816	3
306.9702217594827	533.9570344205787	3
74.14139949259824	327.9331563329689	3
158.16965734479896	441.8839606434484	3
371.2447294990655	476.88552042832293	3
472.6737398694168	510.9157426206466	2
603.6270902605017	266.7840363289065	4
433.9609403057279	489.52073246915506	3
393.58106999137004	391.63430545637686	3
189.55604570884225	451.6097141964704	2
375.256775036667	262.3595760568643	2
305.0477854209011	482.9819306358036	3
606.9826461550467	103.34476324949613	2
148.94680963508245	344.9491644541621	3
418.42097019999824	29.82446965834097	3
257.398203663507	417.7502696469171	3
465.00875425883316	55.586927280092894	4
406.60289618664916	607.4795408402312	2
491.1506852888499	542.8832578478839	2
350.88058275518927	422.397404723143	3
588.650997765378	23.821047469199492	2
214.82058136866556	408.66877522167505	3
609.1755966395582	72.34437613672876	2
474.83499234423965	474.44822739340935	2
476.10061734423965	319.5784007496486	2
454.4957855262263	132.74672576209247	2
572.9333491043142	495.08408271771964	3
126.234375	360.0	1
429.544972545657	552.673512416055	2
25.142396058575976	86.33203229652565	3
186.234375	326.0	1
539.234375	431.0	1
313.66450683552216	163.37108140947754	2
547.9397394531672	366.8162947167357	2
578.1132539443752	296.73675293009126	2
530.84375	36.0	1
67.171875	412.0	1
272.171875	39.0	1
330.234375	541.0	1
169.38441514945322	232.08401425746536	1
429.38781577228923	460.51117358917134	1
345.61284263494366	29.814823815309843	1
521.1890111436105	341.21409477521263	1
373.2191584381932	374.34167679222355	1
292.13431244081033	113.90160862095892	1
365.58488074592043	112.83710760580978	1
144.16867484066094	426.8649070748087	1
252.7477758134324	226.7387162267687	1
245.2962688839285	261.8672497266906	1
288.94080947102293	250.15773856004998	1
270.8442926422277	255.48024363579572	1
288.94080947102293	272.51225987818214	1
394.326407474007	243.7707324691551	1
503.9700094367076	199.06168983289083	1
462.45447082947146	232.06122130251447	1
489.06699557769974	220.35171013587382	1
493.32499953741626	237.3837263782602	1
606.1621044699043	369.38185225675466	1
604.0331024900461	331.0598157113853	1
572.098072792172	469.44494768077465	1
5.783546149873756	51.09604872715914	1
188.8777164176845	7.451507106044042	1
301.7148213501725	32.99953146962361	1
315.5533342192512	77.70857410588786	1
321.940340158826	54.28955177260659	1
38.78307683767685	288.4797751054193	1
4.719045159944624	168.19116039356553	1
511.42151636621134	522.6699984382319	1
463.5189718194006	542.8955177260659	1
351.7463678768417	572.701546150242	1
397.5199104437944	579.088552241137	1
378.35889262507	593.9915664532251	1
615.7426133792665	201.19069186318913	1
69.65360554562169	203.31969389348743	1
86.6856213844878	212.90020302982978	1
111.16914415285784	243.7707324691551	1
86.68562138448779	251.22223957519915	1
73.91160950533822	240.57722942370765	1
284.68280551130636	508.83148524129314	1
274.03779561201503	534.3795096048727	1
333.64985104804646	510.9604872715915	1
353.8753698567	522.6699984382321	1
400.7134134135818	530.1215055442761	1
376.22989064521175	531.1860065594253	1
395.3909084639361	547.1535217866625	1
109.69962857357858	77.29769137302551	1
36.81895485299987	378.758687727825	1
