569.0091392464714	472.6777313017345	4
600.9866029997402	401.3009601891064	3
562.5303622211936	521.3589905099823	4
473.353264346496	216.33554920860973	7
46.35463903966447	438.9961778594219	5
360.29537765036326	365.95902335867277	9
569.0747029917982	376.23457723685607	5
534.3830211419295	366.16835227636017	8
369.8821735712962	484.6081975088889	5
256.88914323655223	289.98070262536845	4
613.286203990412	602.8650088998447	3
534.4699699057464	269.27648290708225	4
554.7615522031906	345.06112259472616	6
211.22840697530614	521.4061582952867	8
595.8831489165502	257.61724389040506	2
387.91373178354854	270.4652574477527	2
298.1967986610163	463.1449894682348	5
516.734621143115	395.1934544525386	9
434.48916187516124	297.4205510633751	2
292.7379358779617	422.11828175683195	4
440.679170090963	330.7277616569096	4
245.41774052996533	558.4940969933677	4
67.53778499839298	540.9996179043727	3
506.0032556850687	265.155200359029	5
162.91042936458211	345.0872579375822	4
199.2302817214883	300.4994614556085	2
428.9136414247667	269.98172056192	5
13.377297413134148	445.0315572356948	5
338.0376130435935	288.4710677119408	7
454.88746473961606	403.96777176860746	2
595.3402200612874	540.0410863012532	3
439.899473198475	248.5639516463604	2
279.8207378022806	399.7824350241574	3
463.3340258251642	465.81951228904074	6
306.58957588907776	252.86344102321186	4
107.41537081238647	384.97367444936026	4
185.85719934446303	581.1405027433439	5
576.8798890600518	553.1439574395695	6
509.20984877680996	556.2252616862077	2
434.43368595649315	453.95636191903156	2
273.6934725330411	630.7390167013216	5
483.79222482232717	387.64411529517145	3
233.8479889981497	422.6294381589016	2
172.31338526245588	543.9220571367462	3
368.96045663127904	250.13711674868384	2
549.7039698236609	317.9020690163194	2
445.97136899509144	419.9666728096296	6
509.0934386541206	219.44246895404382	6
559.7045771420549	264.0479750444457	4
445.22657064378666	367.2830568007752	2
174.69232169548587	438.1851271349184	3
461.6856859459898	488.5391764316457	3
307.9362196321946	364.00275564824256	3
138.14689870051603	568.4113263078843	3
503.05110661411624	256.9063311917097	2
411.8680005627425	253.97812879708383	1
590.7569269677994	518.9987849331714	1
541.0655585219502	516.7902794653706	1
597.3824427605792	580.8369380315918	1
291.50446366057463	628.3198055893074	1
265.0024004894551	607.3390036452005	1
338.9873268421638	495.80947752126366	1
294.81722155696457	393.1139732685298	1
457.14235848007166	548.8136087484812	1
150.16012674793714	416.3032806804374	1
147.9516214836772	373.2374240583232	1
205.171875	579.0	1
535.5442953613003	378.758687727825	1
66.23692670605864	557.647630619684	1
465.46443164355424	446.637916549986	1
550.3907090257895	438.38867518079707	1
398.3180855738139	401.6814894599169	1
323.85493891801895	385.94983843668257	1
220.0260442852908	375.46207108785967	1
130.88002364102925	600.949069087552	1
107.80693594486743	438.38867518079707	1
499.00065006615637	480.33974457608866	1
381.5376581584235	375.46207108785967	1
441.31793082575183	571.5833205108479	1
162.34332504488626	314.63302046468687	1
274.56243338530965	250.65763963686723	1
