574.6186723616686	46.427585958561025	6
596.5027259846748	146.00758625623718	8
591.0347134838996	71.33608748481166	2
526.2453280314402	125.21815451977275	6
460.9127329978531	12.77045238273424	3
598.2134760653898	323.508268987551	2
185.9940437465953	309.8200600640826	2
536.4222217917188	280.6178637916108	2
363.278746594361	189.38200408804988	9
204.6579348003309	263.65875105932054	7
446.71495369807684	404.5010787916745	7
456.8568413251019	347.3184373725918	3
74.63077647925851	74.74842904142464	2
480.5045211206242	121.5725068974387	2
406.8926195160765	49.50442573444613	6
337.5003483900333	130.52824832427657	6
575.9746146914124	243.56653159513354	3
246.3024898741843	144.66250667643203	8
331.4928877892847	313.4279504341159	4
245.19895140484272	325.6032944093556	4
458.48178998284925	208.1562921201141	7
265.4049387476587	25.755044433160016	2
572.7528187429248	460.236695018226	2
276.89910064350704	319.5166650135313	6
411.0809591777539	83.0976889358357	3
487.1829049234943	30.086936563939084	2
546.7175205896439	356.43945502903375	3
73.50569381413194	114.11727053741475	6
41.629057516661476	127.47337806152811	3
472.29074257005703	231.35485739667445	3
142.08815505196944	79.45910339215126	3
365.52356560153873	78.54755302468662	5
268.2908521118148	277.9377118033288	4
153.45405779048312	15.117589623136165	5
273.13056558632303	59.58294297779827	9
609.3811892655006	71.54662283775968	2
166.99675652313172	247.93501516147793	3
156.5977254904348	100.80914937988729	3
610.8711404576912	270.0110323356598	2
165.6968270261999	222.92647891797444	4
599.4979601011105	408.5698668607409	3
269.86438208234756	201.01743731102687	3
332.955411676094	417.35316520448225	2
356.2980090422142	297.71016419414343	4
138.95751099604354	177.708325995834	4
327.5145564300534	74.93553779288584	7
190.78491102794464	152.71590838523983	8
290.136338497807	20.457397760191547	5
475.84720648103837	365.1797332125309	3
513.8419006207571	203.22747798983073	3
138.21934320979017	223.40317457928074	7
437.27753141482026	179.63927064580645	2
433.5269974742203	61.76271771642166	2
224.28518623824203	61.66586471532321	6
399.65841587209115	200.95307142907313	3
393.1093815630721	233.95159117003908	6
357.93339937459587	30.343816285279708	4
135.9242613887825	243.54691981329663	5
292.05900242470443	210.2783335766957	2
196.1590998629008	187.37406029894947	9
584.5469886334974	382.2904340601397	3
463.84790374574254	315.94562675613633	4
600.3001594450702	13.44256518013707	2
406.58498623450123	380.9584867885602	8
531.1579111454462	476.74101704731925	2
280.4461060128242	129.92764308157996	3
117.25018891236729	92.60800515716316	2
606.4012451768808	179.29594347698838	4
581.9997420384504	106.69089630472808	2
486.41229480091374	267.2873056383043	3
194.87722753172045	31.064956885599933	3
358.3059700247038	52.85654395668318	3
228.13217452149993	104.68464843268718	4
111.73078073815918	132.1917871653121	3
533.9857791619305	47.597476534851516	2
110.58410632916467	187.84112940452377	2
224.4539365072469	268.48744037544236	4
323.4617776753547	161.2558085859363	2
557.3090901848128	329.81677950453917	3
521.0224003840424	334.25550084628406	2
286.8001094285046	189.73371046320486	3
474.1115226503034	333.69122327319315	2
192.68367331419478	239.26391791162123	4
497.03004666905656	143.36747664819322	2
460.8654137812631	75.31415143591894	3
501.26037492093485	47.46304761290034	2
203.1424102854786	220.3040648984321	4
229.42461583036163	237.84082166487153	3
590.2442241373417	94.38990613940607	1
546.1956021719419	61.877827358055086	1
514.7323007680849	66.07293429758425	1
583.9515638565704	127.95076165563934	1
456.00080481421844	33.56085551623327	1
340.63536633340937	9.438990613940607	1
370.0011143103426	11.536544083705186	1
381.5376581584235	82.85336205570088	1
453.90325138729463	55.58516694876135	1
382.5864348718854	45.097399599938456	1
476.9763390834565	166.75550084628406	1
364.75723074303306	349.2426527158025	1
354.26946360841407	381.75473149715344	1
129.83124692756735	117.46299430681644	1
213.7333840045194	123.75565471611017	1
532.5615048969372	296.803815971688	1
610.1709816931178	298.9013694414526	1
607.0246515527322	375.46207108785967	1
280.855093666081	259.04785351592557	1
86.83140167562942	57.68272041852593	1
221.0748209987527	316.73057393445146	1
308.12328821609043	331.41344822280354	1
285.05020051992864	367.07185720880136	1
479.07389251038023	418.4619172180336	1
429.78138697767093	211.85290044622252	1
347.9768033276427	157.31651023234343	1
375.2449978776521	120.60932451146331	1
425.5862801238233	101.73134328358209	1
422.4399499834376	38.80473919064472	1
343.2644862649627	223.30362870093037	1
573.0720859013929	358.80340339809686	1
250.04064867659952	371.8113817690248	1
284.3125	237.0	1
363.3125	414.0	1
604.5672578915247	485.5619837025006	1
382.05317949523305	312.5035236938032	1
544.3783164183401	240.72709599027945	1
372.1149058060632	139.13584447144592	1
22.066821420859423	56.31688942891859	1
429.5360426768222	447.2223572296476	1
