577.3920247990561	326.9344943875581	6
243.53963763234026	264.4009046074746	8
103.25404423642969	123.55666915372916	3
539.9982532941269	254.2322329797884	9
191.08418844924964	193.23153562086475	3
484.046875	379.0	2
384.11856723575	283.20943115477553	7
536.5376107675387	338.22742103231434	4
376.8461211598713	191.65847283626422	5
240.50739165099304	108.36023118079572	6
425.1286101749936	168.8541927292812	3
463.546875	392.0	2
335.40952132106065	130.5633201851787	11
368.381005344526	313.04737933916357	4
319.40920217497387	254.0213494410439	8
459.546875	371.5	2
512.9059369888204	383.49810402532694	6
532.221121503133	203.51209539616065	4
327.461885376878	193.94766373164504	4
479.5762903773972	55.87472449790451	6
274.47983530600754	118.57980634077776	2
193.37502528870942	84.86894385274061	4
304.2153379667597	308.9794096291199	4
271.4844502084645	195.07154767516587	7
554.1132248253905	325.60033340350265	2
287.14501954768286	284.65664462595333	8
276.8133900694716	29.707470945350167	6
470.95184534781333	3.1685513577370292	2
595.2815705247059	244.7683693917613	4
486.734581033983	171.75734415318973	3
585.6708484199032	356.4415941805296	4
509.5396365018189	322.7777124155648	5
605.739746961259	179.6766905195987	6
300.28555737604165	8.975185878093505	3
600.4129877550938	350.17491800718415	2
535.2886454603264	167.33267689323637	7
505.27564106152647	225.30607762198713	4
395.27871028558894	326.9740359167298	3
268.3527435992014	63.82547480063046	3
185.08399031577756	42.61560345884776	10
188.93420381987409	117.49391633372917	2
461.09142142984206	332.9654068405435	2
609.4002274614404	287.2526557127763	4
153.37879061966612	68.82754445355951	4
153.3234680451934	96.80678839332325	3
465.4784273694168	309.4171482117757	2
460.7549851877968	251.6294466329097	6
383.2874359999777	189.428044271161	5
603.845298164167	147.6241546293418	3
569.8762292534984	256.5033581258027	2
228.31220677469204	123.8935410404308	2
220.24585430855944	185.7226610713404	2
277.921875	61.0	1
231.921875	161.0	1
128.921875	117.0	1
427.921875	373.0	1
512.2113753867662	366.7953591705752	1
103.9132169092599	163.76795852875833	1
518.9415648122197	434.09725993581833	1
361.93975272553627	352.07621889976184	1
383.1934978255513	314.9227732635318	1
612.5491104094791	373.63985631735125	1
607.2266054598334	413.02639387786974	1
495.45400151727455	131.99812587849445	1
267.6507896724403	8.516008121193192	1
407.10041935315655	24.483523348430424	1
395.3909084639361	52.1605497423083	1
387.9394015344322	34.06403248477277	1
410.29392232294396	43.6445416211151	1
435.8419460812431	134.12712790879277	1
413.48742529273136	143.7076370451351	1
443.29345301074704	163.93315633296893	1
209.103235226338	17.032016242386383	1
482.67998963812494	337.44682180228017	1
