446.7082224470872	22.89060145605306	6
266.7073534974727	277.7877202966825	3
173.8649485853395	105.0600488656852	4
325.7219942817011	276.4202943930446	7
508.71850387770587	331.6871761012162	8
305.9390808586922	298.3196218515752	5
441.30239553936565	410.7571839299441	9
470.22426538500696	386.09501717587966	4
581.8086271079409	408.00923991834986	9
445.28437439912466	116.11116011806384	8
332.1507736491496	344.13573342262055	10
304.5274684655513	324.0886400588283	5
520.9696517010873	472.6632824381445	4
585.6891344904847	66.27877856072703	9
564.9218457107181	428.5389737266646	9
418.87382345505426	164.49759971372916	5
576.7609292881496	514.611137686717	3
418.9477041067082	380.38825740564255	8
397.5959113974262	84.27236055996435	10
295.0648607784823	219.2688942891859	2
266.3040715044938	106.55419198055893	3
550.5499948522265	317.76161020870586	7
389.8949557300357	331.79289185905225	3
336.5816603193695	393.05084760929606	7
592.3603804445012	138.38832750074553	4
251.92768181981768	70.33608748481166	2
529.0635134681952	548.8025516403402	2
530.1475446996992	370.18740147923063	5
495.11560342017344	563.3684751444034	7
288.5143994774585	248.01090677950558	5
374.835065063422	372.0495823172721	3
559.2086700675866	460.73421368350984	4
581.0380338961402	23.990138794096843	7
354.1806387822631	316.08716537976375	6
380.2225506280454	409.7655564544279	3
412.2466292295662	292.46986634264886	2
349.70799652295386	49.02086626140705	8
278.8475093691479	59.86918472005442	6
341.2020397371469	176.57958687727825	2
312.95487990573326	190.41264983892495	5
430.30136524772956	456.7996639652414	4
458.27332563189395	62.722244764275146	5
592.3124244631189	617.1660175815343	4
310.23957301786584	260.4863995921337	5
415.9818146398936	51.0523750289851	5
378.34407790928003	8.758214251908406	5
493.9292191130006	410.55066799916733	3
500.86061604805855	182.03609539415123	5
255.71696246514313	188.726807735509	5
226.38079451993295	180.3879032822029	2
430.89775345184773	433.6820154722087	2
551.9950484896708	285.6730968920218	3
464.6111003330291	205.69072406533047	2
561.7671330850702	373.12884965990884	3
556.3578017203076	492.16078891628064	2
595.923286942141	165.4398733444553	2
500.1434195556226	522.4666656925458	2
338.40077920365326	227.07874071188178	2
405.101739691165	199.51379839313938	2
548.6984543151224	366.0896643491641	2
362.171875	287.0	1
526.4978312430875	529.561578548633	1
171.16284139510861	50.94791982762164	1
441.8371872215616	-26.557949694167515	1
487.14831119250965	96.25904354805222	1
365.5237152704912	39.023939901192534	1
609.965305113764	151.10935120962606	1
569.4237731397575	476.6340032011406	1
611.7377269782689	486.9754556500607	1
407.45099003422257	270.5419198055893	1
537.7528006255602	69.56792223572296	1
186.6004636082265	26.50206561360875	1
548.7953269468601	242.93560145808019	1
216.41528467573596	115.94653705953827	1
193.22597940100638	90.54872417982989	1
467.08063216924154	528.9370595382746	1
308.0682531425243	109.32102065613608	1
290.40021102844463	88.34021871202916	1
153.47288464432708	27.606318347509113	1
483.64442165119124	491.3924665856622	1
358.8638742205034	193.2442284325638	1
354.499553439432	88.41082009783048	1
499.21375497365307	129.11145762653294	1
250.48622108671063	10.024407079588679	1
246.80262475086496	302.04769964609943	1
492.3125	470.0	1
377.3125	184.0	1
