582.777249423739	270.84358561607905	5
397.64960883055886	183.37691373025515	3
605.474028689498	332.4553371567084	6
267.6720366293772	59.349819589100065	4
283.2805982758649	400.5936816524909	3
385.7480298797465	158.95407047387607	2
190.96522585671667	339.068469164395	2
581.0373195533311	372.900188777269	6
553.0458537062834	348.68181180259495	5
152.24937719003356	305.54325637910085	2
497.7055176070895	433.9753693413431	5
302.16486091430187	408.02998379763704	5
220.93539498480783	15.00311920646925	2
434.6881245990173	100.91138806896001	5
295.74097195318456	16.93556149079489	3
457.20102614560744	8.877088108445616	3
491.1748406941175	583.6478934582086	2
168.3073864439839	267.66108459723193	2
348.92560053133366	514.0296476306196	2
170.0366741262768	244.03985419198057	1
504.6252216616609	298.1482381530984	1
238.42670429219223	275.33226652594556	1
274.234375	162.0	1
499.234375	196.0	1
298.234375	333.0	1
340.234375	366.0	1
