13.78605303766362	233.61365095227046	2
257.77516766172516	68.81975421556398	5
359.5094822971069	431.1104079068766	8
52.884066921445296	24.078007260628585	6
467.45464063406735	528.3142030188028	7
113.02693982490533	85.86494992100756	7
214.19648765037272	244.67322722995112	8
441.1578156412394	241.43675205291805	9
341.2594652777078	348.6324996085981	9
156.60525121437885	337.7002213548466	9
332.8822956195854	110.01771665645771	8
64.82851098863799	126.80857958913752	5
341.0897270393617	403.7893251980444	1
532.234375	286.0	1
529.234375	327.0	1
220.234375	340.0	1
