454.45682968416236	199.9247474444173	5
460.1605110939271	251.8422652931743	5
357.31315370169193	357.7197138273036	4
516.2054767551658	76.45758647060184	7
397.8751449082275	333.44175588357604	7
426.50267173219925	88.0228653630864	7
454.8208880557209	324.18332065966257	5
376.580056056548	68.02500157023896	6
419.2966573978331	48.443762887844336	8
295.5098357576268	92.40403059107703	6
548.6108363755875	103.31956628323053	7
311.3240905639401	55.475381613437634	6
465.79249855948626	93.35029075625127	8
348.7634012566259	64.72231555363277	7
387.12258440159485	150.05792841934232	6
386.7630859866624	266.3027240636998	3
577.678279888782	148.0869462309808	6
520.9804781526213	181.67693147871262	4
407.98177210290294	294.1682124000971	7
362.5284715756676	131.00056044484177	4
466.1300809033264	152.53052178223453	6
585.0640451621841	372.0289926016805	3
480.2103571954409	374.62519159800195	2
480.07237201578766	275.19739257914415	5
197.41928137283415	50.48307678035596	3
247.80925446543063	193.1639262929043	5
341.9153199278694	250.3043619832527	5
273.1437872050825	179.71418724321677	5
270.19101661055936	148.94334895226422	5
428.7068182802983	344.0781274090948	5
579.0243096403782	21.749447620730454	4
196.79847095536036	13.268255333576768	2
586.8997975695614	285.4023136727539	3
592.079353319781	26.07016934427414	1
338.6033654988461	150.54732156801498	2
508.391005927421	305.10923542367493	4
382.181638159414	8.873136429527978	4
336.03886450891696	9.758004060596596	2
453.42752062075203	288.3715696505679	4
255.08448061647164	20.702434121347324	3
229.81381501246034	234.03061065125723	2
460.4280211470836	130.9490579619461	3
341.5086133017968	313.34679535849403	4
401.6307537552906	393.47594452107677	3
377.2321328226059	228.83710760580976	2
431.5415877866061	306.83475091130015	2
286.05534174054685	115.38630329533032	2
491.05393380395617	133.0313134468218	2
499.8862996249591	102.65983613012506	3
446.234375	183.0	1
591.5601351054129	253.66468520129064	2
584.4818721020702	104.10017995437664	2
387.17143846478035	108.36013338098103	3
319.9336818530592	247.65092274296546	2
377.62203258964314	377.0152330820039	2
299.58581937031425	9.58050913634234	1
448.6159579603928	387.4783695142902	1
447.5514569704636	400.25238169607996	1
376.22989064521175	293.8022801811651	1
589.1300886310381	328.930813681087	1
617.8716153591247	258.6737466812432	1
547.614550023802	242.70623145400594	1
569.9690708123138	236.31922536311106	1
197.39372433711753	117.09511166640638	1
387.9394015344322	192.67468374199595	1
366.64938173584954	188.41667968139936	1
600.171875	228.0	1
500.234375	189.0	1
534.234375	186.0	1
269.234375	209.0	1
287.234375	229.0	1
490.234375	487.0	1
421.234375	444.0	1
306.234375	331.0	1
245.234375	263.0	1
109.234375	237.0	1
187.234375	317.0	1
124.234375	281.0	1
236.74474954760933	92.8444569322771	1
164.0084715942453	102.38364087342038	1
328.55939548874096	40.37894525598905	1
18.535915687517267	54.68772116770398	1
488.0212688471021	92.29235266964149	1
