608.4145740951442	293.06171462246823	3
222.94548427803733	151.2647276261238	8
316.7609546400806	368.68662393505167	5
190.66533319899378	216.62883147157106	4
492.57335403563786	274.67799577741187	4
178.16010559251544	271.683937120133	4
85.751007444907	263.9846296679041	4
94.46519758019502	128.86063686807194	8
139.53968158390092	11.245192396925702	2
257.18381400560924	423.26378316009846	5
442.768548366554	224.13753488967777	8
180.60674700818896	384.5180833462982	2
64.66309593674033	158.62771187784523	5
153.32201508519762	73.59134465139766	3
337.45243580720546	390.08921096405584	4
517.1423675670658	293.8556212459502	7
34.38478242313853	51.09391333536432	4
378.67646020536426	232.56055145025672	4
391.07980129360686	368.1238084645404	4
288.11795542211655	245.00609815249797	5
509.150216953488	326.3008356548629	7
385.4383889390423	443.20910094768976	5
196.95353300283728	163.52887103418618	2
581.4312438224237	448.6448823662066	4
226.13471535837198	240.56778019156644	7
570.7507666115749	557.6939444418874	2
535.3922218397784	432.7755213935908	3
173.64528326010026	102.12272222179196	3
294.26041108338666	130.3071149580524	4
50.1096152034543	200.56507750754682	6
425.30879530973596	291.7847030745627	7
88.00461031877627	216.1637044378595	3
357.48991884219765	410.2617520097335	4
356.28009010279425	468.4807057447787	7
234.964718565182	78.63649978676958	3
582.4029550612761	323.37897503419913	6
86.92355646086293	183.86573222570325	4
569.1694231178548	193.7716180549093	2
225.0157947901734	366.83476207876043	4
437.9541699887176	122.3069030695352	2
325.8382382980149	422.7237207865747	3
220.31068804627475	101.5252754040976	2
206.2542258420984	311.988005765469	2
353.8404026767852	278.9445073612684	2
414.00173794482225	160.9058624754251	4
594.2141946715053	355.85499906856205	2
102.24847922202878	210.35751055286727	3
253.71860474755084	353.13672397817356	2
353.4280112781976	235.30115799836284	3
385.23414251252143	102.98884963703232	2
406.89225787503506	463.51156484058885	3
296.2421875	434.0	2
259.3989993696658	115.23149715340821	2
535.8449630792893	169.1597630874085	2
229.2522213353103	410.92950838590554	4
462.2734375	347.5	2
284.1575357479379	470.00507308777003	4
398.0060348879584	205.30450838590554	2
284.203125	391.5	2
-138.765625	253.0	1
264.234375	296.0	1
463.234375	392.0	1
400.234375	513.0	1
230.234375	300.0	1
411.234375	124.0	1
503.234375	365.0	1
321.3358822545064	209.00530166435632	1
294.2019694668399	376.33014483791095	1
262.54573788122906	175.84181923356172	1
114.81665714837841	77.85880296075946	1
318.1194412662742	231.77965840898602	1
311.3125	164.0	1
247.3125	171.0	1
389.3125	284.0	1
399.3125	179.0	1
552.3125	37.0	1
168.3125	303.0	1
25.3125	83.0	1
580.3125	353.0	1
375.3125	313.0	1
564.5649415380252	357.8873674456913	1
595.4415002364011	249.8194172758159	1
414.3925878686516	190.87326263770206	1
354.04295041273514	254.02985689282403	1
544.9162223663315	506.65623391331206	1
529.4779430171436	494.0249150622876	1
46.0457471035337	26.12437090708058	1
610.0500007419137	114.36182236265593	1
582.6248467594978	150.13376214194324	1
576.6628567633204	116.74661834794175	1
329.8364709215769	131.05539425965668	1
546.1821829078635	130.7301840581424	1
