504.82976051862613	595.6143166999409	2
591.7818801212909	376.2062362235398	4
572.1752728366455	554.613864533096	5
438.0412786912967	542.623010316787	5
32.718838033810286	120.14036159723881	4
380.05123516405195	390.82260921182876	5
598.9014035095927	616.5960577174025	3
429.03048570522276	459.2431126547305	5
348.1749723344327	430.337391699372	4
246.99804509909876	55.30040329127239	2
215.16915871267213	364.73726869125557	1
608.4984514929852	546.8155972358769	1
