296.1266596751641	265.9298175714446	9
322.307365888507	59.287266712546824	9
287.99689177880407	155.85481477050132	9
599.2299567976618	27.97209531419478	7
279.8008437653341	404.826484635344	8
472.02539524642424	370.2976504132381	8
226.02912004284678	204.98475591435252	7
485.23004376032327	73.45901513734071	8
46.11371447692685	204.18625617101932	6
485.7846535079369	462.064633347853	9
421.4365370430915	355.04933721005733	8
545.8368310786825	271.48973268529767	3
568.3347352255365	514.0006874969932	7
145.96448019868348	250.93710662638878	9
385.05261120956953	201.80421200053675	4
470.6332317787982	191.7416786083259	3
438.20591765103114	100.50651066036173	7
312.44918380543686	394.46091384081257	9
524.21151350366	404.83438955553436	7
334.1602886166742	191.71351844639375	8
512.1725913851714	192.99972168689712	8
19.766289000039627	42.09077379021121	6
449.73325963602514	162.41615826995806	4
531.213680720793	498.87214774604456	3
423.2929004410301	209.63577256068203	3
364.01787461025174	412.04738760631835	2
63.64906861530575	50.51775675511908	4
430.4236048729081	11.52661801173844	5
402.0705680770195	76.10567737590986	7
498.7083957372354	91.46604440475687	5
327.189805194367	275.03159173754557	3
14.356977904994666	73.66051032806804	3
558.8500445788575	75.39886647326952	6
554.1006788118403	17.41321381711058	2
464.3396661072516	62.459638974453235	6
68.59888491820533	169.73079003547755	4
167.04440221839513	215.99652983982952	8
391.7196245353357	41.74992583382547	5
343.10404904697464	88.79395696484876	7
608.2887810866914	109.76847473816387	2
382.24898004937745	335.71682149210767	8
596.8789681857405	345.6275827149449	3
398.9256719885914	391.0569866342649	2
551.3919474417919	159.23911332084975	5
572.7404445637933	305.97378620239607	6
607.7573157000663	189.7182281071129	6
528.8547128141054	359.94702741993586	2
294.87225824526996	220.3346525727858	8
544.8022466713909	122.14188671433517	5
346.70528441797535	230.453787578331	8
451.32417020325636	327.40305179695116	8
518.6224601646428	139.91270354677283	7
448.384588629626	473.80630956916536	5
252.50496588654266	361.64747915015766	2
262.6853419147319	134.8200991834208	4
584.6919017710277	70.13544911803854	5
382.1959035636815	118.23390036452005	2
271.6515441469208	98.3800059602599	6
313.4640719676521	350.1804374240583	2
142.09514740754796	285.1870203574942	7
112.5350152355897	269.0771291298273	7
459.92565398118506	392.87353555780396	5
522.0209076048138	515.2622257803191	2
259.8056298483376	278.8443499392466	2
280.234375	417.0	1
83.00985334104453	196.97244069888686	3
114.59147741066164	205.46539818269784	5
469.59231345249077	129.54665856622114	2
111.35976599562892	82.1179829890644	2
255.0221323517809	209.92864629222663	4
202.45195588110192	281.82375609854193	2
360.7292076382216	443.4926992426365	5
593.7260506356417	490.0739178299026	6
300.93586784106026	105.75553496262665	5
151.03242984105583	100.31409524730836	2
118.32890284021383	302.38687727825027	2
503.0804769049782	369.26749639411935	2
434.48628466437367	290.3626405068435	3
418.6741323357579	37.49920482960521	3
5.0430331991989155	177.16719410699005	2
317.0706645528123	420.5594706877981	1
557.5844887755528	354.0338188838809	1
419.234375	320.0	1
347.234375	128.0	1
443.234375	435.0	1
44.15187406345903	112.63377885783719	1
3.294526674649758	114.8422843256379	1
41.94336879919907	132.51032806804375	1
26.483831949379347	174.4719319562576	1
96.05174777356811	13.251032806804375	1
205.37275835443617	13.251032806804375	1
155.68138990858705	9.938274605103281	1
149.05587411580717	58.52539489671932	1
185.4962109760965	25.397812879708383	1
89.42623198078823	114.8422843256379	1
105.99002146273793	145.76136087484812	1
80.59221092374838	245.14410692588092	1
183.28770571183657	166.74216281895505	1
185.4962109760965	309.19076549210206	1
218.62378993999593	114.8422843256379	1
263.8981478573251	24.29356014580802	1
220.8322952042559	61.83815309842041	1
255.0641268002853	51.89987849331713	1
231.8748215255557	304.7737545565006	1
205.37275835443617	331.27582017010934	1
206.47701098656614	373.2374240583232	1
327.94480052086396	305.87800729040094	1
294.81722155696457	312.5035236938032	1
313.58951630317426	159.0123936816525	1
330.15330578512396	139.13584447144592	1
371.01065317393324	160.11664641555285	1
395.3042110807928	167.8464155528554	1
406.3467374020926	140.2400972053463	1
604.0079585533591	78.40194410692588	1
583.0271585428894	139.13584447144592	1
605.1122111854891	150.17837181044956	1
429.5360426768222	192.13997569866342	1
442.78707426238196	228.58031591737546	1
590.7569269677994	274.9589307411908	1
471.4976426977614	283.79295261239366	1
406.3467374020926	267.2291616038882	1
376.5319163345831	291.52272174969625	1
416.2850110912624	438.3883353584447	1
584.1314111750195	379.8629404617254	1
559.8378532681598	460.473390036452	1
120.171875	326.0	1
