433.8357147438214	535.8066984251784	7
382.3198071835592	488.68089660302917	2
584.8315932403979	277.2641696822292	4
429.3512196002964	258.09844929998064	9
221.92896482394633	125.15882926474389	9
394.409793783013	559.0129731146599	3
219.00759520093493	234.15493202335267	4
202.7890531224632	466.19662731550255	4
183.76269321839942	451.63665504105035	4
454.771668134066	427.6394624009034	8
334.56712491520295	373.6292946402277	6
508.18109030080336	322.9166346675312	8
367.7346129760648	512.367325574019	3
557.6494392242631	273.7200827612329	7
245.17109993066555	425.6261607777026	3
532.6155633887555	381.4269926743192	4
37.53203858981138	120.08862337359314	6
542.5137619798099	307.31121830047096	9
64.52970012865492	29.304266582936755	3
345.9836529405708	19.784172563501475	7
584.7134340245078	53.314750833971786	6
603.1155352370331	465.187698998029	4
132.79586212587242	326.9602297259678	3
240.8285192142623	331.4545352551708	6
96.01087227198605	116.56505623602965	9
354.5349465166047	205.71774464957065	6
307.6739542074024	368.7077434266822	9
434.9795823758244	85.27747628993113	4
502.1962495958903	565.9525515001187	3
98.55430471895346	85.54614340165682	5
7.947767150018232	215.89500627761186	7
23.25004832220292	173.29077171753468	9
98.68308845474371	314.0787479314979	3
97.88866453064773	51.07951365838087	6
163.74417040050537	63.95969777030452	7
261.96954774759035	195.6156409613069	4
221.509138172745	405.78845510948224	6
325.56391665017577	326.5872585498845	9
179.2445096616031	403.29061502498655	4
256.6389954695338	115.01310787475842	9
332.9680916438996	247.10859081661596	8
12.083338761903928	112.95314993782574	4
261.54372984696215	278.9849731904885	9
555.3544570830876	505.8039698415141	2
194.12745268569324	316.5728257296549	7
53.35865675520458	66.37041382479678	8
396.4738053387305	270.8136152411003	9
464.6759631852972	488.4471297510107	8
563.7595778454915	195.44901988341286	8
373.2387773631288	432.2609560457661	2
159.47044599004917	311.4902722208584	8
220.47502530388385	349.58951841289456	5
422.5386853061307	205.55037000857615	9
138.29705224088244	122.11231192399775	9
186.05463852494307	203.70497286295165	8
71.90592503891824	224.2699234479971	6
58.01037522723492	342.34985756929353	4
337.1894048041318	510.8187936568239	2
379.61847661919194	346.7452038014037	9
38.140229441532696	226.26094340712666	2
30.356301533262652	99.70177552318077	3
499.62456746627595	420.0667859278516	3
230.92868057713267	379.032511696426	7
409.2326740034577	441.45293828735595	2
483.5999556683595	326.74984961246486	5
149.42276204215767	426.14355642058774	5
263.3009023542704	387.19915654268624	8
446.2232459850239	346.6205293694461	9
127.7116530876084	385.06722350494954	8
218.77454348466006	442.6701110940263	7
432.2806566109013	467.26155391323874	2
428.71626672621073	66.42364209878443	4
276.57841420603046	436.9964323229468	4
281.79050609414196	180.8808965656367	2
156.67232369593566	179.47472427104088	8
492.48226440947184	446.2833855923624	2
113.82864971798863	279.79709707584954	5
579.07235067121	437.39520453375667	2
149.02704222080376	238.9108802676367	7
477.0275724159846	368.0629979488781	4
125.50070405373714	99.91215609359139	4
332.662590392562	443.17873633049817	2
480.49699320226887	292.33885690204335	6
32.67247561830499	213.71405089646925	6
180.3524245716685	25.89958076512095	2
592.6857048780471	10.297987625884073	1
564.0681528963956	230.89161626482243	1
71.60777921214421	7.913191640598253	1
292.6087162927046	20.980801944106926	1
424.171875	569.0	1
554.171875	562.0	1
485.8529269154512	339.5577156743621	1
71.75818986670853	381.51931956257596	1
304.7554952461344	466.5467800729041	1
499.10395850101094	499.67436208991495	1
237.3960846862056	243.48772782503045	1
194.33023203313638	274.4068043742406	1
346.71709526707366	470.9637910085055	1
158.994147804977	406.9171324422844	1
517.8762532472207	546.0529769137303	1
481.17144593730404	275.8282812740422	1
612.2685351200416	281.07216494845363	1
611.2197584065798	316.73057393445146	1
585.0003405700322	348.19387598092015	1
590.2442241373417	397.4863825203878	1
557.7321460200228	417.41314048315127	1
33.34378928907249	299.95014617633484	1
12.368255019834477	284.2184951531005	1
400.4156390007377	478.24219110632407	1
266.1722196776144	499.21772580396987	1
566.122359727718	478.24219110632407	1
527.3176213296276	457.2666564086783	1
533.610281610399	568.436990306201	1
588.1466707104179	512.8518233574397	1
232.6113648468336	260.09663025080783	1
374.1962211641902	195.07247268810588	1
