229.3306689119155	9.405541721582049	5
359.55318078606916	268.3281667671654	7
409.07325579408234	213.50163720826285	2
333.4382786242042	328.5167109517304	8
315.0176596944362	420.1013081915653	4
183.960944180966	68.63953566365578	4
469.4912856543861	437.6703660823275	5
317.96693732236713	185.11558052720682	2
594.6713359563914	522.6811935334974	3
485.81617472502006	430.7803589753164	2
148.68730385831992	57.481469376692914	4
222.05982480216693	30.757254300306037	5
481.0490390128548	147.20274421133186	5
164.1403548205933	45.96299188522203	2
382.3606432993494	52.338039497966044	2
201.44896502710998	175.33325551172652	4
432.0713250551746	42.5002131297651	4
425.3199684117968	315.04389961130687	7
289.0119102677271	171.47997059345158	3
382.2663214575697	220.89365212173374	6
455.8330361380159	312.58679241830305	3
334.8000567881571	94.73749214844662	4
368.7515134800248	104.09154763241594	3
341.3906327451467	44.81033564597783	6
479.87910371206607	487.79829178835837	3
573.8414207955918	347.1004201483713	3
511.80835290062	495.1366356224781	2
406.3349681163668	271.1609359955316	4
229.85601447039448	57.923499904146425	4
207.81198348857401	118.77809671207356	4
463.0730455460514	274.04837575954036	7
290.2418677272834	91.78388116840452	5
337.9923744753761	17.196497750752194	2
549.6610017816106	433.93398729560596	5
260.1650955438346	120.81401007202342	3
352.6096957153754	220.7778685201032	5
504.5835147605395	597.8926019085216	6
344.4232329783347	121.37782735805509	2
350.26310165799	355.82914714236813	4
271.35229157055875	353.8402187120291	3
443.6858153193315	347.0525058518234	4
270.45654420268875	213.2280680437424	3
428.9894614705411	455.58031591737546	2
349.25984706574127	135.3835963867883	4
343.21510355321186	433.82928311057105	2
272.7734375	444.0	2
238.05459826277786	232.99866342648846	2
294.21304038209234	307.33475091130015	2
429.4316108298045	12.370709212665679	2
253.9598741681553	28.710571081409476	2
514.6826458439767	420.45894351426114	5
576.1721272037662	294.8855735805103	4
286.0692914853524	17.128109279346482	3
526.5836641941455	520.0979236552928	3
148.7131872789518	130.10151883353583	3
154.34056600609856	262.95820170109357	2
608.7644819088096	504.9260024301336	2
132.74591336873377	243.41567436208993	2
518.3400925877077	356.2465978128797	3
464.5401871364258	575.9184690157958	2
490.5827134577256	556.8759416767922	2
425.55938712595616	223.79015795868773	2
89.42623198078823	7.729769137302552	1
192.1217267688764	8.834021871202916	1
112.61553725551782	51.89987849331713	1
252.85562153602532	103.79975698663426	1
562.0463585324198	261.7078979343864	1
491.37419007610106	259.4993924665857	1
584.1314111750195	245.14410692588092	1
441.68282163025196	251.76962332928312	1
91.63473724504819	106.008262454435	1
261.6896425930652	186.6187120291616	1
501.31246376527093	225.26755771567437	1
589.6526743356693	451.6393681652491	1
165.61966359775687	197.66123936816524	1
147.9516214836772	172.26342648845687	1
117.03254778403773	138.03159173754557	1
214.20677941147602	286.0014580801944	1
249.54286363963539	290.4184690157959	1
186.6004636082265	249.5611178614824	1
112.61553725551782	182.20170109356013	1
481.43591638693124	355.5693803159174	1
553.21233747538	600.7134872417982	1
527.8145269363904	556.5433778857837	1
473.7061479620214	506.8520048602673	1
398.61696897718275	470.41166464155526	1
404.13823213783263	427.34580801944105	1
356.6553689562435	484.76695018226	1
257.27263206454523	406.3650060753341	1
367.6978952775433	505.74775212636695	1
178.171875	37.0	1
237.171875	104.0	1
298.3125	463.0	1
521.1890111436105	164.53365735115432	1
516.7720006150906	199.86974483596597	1
378.74042159884306	29.814823815309843	1
462.6636216407216	86.13171324422844	1
218.21493762450373	145.82897507301502	1
476.5405334764979	330.5456768321674	1
