563.0904101332524	313.4784544737456	4
222.7573979465235	188.39190505716493	3
187.0627433547115	52.437483299981984	2
267.8250576658454	208.70707992433114	3
520.2079227075776	368.93518686182824	6
50.80985244013017	10.377919755674252	6
230.83545756931449	162.8100593561822	7
13.002010539976954	183.76348439172824	3
227.8387046413092	125.48940270876608	8
383.13259560828794	344.5465767299737	6
590.8892184743415	82.71051568679269	6
487.91206207409255	378.18744455034897	2
160.58575890057728	328.53294803939144	6
36.22928247008706	68.12456003758385	4
270.72632417313	302.2402976167167	5
79.0501038919881	75.3938874834505	8
5.16042466364527	20.58807087909973	2
378.8705122881046	389.8516038109268	5
598.4465641253604	464.75648256251725	5
353.2445730902789	374.61377479094716	3
123.0163604508365	240.14578582599404	3
118.50779292547915	97.71531250932625	8
150.8690825302064	107.21578437706972	3
243.23255411723616	353.4298952179065	5
118.67163774379549	173.82577422294668	4
575.8804451365436	254.00917212909812	4
20.634469046841325	40.475415933913524	3
455.36585144100655	304.4109851556032	6
129.3140565455859	40.13453833974013	3
356.2698576480958	227.64671944485184	7
331.9480941189128	166.95202753938923	8
465.06375482645547	172.30057448848103	7
339.7179008633183	120.02938320324168	5
301.98838785659837	200.81164058863527	3
144.16107791964814	193.86307631984943	7
113.34507902445034	47.08772357361464	4
151.49030566786053	303.33638525973356	3
93.8158344051242	211.3532851207878	2
301.5568898243905	402.76757962763503	2
539.4857791619305	201.65817818125868	2
96.43156869096495	165.65432449092714	3
450.2653071624737	293.6574857670411	1
134.86481398168291	264.9405012565374	2
170.2734375	364.0	2
218.06929516748846	298.32897507301504	2
367.234375	355.0	1
237.234375	310.0	1
194.234375	375.0	1
5.026818025601171	126.90198492075704	1
80.53874139485802	221.29189106016312	1
123.53858664679595	221.29189106016312	1
144.51412091603396	88.09724573011233	1
512.6347473411611	176.19449146022467	1
491.6592130719231	184.58470533928298	1
373.1474444507283	160.46284043699032	1
282.9526470930048	374.4132943529774	1
592.3417775642655	114.31666410216957	1
582.9027871431084	140.53608247422682	1
596.5368844181131	221.29189106016312	1
596.5368844181131	197.17002615787044	1
576.610126862337	329.31589475303895	1
579.7564570027228	395.3888290506232	1
550.3907090257895	444.6813355900908	1
313.36717178339995	376.510847822742	1
210.5870538641337	57.68272041852593	1
