519.9564439373567	226.39991273656193	9
253.97403095253577	63.081635036554594	9
425.7448994668963	265.83312142749634	8
501.55509062022793	179.0321739771473	6
517.8435766071284	50.7108038606211	2
220.996950477884	209.9838386674612	3
591.739003758413	244.58540831273018	5
327.7128304335265	308.1871874244316	4
320.89022031675677	156.7704043092491	3
345.57602354111657	11.092705171112918	4
319.44250795774576	23.7615288546965	6
521.2323150525584	382.65975320075853	6
378.45490437335775	335.4231123822176	5
391.59103489689636	218.5618256627533	6
357.85007724983086	155.12489594161693	10
446.6324696965307	431.22484228342825	3
469.03514938115825	435.38111125057594	7
239.28814939656652	111.65410158034257	8
425.9438367917321	110.07394134183451	5
452.9248735134284	271.9528057363302	6
412.1657758010848	200.0546450066347	5
522.7923302219255	423.41718293621335	7
495.42377728894417	82.66490667844306	8
341.9407252836426	143.17849863469667	2
221.8633857217227	261.0126805414196	5
398.3199395569876	74.3802940467638	9
233.17677617341678	286.48118941375594	3
264.12041805515247	275.88975226957996	2
336.7655537760305	260.8629490704573	4
226.56231470143334	172.72957659659758	4
145.9224250867739	137.85599355895096	2
431.73946388866864	329.4004704306424	6
398.723152469248	256.32263736455127	8
353.0769058017802	228.52793764675857	2
353.22068689495217	247.51130943222034	1
60.56620808876936	60.86695018226003	2
435.61069782603477	122.85309691581449	5
290.0077748668058	283.9858012058897	2
109.98598211349895	239.10291616038882	3
534.0697070672908	312.4816492269249	2
435.8124070758696	481.04497891613306	2
449.05985016834256	336.7739440805193	2
551.8725539835185	329.99531469623616	1
601.9041005101877	374.7043573325004	1
38.3125	93.0	1
113.3125	87.0	1
125.3125	180.0	1
79.3125	217.0	1
176.3125	186.0	1
295.3125	191.0	1
495.3125	501.0	1
267.3125	398.0	1
192.3125	280.0	1
412.234375	422.0	1
156.234375	244.0	1
354.234375	200.0	1
316.234375	343.0	1
351.1341057955936	371.0289185905225	1
219.7280425721259	27.606318347509113	1
497.95187335269446	249.60886290198493	1
425.5862801238233	405.8765963994461	1
341.68414304687127	282.1209416833359	1
515.7810774815467	281.07216494845363	1
593.3905542777275	521.2420372364979	1
461.24468838152796	514.9493768272042	1
419.29361984305194	488.72995845514697	1
427.6838335507471	456.217879673796	1
405.65952256804724	355.5353131250962	1
129.83124692756735	292.6087090321588	1
