518.3158953537372	78.64547377623546	8
134.56396918743175	234.7262292862143	9
333.9011684174507	441.0904377718372	8
41.41630924535411	149.67707816541173	8
515.5879175222362	456.7117648440675	8
406.8146380966276	481.1089819587876	3
309.6699692553296	446.1595028595734	8
111.35736239702108	81.76228529429007	3
434.2239496814748	150.03490735836135	6
303.3162507975053	164.34390486569225	8
438.49284621028534	90.20375900313206	5
229.92529100835475	138.31868839450806	7
563.8491063273091	501.568371963938	4
450.8454872963011	111.7443552707731	5
392.3073571319992	144.77865775501016	8
333.24095756089156	152.97294930277678	8
508.00888654763514	169.43895969701225	3
92.6168760808848	37.060012692975974	4
595.299070681651	459.5613242370763	5
267.93634725063714	202.34747916252715	4
132.02665473297427	102.44415920869717	7
553.4171893900439	35.034476115388486	4
276.48852710931504	478.8581527755126	2
577.6219008726881	115.09934939466405	6
262.6901968597718	308.27584360770214	5
593.014586496015	225.62500339108723	7
86.14268872205912	133.92719994870288	7
139.47237172030634	21.424148922501153	4
246.2082109131782	440.1364812821341	3
599.4457246285697	560.6892075477383	3
299.17354070790293	396.2571936235838	8
178.51328251891323	31.856051135345332	7
58.826353161726495	77.31168949967206	3
170.7939335616092	243.62671191506004	3
12.45893302844725	102.5709315077001	2
278.98664905208796	263.374462321677	7
492.81713298690073	249.98771290620488	2
601.5850010208187	522.167963149642	3
312.8741639277058	126.55778684523692	3
364.75082330732863	117.99370900112928	6
532.5493127123577	121.95667128824641	6
384.29404876261384	342.37309600419974	3
483.8076670888675	378.1702503518462	3
278.695405931319	102.18554373987516	2
573.7930717646846	433.9077423515313	3
448.9073813033981	302.90699799501203	3
212.87522111242157	253.59628560959044	3
609.9636690250131	92.14515434291638	3
439.6942029367119	497.83516274471515	2
455.2443769751724	66.98481087745802	3
491.52537352659004	270.2727683507138	2
377.111147429154	8.516976060007106	1
615.2866041208928	237.64649103640622	1
150.16012674793714	316.92053462940464	1
361.0723794847634	156.80388821385176	1
394.1999584486628	215.32928311057108	1
385.365937391623	247.35261239368165	1
350.0298531634636	196.5569866342649	1
554.3165901075099	72.88068043742406	1
228.56206362916575	186.6187120291616	1
245.12585311111545	277.1674362089915	1
52.985895120498874	217.53778857837182	1
101.573010934218	282.6886998784933	1
510.14648482231075	512.3732685297691	1
471.4976426977614	200.97399756986633	1
19.858316156599464	78.40194410692588	1
46.360379327718995	40.857351154313484	1
357.7596215883735	13.251032806804375	1
606.216463817619	49.691373025516405	1
269.84375	323.0	1
391.6084209789462	21.0599727889128	1
422.40200289757496	388.4592561663859	1
336.39234305588764	252.54275826951726	1
302.41321818015933	113.44071745319073	1
436.171875	433.0	1
417.171875	452.0	1
308.6804508451171	225.48699799969228	1
