585.2826303262245	274.07137887104346	4
408.6965169447051	226.7893020865257	9
462.6226022508742	53.44179228606974	6
202.96593395894635	278.07840602297904	4
311.4460073673779	104.85606908910435	8
397.4143148189937	72.24508032780659	5
478.7569829052659	208.00777885230218	8
224.31405469960572	153.62282300073917	7
293.8821414259769	254.62540023367353	4
367.6283882037244	299.94788167211584	7
167.97519863368476	228.07227555090435	5
63.80529288583756	80.68311699017052	3
537.8122972232317	87.35632695644017	7
513.2546614519687	271.7658516110092	8
547.5532384890182	326.39883331915075	5
184.28154338675571	64.8267836613237	6
38.00559915912259	47.158516781213585	7
232.7250411259463	35.3345460504404	2
345.78546670860624	279.47859452359	9
286.89866822665056	40.297884439080335	7
375.0482549137613	44.263506701884474	8
381.5253521408839	157.99185865764474	8
587.8497831666132	387.6985120070725	3
160.34694740821496	88.3135777937662	8
368.9496506887832	243.2449345498703	6
230.56631842190052	306.5315050064539	4
153.00361625847972	40.807611661202735	9
335.9808350796403	208.43049279593947	6
94.05877344058578	42.43615406819804	5
557.8684708530095	156.3004724481401	9
244.50047021704964	199.3577558224864	8
515.8512931837431	210.00265083217818	2
605.1257850092169	138.65667833724126	3
590.5941175723817	229.65343120050932	5
557.6289364419092	63.61541140544572	6
107.51352448347279	131.91086828662566	6
114.47675724163253	190.50219971971546	7
546.011843073084	361.6325426956521	6
358.99689321625	83.83507504441427	9
396.5385368938938	343.12188366749467	4
154.48360614883006	148.7325236392838	6
307.6221099145341	60.446032284807885	7
290.71752273455627	166.91837781737956	7
469.29751475883046	169.58036886064735	7
533.7555214724217	295.04398315584626	5
450.05731830038656	380.6393392900307	4
582.8760590610821	128.39483987841044	4
136.93486658210938	80.8259475291902	4
447.08198674647	168.3430233845873	4
320.234551141075	178.92333599041424	8
297.6678261536035	141.1854567333365	6
494.3154298072957	402.14936168022234	3
151.34230005831535	264.00573131165106	2
303.28523026962966	253.0493536802714	2
410.8704563687688	405.13866774205684	4
70.39000594463283	182.6947991998769	2
471.7435413991176	369.100962725253	3
290.046875	345.0	2
494.046875	349.0	2
153.0099523568159	250.7204027749823	3
426.22396918934464	186.45983394286637	3
147.77287709156565	201.75726224447652	3
524.3933525849818	187.8500023907722	2
89.75411792555389	118.81811777713767	2
42.21981384260372	61.693409034806216	1
89.33113982077754	57.206615650456676	1
116.25189752259114	58.32831399654406	1
235.15191070560124	52.71982226610713	1
318.1575802861932	130.11700814613675	1
227.30002304257226	323.0491236731671	1
70.2622697819929	198.5406072574673	1
75.87076096987073	164.8896568748457	1
57.92358916866166	113.29153295482597	1
172.3368094013695	72.91039249568007	1
389.94626749102946	90.85756603307824	1
587.3651573043293	243.4085411009627	1
541.375529563731	340.9962972105653	1
448.2745758449589	180.5934337200691	1
360.7821133140647	318.5623302888176	1
592.9736484922071	349.96988397926435	1
574.921875	307.0	1
346.921875	327.0	1
374.0120902226784	395.3861460026251	1
453.9225085101683	320.1789553979184	1
222.68076034124124	62.92660409293738	1
420.70202161978233	72.88068043742406	1
320.171875	377.0	1
