530.2228487318116	506.7981389320346	4
354.8226411043318	416.5067857124953	6
348.9276702514827	316.79285116773127	5
219.90822908931625	245.44034707088173	7
565.726595135465	398.74887490816036	6
411.9993830704997	361.1555696480183	6
538.9786624378631	325.66114222105614	4
404.87374365006366	277.366840518727	4
602.2438003704091	513.1076468862626	4
319.6185211762588	288.1254613694085	6
499.51682195880755	169.76218714900486	4
479.0025432242614	344.26587638990367	6
166.13803223848015	60.9046780072904	3
474.2582742780864	418.5117861482381	2
188.25684255642147	203.18250303766706	2
452.1242067339492	311.55981578248225	3
206.32444299328307	131.49453219927096	2
177.19599013748748	175.8278857837181	3
337.48133756555785	357.7030984204131	3
127.52294778927255	88.89234507897935	3
516.9198114914803	472.25795868772786	2
423.2497062062811	428.6729040097205	2
445.29223252758095	233.72260024301337	3
216.8543169512033	69.60644192416275	3
246.50506301754484	133.07007153920182	2
597.5162241306201	301.85748368203906	2
359.4160005365684	376.55018226002426	2
485.8529269154512	291.52272174969625	1
565.3591164288098	496.913730255164	1
172.24517939053675	215.32928311057108	1
463.7678742728516	255.0823815309842	1
528.9187795685204	445.0138517618469	1
433.9530532053421	620.5900364520048	1
600.6952006569692	67.35941676792224	1
394.1999584486628	245.14410692588092	1
442.462186685357	450.51703901987025	1
351.2359905310646	239.9950581694636	1
289.48287313431285	211.9254607227427	1
288.0793931934776	293.3272933182333	1
405.171875	448.0	1
557.171875	548.0	1
560.171875	479.0	1
492.171875	182.0	1
173.34943202266675	20.980801944106926	1
224.14505310064584	23.189307411907656	1
279.35768470714487	358.88213851761844	1
253.0833282470703	361.98333740234375	1
