41.38271949919192	356.39602246499464	3
69.66744447176575	170.09426311217794	9
242.28198666518307	261.0046595120625	5
261.05748552971585	366.16396323450437	5
156.01589812144437	130.04860363132792	4
32.23351147739537	177.92256229555954	9
488.7921037381048	468.28007654977114	4
167.73542669644036	356.0767350879479	2
26.695001112444878	117.12610292227404	3
292.39162857981876	345.7908567483137	3
78.86216984069806	351.2188798276658	2
147.92684998764003	140.0463384016087	5
397.7030652167141	391.17002615787044	2
34.39256600253439	278.97461147868904	1
61.660760552543806	295.75503923680566	1
54.3193235583105	339.80366210186185	1
587.097893996956	593.607631943376	1
545.14682545848	94.38990613940607	1
334.234375	287.0	1
317.234375	352.0	1
181.234375	366.0	1
145.234375	342.0	1
400.234375	338.0	1
229.234375	317.0	1
211.234375	398.0	1
