104.05329269280267	210.99081469417933	6
365.7099901660471	42.552761394678214	4
216.25739630886122	375.2693536790731	6
533.4087344438744	232.508636048369	2
305.5789630628585	109.98692617249779	5
604.5850054835312	126.20422902897192	2
242.0245506939196	110.86698250218875	2
413.5934999217329	264.2168185391097	4
199.04597291884016	263.15936190408104	7
502.4852243857987	482.9251581043105	2
531.1033823154512	335.5455378447457	6
362.10310320363413	557.1211302296521	7
394.439971925386	582.5853365008611	5
324.5921579872647	52.19877412365692	4
413.23260814652804	457.21158838093197	7
200.29652027402653	130.55531555152342	5
338.48603614374696	407.32670597787376	8
293.71073263410517	471.649149535775	2
386.1047171309913	434.7013053854497	6
431.9088792451453	17.106866003737167	5
448.870162573343	534.2815119006184	4
435.4725284665601	221.52093344247686	7
596.3872266963097	367.2992704117808	2
276.32648844478683	192.98433725331424	9
532.5927331054543	299.2163691705202	8
443.31573689159086	176.77016432133524	9
361.48867714482003	324.2023181508216	7
514.3792263310868	128.22764569392015	4
227.5698475851507	191.36713737263645	8
219.38625434392395	63.926258697711454	3
572.4445900095657	305.8868503000722	7
559.8833750402312	122.07485617218462	2
605.4122218511843	194.64943774020514	3
372.23725088744004	137.49677529000041	4
603.2893456603367	282.7111385154504	3
477.92696518066583	87.14151664565355	3
603.5574414004071	586.643963602942	3
149.3719677015193	220.62007638570373	6
276.01482751335885	62.574840621089116	7
166.66812229884133	333.1439265232365	4
93.75540324664522	106.88393075595253	8
597.7744664617071	510.96990053477464	3
333.8294546366852	468.50564403876626	6
513.862190886484	436.2737875997544	2
166.55882154446314	269.41436759307	6
460.5159882579628	487.46317676315095	4
311.7521394779843	330.299262623544	3
223.97390272655602	403.5255457917589	3
421.28638976653417	491.33789493238453	6
269.1935388942046	261.10779966846104	5
296.27459611609345	319.04156042057747	8
426.4848251537343	403.7083976241103	5
495.11704043444047	181.5487241798299	2
273.31093658571126	294.6430325352977	2
237.18188524159538	240.98022231488835	8
233.3955665971687	278.0398559766897	7
291.53627216514366	400.0284933171324	3
283.9747906133389	28.447726392907413	2
577.7574255238642	563.8018656385218	3
417.1070038702428	288.7425070565424	4
90.88521722017767	246.03306749059323	4
500.91140697664156	237.9358643766292	3
218.22602194409546	35.72017010935602	3
447.6879798954509	365.0453219927096	2
421.6250579455449	187.4997306731216	2
533.7568733169587	268.0286702691079	2
275.8660018453113	78.89330719686363	1
71.75818986670853	223.05905224787364	1
511.25073745444075	297.04398541919807	1
558.7336006360299	278.27168894289184	1
469.2891374335015	553.2306196840826	1
115.11546369820508	259.99193198355755	1
412.5093454778453	424.7545776273273	1
188.171875	400.0	1
586.171875	113.0	1
406.234375	337.0	1
210.234375	305.0	1
463.234375	438.0	1
616.7940437202076	465.26857499322375	1
