576.4125161230834	395.75382327060595	7
385.83030823087023	61.75880291113883	6
591.3845468457032	292.73703515465394	5
545.1740868923696	175.97890512109956	6
536.7055201238647	271.185648580214	5
523.4892038594185	48.86333714860703	3
519.9552615300202	214.93606979317946	6
599.9981184850358	496.2247371116242	4
368.22802149726897	161.1221966688588	7
449.6802972247941	220.2506965550907	6
512.7470428550088	84.86500238130917	6
443.5230682406702	110.31605551023296	5
499.5596184022554	241.82687083045883	7
483.6355525642458	189.31178600743263	7
538.8756830564781	119.58334645384845	7
554.6897863873196	315.9100740728476	5
379.90902904856637	105.09904482034742	4
303.4983902935383	89.08397577966178	3
507.74174628298374	102.8571026816538	3
584.5682105947434	238.93879573524038	6
293.8014931897102	205.63894890660657	6
499.4812488092344	132.40759016979274	4
474.33756843791195	58.05341151697845	5
340.6880264286539	306.0421269542436	5
466.5677099717751	155.62948401626943	4
356.41843062106227	271.0232726671564	5
348.59841879684336	152.2957245789406	4
395.25978611276497	220.28713443194812	3
242.0765605910659	141.05735874453183	2
428.5078809888355	167.37775042314203	2
369.3668210242746	24.351924963823173	4
606.6035835056085	129.991438524751	3
546.0360449562056	414.1317404950658	3
613.4733237546895	414.1867147258951	2
453.0200364801854	447.8894445299277	2
321.3323366064633	171.1676356124131	2
323.2539899660864	38.251981698741545	4
594.8124646388637	325.0847822741961	2
338.03833870770126	361.1387109147392	3
429.6260256979033	46.476386220424786	2
294.3919769573444	102.49397087652477	2
576.3734742177066	492.9381443298969	2
336.1891546675406	73.53693313046386	4
505.44735031162577	439.3300800106274	3
464.35141133479516	463.67035012160795	3
610.0022638385916	348.09847309698836	3
592.9563817703706	150.61090307705985	3
258.54313784756107	128.68651517614487	4
259.8592441579853	79.99848326113141	4
519.4167416773214	493.9668808596486	2
222.07357913499692	156.7468178888488	3
594.4270087740298	429.42609509673844	4
501.5762104700011	369.1727072368586	3
490.37882860127866	489.70101465891855	2
502.25304539980823	307.61262887979717	3
264.99209807495805	198.60043553715792	3
262.01209204040595	53.413454532767936	3
415.49710095279465	34.459221809771	3
228.81274013798821	48.66503105577803	3
518.1190125722553	259.94196245475314	3
351.17875423401415	98.19495306970303	2
553.8142894200744	371.277584835492	4
251.47328335841962	169.52309399129797	3
471.360000401574	283.0431494740707	3
578.7054107624774	116.40076155858446	3
428.3124070758696	246.48211775730127	2
488.43824896550484	328.73813179273543	3
429.1052019530211	281.4676075630769	3
412.7679435886433	305.1645323651901	3
419.0011695970468	368.65405746961096	2
297.1675835839001	51.13788267610161	3
497.01135969309536	275.90310654792773	3
393.34489222693264	381.0456817116976	2
347.724662580945	201.00951277756252	3
570.761607233757	183.10638416258536	2
342.40462369188987	120.18977426860374	3
467.82502258568815	250.42823613963668	3
475.1346773694168	226.99836014368265	2
356.1193734182791	133.9023114165235	2
432.76522139754866	151.12106242653238	3
497.3611830165244	398.288045888707	3
295.2810952052988	232.36935811338435	2
531.2794526126097	365.1909261283773	2
437.6349120255153	349.38466343901297	2
528.2900205808634	393.6681884904053	2
546.7139315316742	437.8891979801099	2
394.5624944586018	282.59646766402665	2
484.6466056173198	6.610723209391041	1
614.6781123893373	550.3470248321099	1
410.29392232294396	254.41574262064657	1
459.26096785968406	333.1888177416836	1
544.4210470540146	517.3474933624864	1
573.1625737821012	474.7674527565204	1
555.066056953306	466.25144463532723	1
590.1945896209673	566.3145400593472	1
276.1667975918733	147.9656411057317	1
284.68280551130636	173.51366546931126	1
359.1978748063456	227.80321724191785	1
327.26284510847165	227.80321724191785	1
338.97235599769215	248.02873652975168	1
308.1018272897473	241.6417304388568	1
276.1667975918733	245.8997344994534	1
291.06981145088116	296.99578322661256	1
303.8438233300308	282.09276901452444	1
204.84523126662148	85.16008121193191	1
198.45822532704668	106.45010151491489	1
497.234375	48.0	1
390.234375	261.0	1
355.234375	322.0	1
323.234375	255.0	1
561.234375	211.0	1
515.234375	155.0	1
313.234375	153.0	1
414.234375	220.0	1
408.234375	343.0	1
432.234375	327.0	1
451.8056979603708	42.99984613017388	1
371.0498910238045	60.8290506231728	1
297.63552108147144	2.0975534697645792	1
160.24577161796248	54.53639021387906	1
236.80647170068121	95.43868287428836	1
168.63598532565766	90.19479919987691	1
578.7076802892608	196.12124942298817	1
572.4150200084894	295.75503923680566	1
435.0252705449804	425.8033543622096	1
396.2205321468901	400.63271272503465	1
551.4394857392514	550.6077858132021	1
297.63552108147144	321.9744576088629	1
586.2594693491191	374.9887930448958	1
362.6550557352962	283.32486585614345	1
