496.9733031447443	217.04459467390421	4
539.1105693823326	516.4742659768668	3
509.1815014529325	518.9735831601358	3
383.02475842970625	263.6514614348431	4
411.2750103369094	331.69250585710734	4
506.68210935263465	122.67944838021873	2
429.7808630861208	203.70902841824662	3
500.578744920359	481.1400718522573	3
478.0614955302677	261.72158619072343	3
207.87510041649125	94.28507190171418	4
516.6770906525682	179.89671583369795	4
549.9816815628858	108.35053992709265	2
411.6604808846562	293.17453057294176	2
486.7275052373356	297.0809546736364	2
581.5584050330237	335.5232960046267	4
391.2219368032686	449.5278561111493	2
329.5395226169352	323.2433936584236	4
539.1420516244877	427.06013960932324	4
478.03263622395616	201.95726741183492	4
324.3846902122398	179.70193156680773	3
540.9066871169471	200.5872666609921	3
429.6176677673442	535.0101877740472	4
401.51806997502666	232.2846704350768	3
375.9259864301975	450.0557122222986	1
324.48533512830204	149.64131227217496	2
526.3442498749089	558.043733825595	3
222.3351742783918	61.22865656913781	2
477.0179591962054	359.97080364214446	2
432.9585962103491	569.998025991042	2
583.2910731633309	286.91026687389285	2
466.8635712007926	564.3246330167918	2
326.9930842439882	285.81406787757135	2
565.6556901698293	378.91378858696635	2
603.3112521553035	386.79858457225214	2
523.1925261835909	300.5646548297503	2
539.234375	395.0	1
394.234375	372.0	1
436.234375	443.0	1
504.234375	339.0	1
442.234375	167.0	1
409.234375	149.0	1
363.234375	145.0	1
268.234375	183.0	1
266.234375	304.0	1
354.234375	414.0	1
496.234375	425.0	1
576.234375	432.0	1
485.234375	245.0	1
428.234375	246.0	1
301.234375	259.0	1
289.234375	150.0	1
418.234375	359.0	1
382.234375	347.0	1
258.234375	271.0	1
564.6541993373652	226.39303210828302	1
545.5758313495975	497.0673764382236	1
425.14363342681446	506.6065603793669	1
416.79684743216615	487.52819249708034	1
582.5401693258973	197.7754802848532	1
453.7611854084659	373.057985203361	1
338.9873268421638	471.5159173754557	1
228.56206362916575	290.4184690157959	1
489.84633152892957	164.55161978127794	1
449.06003513555635	253.156338125043	1
373.11313840306826	97.04326294793314	1
380.14525847089124	431.77219891326774	1
460.3114272440731	414.89510970493154	1
553.1354121393363	464.1199532292455	1
533.445475949432	475.3713460348029	1
564.3868042478531	247.53064172226425	1
411.0865867693123	116.7332003576587	1
