423.96871395719637	366.55077189909025	9
217.4164963440732	349.3178338101603	4
151.36432809840267	309.1945683951377	2
218.96946857269455	96.36569526142308	10
280.2680252225765	317.6804221870359	8
151.82696150860247	195.53942334707665	9
474.0210037909959	383.3609415310328	9
603.0136116231779	371.2650792429605	4
590.8052939636784	343.2854329413616	10
522.75953703507	264.9404621015781	8
495.67079220148855	153.77353461268882	10
341.22496967126165	117.65987559446555	10
428.3372907241172	456.49170867763985	10
372.3707673961097	278.6525780999633	8
591.2879053034403	280.64053664759007	9
320.7015644441584	329.9214351044517	8
232.1235957482465	376.09112940452377	3
250.72999870130485	364.98715186951836	2
440.5689212324329	327.18825259031087	3
218.51027402220257	252.16441786473058	6
207.65691100514306	317.3408985997846	2
186.89429949189605	299.40373159750703	5
87.02452877621107	208.9026583131884	9
55.57025241823298	222.8359410012781	8
179.94176535130617	149.85810469556975	9
213.28383364195588	277.98886775937655	4
365.421030921117	352.05384230159734	8
477.38461790903875	341.0632523826594	6
458.2575382751891	275.70707031851055	3
147.6980618885368	108.20190422850743	4
175.7442470700423	261.5740827198358	8
537.2462771744742	509.9320463789695	7
219.9164963440732	233.20073877552795	4
503.58469445665503	456.01042512301785	8
409.5274702162218	164.96123126684222	10
164.78272977811517	292.33093193063456	4
534.3483550761291	410.17375695988403	10
338.5700614219692	42.3871064487224	9
132.46942013462368	305.3356288167721	4
167.18137673590502	103.96322511155563	2
456.8406992104155	149.58211292042162	10
428.71344754999814	35.427348516672225	7
274.16252820103006	272.79154538095617	10
575.433415438664	42.86660292403269	6
475.2806276155648	422.5717255621069	10
444.7361521846491	291.44924589530143	5
478.2730039846132	311.3334319550862	6
400.944734271784	412.57793575635293	3
592.710885240513	240.189080466864	10
162.30555252191152	329.7576553039265	4
129.88915647668264	90.04722189918655	6
595.6362696738919	311.80496553863696	9
534.5901251948136	289.47739019824473	6
75.53161582975187	233.46001198457913	8
74.56073490522787	19.137263282650217	4
278.1272907508691	56.14824892705896	9
426.578125	315.5	2
251.10805691765012	343.3774426834898	2
22.329967762572075	217.48796258724957	7
8.856119736840204	155.3193099287568	4
67.48411471946116	151.27369740676875	4
149.80316782385205	6.084765728457507	3
465.8052613088439	496.0422372672719	3
563.6120743085596	49.08569028283394	2
433.234375	359.0	1
598.8389705482132	381.4052176955644	3
58.514430412158106	16.780427758116634	1
88.92895510255322	58.73149715340822	1
98.36794552371033	239.12109555316204	1
165.48965518527197	145.77996614863827	1
184.36763602758617	335.60855516233266	1
173.87986889296718	359.7304200646253	1
370.0011143103426	415.3155870133867	1
612.2685351200416	265.3405139252193	1
372.58882863120965	359.74840362251365	1
371.234375	297.0	1
362.234375	272.0	1
595.921875	398.0	1
