249.860039982945	91.59531227913465	9
548.1517648118725	339.02537041827975	9
547.4257910758231	35.596922594568184	10
496.05330449680804	50.60079536264466	10
479.324051141425	207.7332019178471	8
273.90325386744223	220.7643686954426	9
577.5138111965416	194.67163014013425	8
603.1284960309324	171.89121152958876	10
568.8001126746351	357.03519372703624	7
225.50951359478773	48.632498266883815	3
397.5950905185572	23.52591545133061	8
414.52860882393196	144.40204017979454	10
461.6930668561896	89.77270700399487	9
399.53748550327714	214.9484946091306	9
253.17540613496993	29.541677527334024	9
578.8310888367081	84.41226251704312	7
367.03141437938166	162.8288849388401	8
302.4604316774935	143.23967870323824	10
471.7970818278387	282.96310492924533	7
534.1441350927246	114.56198566127534	8
318.7127106872663	49.46191146138078	4
541.1227284399063	66.01161740642476	4
565.2287753033635	121.05618407942211	10
309.5105327792328	312.09307281249033	6
490.01853789478355	418.43740819923653	10
585.9302028266225	527.5967736695118	5
507.24329768065775	280.26785792945316	8
432.80693521696537	47.966789121671894	9
333.6707177612348	221.6700107730311	10
468.77399990971765	274.6605714898108	5
505.5761675576331	17.095283133157707	6
224.91841987398612	127.80527791634046	4
509.6776585394755	320.45679974260156	6
542.9852700373981	532.4834546291709	7
454.68939745213845	117.44741841371545	3
420.98992057218175	303.9104285712335	7
504.05401482463446	538.6274544112529	5
396.53047051158444	296.90644669474585	4
379.6596493567513	332.64255381376927	7
387.2458886279826	447.99333037361066	2
378.5532540473124	384.33643674802164	5
339.07986781492303	284.58448662675005	6
606.7431216654229	14.378252348361492	4
561.4412120798048	553.6248991462404	4
507.48474570678695	504.0073224368631	8
351.5592696571434	309.5677815824947	5
356.4338052495839	50.71647985482747	4
402.0965336805482	118.8480398850968	5
465.2102266042823	343.6240176936441	2
274.56540785275206	146.5457141626752	5
436.67051636230985	475.26350929636124	3
356.89312147818305	4.540045036148635	2
419.08881732957195	367.56176316154904	3
401.54603842031986	104.05380932953545	4
401.93883720587235	268.15371996061685	6
420.21530162042177	418.4220937068066	3
468.823524902395	135.91810663766495	4
404.8690772281914	378.4682421896882	2
597.6493926007194	494.90781086430866	7
346.1690400205523	51.26819510693953	2
552.7832965494329	481.14548392060317	3
586.3834448798593	443.4387665095112	6
494.0199591061544	339.52377288813665	2
549.952721147263	390.2805502363456	3
549.680886015778	433.4992306508694	2
603.3900540037957	240.06934645434734	2
419.9123163586404	316.7566931279281	2
600.6116622749237	555.4913221074701	2
226.8389081360726	185.85768631756324	1
463.85967343883834	2.0882886103096996	1
402.234375	425.0	1
525.234375	285.0	1
583.234375	275.0	1
288.3125	318.0	1
211.3125	48.0	1
607.3125	216.0	1
592.8699538422057	604.5441427803826	1
420.374023235323	495.8749784455807	1
346.44534728272356	34.4169552927745	1
