564.9113127918015	200.00282873325276	3
385.75393385424763	265.1143555116552	6
460.46106363740614	430.34569676690927	5
350.97303959590795	457.8790625953163	2
323.9868739879886	327.9400708733338	6
583.7357923153011	389.515280415549	5
297.988476582061	242.59483733433962	6
233.86505030235955	59.13901093575078	5
412.58805815087237	70.96536159889418	5
227.16366609880043	129.83185666237014	4
469.2615463893855	102.91872360822401	6
556.4212597492299	580.8620157928627	2
539.9790697587314	128.42281052179686	7
300.6908389951999	391.65431084149526	3
494.67953162251797	428.29944689789374	2
264.05522793728437	337.3185576332791	3
575.7421875	529.5	2
388.97661848393693	76.90346962341599	2
370.79212059566345	18.768784184248442	3
314.72528478975903	31.968609336004633	4
601.2075747547715	421.2523474914138	6
471.1872669844412	300.78664631126156	4
111.64327357860424	130.8020116239213	4
468.29806661305724	531.9144440302301	2
590.7421875	500.5	2
346.4728668922053	292.39890698407225	5
442.145647881692	560.0193036401158	2
588.203125	459.0	2
405.8681157347622	508.0404021311685	5
199.09431382051244	207.37743228261772	4
182.20701018997516	166.70271708114956	4
296.60990342867956	351.00626269700865	2
594.6717433116097	154.52233076107	3
404.13479512625963	388.35342680918444	2
405.0187702755554	321.39721939850074	3
267.7737528805716	159.2196291599943	3
387.84516924544437	442.662150604678	6
233.6239609109938	218.54252900411433	5
286.79028477592004	49.7660453291156	3
461.5503913484273	471.9492714822231	3
431.45146635513487	122.52462118200467	5
571.5903567131371	40.5640045400895	4
486.5992767228921	204.1469670704192	2
186.23953879879306	99.75065184269786	4
430.58900720952545	201.51401988898155	3
98.28637651891404	49.793560145808016	2
397.5641950182301	237.48985824192886	2
210.901570403629	279.0042718123168	2
572.4214535927847	596.5638492561087	2
442.234375	430.0	1
504.234375	92.0	1
481.05597345064604	284.1251228522046	1
497.6876886751775	277.1952418070288	1
553.1267394236158	528.0569356423899	1
512.933427630998	519.7410783881791	1
528.1791665868186	492.0215542074762	1
283.1335753074938	102.39146593845516	1
167.3125	219.0	1
396.40846371292275	36.44034021871203	1
171.14092675840675	91.65297691373026	1
538.8570532576903	159.0123936816525	1
364.74747822704796	470.3963711540814	1
525.4913632997201	459.8557882462475	1
496.5047610735005	38.23247193289266	1
576.8767036098367	2.6580046189533393	1
244.8483508367761	285.93617026698865	1
412.171875	94.0	1
386.171875	140.0	1
347.171875	168.0	1
386.171875	191.0	1
351.171875	196.0	1
450.171875	186.0	1
597.171875	191.0	1
600.171875	544.0	1
591.171875	617.0	1
190.171875	303.0	1
