572.1328400739512	140.45053920616718	3
499.90310597572574	434.56339108747295	7
459.78615832574764	410.1280589302662	3
223.37075857484973	265.4265584122479	4
319.0877883742094	464.6136455153061	6
300.83292390467466	202.49245555857763	5
381.05262719849105	515.7880479728321	5
299.0040796914725	422.845790975019	6
548.1111012746092	505.25695014631526	5
168.70817528143235	137.94483715642042	8
224.21186179229275	217.82770176006304	6
302.3495046721771	131.3092055874937	6
484.3993016624528	384.691712282719	5
375.1857886085304	330.35894943198826	7
401.80200664077046	298.9624767835045	6
543.8853601249309	542.9273081377336	8
392.6874484543028	222.6643900479238	2
412.8161048542803	484.65012681757884	7
583.7136082379454	64.04392218844112	3
599.9272461419489	526.5470374907777	7
141.24735997118302	62.58953047154482	8
277.2564126947601	245.91102619917382	4
271.92090035071226	350.53067779097853	6
469.75435867944736	552.3769439644532	2
358.4123161002268	152.5226816675647	2
366.0345415133957	176.73586768699084	2
307.7486890988554	336.6939027400642	2
442.93345685279814	505.502732654056	3
249.10242168627457	401.1581781812587	3
555.546875	605.0	2
150.3151671123701	8.390213879058317	1
245.96390228876623	19.068993197078118	1
372.58882863120965	444.1645407190817	1
442.921875	421.0	1
390.921875	261.0	1
252.921875	390.0	1
109.52170809713773	192.93211552703036	1
