155.3986000928909	173.9752867589209	10
324.47292082449707	473.39987890059865	8
54.873769237166684	216.69392022547777	10
341.7246724230864	379.67634075826595	7
452.6697171767436	418.53235497329047	10
535.2750693957134	233.6280201886225	9
143.4437768089532	250.9316762311071	10
443.2425080508555	170.6989541516985	9
189.54633398749633	307.9533630343155	9
11.943729984682381	155.4449197708272	8
461.922372408114	320.7945969583069	10
57.64791735416946	22.468896960179798	9
23.800817273812036	249.2766271925213	8
346.18099271747354	423.4690971742399	10
209.9609488272306	195.07531417525877	10
480.4979297082401	358.8638455959879	6
337.4251564532428	10.195106939529158	2
452.7107421276843	258.4773449014208	7
317.79698085656605	289.36917752376354	9
254.66834677240936	323.2134613324598	8
204.79742439148947	394.96698375485846	3
419.27218491353904	496.2049608847087	9
443.61848313359917	462.53165129386474	10
393.50428844870885	443.3646712212545	7
79.85755029037387	125.49064772707689	9
34.87325719216119	300.1974896810683	9
201.9845784168283	385.2183923332817	3
93.61442406466394	332.4603249868877	7
588.8174659137801	468.9203471808447	5
172.33674328094685	282.5085645638884	6
236.07817653607447	463.7644051495115	4
598.89646174062	444.46685151704537	4
358.94702615805465	344.4993845206955	2
245.3364930037527	326.4294046172539	2
310.234375	298.0	1
310.22084164301424	108.02400369287584	1
202.1968401564385	460.41298661332513	1
403.5619691411234	480.33974457608866	1
339.58658961994746	488.72995845514697	1
562.9760295873323	474.04708416679495	1
399.3668622872758	308.34036005539315	1
430.83016369113284	212.9016771811048	1
107.80693594486743	226.53577473457457	1
612.2685351200416	106.97522695799354	1
