462.74265011779175	408.63367330128966	7
553.6924701606738	329.2774374828756	4
77.24937734086134	207.4790152637587	7
265.91296570471724	80.5978863618613	8
474.8582087251575	196.71377944875468	9
563.0229902589049	303.82098286344865	5
186.3928016274318	312.75117602084026	3
270.8620442481257	233.06823337002106	4
395.18071533632735	375.39476581825755	6
43.05201148126937	166.77540386098224	5
139.62203497004072	47.14689231514984	5
77.84192129782681	80.12080524271457	4
207.1996332031939	56.41093440151064	9
165.26081592950305	94.80236264455064	8
412.41461018940197	323.0691238938082	3
241.73475562809705	152.7136214924125	7
218.7318033110122	105.23516103938798	3
167.37727965330993	281.5868994244307	6
107.7023908961257	165.88629273396927	8
259.7353972236138	121.75236721845171	6
508.4305030074727	348.0262404917909	2
301.752147058255	282.4628358393095	7
183.3887800879195	141.37022740004147	3
446.11013405345363	275.0791618556001	2
224.39119818083242	185.46950349792843	2
371.7884840518335	198.35135459455688	2
148.09887897311637	148.44047896579565	4
304.3234695751685	268.04754465801807	1
319.4483836274868	334.45818273776604	3
475.6363452156103	159.10087033963828	6
119.25338251806966	12.243135953670873	5
190.86461428545084	248.33503587606728	3
350.08336857685384	59.399282056747325	7
473.99989636674843	273.8798027647954	3
541.5788459940834	144.6474243732124	5
71.20670438412458	53.12366883351794	2
363.7705544684201	166.28475687122403	6
478.6794273909377	381.9262189483278	2
583.8182611533354	242.52201803197482	6
587.9561583782117	131.21322836923835	4
117.61949455478991	50.386438591798594	5
596.8848757133784	308.1104506846243	6
28.20269243487946	21.534699791502547	2
446.7827885142778	315.8734403931892	5
334.73942040173154	376.16356214272366	7
543.3985363149341	416.4616056670257	5
368.1340716152622	237.82324551820312	2
127.0515502291293	270.52683882083	2
482.8681725018921	438.93550936294184	5
420.80485964501986	431.13132179324225	3
605.6620248809425	365.7937713430046	2
223.04080046851584	319.12904009720535	1
149.234375	193.0	1
209.234375	277.0	1
488.3407273862947	272.8965538213565	1
451.37638940999494	445.7942627545785	1
565.8465973366006	433.8702828281494	1
30.40003958674947	112.52971641113565	1
352.9921138401172	216.54245676226418	1
233.9043854942478	177.34925025314328	1
12.310764394971844	52.232475627872724	1
609.2568457236337	350.7038175050242	1
441.93105019969056	371.8078517791662	1
473.5872817853014	337.13693832879005	1
225.159174072138	120.8297222033553	1
273.76882920557773	199.99402295727774	1
464.04090787075626	304.1575765808599	1
189.04914454443988	204.16056510222103	1
173.77182435964454	183.3278543775046	1
