320.2091808244916	270.4287664502774	6
190.21232600899566	149.6114409667635	4
602.3949766899772	366.1409775806751	4
338.104595142613	32.95791371465991	6
419.323923210342	71.35937138824286	6
263.3341839179632	76.75712456326082	8
234.76804770057885	186.01182602342897	8
405.5583450411684	18.845668692019338	8
388.5637807966018	195.72808190331347	8
315.6490213860652	129.5279326514442	9
71.8388335071388	88.50737250241193	6
505.66352479610896	128.0716270767955	3
206.6751497698443	245.61459017311049	6
560.5076921519164	393.64832233942377	2
320.36551646602743	359.43971467918107	6
170.69533806926387	77.81315070630549	7
369.05976720182525	379.11786999733226	7
229.13570061100475	116.2619326135768	7
242.25711103442444	156.02823916234067	8
378.9101083588796	322.977312600432	2
436.70333730303435	367.7139434704325	2
300.20672645138745	354.9374137322079	4
100.34192442582233	166.83842001404324	7
463.8603701494484	421.62386420399116	4
505.6982928467289	311.84730917642133	4
367.7171619380099	305.72245440184327	5
373.54802680465957	411.94557824000583	7
529.5548242745813	492.0416822590712	3
451.9029635370522	470.2766753388502	3
542.9395801842654	344.15917375455655	2
157.76446594364887	149.39131227217496	3
515.1885485987057	423.91227217496964	2
74.66345704057963	177.9444714459295	2
46.46455177108485	83.3052247873633	2
482.481443984626	338.8985419198056	2
530.0225696557457	451.37181044957475	2
453.1563225972612	359.08681652490884	3
150.674106400869	222.82102065613608	2
313.1948825042787	235.77659801620433	2
610.3125	412.0	1
401.3125	398.0	1
512.6590533487283	115.5644127328293	1
572.122521881253	227.05841491385436	1
138.88867971571676	39.111382665840665	1
36.171875	46.0	1
48.96573380642966	36.44034021871203	1
529.3156287829711	362.19489671931956	1
114.1166391020985	125.88481166464153	1
449.80943926961254	442.80534629404616	1
493.97954455481175	462.68189550425274	1
417.7861129378431	403.05224787363306	1
447.6009340053526	330.17156743620905	1
606.241966525004	196.94585350770373	1
434.3938522031165	266.2876804084561	1
