268.2367225146928	192.1839132915576	8
183.10278290415465	63.31293631156457	5
527.8775678258801	141.83257928913974	9
226.4256332719827	193.6064561300715	7
426.4890161667729	181.06043369586274	7
301.38246823122387	192.76154659156683	9
456.8967701165568	9.706175114383148	5
390.33460219355027	90.45369092897704	6
475.7664419559989	102.77301604450693	10
212.21810765334226	239.7508412247372	4
327.237040428392	245.6982409812604	4
566.3343066355335	185.21417031818123	3
431.5451482071897	319.30172255096875	9
181.03704109537637	183.31165191058915	7
297.4506728648013	15.537964734477423	10
453.0421054409911	289.8262263452315	9
348.5228695195319	284.3779234222745	11
469.2313206752583	197.21134596669657	8
152.7901128350603	57.47556286348942	4
518.3250469449767	421.7659423445685	4
548.6260755247429	32.86144131247814	7
448.367367148209	122.1129707125207	6
408.34755221361263	411.0757103876995	3
556.5241890562102	318.3156994047065	2
138.22146063526256	5.243883674411448	1
607.0246515527322	280.0233882135713	1
501.0982034930802	5.243883674411448	1
399.3668622872758	280.0233882135713	1
302.0173006550115	345.61176500625527	1
413.2896978127093	213.52759472310103	1
167.234375	107.0	1
438.234375	109.0	1
426.234375	264.0	1
