606.168646199196	90.50760579715272	10
426.67249065236086	460.49348999676357	5
473.04367251154713	179.8141755872216	9
563.6127004996015	567.1536581335193	4
519.6838474089843	350.46127688340493	10
395.0365910063507	45.101192306781854	10
581.1672182312293	597.0794439729179	4
399.7429357462365	397.66822093297384	8
337.291872665174	70.45117856431928	9
239.6717207815599	151.37282793734892	9
402.67130635181627	188.09953770817475	8
457.025510119717	432.12789294821994	10
488.4802837238251	522.2658477543455	9
290.92189417030187	301.0238285765025	10
451.236373321605	63.734353824535425	9
359.1573354939493	306.0835816310572	5
524.8633249953492	78.5209675879135	9
431.1163637696128	34.28129820720599	5
549.4325984719624	123.15823507451745	9
328.5080810830272	125.84884646281853	8
510.6013470093325	481.57947041364486	4
594.4701827258916	193.66968488247647	9
371.24353573079077	217.34814854962997	9
569.0336573200157	412.54085025774145	9
302.5680259521252	241.75522110674262	10
260.55832517959476	188.82163924707498	6
404.7307389844155	73.62654621790789	7
521.2675895113887	511.3602023801921	7
517.1344458102845	473.7965321454758	4
551.7750261194217	343.29507719951926	7
209.1902759693662	17.664627800582622	6
511.6442045965555	546.6852079208695	5
198.56916821377834	204.99138405014247	4
373.3810840214958	462.45076631020476	3
404.4416437118263	154.20857410588786	2
575.8020378809797	34.06426674996096	2
184.89579372898396	78.41878806809308	2
222.15076818833336	72.18269205359553	5
271.078125	147.5	2
410.0455840526553	455.36373931843923	2
352.3125	14.0	1
312.3125	414.0	1
186.3125	15.0	1
599.86068440215	617.2614400964104	1
213.69495632920842	89.82271182950684	1
423.84375	56.0	1
560.84375	294.0	1
176.1037045385349	63.87006090894893	1
363.45587876606214	124.54661877245042	1
395.3909084639361	127.74012181789786	1
371.97188668549524	145.8366390754334	1
201.65172829683408	234.19022333281276	1
