27.498223191008723	47.44070023172577	4
598.435838659952	520.6133909570831	6
392.3520518066839	277.37628147199536	6
346.1590138390686	187.60000546412294	7
373.9037982694365	465.19497627608234	2
455.0567880314842	310.9714906600382	7
524.2349980801635	446.52097683170336	6
401.67272344061837	310.2778046928063	4
124.52101455515191	400.5680610412513	3
379.6026647254555	401.55276046793347	5
110.17774909890016	29.52198252900516	4
80.52121281096706	357.97015775660816	6
270.77978389221875	98.81104456996613	7
528.1538750763668	249.9480158442205	7
460.5969630651372	425.852248721709	6
385.2395911486392	531.2357159423507	7
173.56367400560447	366.57265934303166	7
211.26541360928542	324.33374022799774	6
286.94023298825556	162.67010263444303	6
204.96323270645667	381.59926887819313	5
274.1439231089579	395.5729609827887	6
339.65641191464647	486.1272634626972	2
543.2388002988946	554.4616529452674	6
347.40306247120134	381.5831353552675	2
45.728969197626235	96.72814626763912	3
332.9976255004142	463.7691076913842	2
499.86956803675025	84.53861535037446	2
398.33199355531923	248.5230345929625	5
128.72136526984258	216.15812161801148	2
355.33906407305915	413.3790283012955	2
527.234375	382.0	1
513.234375	188.0	1
338.234375	38.0	1
295.234375	96.0	1
365.234375	323.0	1
100.234375	273.0	1
473.37069021116747	585.9629171727732	1
