525.3685820863225	389.8660827514809	8
180.32283104502824	67.2529861880752	6
540.9177685912559	351.34617488317684	8
463.8444834089737	312.9082200056128	8
444.82425971584905	486.11981031101277	8
263.24460302958556	382.8707805234733	3
545.5473811820955	227.19555217037018	4
460.721898599783	51.895061637605195	4
511.7504870653244	198.09588912670583	8
356.67165138276755	158.75085175017242	7
376.5593827638138	260.2067003506143	8
596.5972209583229	210.18187927108033	3
410.5917071638062	553.6472024132722	3
183.34311835237355	182.51370326663272	5
547.9161005944065	437.6133176173706	5
458.27005159133523	159.2710433502805	7
587.292264032701	301.4502807573108	6
478.6720895559454	538.9361374975916	7
527.3304337213615	475.2383838542929	5
460.32571265645475	414.5170851644735	8
416.59383380904796	526.6582206500223	8
391.9791597433457	304.7871935277799	8
384.26393803967363	482.825433971382	8
280.0818645246619	307.2636952183499	7
240.3006731813647	68.0247041085805	7
507.64666489699914	603.2567810062565	7
316.398485431301	463.7725144349819	5
230.9520918556766	149.9124575356511	6
553.8821527371146	60.829536197568984	7
486.03671359818316	370.8436310868344	7
268.7075319767324	59.817628486438224	4
609.4405452933277	547.1180455554102	3
441.28292054398685	442.72656797657135	6
224.57533340883697	27.399954015747912	7
607.0821589809011	611.3118113000293	4
206.99126327285623	90.74678272106655	5
200.35814283461696	130.2834516323892	7
454.2701739992362	561.2270066289782	2
404.6859058364528	170.32419160560033	7
411.59258748256383	251.42783361466002	4
240.33215637831583	283.8592475765503	3
307.97329710532915	51.31707328657416	6
559.3584843121475	9.357016774403887	4
412.03513124957936	407.63849571088457	3
266.9331019398586	274.8165871672565	2
380.49166921391793	364.0359286044007	3
316.02572088602045	293.7555777811971	3
520.5301911225962	463.2308816741037	2
298.0997017468989	333.59364369976095	3
455.7768275604684	258.9569220542165	2
557.4020982909854	459.4412992603407	2
552.9340754687726	273.12869288944546	3
277.38788197477004	136.50250016122172	5
345.31465588740986	196.25872139990895	3
553.2039008690223	140.04349840420056	4
363.79430688221834	94.65544888294039	4
536.9495509429782	292.3917816328632	4
502.7734375	301.0	2
307.0078125	98.75	3
416.203125	115.0	2
358.84910252887335	370.96108308452585	2
330.00871406026033	272.66964377638215	3
569.0048781802655	120.54267476577783	2
351.703125	122.5	2
314.7569535642562	401.2941418717183	2
265.171875	11.0	1
299.30723272015973	380.34304540306806	1
153.88324115939204	11.490385618526982	1
240.234375	203.0	1
179.234375	218.0	1
356.234375	534.0	1
402.234375	292.0	1
351.234375	501.0	1
419.234375	214.0	1
233.234375	355.0	1
227.234375	381.0	1
597.6068655380492	418.19099008132594	1
550.8873042053118	564.4955376359515	1
