480.74968349512625	335.53423458219754	3
514.2816768568806	409.5156135771549	6
421.00767083115744	275.60551409824643	7
371.92888058827464	495.53146107524293	7
421.8262739364325	496.2345881492098	4
138.53899309152706	101.18719039290387	3
297.4555635273617	312.3960609324512	4
490.0784367953778	464.08167065583837	8
271.755773565912	361.39246153361955	3
453.13226405037824	455.6821049392214	2
260.42803465824863	308.94197838126996	4
598.1144786374608	482.72533247587467	3
530.9843346562977	518.1881593365714	7
96.44275546710901	89.22223572296477	2
273.89788597859126	230.37964763061967	3
280.94379194589914	98.42853818643725	6
507.67959570513483	488.96318410657	5
568.7923830298505	371.1058575271378	7
181.21854128810668	44.466876803413186	6
161.07325667777332	46.83776513451197	5
214.45919487751496	296.5080111829135	3
525.7256415561815	445.0326907853456	5
325.26259995565033	288.58955592540894	4
473.33839485863547	315.6817971995692	1
493.2651524144116	619.8270503154332	1
421.3911732699757	260.09663025080783	1
433.234375	458.0	1
538.407184555838	389.8970240141451	1
169.0844827237113	100.47026825448306	1
209.78535190521097	52.232475627872724	1
574.5857349393932	588.8779185989127	1
298.1299794533545	204.28675577156744	1
535.5442953613003	576.4199270959903	1
310.3125	240.0	1
116.3125	63.0	1
