60.28640815605572	156.31761362626634	9
117.62029468512586	302.2776141348862	10
206.23120828940216	377.60686670078417	6
25.43289833219151	237.78322462947864	3
226.79683915067554	208.91414855302057	10
511.07071512548094	311.24432233181824	10
11.826068926813527	32.39121692540435	5
594.7389159583689	429.7201927644324	7
371.47749217458	258.2447872432589	9
29.635890360881493	209.3532851207878	2
377.2603915025378	224.7907178271269	4
182.27008260066236	352.3889829204494	1
467.08063216924154	470.41166464155526	1
