520.4412942856482	372.87448924185776	5
526.0113582486723	210.1895316723865	3
565.5348227237916	208.80788611803015	9
470.34001372744206	243.41948539757885	8
547.8999488963098	240.91228225951687	7
262.9620087965326	432.3814094775213	2
293.7633528001075	243.98162944507249	3
264.63716830155767	346.56192884700454	4
440.8683190015605	403.1823494929737	6
113.30511363447064	158.9990375545197	5
397.1799098952833	278.790609008032	2
347.3113014615525	415.3964313552716	2
340.8619377434768	228.5288227241602	6
392.69214723881146	377.3823708130377	9
364.81424520197595	412.9771669223562	5
297.0917760873333	427.6333242959298	2
274.76150549737247	411.3229305414527	6
379.70491998822854	59.22279732695991	3
80.98828125	305.25	3
407.2033352513664	234.9843887689419	5
462.025784936122	90.04228748088197	4
346.3762664762456	185.9185600001009	7
360.2084704993997	45.21693594066173	7
279.6962882918042	27.396385734370746	4
162.30919009912236	49.170862629422935	8
75.08286196214266	67.8413722156292	2
592.0976876912791	245.2492799541644	7
364.33087582260794	322.77370586744007	4
242.02294433790345	33.26636965958512	5
510.13462754849786	165.4724755165837	4
66.83697836156904	10.938494357608676	4
560.467784032822	169.55534992348106	5
38.12751300669173	250.11845410556668	3
540.8967284964483	27.720279129587738	7
381.54268117069796	289.6461649861247	5
418.04388001269365	152.7520502873877	4
321.6266132919983	414.7890980868131	2
48.524188775901884	93.73511360302018	2
106.21713340431586	27.22980336451754	5
526.2402804238811	141.8774810461697	3
491.09503931283814	302.065179837498	3
431.58646184801836	313.4521134937755	2
313.92447515465904	46.63027450481742	3
518.5657988654751	325.126898329711	3
140.5580619629285	140.35172943387263	3
366.71718301132734	458.4046602955912	2
180.82341207952206	380.6418413868052	3
457.2421875	332.0	2
420.81573101597974	96.34075875518074	2
305.9713355894729	348.0962594329694	2
133.02854388483127	50.402484162219224	2
486.27499507237076	399.97174771497197	2
541.5111266913846	338.3064738921918	2
597.171875	411.0	1
602.171875	490.0	1
240.171875	376.0	1
24.59986908326173	89.85693417100403	1
355.52446842779625	6.610723209391041	1
439.8491294495259	7.928296072870275	1
319.9500020592541	154.17888391906524	1
26.13126131166482	17.151306117224912	1
222.94069588928463	390.2393511278395	1
70.3125	182.0	1
230.19426881396254	99.79028705053038	1
220.49243493298582	131.6677398583387	1
209.40462478329815	80.38662012403836	1
194.1588858274776	145.52750194869014	1
124.86007239192969	131.6677398583387	1
130.4039774667735	307.686718405802	1
452.7253479515518	239.6228432563791	1
221.234375	290.0	1
530.234375	466.0	1
386.234375	406.0	1
350.234375	257.0	1
241.234375	361.0	1
279.234375	192.0	1
248.234375	161.0	1
247.234375	201.0	1
299.234375	174.0	1
394.234375	189.0	1
193.234375	359.0	1
