351.0721589473358	257.52428350306775	8
445.13068797326537	298.21314817664256	4
308.7619265742128	229.12788337270462	3
288.4749998646196	32.69056350491509	9
533.6120941799063	308.6411117014012	9
437.07655586102027	151.8039875387445	9
367.65209548768206	203.85347745807047	4
297.5285919865274	140.7361183295133	7
370.5589454634412	288.94936595006396	8
263.7866073172522	251.10272482787303	8
508.578125	374.0	2
605.7763988630738	170.54358493639472	9
385.5390625	234.5	2
569.7759207907827	413.60901677181107	2
447.44201430326166	497.81008616710267	3
499.781229493241	278.044489775789	6
607.5467861618295	270.7488753479448	7
80.66071181939634	137.7015309096518	4
234.73875086120302	100.28524553722926	4
203.755909835041	32.1738967498699	4
315.6553831943602	230.56465514275774	4
401.51195856304133	75.80711130430396	6
588.2651205914839	468.8955872936848	3
257.5687282188766	34.321403069424875	4
595.1183724129007	505.91481513304984	6
419.868470129021	183.59661209497762	3
118.82845659435404	126.30499567239613	3
482.3277838133736	308.0081715299757	5
270.7716053022691	419.80412371134025	3
393.70816687848935	157.97930502505017	2
297.15581888345247	275.81772167093203	6
188.849782227255	59.79258347438068	2
208.82783514841208	112.20710878596708	2
388.2734375	326.0	2
284.5001456601677	143.9735522516481	4
116.7734375	317.5	2
221.44266197396902	134.18421602524	2
257.7734375	205.0	2
572.8020378809797	242.48211775730127	2
602.9686015001168	477.9609558019678	1
564.6465658626681	218.22270810557552	1
451.3125	543.0	1
416.3125	544.0	1
174.3125	58.0	1
275.8670268709966	220.68732907493867	1
329.234375	330.0	1
157.234375	226.0	1
257.234375	461.0	1
83.234375	282.0	1
167.234375	184.0	1
397.234375	379.0	1
249.234375	403.0	1
96.234375	237.0	1
188.234375	119.0	1
193.234375	239.0	1
348.234375	361.0	1
263.234375	286.0	1
299.234375	363.0	1
600.234375	346.0	1
494.234375	374.0	1
376.293774591114	59.78027388829051	1
396.2205321468901	228.63332820433914	1
48.0266632775391	97.53623634405294	1
156.05066476411486	141.5848592091091	1
370.0011143103426	504.4616094783813	1
9.221924879448775	227.58455146945684	1
58.514430412158106	337.70610863209725	1
567.1711364411799	478.24219110632407	1
273.51365667184774	372.3157408832128	1
492.84375	296.0	1
