55.5986976516723	124.92201529219774	9
293.13554753183007	174.69584375222468	6
208.30292064224832	317.57025770258167	5
370.29751373856635	327.46661056134894	7
556.7697863475414	302.2443596397981	6
178.8861555117418	174.15682116231085	3
389.9080763621324	371.54927632348597	9
184.24555720336363	291.5375448462028	4
249.72061868548312	409.6841450227828	4
148.61112426124552	230.7201407187501	2
426.92148502968655	461.48484254960266	6
437.219951414039	491.95093922528844	4
131.60605563214364	90.6654642018002	2
516.1175042202356	327.496552557295	5
459.5379658717386	202.08451148331292	6
104.6736657200609	98.99102726416777	5
520.1023043028708	222.62695583133888	5
126.92912343962391	272.6602420423277	4
531.8783866038443	372.86655849383544	2
559.9265203193438	380.8606789779307	7
165.43077058479997	99.6860081093858	6
509.3549380843995	366.7313596654983	3
153.26597443700314	354.0828346811145	7
324.1653394359255	393.1580261821404	9
144.606346849102	144.31719229270612	8
206.3701771879034	117.520445657709	9
525.9953910272282	404.9025527795965	3
82.03147344202281	27.141807867300955	3
239.97160879129777	304.33475091130015	2
225.60012566496704	154.67257272008143	6
84.23181289138074	161.16802705969977	5
7.711537203169679	101.59125151883353	2
33.893836136447774	94.0287813223693	6
246.00480377082079	8.641532023325698	5
121.72317203522618	9.335449794313194	5
409.8104034799872	30.79926815124999	6
129.44895171652192	54.239588906233095	3
267.5132153313575	99.92968484543	3
368.405820362377	98.69984774123114	3
543.7861682851104	282.60745004284513	6
242.24398118238975	81.42434842091784	4
48.994266918378585	185.4397310728326	5
36.72915929346286	53.20842290269833	3
217.5302485801625	276.2616164649784	2
133.67612633673158	29.915565395780973	4
286.78248973089325	259.29200108816906	3
110.5559021856103	144.2159243210985	3
289.15445372401865	115.27507071522095	6
211.26492604634083	444.76437967744175	2
319.17312626778437	372.0446177811822	3
387.8874267559851	184.90772611230835	3
385.41179637323154	83.5515954696522	5
157.87779723121673	69.47076797682865	3
86.44469992067982	237.10798793795178	2
157.6142614024885	275.1879708383961	2
108.17105126937686	286.9660114195636	5
497.19570750662893	398.48740955477115	4
432.289155550866	246.07205346294046	2
110.16409627106219	247.15467532644004	4
205.38430055270157	169.00986031224323	2
179.9735339129862	410.3343793975098	5
295.9113484669209	466.1798018981966	3
313.59402884948236	133.5973226650254	2
259.66400167000825	380.84984228801653	3
81.0505280714574	268.9019724387099	5
10.7405533078291	184.33482280659211	2
446.78464009807976	528.037730649908	3
151.44660621110472	257.6153674509955	3
84.76304515220271	59.654740235909266	3
515.1445484568546	273.21283853932476	2
164.218013586506	195.35758240776178	3
579.8137581907044	369.30470399517026	4
532.8400862114505	211.85290044622252	2
360.5575446948643	422.15740883212806	3
601.5536237908422	458.3881138966909	2
138.88237236783937	204.11634076059738	2
477.05658032826636	397.1456377904293	2
137.234375	216.0	1
283.75256417360697	295.87849505040367	2
341.66543252098876	367.0696980942031	2
263.04862601451066	188.61568637845576	1
562.232104786467	467.2032231558301	1
175.234375	381.0	1
427.234375	372.0	1
31.246235862148687	209.75534697645793	1
163.39210175834816	294.7062625019234	1
114.09959622563883	195.07247268810588	1
134.02635378141494	339.80366210186185	1
592.3417775642655	531.7298045853208	1
573.4637967219513	254.85274657639638	1
448.65936781998516	388.04739190644716	1
458.09835824114225	414.2668102785044	1
605.9758748392702	386.9986151715649	1
590.2442241373417	413.21803354362214	1
611.2197584065798	98.58501307893522	1
267.2209963910763	325.12078781350976	1
340.63536633340937	334.5597784274504	1
108.85571265832934	313.5842437298046	1
261.97711282376684	457.2666564086783	1
324.4121015470456	449.92521926450223	1
405.3125	412.0	1
591.8611795999293	298.1482381530984	1
244.02160047898548	375.44592952612396	1
