415.88020380444317	268.1018158393397	7
252.99534011267707	11.313302853589272	9
318.55772165863715	141.06409126643985	3
259.68033554060503	138.67388609817812	9
596.5629090717287	177.48065494484587	8
195.12858828247823	46.00151906369953	9
134.63776905389568	178.018733876459	5
249.5526793818915	74.56540273676211	9
449.6864421389446	160.55386158464324	5
181.19595215443582	97.1402616235092	9
255.16728398410646	47.79376738732648	2
492.2219692884821	312.3388844209303	8
330.0533996007192	107.10942480121038	4
219.9326125292352	91.8532056704478	7
453.69413173772074	236.8047883757238	5
438.23462429710025	104.9690782722713	5
417.94154011743467	31.58920594800452	9
256.464389025763	225.30851571035953	3
406.9357414906907	214.58678332462796	8
150.13382197090027	61.56253126415594	7
392.60138692756425	349.6941837205724	3
515.7730861588068	350.84955262157916	3
498.26601286394856	260.365597471349	4
415.5536289091137	327.5165816945991	4
467.36531758247287	392.2784933171324	3
237.0594858503406	198.56062471149409	2
384.2734375	118.0	2
212.87487152272502	222.91336684099707	2
539.0338724419378	129.36521314566545	4
59.8155701622547	150.89884568651274	3
139.68540987743893	125.48111085544346	4
547.3238394443034	399.28719148893674	4
545.559422854585	356.42904009720536	3
198.85458272890003	152.2174968926161	5
471.1660416324768	350.6815928169507	6
360.2734375	310.0	2
453.7173793747371	337.8938155727196	4
384.40978423970995	301.5340718879451	3
555.1503332624131	148.65717084570616	3
215.59872269685863	112.97857111207126	2
367.0082261749493	222.8025127967848	2
349.9339076695927	188.8968382298405	3
242.65593935405474	120.73893242312121	2
511.25073745444075	382.07144592952613	1
47.46463195984897	23.189307411907656	1
360.7947597416544	250.3617029530493	1
327.00126905840466	207.65779350669334	1
301.83062793531906	159.41406370210802	1
542.0004953180943	230.73088167410373	1
273.51365667184774	188.77981227881213	1
565.0735830142561	222.3406677950454	1
136.12390720833875	41.95106939529158	1
150.80678119680536	17.829204492998922	1
592.3417775642655	288.4136020926297	1
572.4150200084894	315.6817971995692	1
311.234375	25.0	1
73.3125	181.0	1
44.3125	173.0	1
110.3125	222.0	1
148.3125	202.0	1
169.3125	290.0	1
287.3125	181.0	1
432.3125	367.0	1
604.3125	248.0	1
281.3125	323.0	1
545.660508783198	371.9197887735245	1
