301.5183177373086	375.53408685265526	9
485.90304803644756	481.30719636577953	8
323.93305505567025	256.94286521522383	8
404.971817444057	175.30357658864506	7
421.98310707901567	6.022561126405708	4
107.61900006476043	186.11366414874104	4
207.61493525501692	53.7304362316152	7
226.29062317940662	157.5932370883127	9
414.5030376020176	81.68007148462955	8
30.570079744847362	233.18585634782573	8
254.2371700056445	54.371062711216794	7
446.33520894770754	79.66479745398945	9
474.2276828148066	255.16894605073293	9
298.2961075161218	79.43247202293404	3
517.8135284690974	280.5018731132817	3
190.8853381450109	198.05356878060437	9
414.2139244304385	338.96675278864683	8
560.6787964147927	497.95890972528315	9
210.1051786389752	376.4680466201871	9
83.5524788593843	281.93616335660863	8
286.5114382935619	263.5377577866217	9
81.49907190306736	246.20318733316563	9
38.180569691509376	139.65647099132218	2
183.3949495137412	146.52344369614326	8
23.805111702822494	173.84905695836477	4
51.46803655738155	34.864471822255204	2
421.69804028750985	369.60512995839747	4
139.99616906754375	316.90754088256307	8
248.67412147031587	436.16936485301886	6
196.96412969578464	354.0550443653285	7
447.82844845596054	528.3917090747331	2
491.3122283009044	274.4355086329217	8
592.6577317270649	306.73487157738487	3
595.4653557828112	159.8579333103613	3
347.6774634277333	184.59092294643094	3
94.8522539258913	205.22335061409234	5
17.54128112986058	157.0478702255679	2
41.516438927167734	21.19772075208988	4
583.4862863409205	550.5035385797969	2
462.747659689226	525.1496409502804	3
300.171875	480.0	1
398.234375	88.0	1
337.234375	252.0	1
483.234375	228.0	1
170.90878653764005	399.99533490603545	1
374.70043149824795	520.3191348371193	1
341.4375	421.0	1
26.4375	195.0	1
601.4375	97.0	1
