453.7890109676399	77.390612850001	9
478.5655126471527	152.8635706930943	10
120.49433280421817	28.290020302982978	3
185.30109311163315	168.51055490130335	8
515.8879312898295	72.46363085863052	10
400.71341341358175	3.725753553022021	2
413.971121825038	70.20584237280654	10
331.03424264129654	27.895439921945382	8
359.9866085893086	321.5960489885474	5
424.13243519202274	32.46728096204904	2
468.7048943864172	224.62218922069934	7
306.89289451262084	15.912530674650695	7
604.3317382830669	127.84146054774418	8
483.30822122426383	63.568166975699505	10
317.0692910228547	47.53573802199766	7
146.12542798910238	54.010141374339284	7
428.5095216814724	141.8347776242987	3
200.9083546754864	69.99389231265384	4
469.55208202880897	254.26434421850573	4
287.748086172275	96.85809795675947	6
560.2202027665426	157.84625597900816	6
475.5048145592226	111.39480736654185	4
540.6936047710568	295.434444791504	3
517.1049745739289	103.765773856005	3
176.63039438966916	213.99117601124473	3
448.9964794751609	459.96446977979076	2
412.6534238345236	25.160603456856325	6
369.0131913628893	112.38630329533032	2
252.04141220839352	137.2979072309855	3
214.83686959302725	271.75612993909107	2
434.14558101275765	104.06414961736687	3
280.6171875	373.5	2
100.6171875	22.0	2
292.2556567153697	299.40114009058254	2
521.526451127716	129.9345619240981	2
180.80472117588693	43.51023226131042	4
412.64014915643656	111.45080431047947	2
506.57494419821205	221.27260659066064	2
327.208948545266	91.45722634258975	3
304.81834817508627	367.62642511322815	2
205.01255511316901	245.4498672497267	2
164.921875	219.0	1
566.921875	140.0	1
513.7374525827154	115.53343575452175	2
205.9097322565506	150.09464313603	1
186.7487144378262	8.516008121193192	1
53.6860906966847	38.32203654536936	1
107.97564118307044	190.54568171169765	1
279.3603005616607	274.64126190848043	1
390.0684035142905	127.74012181789786	1
217.61924314577107	200.12619084803998	1
513.5505183460698	268.25425581758554	1
307.0373262998182	227.80321724191785	1
231.45775601484976	278.899265969077	1
191.00671839754276	295.9312822114634	1
212.2967381961254	310.83429642355145	1
390.0684035142905	420.4779009839138	1
274.03779561201503	326.8018116507887	1
248.4897718537159	336.38232078713105	1
231.45775601484976	112.83710760580978	1
390.0684035142905	178.836170545057	1
413.48742529273136	205.44869592378578	1
379.42339361499916	135.19162892394192	1
194.20022136733016	120.28861471185382	1
336.84335401783386	423.67140402936127	1
383.6813975747157	451.3484304232391	1
497.58300349713284	485.4124629080119	1
312.3598312494638	349.1563329689208	1
264.4572867026529	316.1568014992972	1
277.23129858180243	221.41621115102296	1
106.9111401931413	232.06122130251447	1
520.921875	237.0	1
396.921875	155.0	1
326.921875	65.0	1
114.921875	72.0	1
321.921875	384.0	1
215.921875	91.0	1
59.3125	21.0	1
575.3125	505.0	1
572.3125	420.0	1
