12.368255019834477	33.56085551623327
33.34378928907249	60.8290506231728
82.63629482178182	25.170641637174953
191.70907302181948	92.29235266964149
212.6846072910575	45.097399599938456
179.12375246027668	15.731651023234345
255.68445254299542	115.36544083705186
254.6356758295335	50.341283274349905
506.34208706038964	29.36574857670411
552.4882624527133	39.853515925527006
602.8295446988845	154.17018002769657
578.7076802892608	185.63348207416527
562.9760295873323	213.95045391598708
590.2442241373417	287.36482535774735
542.0004953180943	283.1697184182182
594.4393309911893	339.80366210186185
512.6347473411611	192.97491921834128
526.2688446161658	119.56054777658102
542.0004953180943	157.31651023234343
473.83000894307077	73.41437144176028
469.63490208922315	139.48730573934452
471.73245551614696	171.99938452069551
449.708144533447	195.07247268810588
475.9275623699946	211.85290044622252
527.3176213296276	231.77965840898602
485.36655279115166	97.53623634405294
585.0003405700322	61.877827358055086
523.1225144757801	13.634097553469765
441.31793082575183	101.73134328358209
414.0497362757424	160.46284043699032
387.8303184391949	210.80412371134022
432.92771711805665	246.46253269733808
359.5133471757236	233.8772118787506
302.87940464878096	155.21895676257887
280.855093666081	31.46330204646869
187.5139661679719	198.21880289275273
156.05066476411486	29.36574857670411
112.00204279871504	9.438990613940607
50.124216704462896	106.97522695799354
27.051129008301086	147.87751961840283
71.0997509737009	263.2429604554547
81.58751810831991	295.75503923680566
222.1235977122146	381.75473149715344
266.1722196776144	415.3155870133867
221.0748209987527	414.2668102785044
333.2939293391761	440.48622865056166
374.1962211641902	464.6080935528543
599.6832145584988	531.7298045853208
610.1709816931178	504.4616094783813
614.3660885469654	420.5594706877981
568.2199131546419	406.92537313432837
538.8541651777086	422.6570241575627
480.12266922384214	439.43745191567933
505.2933103469278	271.633174334513
417.19606641612813	283.1697184182182
378.39132801803777	297.85259270657025
200.0992867295147	140.53608247422682
346.9280266141808	157.31651023234343
299.73307450839525	116.41421757193415
234.7089182737574	206.60901677181107
241.0015785545288	238.07231881827974
206.3919470102861	255.90152331127868
337.48903619302365	335.60855516233266
397.269308860352	421.60824742268045
311.26961835647614	349.2426527158025
360.5621238891855	382.8035082320357
319.6598320641714	394.3400523157409
503.195756920004	403.7790429296815
420.34239655651385	354.48653639021387
447.61059110652326	390.14494537621175
445.51303767959945	332.4622249576858
474.87878565653267	293.6574857670411
271.41610324492393	250.65763963686723
223.1723744256765	167.80427758116633
122.48980993333404	157.31651023234343
102.56305237755792	83.90213879058317
97.31916881024843	163.60917064163718
105.70938251794364	60.8290506231728
39.63644956984389	163.60917064163718
131.92880035449116	63.97538082781967
71.0997509737009	203.46268656716418
127.73369350064354	244.36497922757349
282.9526470930048	264.291737190337
145.56289762949586	263.2429604554547
296.58674436800953	291.55993229727653
336.44025947956175	255.90152331127868
354.26946360841407	65.02415756270196
599.6832145584988	110.12155716264041
