331.234375	260
473.234375	146
435.234375	99
403.234375	52
247.234375	51
269.234375	109
188.234375	209
63.234375	194
216.234375	390
341.234375	336
368.234375	388
403.234375	418
478.234375	445
436.234375	370
467.234375	297
388.234375	212
358.234375	241
344.234375	149
506.234375	258
485.234375	380
511.234375	401
371.234375	473
332.234375	440
297.234375	291
272.234375	252
241.234375	209
568.234375	220
471.234375	213
