469.064962987357	212.02016370351947
485.6467985798198	153.23035393983812
331.88795944970997	205.99043962519318
383.14090582641325	230.10933593849833
375.60370782983927	178.85668127272487
476.602160983931	276.8396975455271
264.05317748054387	287.3917146825981
209.78535190521097	202.97557758603003
479.61704018256063	462.2537129540606
553.4815805489859	370.30042075958465
577.6006141380228	430.59766154284756
612.2717249222633	365.7781277008399
389.1706642236725	477.32802314987634
131.39849274084125	103.48513029364621
