528.4535322050776	144.77213806028425
488.0024945877706	157.54615024207402
466.712474789188	218.22270810557552
375.16538965528264	177.77166952990785
332.58535005811734	206.51319693893487
390.0684035142905	220.35171013587382
478.4219856784084	276.7702639387787
549.7435520036603	370.44635327190383
531.6470351748651	331.0598157113853
574.2270747720303	432.18741215055445
592.3235916008256	556.7340309230049
611.48460941955	624.8620958925504
479.4864866683376	463.05794158987976
386.8749005445031	479.025456817117
264.4572867026529	290.6087771357176
522.0665262655028	625.9265969076995
106.9111401931413	34.06403248477277
155.87818572988138	6.387006090894893
