368.234375	325
375.234375	179
526.234375	328
481.234375	222
330.234375	204
425.234375	234
482.234375	273
551.234375	364
570.234375	422
575.234375	500
464.234375	530
472.234375	463
384.234375	480
434.234375	556
419.234375	515
470.234375	365
425.234375	402
259.234375	293
214.234375	210
170.234375	199
176.234375	250
545.234375	534
503.234375	462
383.234375	384
