267.21090575371505	287.1057108140948
334.57031631364384	204.28675577156744
375.4276637024531	177.7846901579587
484.7486742833212	153.49113001215068
473.7061479620214	214.2250303766707
478.1231584905413	279.3759416767922
551.00383221112	371.0289185905225
578.6101480143695	433.9713244228432
478.1231584905413	463.7861482381531
386.47019002375293	485.87120291616037
107.09427409486791	6.625516403402187
113.71978988764779	36.44034021871203
120.34530568042767	108.21676792223572
