271.7371147793278	56.38379247836188
347.9596516388075	43.85406081650369
395.9902913036851	79.35496719176858
579.7596952388691	68.91352414022008
580.80383957941	20.882886103096993
442.97678662802196	125.29731661858196
499.36058101722614	181.68110909694386
333.3416308712361	341.43518778563583
546.3470763415629	318.46401307222914
527.5524782118282	366.4946511093522
445.0650753091036	407.21627901039136
434.6236319036954	434.3640309444175
426.27047717936887	460.4676385732887
583.9362726010324	408.26042331554623
565.1416744712977	433.3198866392626
592.2894273253589	618.133428651671
415.8290337739607	380.0685270763653
