520.0847585114806	471.5159173754557
584.1314111750195	407.46925880923453
565.3591164288098	435.07557715674363
556.5250953717699	462.68189550425274
611.7377269782689	486.9754556500607
495.791200604621	566.481652490887
527.8145269363904	546.6051032806804
333.4660636815139	346.73535844471445
389.7829479201429	330.17156743620893
415.18075845913245	295.9397326852977
357.7596215883735	323.5460510328068
407.45099003422257	270.5419198055893
597.3824427605792	167.8464155528554
591.8611795999293	138.03159173754557
588.5484217035394	64.04665856622114
579.7144006464995	19.876549210206562
537.7528006255602	69.56792223572296
453.8296005836817	62.94240583232078
447.20408479090185	23.189307411907656
399.7212216093127	80.61044957472662
417.3892637233924	48.58712029161604
383.157432127363	9.938274605103281
415.18075845913245	164.53365735115432
447.20408479090185	117.05078979343864
345.61284263494366	49.691373025516405
496.895453236751	182.20170109356013
578.6101480143695	511.26901579586877
440.57856899812197	407.46925880923453
304.7554952461344	330.171567436209
327.94480052086396	277.1674362089915
308.0682531425243	299.25249088699877
315.7980215674342	262.81215066828673
285.98320049992475	242.93560145808019
265.0024004894551	277.1674362089915
257.27263206454523	184.41020656136087
249.54286363963539	70.67217496962333
278.25343207501487	60.733900364520046
186.6004636082265	26.50206561360875
172.24517939053675	108.21676792223572
269.41941101797505	108.21676792223572
548.7953269468601	242.93560145808019
554.3165901075099	282.6886998784933
549.89957957899	320.2332928311057
510.14648482231075	335.6928311057108
309.1725057746543	184.41020656136087
216.41528467573596	115.94653705953827
193.22597940100638	90.54872417982989
373.2191584381932	412.99052247873635
427.3275374125622	459.3691373025516
467.08063216924154	528.9370595382746
503.5209690295309	524.5200486026731
557.6293480038998	492.49671931956254
528.9187795685204	372.13317132442285
562.0463585324198	373.2374240583232
457.14235848007166	205.3910085054678
338.9873268421638	223.05905224787364
294.81722155696457	217.53778857837182
308.0682531425243	109.32102065613608
290.40021102844463	88.34021871202916
153.47288464432708	27.606318347509113
483.64442165119124	491.3924665856622
416.2850110912624	384.27995139732684
371.01065317393324	371.0289185905225
404.13823213783263	195.4527339003645
340.0915794742938	171.1591737545565
358.8638742205034	193.2442284325638
