521.6799967657905	472.1310375745651
498.8992105013376	560.4064410451101
329.46711265946936	346.83691651959793
392.1142748867148	84.85829976830303
355.09549720697885	319.7847767463664
561.546372728583	430.84092949963275
