497.99970586888094	563.1688942891859
592.9654322320592	617.2772782503038
440.57856899812197	410.7820170109356
583.0271585428894	405.26075334143377
562.0463585324198	429.5543134872418
549.89957957899	320.2332928311057
507.9379795580508	331.27582017010934
468.1848848013715	386.4884568651276
420.70202161978233	378.758687727825
333.4660636815139	392.0097205346294
332.3618110493839	345.6311057108141
303.65124261400445	321.33754556500605
289.2959583963147	245.14410692588092
310.2767584067843	259.4993924665857
329.04905315299396	279.3759416767922
304.7554952461344	298.1482381530984
586.3399164392794	68.4636695018226
579.7144006464995	22.08505467800729
458.24661111220166	62.94240583232078
447.20408479090185	117.05078979343864
417.3892637233924	51.89987849331713
391.99145318440287	83.9232077764277
375.4276637024531	6.625516403402187
