173.34943202266675	20.980801944106926
224.14505310064584	23.189307411907656
167.82816886201684	61.83815309842041
206.47701098656614	126.98906439854191
179.97494781544663	172.26342648845687
123.65806357681763	92.75722964763062
221.93654783638587	247.35261239368165
184.39195834396654	204.28675577156744
323.5277899923441	284.8972053462941
346.71709526707366	319.12904009720535
400.8254742414427	280.4801944106926
279.35768470714487	358.88213851761844
452.7253479515518	315.81628189550423
480.3316637548013	343.42260024301333
416.2850110912624	359.98639125151885
340.0915794742938	353.3608748481166
358.8638742205034	419.6160388821385
472.6018953298914	421.82454434993923
568.6718743251997	405.26075334143377
531.1272848327803	503.53924665856624
