475.4359482855593	341.90121557162644
538.3625510932733	319.8769041390983
322.3145481201218	283.1697184182182
568.7770757836685	393.2912755808586
216.38810006046984	71.31681797199569
449.21653044901177	300.9989229112171
501.6553661221068	171.99938452069551
222.68076034124124	245.41375596245578
