449.41259005516184	228.58031591737546
463.7678742728516	255.0823815309842
503.5209690295309	167.8464155528554
599.5909480248391	304.7737545565006
533.3357900970403	324.65030376670717
570.8803795894597	392.0097205346294
604.0079585533591	516.7902794653706
528.9187795685204	445.0138517618469
515.6677479829607	471.5159173754557
475.91465322628136	415.19902794653706
477.01890585841136	340.1098420413123
411.8680005627425	363.2991494532199
347.82134789920366	316.92053462940464
355.5511163241135	373.2374240583232
362.17663211689336	414.0947752126367
433.9530532053421	620.5900364520048
217.51953730786596	252.87387606318347
133.59633726598744	86.13171324422844
248.4386110075054	131.40607533414337
220.8322952042559	69.56792223572296
600.6952006569692	67.35941676792224
394.1999584486628	245.14410692588092
