295.3125	142
263.3125	203
262.3125	254
386.3125	325
370.3125	206
435.3125	155
570.3125	238
608.3125	176
505.3125	274
530.3125	305
485.3125	310
513.3125	374
607.3125	276
596.3125	505
451.3125	543
416.3125	544
454.3125	501
367.3125	287
345.3125	257
323.3125	231
307.3125	276
212.3125	108
282.3125	41
203.3125	30
174.3125	58
117.3125	322
273.3125	422
443.3125	300
