289.4875685685217	34.45676207011004
209.0884543468787	27.147751934026093
405.38759036855254	69.95766844537494
433.5794875631546	150.35677994229835
606.9074480929304	169.15137743508566
304.10558933609315	134.69461536497562
282.17855818473595	143.0477698062144
306.19387801717477	226.57931421860238
266.51639307662373	253.72706615262848
303.06144499555234	272.52166364541574
424.18218849828725	181.68110909694386
498.3164366766853	270.43337503510605
480.56598288749143	309.0667143258355
527.5524782118282	304.8901371052161
608.995736774012	272.52166364541574
368.8425384496239	286.0955396124288
