575.2915757619595	246.96423551460254
610.4201084296208	164.99765734811808
606.1621044699043	274.64126190848043
533.7760371547233	314.0277994689989
498.64750448706195	276.7702639387787
437.9709480611014	153.28814618147743
287.87630848109376	34.06403248477277
260.19928274293636	34.06403248477277
274.03779561201503	142.64313602998595
302.7793223401016	143.7076370451351
351.7463678768417	258.6737466812432
369.84288470563695	294.86678119631426
483.7444906280541	305.51179134780574
301.7148213501725	282.09276901452444
259.1347817530072	251.22223957519913
232.5222570047789	96.86959237857255
401.7779144035109	77.70857410588786
395.3909084639361	160.7396532875215
596.5815955605422	504.57348118069655
602.9686015001168	477.9609558019678
564.6465658626681	218.22270810557552
119.68515207229089	125.61111978759956
80.29861544491301	138.38513196938936
309.1663282796764	229.93221927221614
