A1JMB9Z7EYHU1O	3WZ36BJEV4ZKKLJZBRGAOQNHJ0STB3	[u'1325275']	NA
A1JMB9Z7EYHU1O  3NGI5ARFTUOLFV80SDE1D49B81E1PH  [u'1325387']    NA
A1JMB9Z7EYHU1O  3AMYWKA6YC5Y1HXWJJD3J0V26LI6OF  [u'1325337']    NA
A1JMB9Z7EYHU1O  3WS1NTTKEZV9HTYOIREWN5CX1H30FK  [u'1325342']    NA
A1JMB9Z7EYHU1O  3LBXNTKX0SE8D9DMIH3BMNDX8QTX9K  [u'1325332']    NA
ABWQD0WI56TZ5   3SNVL38CI5B4R7LIVIYDYJ63IVGKCK  [u'1325298']    NA
A1JMB9Z7EYHU1O  3VHHR074H409ZW84P123XXR46RV7LW  [u'1325346']    NA
A1JMB9Z7EYHU1O  3H0W84IWBLL5B9IRHTD5PJSKY6NRER  [u'1325389']    NA
A1JMB9Z7EYHU1O  31LM9EDVOMBS7RCR2N7FDF022HUJNG  [u'1325245']    NA
A1JMB9Z7EYHU1O	304SM51WA4NJ5L6KMRBKELRVHESSBL	[u'1325320']	NA
A37EYREPOZJDQ	3BF51CHDTWTTVPPUDH2WQQOAIAL0HG	[u'1325343']	NA
A1K0C7QDBNOE4P	3K3R2QNK8CMGW5JRDCSO2GETFNF9U2	[u'1325245']	NA
