580.6140807116051	8.516008121193192
489.06699557769974	70.25706699984383
461.38996983954235	60.676557863501486
436.9064470711723	91.54708730282681
370.90738569556606	32.99953146962361
210.16773621626712	32.99953146962361
171.84570057881837	54.28955177260659
136.71716791115702	22.354521318132125
149.4911797903066	94.74059034827425
117.55615009243263	124.54661877245042
145.23317583059006	141.5786350148368
159.07168869966878	162.8686553178198
220.81274611555844	103.25659846946743
189.9422174076136	133.0626268936436
221.87724710548758	171.38466343901297
199.52272631697582	221.41621115102296
180.36170849825143	237.3837263782602
263.39278571272376	190.54568171169765
303.8438233300308	190.54568171169765
423.06793420209357	156.48164922692487
412.42292430280224	113.90160862095892
498.64750448706195	159.67515227237234
551.8725539835185	190.54568171169765
555.066056953306	170.32016242386382
538.0340411144398	223.54521318132126
562.5175638828099	258.6737466812432
585.9365856612508	238.44822739340935
434.777445091314	209.70669998438234
366.6493817358496	204.38419490863657
367.71388272577866	184.15867562080277
357.0688728264874	269.31875683273466
389.0039025243613	277.83476495392784
261.2637837328655	315.09230048414804
292.13431244081033	308.70529439325315
316.6178352091803	305.51179134780574
407.10041935315655	334.25331875683275
437.9709480611014	255.48024363579572
452.87396192010925	272.51225987818214
457.13196587982577	336.38232078713105
485.87349260791234	359.8013431204123
521.0020252755737	365.12384819615806
482.67998963812494	386.413868499141
551.8725539835185	366.18834921130724
571.0335718022429	378.962361393097
478.4219856784084	425.80040605965957
373.03638767542435	399.18788068093085
331.52084906818817	456.6709354989849
357.0688728264874	467.31594565047635
394.326407474007	489.6704669686085
425.1969361819518	488.60596595345936
399.64891242365263	512.0249882867406
455.00296389996754	494.99297204435425
517.8085223057864	471.57394971107294
555.066056953306	467.31594565047635
529.5180331950068	497.12197407465254
536.9695401245107	575.8950491956896
595.5170945706129	519.4764953927846
583.8075836813925	551.4115258472591
