262.6580508893629	194.43863343068668
222.3814794930843	174.994770087618
218.21493762450373	98.6081640969911
418.2089473163702	115.27433267676425
461.2632132917025	61.10928479250153
441.81935123832665	88.88623242545677
408.48701628968223	333.3233715954629
452.93012955454145	337.48991374040617
483.48476992413214	359.7114718467704
525.1501886099377	366.6557087550092
482.0959226346053	388.87726686137336
566.8156072957432	468.04156761529583
515.4282575832497	466.65272023364804
527.9278831889914	505.5404469197854
484.87361721365903	527.7620050261496
373.765834051511	398.59919853290774
482.0959226346053	423.59845140256743
259.88035631030925	316.65720301568973
312.65655331232955	306.9352713441554
311.2677060228027	186.10554914080012
209.8818538873427	30.554642396250767
182.10490809680564	133.32934863818517
362.6550557352962	268.04754465801807
590.4260112176996	240.27059702506284
562.6490654271627	265.26984989472254
561.2602181376358	252.7702234598927
