486.9724921336402	67.12171103246654
439.7775400278547	87.04846899523004
409.36301533745956	114.31666410216957
367.41194679898354	32.51207878135098
300.29023713742185	192.97491921834128
177.5833616623795	131.0970918602862
350.6315193835931	269.53562086474847
367.41194679898354	203.46268656716418
434.53365646054516	209.75534697645793
454.4604140163213	333.51100169256813
411.46056876438337	330.3646714879212
360.0705098047502	463.55931681797205
371.6070536528311	353.4377596553316
567.7282990702065	464.6080935528543
513.1919099701877	466.7056470226189
474.3871715720974	428.9496845668565
485.92371542017827	359.7304200646253
427.1922194663119	157.31651023234343
459.70429758363076	58.73149715340822
202.75400278546513	35.658408985997845
257.290391885484	314.63302046468687
179.6809150893033	233.8772118787506
367.41194679898354	393.2912755808586
424.04588932592617	485.5836282505001
395.72891806245485	497.1201723342053
526.8260072451924	503.41283274349905
