447.921875	221
571.921875	242
588.921875	481
411.921875	459
447.921875	500
521.921875	383
416.921875	410
424.921875	354
352.921875	290
358.921875	368
271.921875	378
300.921875	345
299.921875	408
197.921875	336
119.921875	347
273.921875	135
84.921875	71
102.921875	88
161.921875	22
18.921875	76
