390.84375	274
443.84375	149
412.84375	198
443.84375	215
520.84375	329
533.84375	439
535.84375	401
492.84375	433
464.84375	457
450.84375	495
423.84375	489
321.84375	185
332.84375	105
357.84375	58
235.84375	84
261.84375	57
304.84375	13
244.84375	39
207.84375	25
178.84375	24
142.84375	58
233.84375	249
262.84375	225
343.84375	237
326.84375	413
367.84375	405
480.84375	111
503.84375	110
555.84375	82
501.84375	526
475.84375	543
491.84375	582
551.84375	475
564.84375	506
592.84375	241
