261.6896425930652	112.63377885783719
246.23010574324545	11.042527339003644
191.01747413674642	132.51032806804375
22.066821420859423	104.90400972053463
7.711537203169679	196.5569866342649
33.10934774215923	249.5611178614824
105.99002146273793	341.21409477521263
81.69646355587837	319.12904009720535
179.97494781544663	352.25662211421627
143.53461095515726	346.73535844471445
383.157432127363	304.7737545565006
375.4276637024531	361.0906439854192
451.6210953194218	344.52685297691374
494.686947972491	209.80801944106926
584.1314111750195	182.20170109356013
596.2781901284492	325.7545565006075
449.41259005516184	406.3650060753341
523.3975164078705	436.179829890644
452.7253479515518	480.34993924665855
415.18075845913245	456.05637910085056
501.31246376527093	533.354070473876
363.28088474902336	507.95625759416765
