456.234375	293
431.234375	323
347.234375	289
329.234375	248
301.234375	195
268.234375	192
228.234375	194
184.234375	181
167.234375	107
183.234375	64
156.234375	62
293.234375	16
392.234375	89
438.234375	109
456.234375	12
476.234375	100
529.234375	141
564.234375	188
467.234375	202
426.234375	179
512.234375	423
214.234375	242
426.234375	264
