393.234375	435
339.234375	379
389.234375	370
463.234375	325
471.234375	280
552.234375	231
587.234375	307
570.234375	419
522.234375	477
533.234375	284
508.234375	223
496.234375	168
512.234375	104
386.234375	177
422.234375	149
225.234375	204
332.234375	98
315.234375	17
242.234375	16
121.234375	148
25.234375	168
34.234375	135
18.234375	106
77.234375	83
21.234375	201
33.234375	231
111.234375	303
160.234375	309
144.234375	336
210.234375	334
208.234375	302
309.234375	300
547.234375	89
565.234375	133
593.234375	143
488.234375	451
420.234375	299
528.234375	199
177.234375	242
