308.0682531425243	19.876549210206562
241.8130952147255	11.042527339003644
73.9666951309685	82.81895504252734
125.86656884107758	142.44860267314704
37.52635827067915	126.98906439854191
18.754063524469483	100.48699878493316
33.10934774215923	156.80388821385176
49.673137224108935	184.41020656136087
23.171074052989404	193.2442284325638
35.31785300641919	223.05905224787364
117.03254778403773	300.3567436208991
214.20677941147602	298.1482381530984
217.51953730786596	339.0055893074119
235.18757942194563	199.86974483596597
395.3042110807928	171.1591737545565
424.01477951617227	146.86561360874848
573.0888848537196	134.71883353584448
601.7994532890991	146.86561360874848
497.99970586888094	162.32515188335358
524.5017690400005	191.03572296476307
502.4167163974009	217.53778857837182
553.21233747538	226.37181044957472
536.6485479934303	273.8546780072904
585.2356638071494	300.3567436208991
471.4976426977614	272.75042527339
425.11903214830227	295.9397326852977
385.365937391623	366.611907654921
312.48526367104427	362.19489671931956
331.2575584172539	379.8629404617254
318.00652683169415	409.67776427703524
395.3042110807928	430.65856622114217
579.7144006464995	417.40753341433776
