411.26471086873596	265.26984989472254
412.6535581582628	337.48991374040617
412.6535581582628	384.7107247164301
493.2067009508201	409.7099775860898
458.48551871264885	487.4854309583645
543.2052033737867	429.1538409291585
418.2089473163702	422.20960402091964
494.59554824034694	220.82673368199417
372.37698676198414	216.66019153705088
284.87960752179254	274.99178156625686
294.6015385484805	126.38511172994635
259.88035631030925	112.49663791346873
527.9278831889914	334.71221897711064
557.0936762690552	349.989540175236
568.20445458527	315.268355634042
595.981400375807	320.8237451606331
579.3152329014848	434.70923045574955
354.3219719981351	444.43116212728387
450.1524349754877	336.10106635875843
395.9873906839406	206.93825986551656
