160.3125	90
217.3125	58
273.3125	126
378.3125	207
337.3125	233
587.3125	189
445.3125	273
476.3125	338
525.3125	373
538.3125	411
592.3125	318
561.3125	455
461.3125	377
436.3125	354
420.3125	382
399.3125	426
361.3125	326
310.3125	341
342.3125	253
336.3125	299
197.3125	145
177.3125	207
222.3125	273
205.3125	302
153.3125	290
118.3125	261
77.3125	210
235.3125	333
272.3125	310
256.3125	362
