585.9365856612508	188.41667968139936
589.1300886310381	311.8987974387006
506.0990114165659	262.9317507418398
446.48695598053445	272.51225987818214
391.1329045042196	211.83570201468063
266.5862886825111	126.67562080274871
231.45775601484976	58.54755583320319
99.45963326363739	7.451507106044042
128.20115999172396	36.19303451507106
125.00765702193655	108.57910354521319
163.3296926593853	93.6760893331251
201.65172829683408	147.9656411057317
183.55521146803883	207.57769795408404
216.55474215584192	269.31875683273466
347.4883639171251	257.6092456660939
335.77885302790474	233.12572231766362
255.94127878321981	224.6097141964704
278.2957995717316	253.35124160549742
304.9083243199599	242.70623145400594
232.5222570047789	336.38232078713105
209.103235226338	306.57629236295486
155.87818572988138	283.1572700296736
366.64938173584954	401.31688271122914
335.77885302790474	356.6078400749649
311.2953302595347	341.7048258628768
335.77885302790474	303.38278931750745
369.84288470563695	321.4793065750427
439.0354490510305	360.8658441355615
466.712474789188	370.44635327190383
425.1969361819518	380.02686240824613
446.48695598053445	390.67187255973766
526.3245302252194	409.8328908324223
560.3885619029516	449.2194283929408
524.1955282453611	365.12384819615806
476.2929836985502	335.3178197719819
475.228482708621	270.38325784788384
415.61642727258965	207.57769795408404
366.64938173584954	161.80415430267064
611.48460941955	378.962361393097
120.74965306222003	253.35124160549742
35.589573867889456	102.19209745431829
381.5523955948574	279.96376698422614
