587.0206205913895	188.06630289302996
508.42574390461454	262.4507361268403
537.8988226621552	415.43004221146913
526.6709831354731	374.72912591372386
478.95266514707396	262.4507361268403
436.8482669220159	275.0820549778647
477.5491852062387	336.83516936065064
460.70742591621547	377.53608565839596
432.6378270995101	356.4838875733553
420.0065076319927	385.9569648924122
441.0587067445217	385.9569648924122
383.5160291702758	286.3098939565531
362.46383005774675	321.39689076495415
334.3942312410414	301.74817255224957
344.21859082688826	256.83681663749616
414.3925878686516	199.2941418717183
334.3942312410414	349.466488211675
310.5350722468419	334.0282096159786
258.60631443593695	230.1706990631113
182.81839763083252	204.9080613610625
217.90539615171423	310.1690517862658
168.78359822247987	95.43663131885103
229.13323567839635	51.92875527643364
269.8341539626191	123.5062287655719
