255.3889334644923	141.0031552842729
530.7616546135782	126.50985378600133
596.6402960368044	175.26004973473297
418.7679641940935	27.691889025058785
405.5922359094482	208.19937132171384
352.8893227708672	188.4357783695253
223.76718558134368	90.935386472062
201.36844749744674	40.86761765985112
255.3889334644923	14.516160390266444
181.60485507047886	96.20567792597895
500.4574795588941	258.2671401339247
412.18010005177086	271.44286876871706
360.7947597416544	250.3617029530493
244.8483508367761	69.85422065639428
496.5047610735005	314.9227732635318
434.5788381356678	113.334125151209
147.3479615304012	121.23956233208439
466.2005860188164	349.1796677139919
445.119420763384	156.8140296460237
557.1131111828687	147.59101960166907
