418.4935163555224	32.02332928311057
252.85562153602532	14.355285540704738
194.33023203313635	45.274362089914945
141.3261056908973	61.83815309842041
175.5579372869267	97.17424058323208
247.33435837537542	72.88068043742406
257.27263206454523	135.82308626974483
136.90909516237738	174.4719319562576
493.58269534036106	311.39927095990276
511.25073745444075	382.07144592952613
546.5868216826001	403.05224787363306
601.7994532890991	173.36767922235722
253.9598741681553	221.95479951397326
47.46463195984897	23.189307411907656
57.4029056490188	154.59538274605103
