464.234375	314
398.234375	313
319.234375	300
283.234375	313
240.234375	203
178.234375	65
218.234375	25
199.234375	138
237.234375	156
179.234375	218
269.234375	278
236.234375	283
332.234375	269
384.234375	262
317.234375	462
395.234375	491
356.234375	534
416.234375	525
413.234375	561
508.234375	605
481.234375	543
446.234375	491
433.234375	441
457.234375	413
474.234375	376
504.234375	299
402.234375	292
409.234375	253
517.234375	385
535.234375	353
532.234375	482
547.234375	438
587.234375	301
456.234375	259
539.234375	289
351.234375	501
505.234375	200
548.234375	228
569.234375	126
551.234375	69
459.234375	45
398.234375	170
419.234375	214
347.234375	126
361.234375	165
284.234375	141
266.234375	66
239.234375	70
361.234375	92
418.234375	114
454.234375	164
305.234375	98
456.234375	565
259.234375	378
233.234375	355
227.234375	381
548.234375	144
593.234375	210
355.234375	370
514.234375	465
185.234375	187
