288.94080947102293	29.80602842417617
442.2289520208179	101.12759643916914
382.61689658478656	28.741527409027018
295.3278154105977	7.451507106044042
230.39325502492065	55.35405278775574
262.3282847227946	97.9340933937217
439.0354490510305	133.0626268936436
489.06699557769974	89.4180852725285
440.0999500409597	189.4811806965485
380.4878946049283	169.25566140871467
474.1639817186919	213.96470404497893
500.7765064669202	180.9651725753553
509.2925143863533	212.90020302982978
491.19599755755803	233.12572231766362
513.5505183460699	291.6732781508667
615.7426133792665	269.31875683273466
482.67998963812494	306.57629236295486
591.2590906108965	399.18788068093085
458.19646686975494	326.8018116507887
442.2289520208179	357.672341090114
461.38996983954235	397.05887865063255
482.67998963812494	457.735436514134
486.9379935978415	428.993909105107
517.8085223057864	465.18694362017806
554.0015559633769	455.6064344838357
568.9045698223847	473.70295174137124
604.0331024900461	452.4129314383883
523.131027255432	497.12197407465254
561.4530628928808	516.2829923473372
581.6785817015342	534.3795096048727
507.163512406495	565.250039044198
483.7444906280541	514.153990317039
485.87349260791234	497.12197407465254
452.87396192010925	505.6379821958457
450.744959940251	541.8310167109167
403.9069163833692	437.50991722630016
344.2948609473378	209.70669998438234
358.1333738164165	194.80368577229424
373.03638767542435	239.5127284085585
361.3268767862039	321.479306575043
345.3593619372669	351.2853349992191
326.19834411854254	374.7043573325004
375.16538965528264	345.9628299234734
383.6813975747157	371.51085428705295
412.42292430280224	397.05887865063255
420.9389322222353	423.67140402936127
287.87630848109376	444.9614243323442
280.42480155158984	413.02639387786974
249.554272843645	447.0904263626425
192.07121938747187	399.18788068093085
237.84476195442457	352.3498360143683
205.9097322565506	327.86631266593787
230.39325502492065	277.83476495392784
214.42574017598366	244.83523348430424
245.2962688839285	250.15773856004998
261.2637837328655	215.02920506012808
291.06981145088116	235.2547243479619
270.8442926422277	263.9962517569889
307.0373262998182	285.2862720599719
280.42480155158984	298.0602842417617
252.7477758134324	378.962361393097
379.42339361499916	492.86397001405595
327.26284510847165	493.92847102920507
271.9087936321568	488.60596595345936
305.972825309889	513.0894893018898
373.03638767542435	521.605497423083
409.22942133301484	530.1215055442761
381.5523955948574	551.4115258472591
166.5231956291727	135.19162892394192
249.5542728436451	144.77213806028425
131.39466296151136	5.322505075745744
74.97611049526735	26.612525378728723
10.041550109590284	30.870529439325317
44.105581787322514	51.09604872715914
11.106051099519417	74.51507106044042
55.81509267654297	75.57957207558957
76.04061148519648	83.03107918163361
80.29861544491301	102.19209745431829
83.4921184147004	153.2881461814774
33.46057188803119	163.93315633296893
40.91207881753512	122.41761674215212
57.944094656401234	121.35311572700297
127.13665900179483	209.70669998438234
138.84616989101528	255.48024363579572
106.9111401931413	304.44729033265656
102.65313623342479	339.57582383257846
62.20209861611776	285.2862720599719
61.13759762618863	256.5447446509449
258.0702807630781	22.354521318132125
285.7473065012355	335.3178197719819
