291.1900473385855	24.166132027688672
230.19933571185518	55.23687320614554
484.51909551388144	90.9106871517812
444.2422104773614	96.66452811075469
438.4883697578586	138.09218301536384
378.6484262750289	161.1075468512578
432.73452903835573	185.2736788789465
497.17754509678775	180.67060611176768
483.3683273699809	227.85210197535034
580.0328514576289	197.93212898868816
615.7066639185466	265.8274523045754
583.4851558893306	388.95964882660815
611.1035913429442	398.1657943609658
600.7466780478392	454.553435758906
583.4851558893306	529.3533682255614
563.9220974430209	510.94107715684623
568.5251700186232	474.1164950194159
521.3436761186997	468.36265406044237
519.0421398308986	501.73493162248866
506.3836902479923	555.8210366368395
484.51909551388144	493.67955427992575
447.6945149090632	536.2579773763296
477.614486650478	460.30727671787946
492.57447252118544	423.4826945804491
461.50373263587	392.41195340199226
435.03606532615686	356.7381394563566
489.12216808948375	307.25510720918453
456.90066006026774	337.1750801958467
515.5898353991969	295.74742529123756
413.17147059204603	402.76886712814456
401.6637891530403	440.7442174573696
410.86993430424485	524.7502954583827
382.1007307067306	495.98109066351515
319.95925093609975	516.6949181158197
276.23006146787804	486.7749451291576
283.1346703312815	448.7995947999325
246.3100897264632	446.4980584163431
278.5315977556792	409.67347627891274
323.41155536780144	376.30119871686645
339.52230938240945	339.4766165794361
384.4022669945317	345.2304575384096
355.63306339701745	326.8181664696944
344.12538195801176	210.59057909842986
309.6023376409946	277.3351342225224
279.68236589957974	302.65203444200574
275.0792933239775	260.07361134560193
231.35010385575575	280.7874387979065
246.3100897264632	242.81208846868142
237.10394457525862	353.2858348809725
199.12859582653977	319.9135573189262
197.97782768263917	393.56272159378693
109.3686806022952	299.1997298666217
57.58411412676949	247.4151612358602
133.5348116242072	256.6213067702178
125.47943461690319	216.34442005740337
164.60555150952263	143.84602397433733
88.65485401208491	159.9567786594631
35.71951939265863	157.65524227587372
59.885650414570634	125.43373290562216
73.69486814137748	28.769204794867466
6.950315795144352	36.82458213743036
258.9685393093695	214.04288367381395
389.005339570134	562.7256457876076
344.12538195801176	544.3133547188925
329.1653960873043	490.22724970454163
