75.43797875765398	35.50090637526489
82.74698914143971	160.79822299384685
170.45511374686842	140.95948119590471
223.70647511445017	58.47208108867158
294.7082902712258	28.19189623918094
290.5317129090625	2.0882886103096996
476.38940552532813	83.53154441238797
434.6236319036954	92.92884315878162
434.6236319036954	137.82704828044015
375.1074044928688	163.9306559093114
125.55690710361326	213.00543825158934
104.6740202927969	300.7135598845967
103.62987595225607	341.43518778563583
135.99835050902144	257.90364337324786
240.41278456310326	244.32976740623482
226.8389081360726	271.4775193402609
293.664145930685	229.71174713406694
255.0308053306747	218.2261597773636
359.4452393847565	185.85768631756324
442.97678662802196	186.90183062271808
275.9136921414911	257.90364337324786
311.4145997198789	275.6540965608803
283.2227025252768	298.625271274287
243.5452175847257	349.78834222687465
193.42628923876643	398.8631245691526
194.47043357930724	439.58475247019175
242.50107324418488	454.2027727423596
283.2227025252768	410.3487119258559
346.9155072982667	341.43518778563583
484.7425602496547	232.84418004953147
470.1245394820832	208.82886103096993
483.69841590911386	300.7135598845967
452.3740856928893	327.8613118186228
435.6677762442362	355.0090637526489
456.5506630550526	387.3775372124492
306.19387801717477	505.3658436949473
451.3299413523485	504.3216993897924
481.61012722803224	488.65953481246964
487.87499327127716	518.9397196619603
506.66959140101187	559.6613475629995
441.93264228748114	545.0433272908315
589.1569943037365	397.81898026399773
599.5984377091447	453.15862843720475
546.3470763415629	455.24691704751444
487.87499327127716	456.2910613526693
513.9786017847975	460.4676385732887
571.4065405145426	478.21809176092114
557.832664087512	515.8072867464957
584.9804169415733	533.5577399341282
