412.1801000517708	417.69345661491207
594.0051503798754	314.9227732635318
583.4645677521593	50.09062770420576
409.5449543948418	221.37509995650618
367.382623883977	235.86840145477774
271.1998074060666	168.6721854173368
315.9972835738605	94.88810506249972
142.07767021654308	256.94956727044547
156.57097132965288	284.6185974035094
319.9500020592541	351.81481344095033
526.8089361281847	375.53112498357655
582.1469949236947	451.9503510653721
566.3361209821204	284.6185974035094
553.1603926974751	515.1938485123753
600.593014522198	515.1938485123753
504.41019804428765	461.1733611097267
513.6332078435394	349.1796677139919
344.98388580008003	292.5240345843848
359.4771869131898	375.53112498357655
272.5173802345311	368.9432606661804
351.5717499424027	408.4704465705574
381.87592499708677	305.69976321917716
595.32272320834	407.15287370707813
453.0248577341712	429.55161238622514
422.7206826794871	496.7478284236661
389.7813619678739	349.1796677139919
433.2612653072033	438.77462243057977
314.67971074539594	415.05831088795355
