153.7545468488479	282.2744921844573
143.1360703251828	172.90418528307077
79.42521118319218	195.20298571927577
97.47662127342285	139.9869084486729
74.11597292135963	237.67689131204725
94.29107831632332	264.2230823075294
151.63085154411488	362.974912810723
190.91921468167575	381.0263226876509
268.434093304431	369.3459986496388
322.588323575123	348.10904585325306
360.8148390603174	377.84077976819304
345.9489719271862	409.69620896277166
408.59798341681034	443.6753334369888
412.8453740262764	416.06729480168735
425.5875458546745	502.0769536270496
554.0711117910223	522.252058783616
597.6068655380492	520.1283635039774
582.7409984049181	455.35565747500095
503.10242447742974	457.47935275463954
564.6895883146874	279.0889492649994
594.4213225809497	308.82068317993946
369.3096202792495	230.24395783331224
403.2887451549778	225.9965672740351
383.1136397600141	299.26405442156585
271.61963626153056	169.7186423636129
247.19714025710078	415.00544716186806
536.0197017007915	429.87131411933814
