224.77831376816505	243.3162024926912
224.77831376816505	149.97507308816742
261.48549873933155	117.46299430681644
97.87633143927506	125.85320818587476
65.36425332195614	158.36528696722573
52.77893276041333	196.12124942298817
92.63244787196555	186.68225880904757
419.85078247207855	291.55993229727653
507.9480264028782	326.1695645483921
608.6305908952206	296.803815971688
396.77769477591676	206.60901677181107
256.2416151720221	421.60824742268045
359.0217330912883	465.6568702877366
439.7775400278547	227.58455146945684
318.1194412662742	231.77965840898602
279.3147028681839	248.56008616710264
222.68076034124124	413.21803354362214
282.4610330085696	468.8032004923835
177.5833616623795	267.4380673949839
353.77784952397883	232.8284351438683
496.4114825547973	270.58439759963073
518.4357935374973	293.6574857670411
