501.6553661221068	147.87751961840283
561.4356387894352	205.56024003692877
586.6062799125208	233.8772118787506
290.85124671626477	145.77996614863827
264.63182887971726	159.41406370210802
225.82709048162693	160.46284043699032
187.02235208353662	115.36544083705186
215.33932334700793	267.4380673949839
180.72969180276522	260.09663025080783
445.02142359516415	262.1941837205724
587.6550566259826	443.6325588552085
604.4354840413731	412.1692568087398
478.582278425945	378.6084012925066
475.4359482855593	306.24280658562856
477.5335017124831	235.97476534851518
230.02219733547454	28.31697184182182
98.92510815273697	26.21941837205724
392.58258792206914	324.0720110786275
483.8261619932545	421.60824742268045
454.4604140163213	435.2423449761502
514.2406866836496	303.0964763809817
