31.907479186064275	20.57642421665969
119.33897594632282	11.531838099170253
120.84641554563763	49.217613588709575
205.26303310726655	58.26219970619901
475.0947213846162	159.26007801816442
476.602160983931	201.46814656644847
585.1378121345967	245.18364613431407
351.4846742408024	58.26219970619901
264.05317748054387	79.36623398034104
164.5621639257669	92.9331131565752
71.10090876824914	55.24733766703587
600.2122081277448	306.98831793715857
556.4964597476155	328.0923522113006
475.0947213846162	275.33226652594556
374.09626823052446	237.64649103640622
372.58882863120965	193.93099146854058
261.03829828191425	117.05200946988036
185.66631831617417	138.15604374402238
30.40003958674947	112.52971641113565
46.9818751792123	165.2898020964907
75.62322756619355	205.99043962519318
110.294338350434	159.26007801816442
271.59037547711785	233.12419797766148
352.9921138401172	216.54245676226418
304.75404666204355	281.36199060427185
319.82844265519157	334.1220762896269
449.46824819626454	313.01804201548487
244.45646268945143	151.72292292025654
509.76583216885666	344.6740934266979
166.0696035250817	278.3471285651087
233.9043854942478	177.34925025314328
12.310764394971844	52.232475627872724
541.4220637544676	142.67833680276712
591.167570531856	132.1263196656961
395.20042262093165	374.82271381832936
463.0352045900978	407.98619624912396
547.4518221517267	418.53821338619497
609.2568457236337	350.7038175050242
337.9177178469692	373.3152827987478
191.69607671343334	249.70593919305878
363.5441910353208	163.78237107690913
410.2748186140797	322.0626281329743
441.93105019969056	371.8078517791662
481.12447978187544	380.85243789665566
224.859747898359	111.02228539155408
473.5872817853014	337.13693832879005
147.98032833330407	150.21549190067498
