223.04080046851584	319.12904009720535
297.0257268212245	274.9589307411908
485.8529269154512	438.3883353584447
463.7678742728516	410.7820170109356
330.15330578512396	380.9671931956258
474.81040059415136	196.5569866342649
474.81040059415136	160.11664641555285
580.8186532786295	238.51859052247875
471.4976426977614	273.8546780072904
592.9654322320592	310.2950182260024
414.07650582700245	320.2332928311057
396.40846371292275	373.2374240583232
261.6896425930652	80.61044957472662
259.48113732880523	120.36354799513973
204.26850572230617	54.10838396111786
167.82816886201684	93.86148238153099
41.94336879919907	165.63791008505467
71.75818986670853	208.70376670716888
103.78151619847797	170.05492102065614
117.03254778403773	11.042527339003644
138.01334779450735	47.48286755771567
164.5154109656269	284.8972053462941
417.3892637233924	429.5543134872418
539.9613058898202	421.82454434993923
607.320716449749	363.2991494532199
316.9022741995642	334.58857837181046
341.1958321064238	62.94240583232078
541.0655585219502	145.76136087484812
584.1314111750195	129.19756986634266
565.3591164288098	301.46099635479953
552.10808484325	331.27582017010934
216.41528467573596	101.59125151883353
76.17520039522846	77.29769137302551
125.86656884107758	270.5419198055893
191.01747413674642	248.456865127582
240.70884258259554	151.28262454434994
