460.171875	29
435.171875	11
353.171875	68
386.171875	131
311.171875	153
368.171875	193
204.171875	166
204.171875	212
259.171875	266
247.171875	315
609.171875	339
499.171875	398
522.171875	446
493.171875	501
564.171875	569
552.171875	547
498.171875	609
