473.83000894307077	216.04800738575167
505.2933103469278	220.24311432528083
595.4881077046513	259.04785351592557
555.634592593099	264.291737190337
506.34208706038964	263.2429604554547
533.610281610399	268.48684412986614
439.220377398828	246.46253269733808
435.0252705449804	298.9013694414526
555.634592593099	346.09632251115556
534.659058323861	367.07185720880136
515.7810774815467	396.43760578550547
568.2199131546419	376.510847822742
600.7319912719607	401.6814894599169
593.3905542777275	539.0712417294969
576.610126862337	555.8516694876135
430.83016369113284	270.58439759963073
388.8790951526568	271.633174334513
359.5133471757236	366.0230804739191
442.36670753921373	420.5594706877981
440.2691541122899	332.4622249576858
293.4404142276238	420.5594706877981
302.87940464878096	364.97430373903677
337.48903619302365	290.5111555623942
308.12328821609043	254.85274657639638
257.7820059699192	290.5111555623942
201.1480634429766	300.9989229112171
161.29454833142435	343.99876904139103
184.36763602758617	578.9247576550239
212.6846072910575	521.2420372364979
281.9038703795429	400.63271272503465
272.46487995838584	633.4611478689029
65.85586740639141	540.1200184643792
11.319478306372575	444.6813355900908
46.977886564077195	439.43745191567933
562.9760295873323	521.2420372364979
446.56181439306135	371.26696414833054
486.41532950461357	389.0961686413295
614.3660885469654	603.0466225573166
569.2686898681037	472.9983074319126
460.19591166806606	492.92506539467615
461.24468838152796	464.6080935528543
511.58597062769917	554.8028927527312
370.0011143103426	485.5836282505001
246.24546212183833	556.9004462224958
172.83109217950528	434.19356824126794
437.1228239719042	455.1691029389137
550.3907090257895	438.38867518079707
546.1956021719419	317.7793506693338
398.3180855738139	401.6814894599169
323.85493891801895	385.94983843668257
220.0260442852908	375.46207108785967
236.80647170068121	423.70580089244504
105.70938251794364	386.9986151715649
170.73353875258147	541.1687951992615
130.88002364102925	600.949069087552
144.51412091603396	566.3394368364364
107.80693594486743	438.38867518079707
298.68429779493334	464.6080935528543
499.00065006615637	480.33974457608866
457.04958152768035	403.7790429296815
381.5376581584235	375.46207108785967
365.80600745649497	249.60886290198493
441.31793082575183	571.5833205108479
162.34332504488626	314.63302046468687
274.56243338530965	250.65763963686723
