517.8774596387879	398.7386037035689
531.2679348776416	360.0550078218794
577.3906829225823	550.4973260086587
361.6552485188276	361.5428384327136
430.09545529519113	269.29734056099244
303.6298558171281	248.4677120093135
340.8256203694996	290.1269691126714
163.7737811002113	349.64019354603994
65.57696268195056	541.5703423436534
43.259503950527666	437.42219958525845
300.6541946529384	459.73965874777167
209.89652914515193	519.2528831811402
471.7547115938472	214.2476079601266
510.4383067283136	220.19893040346344
500.02349265364955	267.80950995015826
253.04361602590285	288.63913850183724
462.82772810127807	468.6666424127769
555.0732241911594	349.64019354603994
439.02243878776034	328.81056499436096
571.4393605942029	377.90897515189
559.5367159374439	267.80950995015826
386.9483684144402	269.29734056099244
278.33673592151547	395.7629424819005
192.04256216001363	577.2782770036745
102.77272723432205	380.8846363735584
449.4372528624243	416.5925710335795
276.84890533942064	627.8645177720376
