471.5	53.48333740234375
500.5	45.48333740234375
529.5	47.48333740234375
568.5	36.48333740234375
552.5	66.48333740234375
550.5	98.48333740234375
570.5	116.48333740234375
552.5	131.48333740234375
537.5	152.48333740234375
521.5	132.48333740234375
494.5	124.48333740234375
469.5	118.48333740234375
467.5	88.48333740234375
496.5	90.48333740234375
431.5	86.48333740234375
406.5	75.48333740234375
366.5	61.48333740234375
334.5	87.48333740234375
294.5	54.48333740234375
255.5	64.48333740234375
228.5	74.48333740234375
230.5	35.48333740234375
202.5	56.48333740234375
199.5	88.48333740234375
159.5	75.48333740234375
572.5	174.48333740234375
554.5	200.48333740234375
536.5	185.48333740234375
513.5	170.48333740234375
514.5	207.48333740234375
496.5	227.48333740234375
524.5	235.48333740234375
596.5	222.48333740234375
582.5	258.48333740234375
599.5	296.48333740234375
587.5	326.48333740234375
567.5	348.48333740234375
548.5	308.48333740234375
496.5	282.48333740234375
467.5	262.48333740234375
408.5	215.48333740234375
427.5	182.48333740234375
471.5	190.48333740234375
416.5	162.48333740234375
431.5	135.48333740234375
382.5	113.48333740234375
377.5	137.48333740234375
300.5	184.48333740234375
530.5	527.4833374023438
505.5	537.4833374023438
482.5	518.4833374023438
470.5	552.4833374023438
442.5	536.4833374023438
427.5	474.48333740234375
448.5	498.48333740234375
387.5	428.48333740234375
400.5	374.48333740234375
424.5	367.48333740234375
325.5	187.48333740234375
342.5	137.48333740234375
243.5	250.48333740234375
399.5	512.4833374023438
