556.1917552221256	343.99876904139103
593.9477169067541	401.6814894599169
347.4851892432074	459.36420987844286
339.0949755355122	397.4863825203878
233.16852747586023	20.97553469764579
501.6553661221068	45.097399599938456
570.8746292105923	222.3406677950454
385.24115092783586	423.70580089244504
409.36301533745956	394.3400523157409
151.363943825832	39.853515925527006
158.7053808200653	75.51192491152486
370.55827693936925	63.97538082781967
510.045579829802	421.60824742268045
506.8992496894163	386.9986151715649
