555.234375	351
542.234375	411
298.234375	208
365.234375	62
226.234375	27
159.234375	81
348.234375	198
557.234375	469
592.234375	398
506.234375	42
563.234375	218
545.234375	188
234.234375	68
