326.780951048536	441.94606096261754
231.38911110969795	389.4805492863295
267.1610510867622	260.7015660808952
485.36988494685426	325.09105768361235
356.5909010294229	340.59223158797016
161.03762915480488	291.7039138896109
183.6931911402789	322.7062616983265
73.99257521061516	341.78462958061306
58.49140122055398	271.43314801468136
78.76216720755707	180.81090057382022
168.19201715021774	174.84891061060566
174.15400714639512	80.64946919181577
182.50079314104346	249.96998414710902
52.5294112243766	38.91553944931392
344.66692103706816	486.0647866904052
268.3534490859977	506.3355525653347
