352.234375	358
373.234375	236
337.234375	213
292.234375	103
266.234375	64
273.234375	147
329.234375	114
571.234375	219
546.234375	202
515.234375	204
567.234375	334
553.234375	305
491.234375	429
487.234375	471
427.234375	456
397.234375	376
306.234375	367
279.234375	326
239.234375	214
198.234375	227
245.234375	147
227.234375	98
161.234375	162
227.234375	357
212.234375	388
356.234375	491
469.234375	594
437.234375	594
545.234375	584
568.234375	608
567.234375	522
502.234375	404
338.234375	255
306.234375	272
177.234375	246
117.234375	183
577.234375	141
422.234375	407
482.234375	398
487.234375	511
193.234375	174
77.234375	158
54.234375	30
115.234375	213
82.234375	206
329.234375	290
