283.38517704414215	94.82855569403786
337.9115969877759	199.1399669574795
369.9162347807784	229.9592475580418
418.5158699479302	158.8378307875134
465.93014815978563	65.19463203965103
516.9004972375303	65.19463203965103
580.9097728235351	137.5014057563549
569.0562032705712	321.23173241355323
483.71050248923143	393.5385061302571
495.56407204219533	420.801715892293
430.3694395008941	405.39207559201185
398.3648017078916	373.38743804527405
355.6919513172217	359.16315469116836
341.4676678536651	246.55424480449844
256.1219670723253	247.7396017506739
272.71696444647466	148.16961827193416
187.37126366513488	177.80354192632097
155.36662587213243	152.91104605663605
81.87449464375648	161.20854467986436
225.30268623461924	365.08993942204575
209.89304581576621	393.5385061302571
358.0626652278145	489.5524187704704
331.984812211294	541.7081244021913
425.62801167970855	450.4356395466798
174.33233715687462	254.85174342772675
