130.38840955659398	429.99846130173876
65.36425332195614	346.09632251115556
106.26654514697027	302.04769964609943
50.68137933348953	235.97476534851518
285.6073631489553	618.778273580551
268.8269357335649	546.4126788736729
261.48549873933155	463.55931681797205
31.803398491175322	414.2668102785044
13.974194362323011	245.41375596245578
38.09605877194672	319.8769041390983
114.65675885466547	22.024311432528084
127.24207941620828	67.12171103246654
209.04666306623653	480.33974457608866
240.50996447009354	436.2911217110325
279.3147028681839	201.36513309739962
309.729227558579	586.2661947991999
