180.234375	523
128.234375	368
107.234375	293
199.234375	273
207.234375	330
202.234375	390
257.234375	390
262.234375	469
227.234375	443
208.234375	487
300.234375	253
277.234375	521
396.234375	377
70.234375	351
41.234375	321
128.234375	435
278.234375	207
331.234375	228
370.234375	447
316.234375	595
165.234375	575
174.234375	402
347.234375	499
