310.37045537933807	85.61983302269768
515.0227461253384	80.39911149692342
89.01185518468462	7.3090101360839475
219.5298977522869	7.3090101360839475
79.61455611981725	127.38560522889166
373.0191158117872	190.03426353818264
353.1803733415116	217.18201547220875
389.72542526044026	210.91714964127965
369.8866827901647	230.75589143922178
588.1128499631957	253.72706615262848
459.68309607667504	218.2261597773636
603.775015071308	332.0378890392422
554.7002310658895	306.9784257155258
