501.4083442004382	232.97765880778337
502.81182414127346	289.1168537012251
550.5301421296725	311.57253165860186
609.4762996447538	338.2386492329867
505.618784022944	408.41264284978894
500.0048642596029	465.95531761556674
425.62042739533376	327.01081025429835
358.25339023524094	210.52198085040666
372.2881896435936	235.78461855245547
290.8863530751481	322.8003706372902
269.8341539626191	282.09945433954493
307.72811236517134	81.40183259549057
396.1473486377932	207.71502110573456
459.3039459753802	218.94286008442293
518.2501034904615	78.59487285081849
233.34367550090215	268.0646556161845
