94.171875	16
313.171875	76
517.171875	80
500.171875	235
357.171875	211
399.171875	208
375.171875	234
374.171875	192
587.171875	251
502.171875	292
553.171875	302
502.171875	408
189.171875	212
236.171875	270
291.171875	325
425.171875	324
500.171875	460
