566.6795223567447	389.0961686413295
419.85078247207855	299.95014617633484
321.2657714066599	152.072626557932
400.9728016297643	248.56008616710264
372.655830366293	231.77965840898602
582.4111730586732	496.071395599323
559.3380853625114	567.3882135713187
451.3140838759356	521.2420372364979
