215.3125	96
242.3125	59
80.3125	24
86.3125	125
272.3125	131
287.3125	100
504.3125	81
560.3125	62
552.3125	113
608.3125	91
580.3125	160
576.3125	234
513.3125	256
525.3125	184
434.3125	131
405.3125	136
386.3125	163
401.3125	84
392.3125	51
303.3125	143
552.3125	423
524.3125	420
548.3125	469
601.3125	501
594.3125	417
606.3125	358
463.3125	264
441.3125	164
343.3125	324
408.3125	355
326.3125	401
312.3125	457
397.3125	488
170.3125	349
249.3125	352
318.3125	256
316.3125	224
259.3125	269
286.3125	188
234.3125	228
244.3125	146
194.3125	175
397.3125	223
425.3125	318
466.3125	377
459.3125	328
480.3125	438
458.3125	462
574.3125	577
537.3125	607
564.3125	627
532.3125	516
437.3125	565
245.3125	422
367.3125	287
