572.9721826375161	382.8035082320357
357.9729563778264	285.26727188798276
434.53365646054516	563.1931066317895
555.1429785086638	114.31666410216957
447.11897702208796	33.56085551623327
214.29054663354603	383.85228496691803
240.50996447009354	427.90090783197417
271.97326587395054	426.8521310970919
431.38732632015945	174.09693799046008
369.50950022590735	532.7785813202031
350.6315193835931	192.97491921834128
344.3388591028217	159.41406370210802
405.16790848361194	349.2426527158025
521.5821236778829	578.9247576550239
513.1919099701877	212.9016771811048
