388.1792772559652	187.04389835106699
384.60208325825874	158.42634652763715
431.1056052284423	129.80879470420732
485.95591319327417	105.9608348513491
552.7302011504609	117.88481477777822
389.37167525520067	53.49532317506107
370.293307267433	70.18889507206181
407.2576452437328	83.30527299113382
384.60208325825874	98.80644689549165
342.8681532850171	154.84915254970844
443.02958522079706	36.80175127806032
246.2839153469436	61.842109123561436
286.82544732094976	102.38364087342038
358.36932727507826	287.20532973307144
398.91085924908447	270.51175783607073
236.74473135305976	423.1387008943632
282.05585532400784	426.7158948722919
426.33601323150043	171.54272444670917
463.30035120780013	238.31701203471212
443.02958522079706	214.46905218185393
468.06994320474206	269.3193598434278
512.1886691764546	210.8918582039252
568.231375140522	229.97022608621177
532.4594351634578	190.62109232899573
609.9653051137636	172.73512243935207
518.150659172632	148.88716258649387
205.7423833729374	386.17436312243296
409.64244124220374	355.17201531371734
525.3050471680449	355.17201531371734
570.616171138993	386.17436312243296
605.1957131168217	353.9796173210744
546.7682111542834	420.7539049090774
592.0793351252315	421.9463029017203
474.0319332009194	435.0626808207923
365.52371527049115	532.8393162175109
438.25999322385513	565.0340620188695
484.7635151940387	569.8036539894412
521.7278531703384	585.3048278937989
570.616171138993	581.7276339158702
248.66871134541452	353.9796173210744
390.56407325443615	498.2597744308665
319.0201933003076	255.01058393171286
257.01549734006284	259.7801759022845
134.19850341880885	226.39303210828302
499.0722911848644	249.04859396849832
527.6898431665159	257.3953799169987
447.799177217739	405.2527310047195
81.73299145244793	52.30292518241816
82.9253894516834	127.4239987189215
85.31018545015436	21.30057737370249
162.81605540046027	251.43338995378414
372.678103265904	125.03920273363568
341.67575528578163	187.04389835106699
210.5119753698793	36.80175127806032
541.9986191573415	473.2194165853654
313.0582033041302	361.1340052769319
613.5424991114701	293.167319696286
567.0389771412865	524.4925302690106
586.1173451290541	557.8796740630121
241.51432335000166	147.69476459385098
601.6185191191154	45.14853722656069
493.11030118868706	457.7182426810076
339.29097748186024	328.93923176553733
