396.234375	318
364.234375	288
357.234375	251
327.234375	225
261.234375	262
247.234375	415
202.234375	382
269.234375	434
323.234375	398
443.234375	410
400.234375	399
348.234375	328
273.234375	320
388.234375	193
431.234375	182
432.234375	138
385.234375	162
375.234375	130
215.234375	230
525.234375	365
547.234375	419
466.234375	530
271.234375	473
564.234375	237
595.234375	361
451.234375	333
551.234375	120
477.234375	103
408.234375	91
369.234375	72
324.234375	120
235.234375	182
279.234375	137
228.234375	111
250.234375	67
281.234375	192
583.234375	67
510.234375	221
457.234375	245
513.234375	146
410.234375	354
477.234375	439
545.234375	467
430.234375	570
317.234375	491
253.234375	357
186.234375	251
