482.54016901906124	104.90400972053463
575.2973901179796	72.88068043742406
555.42084273964	113.73803159173754
605.1122111854891	171.1591737545565
432.84880057321215	132.51032806804375
449.41259005516184	33.12758201701094
385.365937391623	183.3059538274605
165.61966359775687	308.0865127582017
206.47701098656614	387.59270959902796
363.28088474902336	284.8972053462941
406.3467374020926	356.67363304981774
278.25343207501487	422.9287970838396
364.38513738115336	485.87120291616037
518.9805058793506	584.1496962332928
606.216463817619	351.1523693803159
79.4879582916184	128.09331713244228
