526.7102743042605	514.5817739975698
483.64442165119124	481.4541919805589
435.0573058374721	450.53511543134874
448.30833742303184	418.5117861482382
548.7953269468601	428.4500607533414
586.3399164392794	399.73948967193195
520.0847585114806	403.05224787363306
555.42084273964	373.2374240583232
517.8762532472206	300.3567436208991
467.08063216924154	346.73535844471445
390.8872005522729	322.44179829890646
369.90640054180324	282.6886998784933
396.40846371292275	193.2442284325638
422.9105268840423	140.2400972053463
397.51271634505275	118.155042527339
367.6978952775433	112.63377885783719
289.2959583963147	68.4636695018226
306.9640005103944	150.17837181044956
323.5277899923441	178.88894289185905
326.840547888734	235.20583232077763
362.17663211689336	241.83134872417983
324.632042624474	311.39927095990276
273.83642154649493	308.0865127582017
301.44273734974445	247.35261239368165
226.35355836490578	171.1591737545565
132.49208463385747	191.03572296476307
174.45368465479672	291.52272174969625
305.8597478782644	351.1523693803159
373.2191584381932	409.67776427703524
380.94892686310305	459.3691373025516
316.9022741995642	218.64204131227217
297.0257268212245	205.3910085054678
451.6210953194218	507.95625759416765
