243.234375	87
290.234375	77
256.234375	54
224.234375	26
55.234375	52
127.234375	195
231.234375	171
391.234375	198
346.234375	232
302.234375	248
512.234375	300
527.234375	137
419.234375	139
464.234375	292
460.234375	354
526.234375	397
454.234375	421
433.234375	455
381.234375	456
373.234375	413
356.234375	378
390.234375	324
381.234375	285
328.234375	237
313.234375	211
330.234375	175
303.234375	151
359.234375	103
387.234375	112
425.234375	242
241.234375	261
177.234375	282
301.234375	352
278.234375	304
550.234375	415
488.234375	477
