440.8263167413166	441.5350053854439
110.46165200081786	272.6819510693953
321.2657714066599	216.04800738575167
333.8510919682027	310.43791352515774
144.0225068315987	211.85290044622252
491.1675989874878	477.1934143714418
