546.7527648009685	573.6808739806124
601.2891539009873	324.0720110786275
483.8261619932545	431.047238036621
470.1920647182498	325.12078781350976
454.4604140163213	304.145253115864
457.60674415670695	69.21926450223111
410.41179205092146	71.31681797199569
320.216994693198	219.19433759039853
266.72938230664107	119.56054777658102
306.5828974181933	144.73118941375597
499.557812695183	229.68210493922143
585.5575031990588	502.3640560086167
585.5575031990588	428.9496845668565
568.7770757836685	397.4863825203878
580.3136196317494	238.07231881827974
536.2649976663495	111.1703338975227
359.0217330912883	396.43760578550547
403.07035505668813	394.3400523157409
426.14344275285	358.68164332974305
563.5331922163589	619.8270503154332
511.0943565432639	547.4614556085552
164.9980411008367	87.04846899523004
170.2419246681462	53.48761347899677
237.36363432970785	141.5848592091091
407.26546191053575	207.65779350669334
451.3140838759356	252.7551931066318
459.70429758363076	224.43822126480998
468.094511291326	249.60886290198493
