319.02021149485716	167.96553046878043
320.2126094940926	215.66145017449685
293.97985351091216	235.9322160494263
268.93949552696716	241.89420601264086
403.6804694405759	212.0842561965681
309.4810275009733	144.11757061592223
234.35995354913837	136.96318266006477
228.397963552961	58.264915145632706
336.9061814833893	71.38129306470472
407.25766343828235	72.57369105734763
497.8799113801785	147.69476459385098
530.0746573595363	108.34563083663492
491.9179213840011	229.97022608621177
462.1079714031142	218.04624615978267
447.7991954122885	250.24099196114122
474.031951395469	251.43338995378414
484.76353338858826	300.32170765214346
454.9535834077014	302.70650363742925
469.26235939852705	332.51645345350204
428.7208274245209	361.1340052769319
398.91087744363404	395.71354706357624
363.13893746656976	398.0983430488621
335.7137834841538	427.9082928649348
375.0629174589245	470.8346206000796
483.5711353893528	436.2550788134352
586.1173633236037	430.29308885022067
564.6541993373652	393.32875107829045
580.1553733274263	237.12461404206923
456.14598140693687	488.72059048972324
421.5664394291081	537.6089081880825
510.99628937176874	544.76329614394
545.5758313495975	572.188449974727
565.8465973366006	619.8843696804433
587.3097613228392	507.7989583720098
315.4430174971507	288.39772772571433
223.6283715560191	164.3883364908517
164.0084715942453	86.88246696906255
160.43127759653888	116.69241678513531
290.4026595132057	74.95848704263345
309.4810275009733	36.80175127806032
451.37638940999494	45.14853722656069
366.71613146427615	153.6567545570655
460.91557340387874	77.34328302791927
611.1577213075486	95.22925291756292
440.64480741687566	475.6042125706512
260.59270953231885	120.26961076306404
453.7611854084659	18.915781388416672
167.58566559195174	46.34093521920361
327.3669974895055	319.40007553443
338.09857948262476	154.84915254970844
546.768229348833	158.42634652763715
