485.6467985798198	337.13693832879005
580.6154933366523	231.61676695807992
585.1378121345967	118.55944048946193
577.6006141380228	7.009545040425533
496.19887577502345	120.06687150904351
268.5754962784883	49.217613588709575
155.51752632987808	154.73778495941968
286.6647714702659	166.79723311607228
503.73607377159743	493.90976436527365
487.1542381791346	448.68683377782645
346.962355442858	281.36199060427185
437.40873140174614	61.27706174536216
233.9043854942478	121.57430252862508
309.2763654599879	59.76963072578059
212.80023110384056	216.54245676226418
321.3358822545064	407.98619624912396
377.111147429154	420.04564440577656
