345.1289032162807	29.33022339166987
410.6236637265827	82.01070610796286
474.69462509535646	177.4050937293583
413.47126200963936	314.0895894256861
302.41492897043156	328.3275577273869
214.1393821956767	248.59493523786236
158.61121567607282	156.0481412768071
484.6612190860546	452.19788195218393
574.3605650023378	231.5093732758214
582.9033598515076	126.14840784323538
431.9806508495073	56.382363164901406
310.9577238196014	63.501347315751815
266.81995043222395	49.263379014051004
601.4127486913756	607.3917364407228
367.9096894807336	420.8743516884422
