412.234375	380
415.234375	315
572.234375	236
586.234375	123
503.234375	131
582.234375	18
492.234375	59
402.234375	86
431.234375	56
348.234375	25
266.234375	50
235.234375	123
309.234375	64
155.234375	162
275.234375	170
211.234375	267
211.234375	222
192.234375	115
206.234375	37
479.234375	184
460.234375	157
487.234375	341
537.234375	443
481.234375	456
502.234375	494
369.234375	424
306.234375	336
277.234375	301
275.234375	264
223.234375	252
277.234375	197
340.234375	283
