60.171875	16
13.171875	156
83.171875	125
146.171875	170
19.171875	247
47.171875	217
41.171875	296
133.171875	251
212.171875	197
177.171875	286
249.171875	321
316.171875	286
450.171875	254
531.171875	229
467.171875	318
451.171875	466
333.171875	473
420.171875	499
391.171875	439
342.171875	425
239.171875	465
198.171875	389
594.171875	468
450.171875	423
