541.0655585219502	235.20583232077763
442.78707426238196	168.95066828675576
316.9022741995642	291.52272174969625
416.2850110912624	502.43499392466583
447.20408479090185	459.3691373025516
457.14235848007166	417.40753341433776
348.9256005313336	427.34580801944105
248.4386110075054	326.8588092345079
482.54016901906124	359.98639125151885
460.45511637646166	321.33754556500605
189.91322150461644	312.5035236938032
168.9324214941468	278.27168894289184
146.8473688515472	247.35261239368165
57.4029056490188	218.64204131227217
94.94749514143813	332.3800729040097
32.005095110029245	297.04398541919807
19.858316156599464	249.5611178614824
209.78976888295608	197.66123936816524
155.68138990858705	173.36767922235722
85.0092214522683	131.40607533414337
56.298653016888814	27.606318347509113
