122.55381094468764	303.66950182260024
226.35355836490578	210.91227217496962
372.1149058060632	265.0206561360875
378.74042159884306	227.47606318347508
12.1285477316896	32.02332928311057
59.61141091327876	157.90814094775212
594.0696848641893	432.8670716889429
506.8337269259208	323.5460510328068
