221.93654783638587	209.80801944106926
114.82404251977778	305.87800729040094
59.61141091327876	156.80388821385176
12.1285477316896	28.710571081409476
203.1642530901762	375.44592952612396
510.14648482231075	314.7120291616039
596.2781901284492	431.7628189550425
369.90640054180324	253.97812879708383
