408.48701628968223	320.82374516063305
358.4885138667156	316.65720301568973
422.37548918495077	245.82598655165387
397.3762379734674	216.66019153705088
434.8751147906924	177.77246485091354
490.42900637176643	170.82822794267474
451.5412822650146	124.99626434829858
444.5970458173803	77.77545337227467
422.3754891849507	83.33084289886571
384.8766123677258	113.88548529511648
350.15543012955453	119.44087482170754
319.6007897599638	101.38585886028663
269.6022873369972	93.05277457040006
291.82384396942683	241.6594444067106
270.99113462652406	273.6029341846091
247.3807307045676	294.43564490932556
204.32646472923523	304.1575765808599
251.54727257314823	333.323371595463
330.7115680761786	340.2676085037017
362.6550557352962	359.7114718467704
372.37698676198414	383.3218773347823
439.041656659273	305.5464239625077
212.65954846639633	63.886979555797055
236.2699523883528	105.55240100522991
341.8223463923934	252.7702234598927
166.82758791201027	36.11003192284181
214.0483957559232	18.055015961420906
139.05064212147326	11.110779053182096
34.887095406959496	65.27582693744482
59.8863466184428	41.66542144943286
187.66029725491302	223.6044284452897
144.60603127958066	244.43713917000613
107.10715446235571	268.04754465801807
293.21269125895367	337.48991374040617
502.9286319775081	394.4326563879644
476.5405334764979	387.4884194797256
500.15093739845435	361.10031922841813
525.1501886099377	445.8200095089316
502.9286319775081	473.59695714188683
595.9814003758071	424.98729878421517
568.20445458527	454.1530937988182
475.15168618697106	469.43041499694357
595.9814003758071	369.4334035183047
576.5375383224311	394.4326563879644
345.988888260974	172.21707532432245
354.3219719981351	484.70773619506895
