37.171875	65
214.171875	11
210.171875	63
297.171875	25
232.171875	107
604.171875	141
338.171875	249
362.171875	320
413.171875	323
271.171875	270
240.171875	292
147.171875	375
351.171875	166
597.171875	433
518.171875	455
376.171875	381
423.171875	243
446.171875	120
439.171875	83
272.171875	94
576.171875	307
472.171875	469
573.171875	575
514.171875	558
556.171875	533
499.171875	528
