168.3125	385
134.3125	323
134.3125	292
187.3125	267
194.3125	337
238.3125	293
249.3125	358
270.3125	327
303.3125	345
250.3125	414
280.3125	416
240.3125	461
264.3125	485
176.3125	422
348.3125	490
334.3125	474
330.3125	443
343.3125	419
344.3125	370
328.3125	310
311.3125	274
317.3125	227
297.3125	195
272.3125	186
297.3125	106
239.3125	87
252.3125	130
227.3125	128
179.3125	110
87.3125	97
99.3125	49
43.3125	80
61.3125	149
83.3125	170
63.3125	190
53.3125	233
128.3125	227
92.3125	289
102.3125	318
95.3125	359
140.3125	181
108.3125	167
120.3125	113
160.3125	15
206.3125	57
198.3125	29
243.3125	32
302.3125	27
206.3125	201
219.3125	244
375.3125	140
374.3125	118
376.3125	77
419.3125	52
424.3125	20
424.3125	112
454.3125	80
480.3125	53
504.3125	71
548.3125	28
530.3125	56
577.3125	57
580.3125	23
589.3125	67
567.3125	119
490.3125	123
460.3125	169
454.3125	191
417.3125	166
437.3125	206
376.3125	210
329.3125	195
322.3125	166
364.3125	261
418.3125	261
485.3125	211
497.3125	181
522.3125	141
558.3125	149
601.3125	152
608.3125	179
556.3125	200
580.3125	225
566.3125	279
595.3125	249
571.3125	306
597.3125	326
521.3125	379
510.3125	358
526.3125	286
490.3125	267
442.3125	231
465.3125	365
416.3125	359
425.3125	389
386.3125	397
412.3125	434
384.3125	484
382.3125	547
477.3125	486
494.3125	538
530.3125	475
498.3125	437
520.3125	409
559.3125	406
585.3125	464
583.3125	506
594.3125	525
551.3125	502
603.3125	580
427.3125	466
448.3125	496
456.3125	560
