504.91635366500344	66.3896103896104
491.0851846209516	77.45454545454545
481.40336629011534	51.175324675324674
420.5462224962872	52.55844155844156
420.5462224962872	107.88311688311688
430.2280408271235	135.54545454545453
484.1696000989257	215.76623376623377
330.6436237099503	196.4025974025974
323.72803918792437	165.97402597402598
297.44881800422587	195.0194805194805
244.89037563682888	268.3246753246753
242.1241418280185	322.26623376623377
232.44232349718223	293.2207792207792
208.9293361222941	200.55194805194805
188.18258255621635	266.94155844155847
137.00725709322455	323.64935064935065
110.72803590952604	322.26623376623377
92.74751615225865	349.92857142857144
345.8579096584073	491.0064935064935
329.2605068055451	448.12987012987014
413.63063797426133	421.85064935064935
409.48128726104574	358.22727272727275
477.25401557689975	479.94155844155847
495.23453533416716	535.2662337662338
515.9812889002449	424.6168831168831
517.3644058046501	394.18831168831167
531.195574848702	370.6753246753247
513.2150550914346	362.3766233766234
576.838432694073	466.11038961038963
470.33843105487387	443.9805194805195
449.5916774887961	497.9220779220779
471.721547959279	547.7142857142857
499.3838860473827	114.7987012987013
527.0462241354863	63.62337662337662
383.20206607734724	77.45454545454545
372.1371308421058	118.94805194805195
297.44881800422587	105.11688311688312
202.0137516002682	55.324675324675326
137.00725709322455	182.57142857142858
125.94232185798307	224.06493506493507
91.36439924785347	283.538961038961
83.06569782142238	159.05844155844156
56.78647663772388	149.37662337662337
304.3644025262518	293.2207792207792
301.5981687174414	226.83116883116884
161.90336137251785	13.831168831168831
30.507255454025383	246.19480519480518
571.3059650764523	307.05194805194805
522.8968734222708	295.987012987013
