292.7874555116767	104.7684368587062
202.16520756978053	58.264915145632706
162.81607359500984	14.146189417845033
105.58096963170699	77.34328302791927
196.20321757360315	29.647363322202864
84.11780564546844	104.7684368587062
60.26984566075892	142.9251726232793
62.65464165922987	187.04389835106699
92.46459164011677	284.82053374778565
131.81372561488746	290.7825237110002
185.47163558048388	271.7041558287136
204.55000356825147	203.73747024806775
124.6593376194746	225.20063411564013
105.58096963170699	322.97726951235876
91.27219364088128	355.17201531371734
248.66872953996406	268.1269618507849
308.2886295017379	272.8965538213565
304.71143550403144	228.77782809356884
367.9085294635116	117.88481477777822
421.5664394291081	105.9608348513491
431.10562342299187	136.96318266006477
371.4857234612181	146.50236660120805
378.6401114566309	82.11287499849091
357.17694747039235	14.146189417845033
479.99394139164633	128.6163967115644
485.95593138782374	79.72807901320509
502.64950337712037	117.88481477777822
474.031951395469	48.72573120448943
505.03429937559133	66.61170109413308
536.0366473557137	129.80879470420732
596.848945316723	153.6567545570655
562.2694033388942	115.50001879249238
539.6138413534202	35.60935328541741
293.97985351091216	194.19828630692444
251.05352553843503	131.0011926968502
267.7470975277317	325.36206549764455
327.3669974895055	309.86089159328674
438.2600114184047	207.31466422599647
487.1483293870592	222.8158381303543
493.1103193832366	262.16497188757035
570.6161893335425	308.66849360064384
559.8846073404233	344.4404333799311
520.5354733656525	290.7825237110002
578.9629753281909	461.2954366589363
464.4927674015852	363.51880126221766
408.45006143751783	359.941607284289
413.2196534344597	426.7158948722919
478.8015433924109	492.297784467652
447.7991954122885	495.8749784455807
497.8799113801785	437.4474768060781
510.99628937176874	382.5971691445043
516.9582793679461	424.3310988870061
489.5331253855302	530.4545202322251
469.26235939852705	549.5328881145117
453.7611854084659	559.072072055655
350.0225594749795	494.6825804529378
329.75179348797644	441.02467078400684
240.32194354531575	460.1030386662934
236.74474954760933	414.7919149458628
237.93714754684478	319.40007553443
187.8564315789548	233.54742006414048
192.6260235758967	334.90124943878783
28.075099681401074	244.27900199792668
28.075099681401074	300.32170765214346
20.92071168598822	122.65440674834986
417.9892454314016	10.568995439916302
328.55939548874096	194.19828630692444
133.00612361412294	320.5924735270729
241.51434154455123	162.0035405055659
582.5401693258973	184.65910236578117
319.02021149485716	165.5807344834946
487.1483293870592	369.48079122543226
23.305507684459172	5.799403469344662
509.80389137253326	5.799403469344662
128.23653161718104	381.4047711518613
506.2266973748268	351.5948213357886
530.0746573595363	367.0959952401464
457.3383794061723	162.0035405055659
328.55939548874096	472.0270185927225
355.98454947115687	468.4498246147938
423.951235427579	49.91812919713234
391.75648944822115	59.457313138275616
129.4289296164165	178.69711240256663
