521.1890111436105	465.99465370595385
598.4866953927092	473.7244228432564
435.0573058374721	346.73535844471445
421.8062742519123	172.26342648845687
406.3467374020926	141.34434993924665
350.0298531634636	113.73803159173754
308.0682531425243	91.65297691373026
289.2959583963147	162.32515188335358
279.3576847071449	121.46780072904008
217.51953730786596	103.79975698663426
215.311032043606	57.42114216281895
316.9022741995642	20.980801944106926
345.61284263494366	23.189307411907656
534.4400427291703	210.91227217496962
400.8254742414427	255.0823815309842
379.84467423097306	301.46099635479953
363.28088474902336	324.65030376670717
506.8337269259208	439.4925880923451
586.3399164392794	262.81215066828673
335.67456894577384	249.5611178614824
355.5511163241135	355.5693803159174
295.92147418909457	236.310085054678
350.0298531634636	298.1482381530984
