586.234375	263
582.234375	365
506.234375	442
527.234375	473
511.234375	218
410.234375	180
398.234375	144
354.234375	106
310.234375	87
311.234375	25
225.234375	56
187.234375	77
217.234375	102
282.234375	119
285.234375	162
215.234375	175
290.234375	238
329.234375	248
359.234375	331
347.234375	295
385.234375	304
399.234375	263
439.234375	337
415.234375	372
351.234375	440
589.234375	464
560.234375	433
539.234375	209
487.234375	112
469.234375	373
497.234375	573
