530.4639514700134	10.487767348822896
592.3417775642655	33.56085551623327
559.8296994469466	30.4145253115864
550.3907090257895	62.92660409293738
610.1709816931178	109.07278042775812
572.4150200084894	122.70687798122789
471.73245551614696	22.024311432528084
592.3417775642655	102.78012001846439
402.5131924276615	38.80473919064472
431.87894040459474	66.07293429758425
494.80554321230875	92.29235266964149
458.09835824114225	82.85336205570088
423.4887266968995	101.73134328358209
448.65936781998516	134.24342206493307
394.1229787199663	106.97522695799354
366.8547841699569	78.65825511617172
371.0498910238045	121.6581012463456
335.39148276609984	10.487767348822896
285.05020051992864	44.04862286505617
252.53812240260973	10.487767348822896
269.3185498180001	95.43868287428836
117.24592636602453	40.902292660409294
132.97757706795304	82.85336205570088
99.41672223717222	97.53623634405294
46.977886564077195	78.65825511617172
21.807245440991583	28.31697184182182
60.61198383908191	26.21941837205724
131.92880035449116	146.82874288352056
129.83124692756735	118.51177104169874
230.5138114199098	201.36513309739962
296.58674436800953	223.3894445299277
317.5622786372476	174.09693799046008
260.92833611030494	206.60901677181107
270.367326531462	174.09693799046008
165.48965518527197	132.1458685951685
97.31916881024843	197.17002615787044
45.9291098506153	103.82889675334667
54.3193235583105	157.31651023234343
53.2705468448486	192.97491921834128
5.026818025601171	147.87751961840283
32.295012575610585	167.80427758116633
6.075594739063072	192.97491921834128
40.685226283305795	223.3894445299277
10.270701592910674	218.14556085551624
9.221924879448775	273.7307278042776
48.0266632775391	290.5111555623942
88.92895510255322	276.87705800892445
146.61167434295777	210.80412371134022
203.2456168699004	178.29204492998923
101.51427566409603	312.53546699492233
129.83124692756735	302.04769964609943
162.34332504488626	308.34036005539315
124.58736336025784	362.87675026927224
180.17252917373858	372.3157408832128
227.3674812795241	366.0230804739191
201.1480634429766	290.5111555623942
207.440723723748	345.0475457762733
256.7332292564573	254.85274657639638
244.14790869491452	34.609632251115556
389.9278718661187	182.48715186951839
430.83016369113284	167.80427758116633
394.1229787199663	205.56024003692877
340.63536633340937	156.26773349746117
324.90371563148085	31.46330204646869
288.19653066031435	5.243883674411448
459.14713495460416	190.87736574857672
493.75676649884684	119.56054777658102
531.5127281834752	181.43837513463612
550.3907090257895	214.99923065086938
478.0251157969183	125.85320818587476
499.00065006615637	237.02354208339747
511.58597062769917	189.82858901369443
467.53734866229934	217.09678412063397
472.78123222960886	162.56039390675488
336.44025947956175	96.48745960917064
476.9763390834565	315.6817971995692
519.9761843353944	308.34036005539315
605.9758748392702	246.46253269733808
570.3174665815656	197.17002615787044
518.9274076219325	265.3405139252193
385.7327650122711	291.55993229727653
452.8544746738327	303.0964763809817
495.85431992577065	275.8282812740422
430.83016369113284	319.8769041390983
341.68414304687127	311.48669026004
367.9035608834188	328.2671180181567
339.58658961994746	354.48653639021387
301.83062793531906	399.5839359901523
388.8790951526568	386.9986151715649
318.6110553507095	380.7059547622711
324.90371563148085	284.2184951531005
233.6601415602955	319.8769041390983
288.19653066031435	319.8769041390983
213.7333840045194	252.7551931066318
486.41532950461357	412.1692568087398
515.7810774815467	370.2181874134482
551.4394857392514	319.8769041390983
527.3176213296276	410.0717033389752
544.0980487450181	500.26650253885214
538.8541651777086	432.09601477150335
441.31793082575183	421.60824742268045
482.22022265076595	468.8032004923835
607.0246515527322	452.0227727342668
534.659058323861	552.7053392829666
561.9272528738704	578.9247576550239
542.0004953180943	450.97399599938456
537.8053884642467	598.8515156177874
487.4641062180755	588.3637482689645
442.36670753921373	551.6565625480844
355.318240321876	551.6565625480844
304.9769580757048	515.9981535620865
270.367326531462	487.6811817202647
253.5868991160716	463.55931681797205
260.92833611030494	424.7545776273273
218.9772675718289	415.3155870133867
78.44118796793421	380.7059547622711
382.5864348718854	508.6567164179105
432.92771711805665	513.900600092322
446.56181439306135	477.1934143714418
418.24484312959004	492.92506539467615
298.68429779493334	453.07154946914915
251.48934568914783	333.51100169256813
189.61151959489567	268.48684412986614
381.5376581584235	435.2423449761502
349.0255800411046	441.5350053854439
605.9758748392702	355.5353131250962
554.5858158796372	617.7294968456686
222.1235977122146	467.7544237575012
