482.00657652528014	313.0282833940073
399.2958521166506	306.6659199103893
395.47843406702157	203.5956314757771
302.5879281927146	226.50014001680202
232.60193061618202	195.96079529543547
255.50643891395634	251.94959395127418
198.24516816952055	290.12377485298236
223.69462183371422	358.8373004760571
268.2311657460532	422.4609353122375
423.47283309763463	489.9019882385887
389.11607065097314	507.71660599271917
362.3941443035698	556.0705684682163
182.97549597100434	374.10697283674045
101.53724424558456	316.8457014841781
129.5316432761976	360.10977317278076
104.08218961200393	194.68832259871186
55.72822765003592	190.87090450854103
320.4025457576502	176.87370484458137
368.75650771961824	125.97479697563709
414.56552431516684	87.80061607392888
372.5739257692473	81.43825259031084
459.1020682275058	188.32595911509384
448.92228676182833	142.516942033044
433.6526145633121	157.78661439372723
501.09366677342535	229.04508541024924
523.9981750711997	296.4861383366004
539.2678472697158	426.2783534024083
512.5459209223126	374.10697283674045
545.6302106857643	502.6267152058247
529.0880658040385	407.1912629515542
483.2790492084898	407.1912629515542
475.6442131092317	466.99747969756373
386.57112528455383	379.19686362363484
96.44735351274582	274.8541024922991
162.6159330396494	309.2108653038365
51.91080960040687	287.57882945953514
237.69182134902076	310.4833380005601
551.9925741018127	211.23046765611875
535.4504292200868	180.69112293475217
507.4560301894738	195.96079529543547
469.2818496931833	215.04788574628958
496.0037760405866	120.88490618874266
452.7397048114574	86.52814337720527
273.32105647889193	92.89050686082331
502.36613945663504	99.25287034444133
582.5319184988451	118.33996079529544
549.4476287353933	58.53374404928592
493.45883067416725	73.8034164099692
475.6442131092317	21.632035844301317
342.03458137221486	11.452254270512462
324.21996380727927	21.632035844301317
288.59072867740815	48.35396247549706
242.7817120818595	31.811817418090172
135.89400669224602	76.34836180341641
100.26477156237486	95.43545225427052
126.98669790977824	118.33996079529544
134.62153400903634	143.78941472976757
166.43335108927846	132.33716045925513
286.0457833109888	320.66311957434897
325.49243649048896	281.2164659759171
366.2115623531989	333.387846541585
386.57112528455383	288.8513021562588
415.8379969983765	383.0142817138057
440.01497797936054	418.6435172220667
392.9334887006022	179.41865023802856
380.2087618685054	189.59843181181742
147.3462608411332	209.95799495939514
