335.7137652896042	16.530985403130853
286.82544732094976	45.14853722656069
131.81370742033792	80.920477005848
116.31253343027673	41.57134324863196
57.885031467738415	28.454965329559954
45.96105147538366	84.49767098377673
100.81135944021554	99.99884488813456
128.23651342263148	120.26961076306404
136.58329941727982	146.50236660120805
168.77804539663765	133.38598868213603
102.00375743945102	193.00588831428155
152.084473407341	213.27665418921103
98.42656344174459	275.28134980664237
56.69263346850294	156.04155054235133
104.38855343792197	311.05328958592963
158.04646340351837	308.66849360064384
255.82309934082738	251.43338995378414
230.78274135688238	198.96787827749608
259.4002933385338	206.12226623335357
317.8277953010721	172.73512243935204
372.678103265904	123.84680474099277
363.1389192720202	77.34328302791927
416.7968292376166	88.07486496170546
553.9225991496963	60.649711130918526
587.3097431282896	27.262567336917044
580.1553551328768	116.69241678513531
460.91555520932917	188.2362963437099
450.1839732162099	141.7327746306364
502.64948518257086	237.12461404206923
525.3050471680449	301.51410564478635
475.2243312001549	313.4380855712155
487.14831119250965	411.2147209679341
509.8038731779837	367.0959952401464
530.0746391649868	402.86793501943373
539.6138231588706	431.48548684286357
543.191017156577	499.45217242350947
532.4594351634578	556.6872760703691
445.414381219268	553.1100820924404
417.98922723685206	488.72059048972324
433.49040122691326	512.5685503425815
378.6400932620814	512.5685503425815
386.9868792567297	381.4047711518613
328.5593772941914	272.8965538213565
229.5903433576469	364.7111992548606
178.31722939052145	368.2883932327893
212.89677136835024	408.82992498264827
224.820751360705	463.68023264422214
267.7470793331821	425.52349687964903
305.90381530871736	517.3381423131531
358.36932727507826	557.8796740630121
291.59503931789163	452.94865071043597
205.7423833729374	291.9749217036431
203.35758737446645	169.15792846142335
57.885031467738415	189.4286943363528
452.56876921468086	299.12930965950056
515.765863174161	270.51175783607073
438.25999322385513	420.7539049090774
445.414381219268	479.18140654857996
475.2243312001549	463.68023264422214
496.68749518639345	588.8820218717277
608.7729071145282	456.52584468836466
606.3881111160572	240.70180801999794
507.4190771795127	189.4286943363528
243.89911934847262	32.03215930748868
406.0652472444973	46.34093521920361
451.3763712154454	82.11287499849091
431.1056052284423	64.22690510884726
525.3050471680449	177.5047144099237
162.81605540046027	24.877771351631225
266.5546813339467	495.8749784455807
129.42891142186696	301.51410564478635
191.4336073821117	265.7421658654991
50.73064347232556	290.7825237110002
214.08916936758573	252.62578794642704
10.18911149831939	213.27665418921103
285.6330493217143	319.40007553443
208.12717937140835	349.21002535050275
426.33601323150043	163.1959384982088
389.37167525520067	190.62109232899573
268.9394773324176	82.11287499849091
470.454739203213	18.915781388416672
607.5805091152927	355.17201531371734
561.0769871451091	580.5352359232273
