101.37654547712458	100.82464946752377
101.37654547712458	202.66772007806412
203.22315702000387	174.4650236012991
102.94341642393812	312.34487304326143
160.91764145603864	309.21124010139863
181.28696376461448	373.45071540958565
262.7642529989179	423.5888424793901
229.85996311583384	196.40045419433855
200.08941512637682	290.40944245022195
270.59860773298556	172.8982071303677
471.1580889251171	17.78337650816009
530.6991849040312	174.4650236012991
500.92863691457416	234.00404949669192
576.1384423616234	118.05963064776905
560.4697328934882	581.8373060434606
361.47712264817017	556.7682425085583
391.2476706376272	595.938654281843
422.58508957389773	490.9619507294399
384.98018685037306	509.76374838061656
535.3997977444717	428.2892918921843
544.8010234253529	498.79603308409685
488.3936693400659	409.4874942410076
485.25992744643884	312.34487304326143
386.5470577971866	379.7179812933112
515.0304754358958	370.31708246772286
444.52128282928714	556.7682425085583
494.66115312732	591.2382048690489
