553.21233747538	62.94240583232078
579.7144006464995	118.155042527339
473.7061479620214	22.08505467800729
406.3467374020926	47.48286755771567
532.2315374649104	178.88894289185905
506.8337269259208	189.9314702308627
468.1848848013715	213.12077764277035
524.5017690400005	300.3567436208991
485.8529269154512	315.81628189550423
458.24661111220166	301.46099635479953
515.6677479829607	368.82041312272173
486.9571795475812	408.5735115431349
530.0230322006504	407.46925880923453
537.7528006255602	428.4500607533414
609.5292217140089	460.473390036452
547.69107431473	501.3307411907655
472.6018953298914	468.20315917375456
444.9955795266419	475.9329283110571
424.01477951617227	493.60097205346295
436.1615584696021	514.5817739975698
442.78707426238196	549.9178614823816
479.2274111226713	528.9370595382746
536.6485479934303	555.4391251518833
495.791200604621	591.8794653705954
559.8378532681598	579.7326852976913
383.157432127363	513.4775212636695
355.5511163241135	562.0646415552856
266.1066531215851	494.7052247873633
428.4317900446922	324.65030376670717
261.6896425930652	417.40753341433776
224.14505310064584	363.2991494532199
182.18345307970657	369.9246658566221
208.6855162508261	345.6311057108141
164.5154109656269	305.87800729040094
100.46875830208803	281.58444714459296
103.78151619847797	316.92053462940464
52.985895120498874	283.79295261239366
5.503031938909719	268.33341433778855
100.46875830208803	195.4527339003645
55.194400384758836	191.03572296476307
5.503031938909719	184.41020656136087
133.59633726598744	80.61044957472662
104.88576883060796	96.06998784933171
167.82816886201684	134.71883353584448
216.41528467573596	29.814823815309843
245.12585311111545	34.2318347509113
250.64711627176536	4.417010935601458
269.41941101797505	164.53365735115432
337.8830742100338	94.96573511543134
456.0381058479417	79.50619684082625
