385.234375	170
349.234375	83
304.234375	81
264.234375	110
174.234375	89
146.234375	130
190.234375	20
207.234375	118
268.234375	52
289.234375	9
393.234375	225
362.234375	246
458.234375	277
481.234375	370
479.234375	414
537.234375	385
531.234375	298
529.234375	103
284.234375	204
284.234375	165
317.234375	111
96.234375	122
117.234375	44
320.234375	268
289.234375	261
459.234375	442
553.234375	485
563.234375	254
537.234375	169
414.234375	303
261.234375	302
141.234375	173
113.234375	200
55.234375	224
34.234375	190
139.234375	85
124.234375	216
149.234375	335
391.234375	361
566.234375	438
