487.3125	367
481.3125	411
577.3125	404
539.3125	367
530.3125	337
467.3125	437
398.3125	221
463.3125	277
389.3125	161
343.3125	80
303.3125	78
269.3125	54
207.3125	115
181.3125	81
295.3125	259
319.3125	272
340.3125	287
267.3125	295
418.3125	299
192.3125	24
286.3125	161
568.3125	442
