488.171875	128
356.171875	51
358.171875	80
398.171875	79
543.171875	25
571.171875	87
554.171875	174
519.171875	206
491.171875	211
605.171875	324
563.171875	346
590.171875	458
512.171875	463
358.171875	208
326.171875	151
325.171875	104
118.171875	207
172.171875	237
312.171875	350
485.171875	289
487.171875	326
