474.81040059415136	379.8629404617254
479.2274111226713	334.58857837181046
462.6636216407216	361.0906439854192
410.7637479306125	327.9630619684083
439.474316365992	303.66950182260024
366.5936426454133	299.25249088699877
408.55524266635257	265.0206561360875
492.47844270823106	134.71883353584448
537.7528006255602	216.43353584447144
395.3042110807928	87.2359659781288
361.0723794847634	75.08918590522478
221.93654783638587	118.155042527339
452.7253479515518	261.7078979343864
395.3042110807928	189.9314702308627
352.23835842772354	46.37861482381531
321.3192847280841	123.67630619684083
366.5936426454133	132.51032806804375
395.3042110807928	150.17837181044956
411.86800056274234	162.32515188335364
279.35768470714487	162.32515188335358
260.5853899609352	28.710571081409476
536.6485479934303	81.71470230862697
600.6952006569692	323.5460510328068
560.9421059002898	345.6311057108141
422.9105268840423	83.9232077764277
442.78707426238196	386.4884568651276
428.4317900446922	144.65710814094774
361.0723794847634	215.32928311057108
358.8638742205034	181.09744835965978
591.8611795999293	458.26488456865127
485.8529269154512	425.13730255164035
459.35086374433166	421.82454434993923
