476.5405334764979	143.0512803097195
557.0936762690552	216.66019153705088
489.04015908223954	229.15981797188073
597.3702476653339	240.27059702506284
559.8713708481089	104.16355362358216
415.43125273731647	211.10480201045982
609.8698732710756	374.9887930448958
522.372494030884	340.2676085037017
372.37698676198414	151.38436459960607
412.6535581582628	249.99252869659716
439.041656659273	352.76723493853154
394.59854339441375	120.8297222033553
275.1576764951046	93.05277457040006
129.32871109478532	68.05352170074035
447.37474039643405	327.76798206887185
469.59629702886366	330.5456768321674
432.0974202116387	279.1583237112002
494.59554824034694	188.88324390409565
361.26620844576934	73.60891122733139
