115.3125	216
85.3125	215
112.3125	256
162.3125	218
252.3125	279
236.3125	383
295.3125	279
355.3125	370
383.3125	395
539.3125	451
516.3125	491
546.3125	412
589.3125	394
543.3125	379
524.3125	352
565.3125	182
571.3125	159
581.3125	112
596.3125	16
271.3125	66
269.3125	42
333.3125	42
353.3125	71
222.3125	56
41.3125	221
53.3125	125
321.3125	195
443.3125	64
396.3125	90
398.3125	14
482.3125	67
444.3125	236
270.3125	240
551.3125	514
59.3125	104
221.3125	245
352.3125	256
