331.0288689208124	40.4331468187955
346.5300429108736	66.66590265693952
265.44697896286124	71.43549462751116
220.13585499191316	61.89631068636788
135.47559704619437	153.71095611987195
162.90075102861033	221.67764170051782
310.7581029338093	189.48289589915927
329.8364709215769	212.13845775937455
369.1856048963476	218.1004477225891
418.0739228650021	179.94371195801597
438.3446888520052	65.47350466429661
579.0476527617914	117.93901634058466
517.0429568015466	78.58988258336862
55.58493109741751	102.43784243622683
239.21422297968076	380.26657472202487
86.58727907753988	216.90804972994619
574.2780607648494	159.67294608308652
353.6844309062864	371.9197887735245
145.0147810400782	38.04835083350968
394.2259628802926	20.16238094386603
424.0359128611795	9.430799010079838
551.6224987793754	507.85315993481623
539.6985187870206	448.2332603026708
515.8505588023111	385.0361666925965
295.2569289437481	275.3355513694488
