213.4015211783506	64.3847144697295
332.8059112398644	38.6308286818377
352.7066429167833	73.7497638471447
268.421191108656	72.5791326749678
434.6508321746849	63.2140832975526
584.4916353891335	114.7218548733362
404.2144190217501	114.7218548733362
333.97654251497727	92.4798626019751
269.59182238376883	111.2099613568055
236.81414668060822	115.8924860455131
168.91753272406118	217.7373980249034
335.1471737900901	213.0548733361958
579.8091102886821	156.8645770717046
520.1069152579252	83.1148132245599
488.4998708298774	126.4281665951052
545.8608033104085	373.4313439244311
595.0273168651495	395.6733361957922
357.38916801723485	257.538857878918
352.7066429167833	373.4313439244311
534.1544905592797	444.839845427222
520.1069152579252	387.4789179905539
532.9838592841669	287.9752683555174
316.41707338828405	191.9835122370116
141.99301339646493	148.6701588664663
90.48523729149821	214.2255045083727
469.76977042807135	106.5274366680979
503.71807740634483	23.412623443538
400.7025251964114	23.412623443538
605.5629983411654	300.8522112494633
421.77388814844323	179.1065693430657
85.80271219104668	111.2099613568055
60.048824138563326	105.356805495921
15.564835684273882	94.8211249463289
129.11606937022324	201.34856161442679
370.26611204347654	216.5667668527265
303.54012936204236	131.1106912838128
607.9042608913911	209.5429798196651
530.6425967339411	199.007299270073
493.18239593032894	97.1623872906827
549.3726971357472	49.1665092314298
487.3292395547645	59.7021897810219
