413.5581221913072	518.0957070318511	1
390.4850344951453	487.6811817202647	1
463.8994044374784	477.1934143714418	1
506.8992496894163	443.6325588552085	1
560.3868620759732	361.8279735343899	1
503.7529195490306	327.21834128327436	1
449.21653044901177	293.6574857670411	1
496.4114825547973	264.291737190337	1
345.3876358162836	261.1454069856901	1
323.3633248335837	248.56008616710264	1
343.2900823893598	217.09678412063397	1
350.6315193835931	173.04816125557778	1
370.55827693936925	141.5848592091091	1
352.7290728105169	120.60932451146331	1
544.6552113740447	587.3149715340822	1
553.04542508174	484.5348515156178	1
374.7533837932168	82.85336205570088	1
174.43703152199382	79.70703185105401	1
301.33901385088376	226.53577473457457	1
416.70445233169283	185.63348207416527	1
393.63136463553104	148.92629635328512	1
334.8998686816646	382.8035082320357	1
386.2899276412977	309.3891367902755	1
412.5093454778453	276.87705800892445	1
387.3387043547596	343.99876904139103	1
361.1192865182121	363.9255270041545	1
440.8263167413166	366.0230804739191	1
293.515625	9.0	1
308.515625	105.0	1
348.515625	84.0	1
354.515625	118.0	1
170.515625	80.0	1
261.515625	208.0	1
352.515625	176.0	1
412.515625	186.0	1
502.515625	201.0	1
547.515625	206.0	1
547.515625	37.0	1
494.515625	79.0	1
613.515625	140.0	1
497.515625	264.0	1
458.515625	297.0	1
407.515625	273.0	1
394.515625	300.0	1
340.515625	263.0	1
264.515625	315.0	1
302.515625	347.0	1
321.515625	362.0	1
336.515625	384.0	1
356.515625	423.0	1
368.515625	395.0	1
379.515625	490.0	1
398.515625	456.0	1
463.515625	476.0	1
499.515625	440.0	1
496.515625	482.0	1
511.515625	366.0	1
503.515625	335.0	1
366.515625	372.0	1
561.515625	359.0	1
596.515625	362.0	1
613.515625	339.0	1
610.515625	387.0	1
613.515625	412.0	1
597.515625	438.0	1
543.515625	591.0	1
576.515625	81.0	1
411.515625	519.0	1
459.515625	212.0	1
172.84375	80.0	1
323.84375	103.0	1
348.84375	88.0	1
371.84375	82.0	1
353.84375	124.0	1
371.84375	147.0	1
402.84375	150.0	1
354.84375	172.0	1
412.84375	180.0	1
537.84375	94.0	1
572.84375	81.0	1
548.84375	39.0	1
497.84375	191.0	1
407.84375	235.0	1
456.84375	209.0	1
348.84375	265.0	1
389.84375	311.0	1
400.84375	281.0	1
453.84375	297.0	1
487.84375	271.0	1
493.84375	331.0	1
546.84375	307.0	1
517.84375	371.0	1
470.84375	482.0	1
509.84375	452.0	1
506.84375	491.0	1
559.84375	358.0	1
591.84375	363.0	1
602.84375	435.0	1
403.84375	432.0	1
397.84375	453.0	1
437.84375	462.0	1
364.84375	361.0	1
294.171875	4.0	1
201.171875	166.0	1
171.171875	83.0	1
318.171875	103.0	1
355.171875	167.0	1
269.171875	317.0	1
306.171875	355.0	1
392.171875	307.0	1
410.171875	272.0	1
451.171875	293.0	1
420.171875	185.0	1
367.171875	84.0	1
537.171875	46.0	1
498.171875	74.0	1
501.171875	197.0	1
505.171875	444.0	1
475.171875	478.0	1
386.171875	487.0	1
316.171875	427.0	1
547.171875	588.0	1
498.171875	327.0	1
538.171875	431.0	1
559.171875	354.0	1
514.171875	369.0	1
548.171875	310.0	1
595.171875	360.0	1
402.171875	445.0	1
366.171875	365.0	1
171.234375	79.0	1
198.234375	164.0	1
421.234375	188.0	1
314.234375	104.0	1
351.234375	172.0	1
260.234375	314.0	1
384.234375	481.0	1
425.234375	463.0	1
465.234375	485.0	1
425.234375	557.0	1
410.234375	509.0	1
494.234375	201.0	1
540.234375	204.0	1
488.234375	263.0	1
510.234375	328.0	1
523.234375	368.0	1
447.234375	296.0	1
388.234375	314.0	1
405.234375	265.0	1
345.234375	261.0	1
342.234375	219.0	1
355.234375	122.0	1
347.234375	90.0	1
377.234375	86.0	1
395.234375	151.0	1
363.234375	143.0	1
434.234375	373.0	1
491.234375	83.0	1
426.234375	112.0	1
239.234375	126.0	1
238.234375	176.0	1
261.234375	205.0	1
318.234375	434.0	1
356.234375	427.0	1
359.234375	370.0	1
322.234375	363.0	1
302.234375	349.0	1
375.234375	407.0	1
506.234375	443.0	1
449.234375	245.0	1
459.234375	213.0	1
570.234375	90.0	1
540.234375	50.0	1
430.234375	32.0	1
389.234375	347.0	1
560.234375	459.0	1
558.234375	355.0	1
397.234375	459.0	1
500.234375	543.0	1
542.234375	592.0	1
442.234375	138.0	1
563.234375	434.0	1
592.234375	363.0	1
402.234375	433.0	1
418.234375	216.0	1
506.1220951911844	329.0774968918359	1
500.4726961362091	194.9042685453792	1
501.88504589995296	266.9341069208454	1
451.04045440517496	302.2428512225446	1
411.4946610203477	273.99585578118524	1
393.1341140916779	312.1292996270203	1
499.0603463724653	449.12722751761294	1
540.0184895210364	427.94198093659344	1
561.2037359771939	355.9121425611272	1
599.3371795982773	370.0356402818069	1
548.4925881034994	299.4181516784086	1
414.31936054783534	185.01782014090344	1
400.195862910397	152.53377538334024	1
355.0006704705944	168.06962287608786	1
345.1142221243876	261.2847078325736	1
328.1660249594616	245.74886033982594	1
305.56842873956026	348.8503937007874	1
326.75367519571773	364.386241193535	1
366.29946858054507	367.21094073767097	1
424.20580889404215	466.0754247824285	1
463.7516022788695	481.61127227517613	1
508.9467947186721	484.43597181931204	1
558.3790364497062	494.32242022378784	1
516.0085435373912	367.21094073767097	1
534.369090466061	97.4521342726896	1
572.5025340871446	88.9780356402818	1
496.2356468449776	79.09158723580605	1
374.7735671630081	86.15333609614588	1
359.2377197618259	87.56568586821385	1
318.27957661325473	107.33858267716536	1
290.0325813383781	9.886448404475756	1
178.45695000261537	80.50393700787401	1
438.3293065314805	367.21094073767097	1
391.721764327934	341.78864484044755	1
548.4925881034994	203.378367177787	1
545.6678885760117	45.195192706174886	1
383.3125	483.0	1
398.3125	439.0	1
428.3125	466.0	1
468.3125	482.0	1
411.3125	513.0	1
495.3125	544.0	1
500.3125	443.0	1
502.3125	481.0	1
563.3125	361.0	1
593.3125	361.0	1
539.3125	313.0	1
509.3125	327.0	1
511.3125	365.0	1
491.3125	265.0	1
448.3125	294.0	1
393.3125	300.0	1
390.3125	350.0	1
362.3125	360.0	1
320.3125	363.0	1
340.3125	387.0	1
269.3125	312.0	1
336.3125	254.0	1
344.3125	215.0	1
348.3125	173.0	1
351.3125	119.0	1
356.3125	87.0	1
398.3125	155.0	1
418.3125	184.0	1
462.3125	209.0	1
503.3125	197.0	1
539.3125	138.0	1
538.3125	95.0	1
572.3125	90.0	1
546.3125	32.0	1
292.3125	7.0	1
171.3125	81.0	1
321.3125	104.0	1
198.3125	167.0	1
439.3125	372.0	1
605.3125	430.0	1
549.3125	204.0	1
490.3125	81.0	1
413.3125	277.0	1
504.41019804428765	438.77462243057977	1
561.0658296682623	354.4499591679088	1
551.8428198690106	303.0646174922187	1
503.09262521582315	324.1457833078864	1
513.6332078435394	364.99054207574267	1
538.6670915843654	420.32860234187046	1
568.9712666390494	444.0449138844967	1
460.9302947049583	476.9842354714776	1
402.9570902525192	451.9503510653721	1
391.0989347963385	488.84239124279065	1
351.5717499424027	172.62490400777452	1
292.28097266149905	7.928296072870275	1
178.9697094135498	76.44208497379044	1
355.52446842779625	80.39480356422814	1
355.52446842779625	118.60441660512592	1
317.314856402325	102.79354224337511	1
500.4574795588941	192.38849695996302	1
547.890101383617	206.88179845823458	1
539.9846644128298	143.63830101123136	1
575.5591307813721	89.61781360858278	1
547.890101383617	34.27975334245495	1
542.619810069759	94.88810506249972	1
491.2344697596424	80.39480356422814	1
438.5315566210614	64.58392920247734	1
422.7206826794871	32.96218047897572	1
474.10602298960356	7.928296072870275	1
445.119420763384	139.68558242079368	1
420.085537022558	183.1654869156084	1
397.68679893866107	146.27344673818985	1
366.06505105551247	143.63830101123136	1
409.5449543948418	278.03073308611323	1
391.0989347963385	310.97005467309407	1
391.0989347963385	350.4972405774711	1
363.4299053985834	367.6256878027011	1
308.09184660307335	346.5445219870334	1
363.4299053985834	415.05831088795355	1
496.5047610735005	264.8550044513209	1
458.29514904802926	287.25374313046785	1
434.5788381356678	362.3553963487842	1
346.3014586285446	260.9022858608832	1
294.91611831842806	254.31442154348701	1
455.66000339110025	208.19937132171384	1
613.7687428068433	139.68558242079368	1
592.6875775514109	355.76753203138804	1
267.24708892067304	200.29393414083842	1
402.9570902525192	230.5981100008608	1
590.0524318944819	22.42159757114185	1
551.8428198690106	484.88967265235294	1
429.3085468218097	457.220642519289	1
341.03116731468646	218.7399542295477	1
239.57805952291798	179.21276832517069	1
339.71359448622195	383.43656216445197	1
267.24708892067304	309.65248180961487	1
497.82233390196507	540.2277329184808	1
611.1335971499143	383.43656216445197	1
604.5457330075916	430.86918524970434	1
499.072309379414	191.81349032163862	1
416.79684743216615	185.8515003584241	1
355.98454947115687	171.54272444670917	1
314.25061949791524	101.19124288077747	1
291.5950575124412	3.414607484058841	1
169.97046159042267	73.76608904999054	1
348.83016147574403	253.81818593906996	1
391.75648944822115	303.8989016300722	1
494.30271738247205	262.16497188757035	1
409.6424594367533	276.47374779928526	1
506.2266973748268	439.83227279136395	1
464.4927674015852	475.6042125706512	1
394.1412854466921	482.7586005265087	1
360.7541414680988	364.7111992548606	1
377.4477134573954	402.86793501943373	1
358.36934546962783	425.52349687964903	1
297.55704750861855	350.4024233431457	1
326.17459949027	362.32640326957477	1
339.29097748186024	384.98196512979007	1
491.9179213840011	80.920477005848	1
370.2933254619826	83.30527299113382	1
351.21495747421494	79.72807901320509	1
400.10327544286946	150.0795605791368	1
371.4857234612181	142.9251726232793	1
352.4073554734505	119.07721277042113	1
261.78510753155433	198.96787827749608	1
342.8681714795666	214.46905218185393	1
246.28393354149313	128.6163967115644	1
416.79684743216615	26.070169344274134	1
553.9226173442459	28.454965329559954	1
570.6161893335425	83.30527299113382	1
546.768229348833	201.35267426278193	1
545.5758313495975	307.4760956080009	1
510.99628937176874	327.7468614829304	1
448.991593411524	294.3597176889289	1
437.0676134191692	365.9035972475035	1
422.7588374283435	463.68023264422214	1
417.9892454314016	513.7609483352244	1
553.9226173442459	487.52819249708034	1
539.6138413534202	591.2668178570135	1
600.4261393144294	427.9082928649348	1
582.5401693258973	162.0035405055659	1
588.5021593220746	359.941607284289	1
268.93949552696716	249.04859396849832	1
167.12426486440125	77.45676815794761	1
351.3774672390892	170.17017246821823	1
311.47549984584464	99.75492868826585	1
352.55105451536105	122.0530892185841	1
352.55105451536105	80.97753034694522	1
373.6756254882552	85.67187993227537	1
393.6266091848775	150.21918673056504	1
367.80768910689574	144.35124974890235	1
418.2719419865873	185.42680862054124	1
406.53606922386837	276.9666255344793	1
453.47956027474424	299.26478606479753	1
399.494545566237	300.4383734611301	1
383.0643236984304	485.8651820816713	1
467.562607590007	481.1708324963412	1
427.66064019676253	464.7406089476856	1
506.29098770697965	443.6160358136999	1
561.4495896917589	362.6385054667547	1
501.59663860189204	323.91012138778086	1
499.24946404934826	257.0156397968261	1
501.59663860189204	197.16268258386663	1
575.5326370070217	88.01905472494046	1
548.540129652768	35.20762188997618	1
489.8607658391731	75.10959336528252	1
422.9662910916749	23.47174792665079	1
271.57353245260015	254.66846500416105	1
418.2719419865873	512.8576921973197	1
