474.3125	31.0	1
488.3125	131.0	1
564.3125	87.0	1
543.3125	28.0	1
536.3125	83.0	1
347.3125	48.0	1
365.3125	72.0	1
397.3125	86.0	1
142.3125	32.0	1
113.3125	42.0	1
81.3125	63.0	1
121.3125	198.0	1
160.3125	220.0	1
176.3125	180.0	1
287.3125	175.0	1
247.3125	202.0	1
177.3125	234.0	1
151.3125	260.0	1
215.3125	314.0	1
254.3125	314.0	1
307.3125	345.0	1
258.3125	278.0	1
360.3125	211.0	1
360.3125	182.0	1
399.3125	146.0	1
427.3125	139.0	1
549.3125	175.0	1
580.3125	208.0	1
602.3125	324.0	1
582.3125	276.0	1
485.3125	288.0	1
448.3125	258.0	1
405.3125	266.0	1
434.3125	306.0	1
412.3125	322.0	1
487.3125	332.0	1
441.3125	383.0	1
452.3125	416.0	1
577.3125	429.0	1
593.3125	463.0	1
564.3125	340.0	1
372.3125	357.0	1
519.3125	409.0	1
488.3125	417.0	1
517.3125	455.0	1
483.3125	371.0	1
494.3125	206.0	1
492.3125	183.0	1
466.3125	182.0	1
438.3125	195.0	1
321.3125	116.0	1
488.52023320497045	134.41577649958916	1
428.90033707287773	142.00376388263047	1
358.440459825859	204.87565934211574	1
357.35646171436645	181.02769899541443	1
351.93647115690345	49.863917088557265	1
329.17251081555895	144.17176027778515	1
284.7285882443626	138.75176928989848	1
246.78865434212173	221.13563230577572	1
234.8646751157032	196.20367376149707	1
157.9008091997289	220.05163410819839	1
256.5446373455551	276.4195403822196	1
220.77269966629945	320.86346648289026	1
255.46063923406248	308.9394863095396	1
343.2644862649627	272.0835475919103	1
477.6802520900445	330.61945026108623	1
483.1002426475075	291.5955151483023	1
374.70043149824795	354.46741060778754	1
571.9880877899003	423.84329525273677	1
593.6680500197522	457.44723937763405	1
560.0641085634818	345.7954250271689	1
604.5080311346782	320.86346648289026	1
478.7642502015371	221.13563230577572	1
407.2203748430258	265.5795584064463	1
113.45688662853252	198.37167015665173	1
11.56106414822856	59.619900866753255	1
144.89283186181777	32.51994592731996	1
163.3207997571919	7.587987383041323	1
472.2602615325815	32.51994592731996	1
446.24430685675924	45.52792429824794	1
422.39634840392216	79.13186842314524	1
390.9604031706369	81.2998648182999	1
359.52445793735166	78.04787022556789	1
284.7285882443626	172.35571341479576	1
547.0561312255707	172.35571341479576	1
580.660072681841	209.21165213242506	1
187.16875821002898	284.00752776526093	1
435.4043257418333	381.56736554722085	1
448.41230307974445	422.75929705515944	1
511.28419354631495	117.07180533835185	1
575.2400821243781	270.999549394333	1
574.1560840128855	302.4354971240756	1
161.1528035342067	152.8437458584038	1
269.55261468346623	352.2994142126329	1
379.03642394421837	163.68372783417712	1
224.02469400077723	118.15580353592918	1
493.94022376243345	207.0436557372704	1
407.2203748430258	212.46364672515705	1
557.8961123404965	532.24311501047	1
398.5483899510851	466.11922495825274	1
564.4001010094521	88.88785220134122	1
532.9641557761669	83.46786121345455	1
460.336282306163	175.60770800752778	1
544.8881350025854	31.435947729742626	1
516.704184103778	41.19193150793861	1
487.4362350934779	52.03191348371193	1
112.37288851703993	239.56360166459035	1
407.2203748430258	324.11546107562225	1
441.9083144107889	307.85548811196225	1
311.82854103167745	409.7513186842315	1
355.18846549138124	439.01927001881944	1
164.40479786868448	310.0234845071169	1
152.48081864226594	285.09152596283826	1
359.52445793735166	339.29143584170487	1
516.234375	122.0	1
409.234375	214.0	1
362.234375	216.0	1
363.234375	301.0	1
345.234375	281.0	1
496.234375	333.0	1
481.234375	287.0	1
570.234375	304.0	1
575.234375	204.0	1
269.234375	173.0	1
232.234375	207.0	1
295.234375	298.0	1
251.234375	274.0	1
346.234375	399.0	1
319.234375	359.0	1
373.234375	364.0	1
442.234375	397.0	1
400.234375	326.0	1
445.234375	311.0	1
577.234375	434.0	1
596.234375	468.0	1
567.234375	363.0	1
538.234375	426.0	1
505.234375	262.0	1
457.234375	254.0	1
404.234375	270.0	1
286.234375	138.0	1
187.234375	247.0	1
252.234375	311.0	1
292.234375	376.0	1
317.234375	415.0	1
462.234375	356.0	1
608.234375	327.0	1
571.234375	338.0	1
400.234375	464.0	1
403.234375	399.0	1
262.234375	353.0	1
249.234375	222.0	1
351.234375	181.0	1
422.234375	143.0	1
494.234375	130.0	1
455.234375	177.0	1
423.234375	88.0	1
395.234375	88.0	1
352.234375	48.0	1
361.234375	78.0	1
224.234375	127.0	1
210.234375	103.0	1
191.234375	50.0	1
152.234375	40.0	1
143.234375	81.0	1
163.234375	149.0	1
117.234375	205.0	1
162.234375	219.0	1
180.234375	171.0	1
227.234375	327.0	1
195.234375	292.0	1
320.234375	221.0	1
322.234375	148.0	1
449.234375	48.0	1
389.234375	122.0	1
492.234375	186.0	1
548.234375	179.0	1
535.234375	224.0	1
488.171875	128.0	1
356.171875	51.0	1
358.171875	80.0	1
398.171875	79.0	1
543.171875	25.0	1
571.171875	87.0	1
554.171875	174.0	1
519.171875	206.0	1
491.171875	211.0	1
605.171875	324.0	1
563.171875	346.0	1
590.171875	458.0	1
512.171875	463.0	1
358.171875	208.0	1
326.171875	151.0	1
325.171875	104.0	1
118.171875	207.0	1
172.171875	237.0	1
312.171875	350.0	1
485.171875	289.0	1
487.171875	326.0	1
490.42900637176643	131.9405012565374	1
518.2059521623034	206.93825986551656	1
490.42900637176643	186.10554914080012	1
461.2632132917025	174.994770087618	1
497.3732428194007	209.71595462881206	1
480.70707534507847	220.82673368199417	1
572.3709964538506	301.37988181756435	1
484.87361721365903	287.49140800108677	1
487.6513117927127	336.10106635875843	1
466.81860244980993	363.87801399171366	1
566.8156072957432	347.2118454119405	1
415.43125273731647	81.94199551721796	1
451.5412822650146	47.22081097602391	1
394.59854339441375	83.33084289886573	1
434.8751147906924	138.8847381647762	1
362.6550557352962	79.16430075392243	1
357.09966657718877	45.83196359437615	1
336.266957234286	36.11003192284181	1
320.9896370494907	112.49663791346873	1
361.26620844576934	133.32934863818517	1
384.8766123677258	166.66168579773145	1
351.54427741908137	181.93900699585683	1
330.7115680761786	143.0512803097195	1
283.4907602322657	176.38361746926577	1
364.043903024823	297.2133396726211	1
345.98888826097397	268.04754465801807	1
409.87586357920907	265.26984989472254	1
445.98589310690727	256.93676560483607	1
550.149439821421	174.994770087618	1
247.3807307045676	219.4378863003464	1
259.88035631030925	276.38062894790465	1
255.7138144417287	311.1018134890987	1
359.8773611562425	209.71595462881206	1
407.0981690001554	323.6014399239286	1
440.4305039487998	306.9352713441554	1
519.5947994518302	412.4876723493853	1
572.3709964538506	427.7649935475107	1
597.3702476653339	459.70848332540925	1
437.6528093697461	387.4884194797256	1
451.5412822650146	422.20960402091964	1
291.82384396942683	137.49589078312843	1
272.3799819160509	90.27507980710453	1
534.8721196366256	81.94199551721796	1
568.20445458527	90.27507980710453	1
236.2699523883528	201.3828703389255	1
170.99412978059084	179.1613122325613	1
162.66104604342974	156.9397541261971	1
122.38447464715107	201.3828703389255	1
145.99487856910753	31.943489777898527	1
184.88260267585932	52.776200502614955	1
474.81040059415136	379.8629404617254	1
479.2274111226713	334.58857837181046	1
462.6636216407216	361.0906439854192	1
410.7637479306125	327.9630619684083	1
439.474316365992	303.66950182260024	1
366.5936426454133	299.25249088699877	1
408.55524266635257	265.0206561360875	1
492.47844270823106	134.71883353584448	1
537.7528006255602	216.43353584447144	1
395.3042110807928	87.2359659781288	1
361.0723794847634	75.08918590522478	1
221.93654783638587	118.155042527339	1
452.7253479515518	261.7078979343864	1
395.3042110807928	189.9314702308627	1
352.23835842772354	46.37861482381531	1
321.3192847280841	123.67630619684083	1
366.5936426454133	132.51032806804375	1
395.3042110807928	150.17837181044956	1
411.86800056274234	162.32515188335364	1
279.35768470714487	162.32515188335358	1
260.5853899609352	28.710571081409476	1
536.6485479934303	81.71470230862697	1
600.6952006569692	323.5460510328068	1
560.9421059002898	345.6311057108141	1
422.9105268840423	83.9232077764277	1
442.78707426238196	386.4884568651276	1
428.4317900446922	144.65710814094774	1
361.0723794847634	215.32928311057108	1
358.8638742205034	181.09744835965978	1
591.8611795999293	458.26488456865127	1
485.8529269154512	425.13730255164035	1
459.35086374433166	421.82454434993923	1
468.1848848013715	27.606318347509113	1
447.20408479090185	44.17010935601458	1
488.0614321797111	51.89987849331713	1
531.1272848327803	85.02746051032807	1
569.7761269573297	88.34021871202916	1
514.5634953508306	114.8422843256379	1
490.2699374439711	131.40607533414337	1
546.5868216826001	174.4719319562576	1
574.1931374858497	295.9397326852977	1
562.0463585324198	352.25662211421627	1
606.216463817619	321.33754556500605	1
575.2973901179796	426.2415552855407	1
592.9654322320592	461.5776427703524	1
528.9187795685204	411.88626974483594	1
437.265811101732	387.59270959902796	1
451.6210953194218	421.82454434993923	1
461.5593690085916	356.67363304981774	1
483.64442165119124	330.171567436209	1
477.01890585841136	288.20996354799513	1
446.0998321587719	257.2908869987849	1
412.97225319487245	326.8588092345079	1
362.17663211689336	208.70376670716888	1
352.23835842772354	178.88894289185905	1
428.4317900446922	139.13584447144592	1
421.8062742519123	82.81895504252734	1
362.17663211689336	73.98493317132443	1
297.0257268212245	61.83815309842041	1
187.70471624035648	55.212636695018226	1
142.4303583230273	30.919076549210207	1
168.9324214941468	4.417010935601458	1
118.13680041616772	202.0782503037667	1
163.4111583334969	154.59538274605103	1
173.34943202266675	183.3059538274605	1
261.6896425930652	276.06318347509114	1
220.8322952042559	319.12904009720535	1
257.27263206454523	311.39927095990276	1
379.84467423097306	357.7778857837181	1
311.38101103891427	407.46925880923453	1
287.0874531320547	139.13584447144592	1
350.0298531634636	45.274362089914945	1
352.7290728105169	44.04862286505617	1
363.2168399451359	79.70703185105401	1
596.0452703336779	458.3154331435606	1
575.0697360644399	423.70580089244504	1
567.7282990702065	339.80366210186185	1
114.65675885466547	198.21880289275273	1
160.8029342469891	218.14556085551624	1
174.43703152199382	170.95060778581322	1
399.9240249163024	463.55931681797205	1
478.582278425945	289.46237882751194	1
435.58243317400706	305.1940298507463	1
407.26546191053575	327.21834128327436	1
481.7286085663307	328.2671180181567	1
546.7527648009685	34.609632251115556	1
146.1200602585225	33.56085551623327	1
187.02235208353662	249.60886290198493	1
69.55936017580375	199.26757962763503	1
448.16775373554987	250.65763963686723	1
269.8757124470268	159.41406370210802	1
260.43672202586964	274.77950453915986	1
312.8755576989647	414.2668102785044	1
