71.3125	228.0	1
29.3125	227.0	1
131.3125	96.0	1
178.3125	153.0	1
151.3125	193.0	1
82.3125	205.0	1
220.3125	253.0	1
280.3125	270.0	1
281.3125	308.0	1
320.3125	338.0	1
372.3125	280.0	1
365.3125	344.0	1
418.3125	361.0	1
471.3125	311.0	1
536.3125	407.0	1
475.3125	385.0	1
477.3125	416.0	1
430.3125	453.0	1
465.3125	496.0	1
502.3125	452.0	1
532.3125	506.0	1
183.3125	300.0	1
410.3125	162.0	1
448.3125	147.0	1
493.3125	147.0	1
524.3125	265.0	1
597.3125	308.0	1
595.3125	342.0	1
592.3125	235.0	1
331.3125	48.0	1
338.3125	118.0	1
279.3125	56.0	1
224.3125	91.0	1
534.921875	407.0	1
503.921875	459.0	1
475.921875	426.0	1
472.921875	384.0	1
478.921875	343.0	1
475.921875	314.0	1
539.921875	511.0	1
595.921875	398.0	1
591.921875	344.0	1
599.921875	312.0	1
592.921875	281.0	1
594.921875	243.0	1
534.921875	294.0	1
521.921875	266.0	1
601.921875	372.0	1
427.921875	458.0	1
423.921875	366.0	1
401.921875	416.0	1
440.921875	329.0	1
447.921875	293.0	1
496.921875	153.0	1
576.921875	46.0	1
459.921875	151.0	1
409.921875	168.0	1
428.921875	32.0	1
340.921875	40.0	1
272.921875	55.0	1
181.921875	151.0	1
169.921875	102.0	1
147.921875	111.0	1
130.921875	86.0	1
70.921875	23.0	1
150.921875	196.0	1
88.921875	210.0	1
79.921875	231.0	1
55.921875	225.0	1
270.921875	274.0	1
318.921875	330.0	1
366.921875	354.0	1
370.921875	278.0	1
221.921875	231.0	1
176.921875	259.0	1
233.921875	376.0	1
216.921875	349.0	1
188.921875	300.0	1
167.921875	292.0	1
341.921875	119.0	1
132.921875	302.0	1
218.921875	97.0	1
151.921875	309.0	1
248.921875	365.0	1
431.921875	314.0	1
460.921875	276.0	1
279.921875	317.0	1
208.921875	319.0	1
165.921875	331.0	1
254.921875	348.0	1
211.921875	280.0	1
218.921875	254.0	1
401.84375	164.0	1
454.84375	149.0	1
496.84375	148.0	1
280.84375	268.0	1
216.84375	96.0	1
282.84375	50.0	1
344.84375	41.0	1
337.84375	111.0	1
177.84375	153.0	1
148.84375	198.0	1
82.84375	203.0	1
73.84375	232.0	1
50.84375	221.0	1
21.84375	219.0	1
371.84375	277.0	1
365.84375	349.0	1
585.84375	236.0	1
582.84375	285.0	1
597.84375	309.0	1
587.84375	344.0	1
531.84375	412.0	1
466.84375	423.0	1
476.84375	386.0	1
422.84375	361.0	1
425.84375	456.0	1
501.84375	445.0	1
283.84375	320.0	1
322.84375	327.0	1
168.84375	260.0	1
493.18399657639384	156.24521597900127	1
450.97568779557935	150.21549190067498	1
407.2599394154501	165.2898020964907	1
340.93259704559875	114.03714743071721	1
279.1275734736919	56.754768686617446	1
342.44003664491356	47.71018256912801	1
429.8715334051721	38.665596451638564	1
218.8299895010998	95.94797519573834	1
152.50264713124847	11.531838099170253	1
75.62322756619355	17.561562177496544	1
125.36873434358203	89.91825111741205	1
179.6365599189149	150.21549190067498	1
163.0547243264521	196.94585350770373	1
585.1378121345967	240.66135307556937	1
591.167570531856	282.8694216238534	1
539.9146241551528	284.376852643435	1
592.6750101311708	337.13693832879005	1
577.6006141380228	43.187889510383286	1
276.11269427506227	270.8099734672008	1
321.3358822545064	334.1220762896269	1
372.58882863120965	359.74840362251365	1
378.6185870284688	278.3471285651087	1
68.08602956961954	151.72292292025654	1
9.295885196342239	153.23035393983812	1
536.8997449565231	417.0307823666134	1
601.7196477270596	377.8375758574925	1
425.34921460722774	454.71655785615275	1
428.36409380585735	355.2261105637689	1
444.9459293983202	285.88428366301656	1
476.602160983931	311.5106109959033	1
478.1096005832458	417.0307823666134	1
478.1096005832458	377.8375758574925	1
475.0947213846162	340.1518003679532	1
220.3374291004146	248.19850817347722	1
497.2762487237963	157.78661439372726	1
455.28465017787676	156.51414169700365	1
408.2031608991184	165.4214505740689	1
347.1244721050536	115.79501540184823	1
284.7733106277791	61.07868944273313	1
340.7621086890052	50.89890786894428	1
429.83519651368306	43.264071688602634	1
565.9897736171192	52.17138056566788	1
586.3493365484742	234.1349761971437	1
587.6218092316839	278.6715205824699	1
592.7116999645226	311.7558106972837	1
590.1667545981032	347.3850462055447	1
523.9981750711997	274.8541024922991	1
599.074063380571	383.0142817138057	1
536.7229019032966	411.008681041725	1
507.4560301894738	454.2727527303277	1
474.37174042602203	426.2783534024083	1
474.37174042602203	385.5592271072529	1
478.1891584756511	338.47773732847946	1
476.9166857924414	313.0282833940073	1
447.64981407861865	291.396247549706	1
436.1975599297315	325.75301036124335	1
426.017778464054	371.56202744329323	1
400.5683247998603	407.1912629515542	1
427.2902511472637	458.0901708204985	1
378.9362891852957	279.94399327919353	1
366.2115623531989	346.1125735088211	1
322.9474911240696	328.2979557546906	1
282.2283652613597	314.300756090731	1
274.5935291621016	268.49173900868107	1
216.0597857344561	257.0394847381686	1
221.14967646729485	236.67992159059088	1
217.3322584176658	285.033884066088	1
182.97549597100434	267.2192663119574	1
148.61873352434287	194.68832259871186	1
181.70302328779465	148.87930551666201	1
221.14967646729485	100.52534304116494	1
126.98669790977824	90.34556146737609	1
142.25637010829445	105.61523382805937	1
83.72262668064897	208.68552226267153	1
74.81531789818119	232.86250350042008	1
23.916410569793822	216.32035844301316	1
54.45575496682624	226.50014001680202	1
162.6159330396494	293.9411929431532	1
179.15807792137528	300.30355642677125	1
158.79851499002035	330.8429011481378	1
221.14967646729485	351.2024642957155	1
134.62153400903634	305.39344721366564	1
7.374265688067929	153.96919630355643	1
534.1779565368772	510.2615513861664	1
340.0915794742938	117.05078979343864	1
334.57031631364384	40.857351154313484	1
279.35768470714487	56.31688942891859	1
430.64029530895215	35.336087484811664	1
573.0888848537196	40.857351154313484	1
496.895453236751	152.3868772782503	1
451.6210953194218	146.86561360874848	1
409.6594952984825	160.11664641555285	1
521.1890111436105	260.603645200486	1
533.3357900970403	283.79295261239366	1
590.7569269677994	237.41433778857837	1
586.3399164392794	280.4801944106926	1
589.6526743356693	311.39927095990276	1
588.5484217035394	343.42260024301333	1
534.4400427291703	410.7820170109356	1
474.81040059415136	382.07144592952613	1
475.91465322628136	337.9013365735115	1
365.4893900132833	353.3608748481166	1
426.22328478043227	365.5076549210207	1
473.7061479620214	418.5117861482382	1
502.4167163974009	452.74362089914945	1
532.2315374649104	509.06051032806806	1
430.64029530895215	454.95212636695015	1
371.01065317393324	277.1674362089915	1
279.35768470714487	272.75042527339	1
174.45368465479672	151.28262454434994	1
156.78564254071702	193.2442284325638	1
82.80071618800835	207.59951397326853	1
68.4454319703186	237.41433778857837	1
55.194400384758836	217.53778857837182	1
67.34117933818862	149.0741190765492	1
217.51953730786596	94.96573511543134	1
147.9516214836772	2.208505467800729	1
9.92004246742964	156.80388821385176	1
22.066821420859423	216.43353584447144	1
175.5579372869267	265.0206561360875	1
75.171875	16.0	1
143.171875	98.0	1
222.171875	98.0	1
181.171875	144.0	1
61.171875	233.0	1
406.171875	164.0	1
346.171875	114.0	1
218.171875	247.0	1
276.171875	271.0	1
377.171875	284.0	1
317.171875	322.0	1
280.171875	316.0	1
531.171875	414.0	1
606.171875	376.0	1
589.171875	338.0	1
593.171875	299.0	1
589.171875	234.0	1
594.171875	278.0	1
455.171875	147.0	1
495.171875	149.0	1
573.171875	37.0	1
88.171875	201.0	1
21.171875	219.0	1
175.171875	261.0	1
424.171875	451.0	1
473.171875	417.0	1
530.171875	274.0	1
336.44025947956175	46.146176334820744	1
426.6350568372852	38.80473919064472	1
571.3662432950275	39.853515925527006	1
490.6104363584612	155.21895676257887	1
449.708144533447	153.12140329281428	1
406.7082992815091	164.65794737651947	1
341.68414304687127	116.41421757193415	1
280.855093666081	62.92660409293738	1
217.928490858367	96.48745960917064	1
150.80678119680536	8.390213879058317	1
181.2213058872005	153.12140329281428	1
58.514430412158106	16.780427758116634	1
88.92895510255322	58.73149715340822	1
129.83124692756735	92.29235266964149	1
164.44087847181007	105.92645022311126	1
151.85555791026727	191.92614248345902	1
82.63629482178182	209.75534697645793	1
26.002352294839184	220.24311432528083	1
7.124371452524973	154.17018002769657	1
52.2217701313867	224.43822126480998	1
98.36794552371033	239.12109555316204	1
69.00219754677711	240.16987228804433	1
67.9534208333152	154.17018002769657	1
165.48965518527197	145.77996614863827	1
220.0260442852908	234.92598861363288	1
170.73353875258147	263.2429604554547	1
218.9772675718289	251.70641637174953	1
279.8063169526191	269.53562086474847	1
214.7821607179813	276.87705800892445	1
132.97757706795304	307.2915833205109	1
278.7575402391572	313.5842437298046	1
318.6110553507095	329.31589475303895	1
368.9523375968807	277.9258347438068	1
165.48965518527197	294.7062625019234	1
220.0260442852908	351.340206185567	1
184.36763602758617	297.85259270657025	1
247.2942388353002	338.7548853669796	1
228.416257992986	373.36451761809514	1
361.6109006026474	342.9499923065087	1
252.53812240260973	364.97430373903677	1
206.3919470102861	315.6817971995692	1
150.80678119680536	309.3891367902755	1
430.83016369113284	456.217879673796	1
425.5862801238233	367.07185720880136	1
467.53734866229934	384.9010617018003	1
533.610281610399	411.12048007385755	1
472.78123222960886	429.99846130173876	1
505.2933103469278	449.92521926450223	1
536.7566117507848	508.6567164179105	1
465.4397952353755	498.1689490690876	1
473.83000894307077	337.70610863209725	1
475.9275623699946	312.53546699492233	1
439.220377398828	290.5111555623942	1
530.4639514700134	281.07216494845363	1
588.1466707104179	233.8772118787506	1
589.1954474238798	275.8282812740422	1
592.3417775642655	307.2915833205109	1
587.097893996956	337.70610863209725	1
601.7807679854226	368.1206339436837	1
454.95202810075654	275.8282812740422	1
595.4881077046513	381.75473149715344	1
184.36763602758617	335.60855516233266	1
173.87986889296718	359.7304200646253	1
165.48965518527197	327.21834128327436	1
522.0737377623182	263.2429604554547	1
370.0011143103426	415.3155870133867	1
399.3668622872758	411.12048007385755	1
612.2685351200416	265.3405139252193	1
86.83140167562942	11.536544083705186	1
341.0897270393617	114.03661298581726	1
341.0897270393617	46.06992740517138	1
434.09677097972883	37.72314145667101	1
578.3769288872214	38.91553944931392	1
493.7166709415026	149.80855276510457	1
450.79034296902546	148.61615477246164	1
401.902025000371	165.30972666946238	1
282.6622250768234	57.993907331600475	1
217.08033511887226	94.95824510353069	1
151.49844516092108	189.15768652232057	1
82.33936120526349	208.23605440460716	1
70.41538121290874	233.27641225010825	1
54.91420722284756	221.35243232367927	1
25.104257241960667	217.77523834575052	1
172.96160914715963	260.7015660808952	1
277.8926330798815	315.55187374246907	1
363.74528902483576	347.74661954382765	1
471.0611089560286	382.326161330472	1
502.06345693615094	446.7156529331892	1
535.4506009147442	513.4899405211921	1
595.070500876518	309.58988377925454	1
589.1085108803406	342.977027573256	1
593.8781028772826	236.853606228037	1
591.4933068788116	278.58753597053885	1
522.334222923154	260.7015660808952	1
533.0658049162734	285.7419239263963	1
531.8734069170379	412.13611114654475	1
428.1347809835514	363.24779344818546	1
473.4459049544995	421.6752950876881	1
279.08503107911696	269.0483520293956	1
425.7499849850805	457.44723486697535	1
539.234375	507.0	1
503.234375	456.0	1
533.234375	419.0	1
478.234375	419.0	1
476.234375	382.0	1
475.234375	342.0	1
485.234375	305.0	1
536.234375	288.0	1
525.234375	263.0	1
592.234375	240.0	1
595.234375	281.0	1
592.234375	319.0	1
592.234375	342.0	1
604.234375	369.0	1
428.234375	456.0	1
418.234375	371.0	1
466.234375	495.0	1
359.234375	347.0	1
325.234375	334.0	1
371.234375	297.0	1
421.234375	317.0	1
438.234375	290.0	1
488.234375	162.0	1
457.234375	149.0	1
411.234375	163.0	1
337.234375	117.0	1
334.234375	50.0	1
422.234375	44.0	1
561.234375	46.0	1
291.234375	59.0	1
220.234375	95.0	1
182.234375	145.0	1
274.234375	271.0	1
280.234375	321.0	1
232.234375	379.0	1
215.234375	348.0	1
213.234375	271.0	1
147.234375	199.0	1
89.234375	212.0	1
152.234375	109.0	1
53.234375	219.0	1
74.234375	236.0	1
67.234375	154.0	1
188.234375	298.0	1
159.234375	291.0	1
215.234375	235.0	1
155.234375	328.0	1
171.234375	264.0	1
362.234375	272.0	1
456.234375	275.0	1
444.234375	325.0	1
433.234375	359.0	1
130.234375	311.0	1
130.234375	97.0	1
