15.78125	248.0	1
99.78125	293.0	1
45.78125	319.0	1
64.78125	353.0	1
120.78125	253.0	1
147.78125	89.0	1
205.78125	483.0	1
308.78125	588.0	1
115.78125	383.0	1
115.78125	23.0	1
289.78125	25.0	1
130.38840955659398	429.99846130173876	1
65.36425332195614	346.09632251115556	1
106.26654514697027	302.04769964609943	1
50.68137933348953	235.97476534851518	1
285.6073631489553	618.778273580551	1
268.8269357335649	546.4126788736729	1
261.48549873933155	463.55931681797205	1
31.803398491175322	414.2668102785044	1
13.974194362323011	245.41375596245578	1
38.09605877194672	319.8769041390983	1
114.65675885466547	22.024311432528084	1
127.24207941620828	67.12171103246654	1
209.04666306623653	480.33974457608866	1
240.50996447009354	436.2911217110325	1
279.3147028681839	201.36513309739962	1
309.729227558579	586.2661947991999	1
59.171875	620.0	1
176.171875	516.0	1
280.171875	626.0	1
309.171875	587.0	1
309.171875	462.0	1
199.171875	267.0	1
47.46463195984897	605.1304981773998	1
62.9241688096687	628.3198055893074	1
28.692337213639306	417.40753341433776	1
64.02842144179868	352.25662211421627	1
37.52635827067915	327.9630619684083	1
109.30277935912787	294.8354799513973	1
11.024295099559621	252.87387606318347	1
48.56888459197895	241.83134872417983	1
69.54968460244858	114.8422843256379	1
56.298653016888814	71.7764277035237	1
119.2410530482977	22.08505467800729	1
131.38783200172747	167.8464155528554	1
140.22185305876732	234.10157958687728	1
119.2410530482977	375.44592952612396	1
175.5579372869267	513.4775212636695	1
26.483831949379347	533.354070473876	1
312.48526367104427	588.5667071688943	1
248.4386110075054	600.7134872417982	1
272.732168914365	548.8136087484812	1
176.6621899190567	323.5460510328068	1
214.20677941147602	327.9630619684083	1
276.04492681075493	200.97399756986633	1
252.85562153602532	456.05637910085056	1
200.95574782591623	483.66269744835967	1
253.9598741681553	67.35941676792224	1
359.9681268526334	216.43353584447144	1
401.9297268735727	266.12490886998785	1
380.94892686310305	461.5776427703524	1
40.83911616706909	488.07970838396113	1
139.11760042663735	426.2415552855407	1
125.85171742416053	64.22690510884726	1
112.7353394325703	22.4929753663454	1
122.27452342645411	253.81818593906996	1
106.77334943639292	295.5521156815718	1
192.62600538134717	198.96787827749608	1
200.9727913759955	268.1269618507849	1
212.89677136835024	326.5544634902875	1
172.3552393943441	511.37615234993854	1
131.81370742033792	586.4972258864419	1
217.66636336529217	526.8773262542963	1
268.9394773324176	547.1480921292258	1
259.4002933385338	461.2954366589363	1
347.637745281959	522.1077342837248	1
310.6734073056593	582.9200319085131	1
283.2482533232433	618.6919716878004	1
248.66871134541452	598.421205812871	1
62.65462346468032	622.2691656657291	1
109.15814543486387	377.82757717393264	1
67.42421546162223	345.63283137257406	1
11.381509497554864	246.6637979832125	1
137.7756974165153	179.88951039520953	1
296.36463131483356	29.647363322202864	1
258.2078953392983	57.072517152989796	1
183.08682138746337	129.80879470420732	1
116.31253343027673	148.88716258649387	1
32.84467348379343	92.8444569322771	1
24.497887489145096	162.0035405055659	1
274.901467328595	201.35267426278193	1
327.3669792949559	233.54742006414048	1
444.22198322003254	305.0912996227151	1
239.12952735153073	439.83227279136395	1
128.23651342263148	425.52349687964903	1
128.23651342263148	374.2503831960039	1
335.7137652896042	457.7182426810076	1
401.29565524755543	493.4901824602949	1
69.80901146009317	113.11522280720656	1
140.16049341498623	229.97022608621177	1
189.04881138364075	160.81114251292297	1
177.124831391286	317.0152795491442	1
333.3289692911333	598.421205812871	1
361.9465212727847	612.7299817245859	1
236.74473135305976	543.5708981512971	1
28.075081486851523	412.407118960577	1
367.9085112689621	445.7942627545785	1
286.82544732094976	237.12461404206923	1
165.20085139893123	171.54272444670917	1
170.3125	520.0	1
259.3125	463.0	1
222.3125	517.0	1
157.3125	583.0	1
48.3125	601.0	1
31.3125	536.0	1
25.3125	412.0	1
39.3125	484.0	1
123.3125	377.0	1
105.3125	303.0	1
62.3125	347.0	1
16.3125	248.0	1
122.3125	155.0	1
68.3125	111.0	1
64.3125	73.0	1
137.3125	182.0	1
186.3125	168.0	1
259.3125	57.0	1
292.3125	28.0	1
281.3125	199.0	1
328.3125	230.0	1
296.3125	241.0	1
329.3125	59.0	1
406.3125	259.0	1
210.3125	267.0	1
210.3125	324.0	1
159.3125	416.0	1
135.3125	430.0	1
388.3125	554.0	1
306.3125	584.0	1
246.3125	596.0	1
264.3125	543.0	1
203.3125	486.0	1
239.3125	442.0	1
180.234375	523.0	1
128.234375	368.0	1
107.234375	293.0	1
199.234375	273.0	1
207.234375	330.0	1
202.234375	390.0	1
257.234375	390.0	1
262.234375	469.0	1
227.234375	443.0	1
208.234375	487.0	1
300.234375	253.0	1
277.234375	521.0	1
396.234375	377.0	1
70.234375	351.0	1
41.234375	321.0	1
128.234375	435.0	1
278.234375	207.0	1
331.234375	228.0	1
370.234375	447.0	1
316.234375	595.0	1
165.234375	575.0	1
174.234375	402.0	1
347.234375	499.0	1
10.270701592910674	251.70641637174953	1
41.73400299676769	325.12078781350976	1
66.9046441198533	353.4377596553316	1
26.002352294839184	416.364363748269	1
62.709537266005704	622.97338052008	1
27.051129008301086	535.92491152485	1
106.75815923140553	303.0964763809817	1
48.0266632775391	246.46253269733808	1
115.14837293910074	29.36574857670411	1
263.02588953722875	466.7056470226189	1
233.6601415602955	441.5350053854439	1
211.63583057759558	330.3646714879212	1
309.17206492955233	591.5100784736113	1
276.65998681223346	584.1686413294353	1
206.3919470102861	485.5836282505001	1
131.92880035449116	427.90090783197417	1
172.83109217950528	325.12078781350976	1
215.8309374314432	290.5111555623942	1
253.5868991160716	55.58516694876135	1
278.7575402391572	204.51146330204648	1
359.5133471757236	611.4368364363748	1
173.87986889296718	401.6814894599169	1
257.7820059699192	386.9986151715649	1
151.85555791026727	420.5594706877981	1
128.78247021410544	368.1206339436837	1
62.709537266005704	391.193722111094	1
112.00204279871504	377.55962455762426	1
125.63614007371974	261.1454069856901	1
138.22146063526256	225.48699799969228	1
164.44087847181007	175.14571472534237	1
183.31885931412427	130.04831512540392	1
244.14790869491452	87.04846899523004	1
296.58674436800953	32.51207878135098	1
267.2209963910763	8.390213879058317	1
328.05004577186656	31.46330204646869	1
324.90371563148085	233.8772118787506	1
