11.106051099519417	31.935030454474465	1
79.23411445498388	30.870529439325317	1
107.97564118307044	7.451507106044042	1
147.36217781044834	8.516008121193192	1
164.39419364931445	23.419022333281276	1
338.97235599769215	260.8027487115415	1
276.1667975918733	243.7707324691551	1
284.68280551130636	270.38325784788384	1
545.4855480439437	283.1572700296736	1
588.065587641109	289.5442761205685	1
532.7115361647942	325.7373106356396	1
473.0994807287628	291.6732781508668	1
476.2929836985502	216.09370607527723	1
456.06746488989666	195.8681867874434	1
472.0349797388336	151.15914415117913	1
397.5199104437944	414.0908948930189	1
374.10088866535347	464.12244260502894	1
336.84335401783386	441.7679212868968	1
217.61924314577107	377.89786037794784	1
482.67998963812494	443.8969233171951	1
337.907855007763	335.3178197719819	1
320.87583916889685	357.672341090114	1
318.7468371890386	392.80087459003596	1
392.1974054941487	212.90020302982978	1
363.45587876606214	233.12572231766362	1
415.61642727258965	157.54615024207402	1
357.0688728264874	156.48164922692487	1
384.7458985646448	167.12665937841638	1
403.9069163833692	55.35405278775574	1
257.00577977314896	55.35405278775574	1
216.55474215584192	41.51553959081681	1
275.1022966019442	30.870529439325317	1
195.26472235725927	91.54708730282681	1
67.52460356576343	197.9971888177417	1
583.8075836813925	57.483054818054036	1
512.4860173561407	32.99953146962361	1
555.066056953306	36.19303451507106	1
583.8075836813925	11.709511166640638	1
559.3240609130224	14.903014212088085	1
264.4572867026529	111.77260659066063	1
302.7793223401016	155.41714821177573	1
453.93846291003837	338.51132281742935	1
433.7129441013849	353.4143370295174	1
449.68045895032185	369.38185225675466	1
511.4215163662115	402.38138372637826	1
605.0976034799752	529.057004529127	1
610.4201084296208	506.70248321099484	1
596.5815955605422	341.7048258628768	1
529.5180331950068	232.06122130251447	1
564.6465658626681	211.83570201468063	1
528.4535322050776	128.804622833047	1
540.1630430942981	156.48164922692487	1
482.67998963812494	88.35358425737935	1
443.29345301074704	102.19209745431829	1
606.1621044699043	154.35264719662658	1
446.48695598053445	423.67140402936127	1
263.39278571272376	409.8328908324223	1
221.87724710548758	418.3488989536155	1
106.9111401931413	167.12665937841638	1
126.0721580118657	156.48164922692487	1
23.880062978669002	149.03014212088084	1
237.84476195442457	202.25519287833828	1
143.1041738507318	265.0607527721381	1
130.3301619715822	241.6417304388568	1
193.13572037740101	205.44869592378572	1
230.39325502492065	164.99765734811808	1
192.07121938747187	191.6101827268468	1
208.03873423640886	245.8997344994534	1
245.2962688839285	237.3837263782602	1
302.7793223401016	287.4152740902702	1
366.64938173584954	386.4138684991411	1
572.098072792172	408.76838981727315	1
541.2275440842272	418.3488989536155	1
503.9700094367076	251.22223957519913	1
515.679520325928	199.06168983289083	1
502.90550844677847	277.83476495392784	1
429.4549401416684	244.83523348430424	1
419.87443123230616	287.4152740902702	1
381.5523955948574	267.18975480243637	1
364.5203797559913	272.51225987818214	1
382.61689658478656	296.99578322661256	1
208.03873423640886	140.51413399968766	1
238.90926294435369	131.99812587849445	1
580.6140807116051	187.3521786662502	1
302.7793223401016	117.09511166640638	1
316.6178352091803	88.35358425737935	1
341.1013579775504	98.99859440887084	1
104.78213821328305	72.38606903014212	1
135.65266692122788	64.93456192409808	1
127.13665900179483	83.03107918163361	1
166.5231956291727	131.99812587849445	1
137.78166890108614	130.9336248633453	1
506.00354628744327	246.70376520825567	1
506.00354628744327	274.42328938895855	1
275.9314856814242	245.31778899922054	1
413.14313628380904	286.89707527027485	1
375.7217770286132	386.6873623208052	1
334.1424889672844	338.1781950045752	1
306.4229635930653	289.6690276883451	1
246.82598403849403	237.00193174500967	1
241.2820789636502	203.7385027281662	1
195.54486209618858	206.5104551462365	1
190.00095702134473	189.87874063781476	1
194.1588858274776	88.70247737824923	1
305.0369873243543	160.77324024807672	1
356.31810926665986	228.6860744907988	1
338.3004177734173	264.7214559257126	1
372.9498244911913	297.984884942556	1
469.96816330095834	292.44098010641545	1
451.95047180771587	339.56417121361034	1
429.7748515083406	352.03795709492664	1
439.47668538931725	371.44162402141865	1
478.28402091322414	439.3544582641407	1
446.406566732872	390.84529094791066	1
449.178519270294	426.8806723828244	1
400.6693498654104	411.6349340834378	1
339.68639404212826	440.74043447317587	1
375.72177702861325	468.4599586538787	1
213.56255358943105	374.2135764394889	1
264.84367553173655	407.47700545633245	1
349.388227923105	152.45738299386588	1
363.2479906102146	167.70312129325245	1
436.70473285189536	102.56223946860067	1
449.178519270294	187.10678821974446	1
469.96816330095834	145.52750194869014	1
504.61757001873235	400.5471244111567	1
388.1955634470118	210.66838377334193	1
517.091356437131	198.19459789202568	1
471.3541395696693	209.28240756430677	1
427.00289897091864	248.0897414172908	1
542.0389292739283	284.1251228522046	1
583.618217335257	284.1251228522044	1
524.0212377806857	115.03602534991697	1
12.368255019834477	33.56085551623327	1
33.34378928907249	60.8290506231728	1
82.63629482178182	25.170641637174953	1
191.70907302181948	92.29235266964149	1
212.6846072910575	45.097399599938456	1
179.12375246027668	15.731651023234345	1
255.68445254299542	115.36544083705186	1
254.6356758295335	50.341283274349905	1
506.34208706038964	29.36574857670411	1
552.4882624527133	39.853515925527006	1
602.8295446988845	154.17018002769657	1
578.7076802892608	185.63348207416527	1
562.9760295873323	213.95045391598708	1
590.2442241373417	287.36482535774735	1
542.0004953180943	283.1697184182182	1
594.4393309911893	339.80366210186185	1
512.6347473411611	192.97491921834128	1
526.2688446161658	119.56054777658102	1
542.0004953180943	157.31651023234343	1
473.83000894307077	73.41437144176028	1
469.63490208922315	139.48730573934452	1
471.73245551614696	171.99938452069551	1
449.708144533447	195.07247268810588	1
475.9275623699946	211.85290044622252	1
527.3176213296276	231.77965840898602	1
485.36655279115166	97.53623634405294	1
585.0003405700322	61.877827358055086	1
523.1225144757801	13.634097553469765	1
441.31793082575183	101.73134328358209	1
414.0497362757424	160.46284043699032	1
387.8303184391949	210.80412371134022	1
432.92771711805665	246.46253269733808	1
359.5133471757236	233.8772118787506	1
302.87940464878096	155.21895676257887	1
280.855093666081	31.46330204646869	1
187.5139661679719	198.21880289275273	1
156.05066476411486	29.36574857670411	1
112.00204279871504	9.438990613940607	1
50.124216704462896	106.97522695799354	1
27.051129008301086	147.87751961840283	1
71.0997509737009	263.2429604554547	1
81.58751810831991	295.75503923680566	1
222.1235977122146	381.75473149715344	1
266.1722196776144	415.3155870133867	1
221.0748209987527	414.2668102785044	1
333.2939293391761	440.48622865056166	1
374.1962211641902	464.6080935528543	1
599.6832145584988	531.7298045853208	1
610.1709816931178	504.4616094783813	1
614.3660885469654	420.5594706877981	1
568.2199131546419	406.92537313432837	1
538.8541651777086	422.6570241575627	1
480.12266922384214	439.43745191567933	1
505.2933103469278	271.633174334513	1
417.19606641612813	283.1697184182182	1
378.39132801803777	297.85259270657025	1
200.0992867295147	140.53608247422682	1
346.9280266141808	157.31651023234343	1
299.73307450839525	116.41421757193415	1
234.7089182737574	206.60901677181107	1
241.0015785545288	238.07231881827974	1
206.3919470102861	255.90152331127868	1
337.48903619302365	335.60855516233266	1
397.269308860352	421.60824742268045	1
311.26961835647614	349.2426527158025	1
360.5621238891855	382.8035082320357	1
319.6598320641714	394.3400523157409	1
503.195756920004	403.7790429296815	1
420.34239655651385	354.48653639021387	1
447.61059110652326	390.14494537621175	1
445.51303767959945	332.4622249576858	1
474.87878565653267	293.6574857670411	1
271.41610324492393	250.65763963686723	1
223.1723744256765	167.80427758116633	1
122.48980993333404	157.31651023234343	1
102.56305237755792	83.90213879058317	1
97.31916881024843	163.60917064163718	1
105.70938251794364	60.8290506231728	1
39.63644956984389	163.60917064163718	1
131.92880035449116	63.97538082781967	1
71.0997509737009	203.46268656716418	1
127.73369350064354	244.36497922757349	1
282.9526470930048	264.291737190337	1
145.56289762949586	263.2429604554547	1
296.58674436800953	291.55993229727653	1
336.44025947956175	255.90152331127868	1
354.26946360841407	65.02415756270196	1
599.6832145584988	110.12155716264041	1
251.62254875597787	44.5963210606365	1
194.1167722186549	90.36622951760553	1
215.24134319154905	38.728384078973804	1
262.1848342424249	115.01156484058886	1
327.9057217136512	436.57451143570466	1
372.50203821198335	467.0877837403507	1
395.9737837374213	411.92917611272134	1
364.28692727808004	380.24231641174276	1
453.47956027474424	333.2988205584412	1
414.7511801577716	279.3138003271444	1
430.0078147493063	241.7590036445031	1
361.93975272553627	230.02312968117772	1
411.2304183289559	234.7174792665079	1
453.47956027474424	188.94757080953886	1
441.7436875120253	105.62286566992854	1
481.6456549052698	77.45676815794761	1
548.540129652768	281.66097511980945	1
529.7627332324176	323.91012138778086	1
510.98533681206726	393.1517777714007	1
481.6456549052698	441.2688610210348	1
447.6116238933848	421.3178752833817	1
218.76210502036474	369.6800298447499	1
297.39245253058186	157.2607111085603	1
209.5	139.0	1
218.5	30.0	1
269.5	108.0	1
237.5	134.0	1
232.5	170.0	1
241.5	209.0	1
252.5	238.0	1
282.5	252.0	1
292.5	282.0	1
334.5	261.0	1
362.5	281.0	1
435.5	244.0	1
409.5	234.0	1
389.5	215.0	1
410.5	161.0	1
351.5	153.0	1
365.5	123.0	1
403.5	109.0	1
386.5	66.0	1
379.5	24.0	1
441.5	44.0	1
440.5	89.0	1
479.5	72.0	1
486.5	101.0	1
508.5	32.0	1
545.5	162.0	1
579.5	151.0	1
524.5	125.0	1
579.5	57.0	1
555.5	41.0	1
580.5	178.0	1
566.5	212.0	1
528.5	238.0	1
515.5	191.0	1
472.5	214.0	1
441.5	189.0	1
471.5	159.0	1
509.5	253.0	1
507.5	278.0	1
480.5	289.0	1
448.5	324.0	1
424.5	346.0	1
436.5	370.0	1
402.5	416.0	1
366.5	381.0	1
343.5	345.0	1
303.5	360.0	1
313.5	383.0	1
337.5	394.0	1
334.5	445.0	1
273.5	422.0	1
211.5	380.0	1
194.5	188.0	1
194.5	212.0	1
212.5	240.0	1
226.5	271.0	1
135.5	124.0	1
121.5	168.0	1
201.5	92.0	1
161.5	32.0	1
127.5	65.0	1
101.5	71.0	1
69.5	192.0	1
123.5	243.0	1
146.5	271.0	1
587.5	285.0	1
550.5	276.0	1
555.5	366.0	1
545.5	405.0	1
575.5	410.0	1
509.5	405.0	1
533.5	438.0	1
481.5	446.0	1
446.5	426.0	1
499.5	490.0	1
587.5	531.0	1
576.5	476.0	1
536.5	499.0	1
493.5	531.0	1
331.234375	260.0	1
473.234375	146.0	1
435.234375	99.0	1
403.234375	52.0	1
247.234375	51.0	1
269.234375	109.0	1
188.234375	209.0	1
63.234375	194.0	1
216.234375	390.0	1
341.234375	336.0	1
368.234375	388.0	1
403.234375	418.0	1
478.234375	445.0	1
436.234375	370.0	1
467.234375	297.0	1
388.234375	212.0	1
358.234375	241.0	1
344.234375	149.0	1
506.234375	258.0	1
485.234375	380.0	1
511.234375	401.0	1
371.234375	473.0	1
332.234375	440.0	1
297.234375	291.0	1
272.234375	252.0	1
241.234375	209.0	1
568.234375	220.0	1
471.234375	213.0	1
211.84375	31.0	1
252.84375	50.0	1
188.84375	97.0	1
265.84375	110.0	1
101.84375	66.0	1
130.84375	71.0	1
152.84375	11.0	1
180.84375	18.0	1
120.84375	159.0	1
97.84375	161.0	1
130.84375	125.0	1
192.84375	185.0	1
189.84375	211.0	1
228.84375	169.0	1
234.84375	210.0	1
300.84375	121.0	1
439.84375	100.0	1
509.84375	43.0	1
554.84375	39.0	1
583.84375	56.0	1
543.84375	158.0	1
523.84375	197.0	1
485.84375	214.0	1
389.84375	212.0	1
366.84375	234.0	1
332.84375	335.0	1
369.84375	382.0	1
405.84375	415.0	1
210.84375	376.0	1
259.84375	408.0	1
479.84375	444.0	1
447.84375	332.0	1
544.84375	287.0	1
375.8021605066787	463.55931681797205	1
335.9486453951265	438.38867518079707	1
264.63182887971726	411.12048007385755	1
215.33932334700793	376.510847822742	1
69.55936017580375	272.6819510693953	1
231.07097404893645	271.633174334513	1
213.24176992008412	245.41375596245578	1
339.0949755355122	336.657331897215	1
484.8749387067164	446.7788890598554	1
543.6064346605829	285.26727188798276	1
434.53365646054516	95.43868287428836	1
364.2656166585978	230.73088167410373	1
385.2411509278358	211.8529004462225	1
455.5091907297832	190.87736574857672	1
461.80185101055457	142.63363594399138	1
588.7038333394446	48.24372980458532	1
405.16790848361194	417.41314048315127	1
532.069890812502	320.92568087398064	1
