440.0999500409597	238.44822739340935	1
327.26284510847165	104.3210994846166	1
215.49024116591278	244.83523348430424	1
111.16914415285784	84.09558019678276	1
53.6860906966847	22.354521318132125	1
62.20209861611776	125.61111978759956	1
13.235053079377682	233.12572231766362	1
161.20069067952704	340.64032484772764	1
338.97235599769215	352.3498360143683	1
360.26237579627474	431.1229111354053	1
466.712474789188	530.1215055442761	1
338.3125	346.0	1
215.3125	242.0	1
154.3125	337.0	1
334.3125	103.0	1
438.3125	242.0	1
366.3125	430.0	1
473.3125	528.0	1
105.3125	90.0	1
67.3125	128.0	1
254.3125	68.0	1
340.1437522489741	349.2426527158025	1
357.9729563778264	428.9496845668565	1
158.7053808200653	336.657331897215	1
445.02142359516415	240.16987228804433	1
257.290391885484	67.12171103246654	1
333.8510919682027	105.92645022311126	1
470.1920647182498	523.3395907062626	1
70.60813688926565	130.04831512540392	1
52.77893276041333	23.073088167410372	1
115.70553556812737	92.29235266964149	1
441.25115897514166	241.62319819860863	1
212.31074312193033	242.81559619125153	1
335.1277370431843	354.9010074996851	1
341.0897270393617	403.7893251980444	1
356.5909010294229	431.21447902883136	1
469.8687109567931	527.7987164329071	1
329.16574704700696	110.45941900788853	1
109.76451518767944	88.99625514031614	1
52.5294112243766	22.221967552313174	1
152.69084316015656	338.20743560268437	1
257.6218670928784	68.72548926538667	1
335.67456894577384	113.73803159173754	1
257.27263206454523	69.56792223572296	1
113.71978988764779	83.9232077764277	1
216.41528467573596	245.14410692588092	1
153.47288464432708	335.6928311057108	1
343.4043373706837	345.6311057108141	1
358.8638742205034	431.7628189550425	1
440.57856899812197	244.03985419198057	1
465.97637953711154	528.9370595382746	1
52.985895120498874	25.397812879708383	1
14.337052995949561	234.10157958687728	1
51.171875	28.0	1
114.171875	90.0	1
71.171875	123.0	1
161.171875	336.0	1
341.171875	348.0	1
328.171875	107.0	1
359.171875	434.0	1
441.171875	241.0	1
213.171875	243.0	1
442.462186685357	237.18809842479152	1
337.2011911227119	346.659528467003	1
210.8879964475379	238.59157829712754	1
158.959238636633	342.44908884999484	1
335.79771118187665	108.06795016987542	1
470.53178550206235	526.3049521260167	1
444.84375	236.0	1
207.84375	244.0	1
335.84375	109.0	1
259.84375	68.0	1
338.84375	351.0	1
357.84375	429.0	1
160.84375	337.0	1
114.84375	93.0	1
471.84375	524.0	1
64.84375	130.0	1
51.84375	21.0	1
205.234375	244.0	1
340.234375	352.0	1
365.234375	429.0	1
532.234375	286.0	1
529.234375	327.0	1
153.234375	344.0	1
220.234375	340.0	1
442.234375	244.0	1
