108.3125	298.0	1
104.3125	335.0	1
128.3125	218.0	1
138.3125	265.0	1
84.3125	162.0	1
56.3125	257.0	1
229.3125	54.0	1
291.3125	26.0	1
167.3125	135.0	1
252.3125	146.0	1
347.3125	210.0	1
380.3125	165.0	1
437.3125	140.0	1
436.3125	191.0	1
482.3125	229.0	1
573.3125	198.0	1
517.3125	295.0	1
485.3125	305.0	1
460.3125	330.0	1
438.3125	353.0	1
457.3125	389.0	1
399.3125	436.0	1
342.3125	343.0	1
307.3125	273.0	1
276.3125	305.0	1
270.3125	262.0	1
234.3125	349.0	1
199.3125	400.0	1
250.3125	449.0	1
289.3125	449.0	1
278.3125	421.0	1
329.3125	380.0	1
381.3125	350.0	1
414.3125	407.0	1
472.3125	456.0	1
518.3125	460.0	1
602.3125	458.0	1
585.3125	539.0	1
562.3125	517.0	1
526.3125	502.0	1
483.3125	486.0	1
459.3125	504.0	1
453.3125	538.0	1
498.3125	557.0	1
408.3125	536.0	1
373.3125	521.0	1
381.3125	488.0	1
223.3125	273.0	1
207.3125	323.0	1
242.3125	246.0	1
254.3125	214.0	1
30.3125	158.0	1
292.5632009059557	29.10550038973803	1
228.8082925452516	55.43904836140577	1
438.09070912060633	133.05371606737384	1
438.09070912060633	191.2647168468499	1
388.1955634470118	167.70312129325245	1
357.7040855353707	189.8787406378148	1
309.1949161304872	275.8092655979937	1
287.01929583111183	297.984884942556	1
270.38758060658034	266.1074321347477	1
263.4576992630255	217.59826481851763	1
244.05403150107213	252.24767004439624	1
228.8082925452516	282.7391466431694	1
436.70473285189536	354.8099095129969	1
482.441949719357	303.5287897786966	1
514.3194038997091	292.44098010641545	1
485.2139022567789	232.84400311790424	1
472.7401158383803	220.37021723658793	1
359.0900618040817	318.77452807808316	1
341.0723703108391	345.10807604975093	1
325.82663135501866	376.98552885755925	1
482.441949719357	454.60019656352733	1
454.7224243451378	503.1093638797574	1
450.56449553900495	536.3727928966008	1
561.4425970358816	515.5831497610736	1
522.6352615119748	500.33741146168705	1
504.61757001873235	558.5484122411631	1
598.8639562910776	449.05629172738674	1
551.7407631549049	453.21422035449217	1
521.2492852432638	460.1441013996679	1
393.73946852185566	437.9684820551056	1
278.7034382188461	411.6349340834378	1
282.86136702497896	444.8983631002813	1
250.98391284462693	451.828244145457	1
194.1588858274776	396.38919578405125	1
106.84238089868722	293.82695631545056	1
108.22835716739819	335.4062425865049	1
126.24604866064064	214.82631240044736	1
166.43936045325844	134.43969227640898	1
83.28078433060094	155.22933541193615	1
345.2302991169721	210.66838377334193	1
438.09070912060633	95.63235842342495	1
407.59923120896525	528.0569356423899	1
235.73817388880636	352.03795709492664	1
70.8069979122023	34.6494052258786	1
479.66999718193506	88.70247737824923	1
305.0369873243543	511.4252211339682	1
456.1084006138488	397.7751719930864	1
77.67630224180915	32.02332928311057	1
41.2359653815198	54.10838396111786	1
64.42527065624938	78.40194410692588	1
77.67630224180915	108.21676792223572	1
47.861481174299676	130.301822600243	1
30.19343906021999	160.11664641555285	1
76.57204960967917	160.11664641555285	1
166.01651281220757	143.5528554070474	1
230.06316547574644	57.42114216281895	1
291.9013128750253	26.50206561360875	1
259.87798654325593	104.90400972053463	1
257.66948127899593	149.0741190765492	1
131.7846812161782	213.12077764277035	1
52.2784917028196	247.35261239368165	1
98.65710225227878	220.8505467800729	1
65.52952328837937	287.1057108140948	1
37.92320748512985	300.3567436208991	1
104.17836541292867	303.66950182260024	1
139.51444964108805	256.18663426488456	1
258.77373391112593	217.53778857837182	1
216.8121338901867	249.5611178614824	1
222.33339705083657	283.79295261239366	1
203.5611023046269	323.5460510328068	1
105.28261804505865	339.0055893074119	1
244.41844969343617	248.456865127582	1
270.9205128645557	265.0206561360875	1
293.0055655071553	234.10157958687728	1
346.00969184939436	206.49526123936818	1
380.24152344542375	166.74216281895505	1
357.0522181706942	188.82721749696233	1
437.6626603161827	139.13584447144592	1
199.144091776107	398.6352369380316	1
189.20581808693717	438.3883353584447	1
236.68868126852632	348.9438639125152	1
251.04396548621605	378.758687727825	1
247.7312075898261	445.0138517618469	1
281.9630391858555	412.99052247873635	1
280.8587865537255	294.8354799513973	1
316.1948707818849	271.64617253948967	1
321.7161339425348	377.65443499392467	1
339.3841760566145	340.1098420413123	1
359.2607234349541	314.7120291616039	1
435.4541550519228	188.82721749696233	1
442.07967084470266	102.6955042527339	1
497.2923024512017	90.54872417982989	1
379.1372708132938	24.29356014580802	1
471.8944919122121	210.91227217496962	1
499.50080771546163	179.99319562575943	1
505.02207087611157	219.74629404617255	1
482.93701823351194	238.51859052247875	1
482.93701823351194	305.87800729040094	1
514.9603445652814	289.3142162818955	1
455.3307024302624	326.8588092345079	1
436.5584076840528	355.5693803159174	1
455.3307024302624	394.21822600243013	1
410.05634451293326	410.7820170109356	1
269.81626023242575	486.9754556500607	1
285.27579708224545	447.2223572296476	1
306.2565970927151	507.95625759416765	1
375.82451291690387	490.28821385176184	1
373.6160076526439	524.5200486026731	1
401.2223234558934	437.28408262454434	1
479.624260337122	453.8478736330498	1
454.2264497981325	503.53924665856624	1
405.6393339844133	530.041312272175	1
448.70518663748254	537.7710814094775	1
482.93701823351194	489.1839611178615	1
481.83276560138194	521.207290400972	1
502.8135656118516	557.647630619684	1
519.3773550938013	457.1606318347509	1
519.3773550938013	501.3307411907655	1
565.7559656432604	513.4775212636695	1
590.04952355012	394.21822600243013	1
598.8835446071599	452.74362089914945	1
582.3197551252101	532.2498177399757	1
297.42257603567526	6.625516403402187	1
75.43797875765398	35.50090637526489	1
82.74698914143971	160.79822299384685	1
170.45511374686842	140.95948119590471	1
223.70647511445017	58.47208108867158	1
294.7082902712258	28.19189623918094	1
290.5317129090625	2.0882886103096996	1
476.38940552532813	83.53154441238797	1
434.6236319036954	92.92884315878162	1
434.6236319036954	137.82704828044015	1
375.1074044928688	163.9306559093114	1
125.55690710361326	213.00543825158934	1
104.6740202927969	300.7135598845967	1
103.62987595225607	341.43518778563583	1
135.99835050902144	257.90364337324786	1
240.41278456310326	244.32976740623482	1
226.8389081360726	271.4775193402609	1
293.664145930685	229.71174713406694	1
255.0308053306747	218.2261597773636	1
359.4452393847565	185.85768631756324	1
442.97678662802196	186.90183062271808	1
275.9136921414911	257.90364337324786	1
311.4145997198789	275.6540965608803	1
283.2227025252768	298.625271274287	1
243.5452175847257	349.78834222687465	1
193.42628923876643	398.8631245691526	1
194.47043357930724	439.58475247019175	1
242.50107324418488	454.2027727423596	1
283.2227025252768	410.3487119258559	1
346.9155072982667	341.43518778563583	1
484.7425602496547	232.84418004953147	1
470.1245394820832	208.82886103096993	1
483.69841590911386	300.7135598845967	1
452.3740856928893	327.8613118186228	1
435.6677762442362	355.0090637526489	1
456.5506630550526	387.3775372124492	1
306.19387801717477	505.3658436949473	1
451.3299413523485	504.3216993897924	1
481.61012722803224	488.65953481246964	1
487.87499327127716	518.9397196619603	1
506.66959140101187	559.6613475629995	1
441.93264228748114	545.0433272908315	1
589.1569943037365	397.81898026399773	1
599.5984377091447	453.15862843720475	1
546.3470763415629	455.24691704751444	1
487.87499327127716	456.2910613526693	1
513.9786017847975	460.4676385732887	1
571.4065405145426	478.21809176092114	1
557.832664087512	515.8072867464957	1
584.9804169415733	533.5577399341282	1
291.1900473385855	24.166132027688672	1
230.19933571185518	55.23687320614554	1
484.51909551388144	90.9106871517812	1
444.2422104773614	96.66452811075469	1
438.4883697578586	138.09218301536384	1
378.6484262750289	161.1075468512578	1
432.73452903835573	185.2736788789465	1
497.17754509678775	180.67060611176768	1
483.3683273699809	227.85210197535034	1
580.0328514576289	197.93212898868816	1
615.7066639185466	265.8274523045754	1
583.4851558893306	388.95964882660815	1
611.1035913429442	398.1657943609658	1
600.7466780478392	454.553435758906	1
583.4851558893306	529.3533682255614	1
563.9220974430209	510.94107715684623	1
568.5251700186232	474.1164950194159	1
521.3436761186997	468.36265406044237	1
519.0421398308986	501.73493162248866	1
506.3836902479923	555.8210366368395	1
484.51909551388144	493.67955427992575	1
447.6945149090632	536.2579773763296	1
477.614486650478	460.30727671787946	1
492.57447252118544	423.4826945804491	1
461.50373263587	392.41195340199226	1
435.03606532615686	356.7381394563566	1
489.12216808948375	307.25510720918453	1
456.90066006026774	337.1750801958467	1
515.5898353991969	295.74742529123756	1
413.17147059204603	402.76886712814456	1
401.6637891530403	440.7442174573696	1
410.86993430424485	524.7502954583827	1
382.1007307067306	495.98109066351515	1
319.95925093609975	516.6949181158197	1
276.23006146787804	486.7749451291576	1
283.1346703312815	448.7995947999325	1
246.3100897264632	446.4980584163431	1
278.5315977556792	409.67347627891274	1
323.41155536780144	376.30119871686645	1
339.52230938240945	339.4766165794361	1
384.4022669945317	345.2304575384096	1
355.63306339701745	326.8181664696944	1
344.12538195801176	210.59057909842986	1
309.6023376409946	277.3351342225224	1
279.68236589957974	302.65203444200574	1
275.0792933239775	260.07361134560193	1
231.35010385575575	280.7874387979065	1
246.3100897264632	242.81208846868142	1
237.10394457525862	353.2858348809725	1
199.12859582653977	319.9135573189262	1
197.97782768263917	393.56272159378693	1
109.3686806022952	299.1997298666217	1
57.58411412676949	247.4151612358602	1
133.5348116242072	256.6213067702178	1
125.47943461690319	216.34442005740337	1
164.60555150952263	143.84602397433733	1
88.65485401208491	159.9567786594631	1
35.71951939265863	157.65524227587372	1
59.885650414570634	125.43373290562216	1
73.69486814137748	28.769204794867466	1
6.950315795144352	36.82458213743036	1
258.9685393093695	214.04288367381395	1
389.005339570134	562.7256457876076	1
344.12538195801176	544.3133547188925	1
329.1653960873043	490.22724970454163	1
436.1615584696021	100.48699878493316	1
482.54016901906124	88.34021871202916	1
438.370063733862	134.71883353584448	1
440.57856899812197	188.82721749696233	1
379.84467423097306	166.74216281895505	1
229.66631626129575	53.0041312272175	1
292.6087162927046	29.814823815309843	1
297.0257268212245	4.417010935601458	1
348.9256005313336	207.59951397326853	1
255.0641268002853	146.86561360874848	1
257.27263206454523	217.53778857837182	1
271.627916282235	261.7078979343864	1
164.5154109656269	143.5528554070474	1
82.80071618800835	160.11664641555285	1
30.900842477899268	159.0123936816525	1
75.07094776309849	30.919076549210207	1
126.97082147320756	213.12077764277035	1
134.7005898981174	258.3951397326853	1
107.09427409486791	303.66950182260024	1
192.1217267688764	396.42673147023083	1
237.3960846862056	351.1523693803159	1
320.21503209595414	279.3759416767922	1
486.9571795475812	305.87800729040094	1
459.35086374433166	387.59270959902796	1
357.7596215883735	320.2332928311057	1
342.3000847385537	348.9438639125152	1
323.5277899923441	379.8629404617254	1
281.5661899714048	414.0947752126367	1
248.4386110075054	448.326609963548	1
287.0874531320547	448.326609963548	1
272.732168914365	491.3924665856622	1
384.261684759493	488.07970838396113	1
371.01065317393324	521.207290400972	1
406.3467374020926	532.2498177399757	1
315.7980215674342	512.3732685297691	1
447.20408479090185	538.8753341433779	1
457.14235848007166	502.43499392466583	1
395.3042110807928	437.28408262454434	1
436.1615584696021	348.9438639125152	1
485.8529269154512	232.99732685297693	1
575.2973901179796	199.86974483596597	1
470.3933900656315	216.43353584447144	1
588.5484217035394	400.8437424058323	1
596.2781901284492	453.8478736330498	1
523.3975164078705	458.26488456865127	1
518.9805058793506	505.74775212636695	1
486.9571795475812	456.05637910085056	1
500.20821113314094	555.4391251518833	1
223.04080046851584	277.1674362089915	1
203.1642530901762	320.2332928311057	1
57.4029056490188	249.5611178614824	1
288.94080947102293	29.80602842417617	1
442.2289520208179	101.12759643916914	1
382.61689658478656	28.741527409027018	1
295.3278154105977	7.451507106044042	1
230.39325502492065	55.35405278775574	1
262.3282847227946	97.9340933937217	1
439.0354490510305	133.0626268936436	1
489.06699557769974	89.4180852725285	1
440.0999500409597	189.4811806965485	1
380.4878946049283	169.25566140871467	1
474.1639817186919	213.96470404497893	1
500.7765064669202	180.9651725753553	1
509.2925143863533	212.90020302982978	1
491.19599755755803	233.12572231766362	1
513.5505183460699	291.6732781508667	1
615.7426133792665	269.31875683273466	1
482.67998963812494	306.57629236295486	1
591.2590906108965	399.18788068093085	1
458.19646686975494	326.8018116507887	1
442.2289520208179	357.672341090114	1
461.38996983954235	397.05887865063255	1
482.67998963812494	457.735436514134	1
486.9379935978415	428.993909105107	1
517.8085223057864	465.18694362017806	1
554.0015559633769	455.6064344838357	1
568.9045698223847	473.70295174137124	1
604.0331024900461	452.4129314383883	1
523.131027255432	497.12197407465254	1
561.4530628928808	516.2829923473372	1
581.6785817015342	534.3795096048727	1
507.163512406495	565.250039044198	1
483.7444906280541	514.153990317039	1
485.87349260791234	497.12197407465254	1
452.87396192010925	505.6379821958457	1
450.744959940251	541.8310167109167	1
403.9069163833692	437.50991722630016	1
344.2948609473378	209.70669998438234	1
358.1333738164165	194.80368577229424	1
373.03638767542435	239.5127284085585	1
361.3268767862039	321.479306575043	1
345.3593619372669	351.2853349992191	1
326.19834411854254	374.7043573325004	1
375.16538965528264	345.9628299234734	1
383.6813975747157	371.51085428705295	1
412.42292430280224	397.05887865063255	1
420.9389322222353	423.67140402936127	1
287.87630848109376	444.9614243323442	1
280.42480155158984	413.02639387786974	1
249.554272843645	447.0904263626425	1
192.07121938747187	399.18788068093085	1
237.84476195442457	352.3498360143683	1
205.9097322565506	327.86631266593787	1
230.39325502492065	277.83476495392784	1
214.42574017598366	244.83523348430424	1
245.2962688839285	250.15773856004998	1
261.2637837328655	215.02920506012808	1
291.06981145088116	235.2547243479619	1
270.8442926422277	263.9962517569889	1
307.0373262998182	285.2862720599719	1
280.42480155158984	298.0602842417617	1
252.7477758134324	378.962361393097	1
379.42339361499916	492.86397001405595	1
327.26284510847165	493.92847102920507	1
271.9087936321568	488.60596595345936	1
305.972825309889	513.0894893018898	1
373.03638767542435	521.605497423083	1
409.22942133301484	530.1215055442761	1
381.5523955948574	551.4115258472591	1
166.5231956291727	135.19162892394192	1
249.5542728436451	144.77213806028425	1
131.39466296151136	5.322505075745744	1
74.97611049526735	26.612525378728723	1
10.041550109590284	30.870529439325317	1
44.105581787322514	51.09604872715914	1
11.106051099519417	74.51507106044042	1
55.81509267654297	75.57957207558957	1
76.04061148519648	83.03107918163361	1
80.29861544491301	102.19209745431829	1
83.4921184147004	153.2881461814774	1
33.46057188803119	163.93315633296893	1
40.91207881753512	122.41761674215212	1
57.944094656401234	121.35311572700297	1
127.13665900179483	209.70669998438234	1
138.84616989101528	255.48024363579572	1
106.9111401931413	304.44729033265656	1
102.65313623342479	339.57582383257846	1
62.20209861611776	285.2862720599719	1
61.13759762618863	256.5447446509449	1
258.0702807630781	22.354521318132125	1
285.7473065012355	335.3178197719819	1
517.234375	290.0	1
269.234375	260.0	1
106.234375	307.0	1
195.234375	412.0	1
279.234375	414.0	1
281.234375	448.0	1
246.234375	447.0	1
246.234375	333.0	1
285.234375	294.0	1
439.234375	352.0	1
493.234375	233.0	1
468.234375	213.0	1
462.234375	390.0	1
490.234375	425.0	1
463.234375	324.0	1
398.234375	440.0	1
595.234375	456.0	1
565.234375	521.0	1
519.234375	458.0	1
594.234375	396.0	1
527.234375	505.0	1
482.234375	498.0	1
454.234375	506.0	1
227.234375	278.0	1
220.234375	324.0	1
218.234375	253.0	1
449.234375	136.0	1
316.234375	274.0	1
340.234375	348.0	1
326.234375	378.0	1
477.234375	461.0	1
583.234375	432.0	1
233.171875	54.0	1
292.171875	23.0	1
164.171875	139.0	1
46.171875	132.0	1
85.171875	162.0	1
125.171875	216.0	1
137.171875	257.0	1
107.171875	302.0	1
40.171875	296.0	1
55.171875	258.0	1
254.171875	216.0	1
381.171875	159.0	1
477.171875	218.0	1
436.171875	129.0	1
435.171875	187.0	1
309.171875	277.0	1
267.171875	262.0	1
232.171875	278.0	1
231.171875	349.0	1
337.171875	339.0	1
433.171875	351.0	1
412.171875	403.0	1
483.171875	303.0	1
594.171875	394.0	1
481.171875	491.0	1
481.171875	522.0	1
599.171875	455.0	1
518.171875	456.0	1
481.171875	457.0	1
193.171875	398.0	1
370.171875	354.0	1
293.4404142276238	4.1951069395291585	1
229.4650347064479	60.8290506231728	1
291.34286080070007	28.31697184182182	1
78.44118796793421	35.658408985997845	1
165.48965518527197	141.5848592091091	1
78.44118796793421	102.78012001846439	1
80.53874139485802	151.02384982304972	1
124.58736336025784	212.9016771811048	1
33.34378928907249	157.31651023234343	1
9.221924879448775	37.75596245576243	1
103.61182909101983	297.85259270657025	1
139.27023734872446	257.99907678104324	1
54.3193235583105	250.65763963686723	1
64.8070906929295	285.26727188798276	1
192.75784973528138	395.3888290506232	1
237.85524841414312	353.4377596553316	1
200.0992867295147	323.02323434374523	1
239.9528018410669	249.60886290198493	1
272.46487995838584	260.09663025080783	1
311.26961835647614	280.0233882135713	1
257.7820059699192	219.19433759039853	1
225.2699278526003	283.1697184182182	1
214.7821607179813	249.60886290198493	1
257.7820059699192	146.82874288352056	1
343.7816964737951	210.80412371134022	1
380.4888814449616	163.60917064163718	1
357.4157937487998	190.87736574857672	1
435.0252705449804	99.63378981381751	1
437.1228239719042	138.43852900446223	1
487.4641062180755	88.09724573011233	1
433.97649383151855	192.97491921834128	1
376.293774591114	25.170641637174953	1
493.75676649884684	177.24326819510694	1
470.68367880268505	211.85290044622252	1
575.5613501488751	199.26757962763503	1
485.36655279115166	232.8284351438683	1
516.8298541950087	292.6087090321588	1
610.1709816931178	262.1941837205724	1
487.4641062180755	300.9989229112171	1
459.14713495460416	331.41344822280354	1
433.97649383151855	355.5353131250962	1
407.757075994971	403.7790429296815	1
401.4644157141996	439.43745191567933	1
461.24468838152796	386.9986151715649	1
341.68414304687127	350.29142945068475	1
277.70876352569536	295.75503923680566	1
293.4404142276238	233.8772118787506	1
320.7086087776333	377.55962455762426	1
357.4157937487998	316.73057393445146	1
370.0011143103426	349.2426527158025	1
377.3425513045759	482.43729804585325	1
274.56243338530965	415.3155870133867	1
288.19653066031435	443.6325588552085	1
246.24546212183833	448.87644252961996	1
270.367326531462	489.77873519002924	1
307.0745115026285	507.6079396830282	1
374.1962211641902	520.1932605016157	1
449.708144533447	533.8273580550855	1
407.757075994971	531.7298045853208	1
381.5376581584235	376.510847822742	1
583.9515638565704	395.3888290506232	1
594.4393309911893	453.07154946914915	1
586.0491172834941	534.8761347899678	1
556.6833693065608	512.8518233574397	1
515.7810774815467	499.21772580396987	1
519.9761843353944	460.41298661332513	1
503.195756920004	551.6565625480844	1
452.8544746738327	503.41283274349905	1
483.26899936422785	460.41298661332513	1
419.29361984305194	423.70580089244504	1
103.61182909101983	336.657331897215	1
55.3681002717724	128.99953839052162	1
256.7332292564573	101.73134328358209	1
386.781541725733	342.9499923065087	1
485.36655279115166	425.8033543622096	1
610.1709816931178	394.3400523157409	1
485.36655279115166	519.1444837667334	1
484.31777607768976	490.82751192491156	1
186.46518945450998	436.2911217110325	1
131.92880035449116	3.146330204646869	1
227.84375	58.0	1
283.84375	25.0	1
436.84375	135.0	1
74.84375	29.0	1
164.84375	138.0	1
84.84375	154.0	1
126.84375	205.0	1
133.84375	256.0	1
105.84375	299.0	1
115.84375	340.0	1
218.84375	251.0	1
225.84375	292.0	1
245.84375	249.0	1
271.84375	261.0	1
317.84375	277.0	1
277.84375	291.0	1
229.84375	350.0	1
200.84375	317.0	1
253.84375	366.0	1
278.84375	411.0	1
189.84375	390.0	1
254.84375	442.0	1
292.84375	451.0	1
332.84375	379.0	1
345.84375	339.0	1
358.84375	320.0	1
377.84375	167.0	1
438.84375	100.0	1
480.84375	87.0	1
442.84375	191.0	1
474.84375	221.0	1
439.84375	351.0	1
466.84375	314.0	1
491.84375	302.0	1
524.84375	288.0	1
456.84375	393.0	1
408.84375	407.0	1
406.84375	437.0	1
452.84375	503.0	1
482.84375	456.0	1
588.84375	396.0	1
519.84375	451.0	1
480.84375	515.0	1
450.84375	533.0	1
524.84375	493.0	1
385.84375	494.0	1
410.84375	533.0	1
591.84375	458.0	1
568.84375	512.0	1
587.84375	534.0	1
