125.63614007371974	88.09724573011233	1
135.07513049487684	60.8290506231728	1
167.58720861219578	7.3414371441760276	1
159.19699490450057	33.56085551623327	1
265.1234429641525	40.902292660409294	1
284.00142380646673	9.438990613940607	1
245.19668540837642	14.682874288352055	1
196.95295658912897	52.43883674411448	1
211.63583057759558	95.43868287428836	1
177.02619903335287	134.24342206493307	1
178.07497574681477	200.31635636251733	1
170.73353875258147	155.21895676257887	1
237.85524841414312	110.12155716264041	1
202.1968401564385	135.29219879981537	1
209.5382771506718	288.4136020926297	1
204.29439358336228	214.99923065086938	1
201.1480634429766	171.99938452069551	1
235.7576949872193	230.73088167410373	1
214.7821607179813	187.73103554392983	1
296.58674436800953	174.09693799046008	1
280.855093666081	250.65763963686723	1
347.9768033276427	106.97522695799354	1
293.4404142276238	234.92598861363288	1
329.09882248532847	214.99923065086938	1
331.1963759122523	179.34082166487153	1
307.0745115026285	209.75534697645793	1
308.12328821609043	89.14602246499462	1
281.9038703795429	56.63394368364364	1
340.63536633340937	22.024311432528084	1
366.8547841699569	1.0487767348822896	1
395.1717554334282	18.877981227881214	1
398.3180855738139	46.146176334820744	1
440.2691541122899	24.12186490229266	1
436.0740472584423	60.8290506231728	1
476.9763390834565	79.70703185105401	1
387.8303184391949	109.07278042775812	1
400.4156390007377	134.24342206493307	1
457.04958152768035	75.51192491152486	1
497.95187335269446	10.487767348822896	1
574.5125734354132	44.04862286505617	1
605.9758748392702	32.51207878135098	1
599.6832145584988	4.1951069395291585	1
583.9515638565704	62.92660409293738	1
582.9027871431084	144.73118941375597	1
465.4397952353755	231.77965840898602	1
448.65936781998516	285.26727188798276	1
397.269308860352	287.36482535774735	1
354.26946360841407	272.6819510693953	1
303.92818136224287	307.2915833205109	1
306.0257347891667	346.09632251115556	1
284.00142380646673	299.95014617633484	1
281.9038703795429	349.2426527158025	1
296.58674436800953	373.36451761809514	1
355.318240321876	422.6570241575627	1
276.65998681223346	389.0961686413295	1
331.1963759122523	405.8765963994461	1
470.68367880268505	306.24280658562856	1
468.58612537576124	337.70610863209725	1
444.46426096613754	321.9744576088629	1
351.12313346802836	325.12078781350976	1
428.73261026420903	333.51100169256813	1
378.39132801803777	313.5842437298046	1
393.0742020065044	338.7548853669796	1
433.97649383151855	378.6084012925066	1
415.0985129892043	409.02292660409296	1
423.4887266968995	360.77919679950764	1
409.8546294218948	331.41344822280354	1
397.269308860352	422.6570241575627	1
440.2691541122899	407.9741498692107	1
453.90325138729463	364.97430373903677	1
487.4641062180755	369.16941067856595	1
509.48841720077536	399.5839359901523	1
550.3907090257895	407.9741498692107	1
602.8295446988845	418.4619172180336	1
547.2443788854038	481.38852131097093	1
502.1469802065421	458.3154331435606	1
533.610281610399	461.46176334820746	1
543.0492720315561	514.9493768272042	1
463.3422418084517	484.5348515156178	1
458.09835824114225	436.2911217110325	1
518.9274076219325	337.70610863209725	1
609.122204979656	568.436990306201	1
558.7809227334847	499.21772580396987	1
468.58612537576124	454.1203262040314	1
514.7323007680849	262.1941837205724	1
529.4151747565514	175.14571472534237	1
493.75676649884684	269.53562086474847	1
231.56258813337172	268.48684412986614	1
167.58720861219578	234.92598861363288	1
400.4156390007377	178.29204492998923	1
342.7329197603332	196.12124942298817	1
393.0742020065044	202.4139098322819	1
262.7938952251952	39.753098420413124	1
346.71709526707366	101.59125151883353	1
405.24248476996263	133.6145808019441	1
389.7829479201429	104.90400972053463	1
452.7253479515518	282.6886998784933	1
472.6018953298914	300.3567436208991	1
464.87212690498154	336.79708383961116	1
559.8378532681598	406.3650060753341	1
604.0079585533591	412.99052247873635	1
396.40846371292275	420.7202916160389	1
362.17663211689336	417.40753341433776	1
335.67456894577384	174.4719319562576	1
136.90909516237738	58.52539489671932	1
206.47701098656614	209.80801944106926	1
435.8419460812431	64.93456192409808	1
439.0354490510305	29.80602842417617	1
396.45540945386523	179.90067156020615	1
392.1974054941487	204.38419490863657	1
402.84241539344004	133.0626268936436	1
436.9064470711723	339.57582383257846	1
411.35842331287313	335.3178197719819	1
353.8753698567	323.6083086053413	1
382.61689658478656	334.25331875683275	1
398.5844114337235	283.1572700296736	1
394.326407474007	332.12431672653446	1
453.93846291003837	282.09276901452444	1
473.0994807287628	303.38278931750745	1
464.5834728093297	236.31922536311106	1
436.9064470711723	235.2547243479619	1
397.5199104437944	421.542401999063	1
361.3268767862039	421.542401999063	1
137.78166890108614	56.41855380290489	1
483.7444906280541	367.25285022645636	1
453.93846291003837	362.99484616585977	1
466.712474789188	332.12431672653446	1
442.2289520208179	321.479306575043	1
503.9700094367076	459.8644385444323	1
534.8405381446524	460.92893955958147	1
466.712474789188	491.7994689989068	1
348.5528649070543	111.77260659066063	1
265.521787692582	39.386537560518505	1
247.42527086378675	12.774012181789786	1
211.23223720619626	98.99859440887084	1
180.36170849825143	200.12619084803998	1
206.97423324647974	212.90020302982978	1
233.58675799470802	228.867718257067	1
281.489302541519	294.86678119631426	1
304.9083243199599	307.64079337810404	1
307.0373262998182	345.9628299234734	1
298.5213183803851	179.90067156020615	1
453.8651539326626	279.6452548694571	1
477.87509991630776	305.0675507666805	1
470.8133510975886	338.96394529631164	1
448.2157548776873	319.19104848736015	1
397.37116338290934	279.6452548694571	1
411.4946610203477	331.9021964359718	1
504.7097454274406	460.42602569415664	1
401.6082126741409	422.2925818483216	1
456.6898534601504	361.56154164939915	1
432.67990747650515	384.15913800248654	1
360.65006952556973	418.0555325321177	1
308.3931282670479	343.20099461251556	1
290.0325813383781	296.5934521342727	1
301.3313794483288	177.9560712805636	1
349.35127141561907	105.9262329050974	1
266.022635354733	33.896394529631166	1
250.48678795355082	16.948197264815583	1
205.2915955137482	53.66929133858268	1
213.76569409621118	97.4521342726896	1
174.2199007113839	155.35847492747618	1
201.0545462225167	209.02776626605885	1
229.30154149739334	228.80066307501036	1
330.99072448694926	403.93203481143803	1
534.369090466061	461.83837546622465	1
604.921875	421.0	1
557.921875	409.0	1
506.921875	472.0	1
473.921875	490.0	1
510.921875	407.0	1
461.921875	470.0	1
445.921875	434.0	1
407.921875	422.0	1
371.921875	428.0	1
329.921875	405.0	1
309.921875	339.0	1
361.921875	329.0	1
307.921875	306.0	1
288.921875	253.0	1
238.921875	233.0	1
341.921875	184.0	1
355.921875	107.0	1
398.921875	205.0	1
405.921875	180.0	1
407.921875	134.0	1
391.921875	114.0	1
453.921875	283.0	1
477.921875	305.0	1
498.921875	372.0	1
451.921875	405.0	1
432.921875	384.0	1
437.921875	335.0	1
415.921875	337.0	1
399.921875	288.0	1
363.921875	272.0	1
473.921875	339.0	1
458.921875	370.0	1
306.921875	371.0	1
321.921875	213.0	1
310.921875	184.0	1
133.921875	61.0	1
200.921875	55.0	1
242.921875	13.0	1
239.921875	49.0	1
222.921875	64.0	1
263.921875	43.0	1
163.921875	36.0	1
396.921875	24.0	1
431.921875	67.0	1
402.921875	45.0	1
457.921875	79.0	1
439.921875	33.0	1
474.921875	88.0	1
466.921875	56.0	1
556.921875	108.0	1
562.921875	81.0	1
574.921875	49.0	1
574.921875	103.0	1
533.921875	176.0	1
504.921875	234.0	1
536.921875	204.0	1
586.921875	69.0	1
601.921875	33.0	1
466.921875	233.0	1
273.921875	225.0	1
179.921875	202.0	1
205.921875	218.0	1
177.921875	156.0	1
128.921875	95.0	1
166.921875	115.0	1
182.921875	136.0	1
208.921875	99.0	1
196.921875	171.0	1
394.921875	337.0	1
376.921875	315.0	1
602.921875	215.0	1
497.921875	274.0	1
524.921875	342.0	1
567.921875	497.0	1
542.921875	518.0	1
553.921875	485.0	1
533.921875	467.0	1
461.921875	444.0	1
538.921875	250.0	1
441.921875	238.0	1
483.921875	43.0	1
351.921875	26.0	1
571.921875	214.0	1
482.921875	213.0	1
502.921875	181.0	1
487.921875	157.0	1
483.921875	184.0	1
566.921875	241.0	1
204.921875	136.0	1
223.921875	272.0	1
282.921875	18.0	1
354.3125	327.0	1
358.3125	419.0	1
396.3125	420.0	1
601.3125	411.0	1
558.3125	408.0	1
526.3125	332.0	1
477.3125	304.0	1
444.3125	322.0	1
331.3125	175.0	1
344.3125	99.0	1
592.3125	145.0	1
138.3125	58.0	1
132.3125	91.0	1
245.3125	14.0	1
398.3125	22.0	1
443.3125	26.0	1
435.3125	66.0	1
531.3125	172.0	1
215.3125	280.0	1
206.3125	215.0	1
214.3125	94.0	1
305.3125	177.0	1
333.3125	215.0	1
454.3125	283.0	1
471.3125	334.0	1
398.3125	289.0	1
305.3125	348.0	1
302.3125	304.0	1
396.3125	181.0	1
535.3125	203.0	1
177.3125	199.0	1
278.3125	220.0	1
292.3125	241.0	1
348.171875	107.0	1
180.171875	198.0	1
400.171875	181.0	1
337.171875	184.0	1
300.171875	178.0	1
396.171875	287.0	1
360.171875	323.0	1
393.171875	331.0	1
469.171875	307.0	1
426.171875	329.0	1
231.171875	228.0	1
205.171875	215.0	1
177.171875	130.0	1
361.171875	415.0	1
398.171875	424.0	1
285.171875	390.0	1
530.171875	461.0	1
405.171875	40.0	1
405.7524998161353	40.17302747122014	1
348.4697950421728	97.45540621531991	1
393.6929830216169	103.48513029364621	1
405.7524998161353	183.37897433146958	1
330.38051985039516	184.88640535105114	1
261.03829828191425	29.62101033414913	1
135.92081153878564	58.26219970619901	1
450.97568779557935	278.3471285651087	1
553.4815805489859	403.46390319037926	1
589.6601309325412	142.67833680276712	1
404.2450602168205	129.11145762653294	1
398.21530181956126	282.8694216238534	1
298.7242882647843	296.43630080008757	1
529.3625469599491	331.10721425046376	1
306.2614862613583	347.68895546586106	1
601.7196477270596	398.94161013163455	1
466.05008378872736	297.94373181966915	1
178.1291203196001	11.531838099170253	1
333.3953990490248	19.068993197078118	1
359.0218722373764	418.53821338619497	1
