390.4320015258332	240.27059702506284	1
359.8773611562425	213.88249677375535	1
382.09891778867205	283.32486585614345	1
326.5450262075981	361.10031922841813	1
298.76808041706107	138.8847381647762	1
343.2111936819203	116.66318005841201	1
498.7620901089275	330.5456768321674	1
570.9821491643237	370.82225089995245	1
558.4825235585821	416.65421449432864	1
541.8163560842598	515.2623785913197	1
572.3709964538506	568.0385790939347	1
551.5382871109479	584.7047476737079	1
537.6498142156793	572.205121238878	1
455.7078241335951	486.09658357671674	1
437.6528093697461	262.492155131427	1
139.05064212147326	95.83046933369558	1
455.7078241335951	188.88324390409565	1
570.9821491643237	262.492155131427	1
398.76508526299426	379.15533518983904	1
423.7643364744776	363.87801399171366	1
496.234375	424.0	1
544.234375	513.0	1
384.234375	284.0	1
384.234375	249.0	1
337.234375	119.0	1
279.234375	274.0	1
207.234375	146.0	1
443.234375	129.0	1
405.234375	104.0	1
484.234375	256.0	1
366.234375	222.0	1
193.234375	195.0	1
437.234375	267.0	1
536.234375	215.0	1
518.234375	256.0	1
489.234375	329.0	1
574.234375	504.0	1
485.234375	538.0	1
283.234375	223.0	1
289.234375	136.0	1
235.234375	125.0	1
210.5799780271374	143.2554066777139	1
323.56815467217285	361.90472342469985	1
269.1664399912299	392.2436238345687	1
459.5724413745304	488.4911699624286	1
570.4682443779911	374.45875118050765	1
585.1148598690143	329.4734850555297	1
550.5906947830312	308.5501054625167	1
498.2813537436629	328.42731607587905	1
602.9000358223994	223.81041811081397	1
554.7754420661806	155.8094344335217	1
513.9741560554734	144.30157565736454	1
567.3296839156291	133.83988586085803	1
458.526254553743	211.25639035500618	1
425.0482762885473	294.94990872705824	1
348.67663837106966	304.3654295439141	1
360.18469339973063	217.53340423291007	1
332.98383605925915	177.77898300618534	1
291.13636322776455	96.1778025934346	1
417.72496854303574	100.3624785120372	1
529.6669583672839	37.59233973299816	1
421.9097158261852	33.40766381439556	1
312.0600996435119	59.56188830566183	1
269.1664399912299	75.25442300042158	1
109.09985641076297	59.56188830566183	1
138.3930873928092	130.70137892190607	1
125.8388455433608	206.02554545675292	1
258.70457178335624	334.704329953783	1
396.8012321272885	507.3222115961403	1
245.10414311312047	345.1660197502895	1
407.2631003351621	481.16798710487404	1
470.03430958240403	429.90570710199216	1
425.0482762885473	468.61395934906625	1
607.0847831055489	561.7229985379741	1
573.6068048403532	573.2308573141313	1
597.6691017184626	598.3389128257469	1
493.05041963972604	111.87033728819436	1
440.7410786003578	264.6110083171894	1
137.34690057202184	98.2701405527359	1
90.26849363659039	82.57760585797614	1
512.927969234686	254.14931852068284	1
531.7593320088586	214.3948972939581	1
484.68092507342715	76.30059198007224	1
507.69703513074916	99.31630953238655	1
608.1309699263362	171.50196912828144	1
228.36515398052262	48.054029529504675	1
264.9816927080804	187.1945038230412	1
219.9956594142237	311.6886124014686	1
386.3393639194148	240.5491217852244	1
511.88178241389863	306.4577675032154	1
467.9419359408293	271.9341911747439	1
429.2330235716968	174.6404760672334	1
453.2953204498062	191.3791797416438	1
323.5277899923441	365.5076549210207	1
462.6636216407216	489.1839611178615	1
497.99970586888094	462.68189550425274	1
558.7336006360299	418.5117861482382	1
573.0888848537196	574.2114216281896	1
551.00383221112	585.2539489671932	1
533.3357900970402	575.3156743620898	1
595.1739374963192	600.7134872417982	1
607.320716449749	565.3773997569866	1
564.2548637966798	265.0206561360875	1
556.5250953717699	155.69963547995138	1
567.5676216930698	135.82308626974483	1
431.74454794108215	171.1591737545565	1
139.11760042663735	96.06998784933171	1
93.84324250930815	83.9232077764277	1
111.51128462338784	65.1509113001215	1
157.88989517284702	282.6886998784933	1
384.261684759493	244.03985419198057	1
329.04905315299396	113.73803159173754	1
231.8748215255557	115.94653705953827	1
131.38783200172747	46.37861482381531	1
345.0522498619071	177.76801647220316	1
297.2316174477557	96.68085106382978	1
110.10740365325027	60.29558453443148	1
93.47414020484979	85.24548158316175	1
245.2526691715042	344.1006634637383	1
269.1629853785799	389.8421413864104	1
242.13393227492912	401.27751086707843	1
353.36888158610736	344.1006634637383	1
322.18151262035644	362.81308625028595	1
387.67498744843334	243.2614962251201	1
375.200039862133	280.6863417982155	1
411.58530365550905	493.80004575611986	1
489.55372606988635	535.3832075040036	1
564.4034115876885	465.7314115762983	1
590.3928857258143	389.8421413864104	1
541.5326743461378	366.97140242507436	1
494.7516208975115	328.5069778082818	1
426.1394091728595	297.319606497369	1
462.5246729662355	246.3802333562114	1
453.16846227651024	191.28254404026538	1
429.2581460694346	176.72843742850606	1
461.4850940007105	214.15328300160147	1
548.8097271048131	312.9132921528254	1
573.7596222774138	575.9267902081904	1
550.8888850358632	582.1642644703729	1
364.80425020688267	219.35117822008692	1
195.35287882630274	181.92633264699154	1
157.92803606740168	279.6467627545184	1
330.4981443445567	119.55159002516586	1
209.9069843436532	145.54106611759323	1
521.7806740011623	117.47243193777167	1
565.4429905532136	266.13223518645617	1
531.1368846908875	217.27202013269275	1
556.0867798634882	425.18782887211165	1
498.9099367596116	461.57309540150993	1
424.0602512418094	360.73392816289174	1
466.6829888283357	389.8421413864104	1
220.3027739989035	310.8341340654312	1
121.54277227402561	203.7574925646305	1
141.29477261900118	228.7073896133608	1
131.93856192927592	128.9078014184397	1
147.53224641215135	159.05559368565545	1
138.1760357224261	97.72043010752688	1
450.0497253799352	114.3536948066804	1
414.70404055208417	101.87874628231525	1
287.87540675803046	233.90528483184625	1
261.8859326199047	188.1638069091741	1
267.08382744752987	291.08213223518646	1
494.7516208975115	403.35666895447264	1
518.6619371045872	403.35666895447264	1
582.0762540016141	334.74445207046443	1
604.9469912431647	291.08213223518646	1
551.9284640013882	151.7785403797758	1
533.2160426219376	43.66231983527797	1
560.2450957255884	56.1372683596431	1
456.28719917308536	488.6021505376344	1
189.11540503315257	244.3010752688172	1
229.65898468862875	121.63074811256006	1
316.9836177927313	87.32463967055594	1
567.5221484842637	135.1452756806223	1
494.7516208975115	61.33516357812857	1
308.60317077307286	135.0879974631362	1
374.52611175127134	43.228159188203584	1
379.9296315035827	320.96908197241163	1
363.71907224664864	382.5692088156017	1
473.9508751938003	427.9587759632155	1
470.7087633424135	466.8641192325987	1
475.03157914426254	273.41810686538764	1
515.0176253113666	255.04613921040115	1
309.6838747235351	172.91263675281434	1
108.171875	61.0	1
94.171875	83.0	1
144.171875	98.0	1
68.171875	98.0	1
132.171875	128.0	1
294.171875	100.0	1
123.171875	207.0	1
270.171875	387.0	1
252.171875	340.0	1
603.171875	220.0	1
558.171875	419.0	1
573.171875	573.0	1
208.171875	149.0	1
488.171875	65.0	1
405.171875	484.0	1
487.171875	536.0	1
336.9974221085884	117.46299430681644	1
266.72938230664107	391.193722111094	1
489.070045560564	533.8273580550855	1
570.8746292105923	573.6808739806124	1
593.9477169067541	601.9978458224342	1
607.5818141817588	567.3882135713187	1
529.9723373855782	42.99984613017388	1
575.0697360644399	136.34097553469766	1
607.5818141817588	294.7062625019234	1
582.4111730586732	335.60855516233266	1
363.2168399451359	219.19433759039853	1
