395.3042110807928	244.03985419198057	1
336.77882157790384	283.79295261239366	1
284.87894786779475	378.758687727825	1
230.77056889342572	361.0906439854192	1
199.85149519378626	356.67363304981774	1
231.8748215255557	178.88894289185905	1
170.0366741262768	336.79708383961116	1
319.11077946382414	115.94653705953827	1
346.71709526707366	108.21676792223572	1
395.3042110807928	64.04665856622114	1
282.6704426035348	66.25516403402187	1
88.32197934865825	100.48699878493316	1
523.3975164078705	128.09331713244228	1
583.0271585428894	165.63791008505467	1
556.5250953717699	165.63791008505467	1
600.6952006569692	110.42527339003645	1
562.0463585324198	230.7888213851762	1
524.5017690400005	367.7161603888214	1
499.10395850101094	488.07970838396113	1
454.9338532158117	484.76695018226	1
421.8062742519123	523.4157958687728	1
394.1999584486628	580.8369380315918	1
569.7761269573297	591.8794653705954	1
377.6361689667131	334.58857837181046	1
400.8254742414427	375.44592952612396	1
306.9640005103944	352.25662211421627	1
273.83642154649493	266.12490886998785	1
171.14092675840678	131.40607533414337	1
246.23010574324545	17.668043742405832	1
433.9530532053421	71.7764277035237	1
485.8529269154512	101.59125151883353	1
500.20821113314094	212.01652490887	1
421.8062742519123	610.6517618469015	1
245.19668540837642	22.024311432528084	1
278.7575402391572	65.02415756270196	1
278.7575402391572	33.56085551623327	1
311.26961835647614	6.292660409293738	1
292.39163751416197	22.024311432528084	1
417.19606641612813	26.21941837205724	1
392.02542529304253	61.877827358055086	1
430.83016369113284	72.36559470687799	1
439.220377398828	35.658408985997845	1
531.5127281834752	46.146176334820744	1
600.7319912719607	54.53639021387906	1
601.7807679854226	113.26788736728729	1
581.8540104296466	163.60917064163718	1
523.1225144757801	128.99953839052162	1
556.6833693065608	166.75550084628406	1
483.26899936422785	96.48745960917064	1
559.8296994469466	229.68210493922143	1
514.7323007680849	161.51161717187262	1
496.90309663923256	213.95045391598708	1
460.19591166806606	147.87751961840283	1
390.9766485795806	241.21864902292663	1
342.7329197603332	108.02400369287584	1
318.6110553507095	115.36544083705186	1
231.56258813337172	180.38959839975382	1
261.97711282376684	213.95045391598708	1
271.41610324492393	266.38929066010155	1
335.39148276609984	283.1697184182182	1
244.14790869491452	226.53577473457457	1
143.46534420257206	84.95091552546546	1
172.83109217950528	127.95076165563934	1
118.29470307948644	208.70657024157563	1
115.14837293910074	243.3162024926912	1
233.6601415602955	263.2429604554547	1
202.1968401564385	285.26727188798276	1
257.7820059699192	310.43791352515774	1
220.0260442852908	275.8282812740422	1
166.53843189873388	333.51100169256813	1
201.1480634429766	352.38898292044934	1
229.4650347064479	366.0230804739191	1
284.00142380646673	378.6084012925066	1
373.1474444507283	338.7548853669796	1
304.9769580757048	354.48653639021387	1
399.3668622872758	376.510847822742	1
402.5131924276615	439.43745191567933	1
322.80616220455704	472.9983074319126	1
419.29361984305194	519.1444837667334	1
298.68429779493334	464.6080935528543	1
452.8544746738327	482.43729804585325	1
415.0985129892043	425.8033543622096	1
496.90309663923256	488.72995845514697	1
396.2205321468901	569.4857670410832	1
420.34239655651385	608.290506231728	1
567.1711364411799	587.3149715340822	1
538.8541651777086	555.8516694876135	1
536.7566117507848	485.5836282505001	1
576.610126862337	458.3154331435606	1
594.4393309911893	427.90090783197417	1
550.3907090257895	397.4863825203878	1
528.3663980430896	369.16941067856595	1
494.80554321230875	356.58408985997846	1
467.53734866229934	350.29142945068475	1
491.6592130719231	255.90152331127868	1
444.46426096613754	188.77981227881213	1
479.07389251038023	239.12109555316204	1
437.1228239719042	218.14556085551624	1
418.24484312959004	157.31651023234343	1
359.5133471757236	192.97491921834128	1
492.70798978538494	281.07216494845363	1
613.3173118335035	139.48730573934452	1
191.70907302181948	99.63378981381751	1
224.2211511391384	89.14602246499462	1
407.757075994971	326.1695645483921	1
306.0257347891667	158.36528696722573	1
86.83140167562942	98.58501307893522	1
167.58720861219578	79.70703185105401	1
484.31777607768976	45.097399599938456	1
272.46487995838584	412.1692568087398	1
551.4394857392514	468.8032004923835	1
390.4850344951453	63.97538082781967	1
520.5333469644211	127.95076165563934	1
416.70445233169283	23.073088167410372	1
441.8750934547785	30.4145253115864	1
435.58243317400706	68.17048776734883	1
341.19252896243603	104.87767348822896	1
319.1682179797361	118.51177104169874	1
279.3147028681839	65.02415756270196	1
242.60751789701735	17.829204492998922	1
278.26592615472197	36.70718572088014	1
554.0942017952018	162.56039390675488	1
578.2160662048256	164.65794737651947	1
592.8989401932921	428.9496845668565	1
526.8260072451924	368.1206339436837	1
400.9728016297643	371.26696414833054	1
375.8021605066787	332.4622249576858	1
268.8269357335649	262.1941837205724	1
560.3868620759732	229.68210493922143	1
393.63136463553104	241.21864902292663	1
438.7287633143928	224.43822126480998	1
494.3139291278735	488.72995845514697	1
204.8515562123889	353.4377596553316	1
286.65613986241715	379.65717802738885	1
167.0955945277605	337.70610863209725	1
232.11975076239835	177.24326819510694	1
117.80308899505117	245.41375596245578	1
451.3140838759356	480.33974457608866	1
418.80200575861664	605.1441760270811	1
421.94833589900236	523.3395907062626	1
564.0336577441896	225.58704287975362	1
577.6006141380228	163.78237107690913	1
517.3030301654306	124.58916456778823	1
425.34921460722774	28.113579314567556	1
606.241966525004	114.03714743071721	1
526.3476677613195	362.76326566167677	1
553.4815805489859	401.95647217079767	1
595.6898893298004	427.5827995036844	1
556.4964597476155	481.85031620862105	1
574.5857349393932	588.8779185989127	1
457.0054461928386	516.5212296589972	1
381.63346622709844	338.6443693483716	1
398.21530181956126	379.34500687707407	1
396.70786222024645	243.67621511473249	1
352.9921138401172	108.00742335239093	1
322.8433218538212	120.06687150904351	1
291.1870902682103	67.30678582368846	1
141.95056993604484	76.35137194117789	1
223.35230829904418	177.34925025314328	1
334.9028386483396	287.3917146825981	1
233.9043854942478	361.2558346420952	1
309.2763654599879	352.21124852460576	1
411.78225821339447	439.642247660337	1
496.19887577502345	350.7038175050242	1
426.85665420654254	181.87154331188802	1
402.7376206175057	65.79935480410688	1
245.96390228876623	17.561562177496544	1
292.6945298675251	32.635872373312274	1
191.69607671343334	95.94797519573834	1
276.11269427506227	267.79511142803767	1
262.54573788122906	215.03502574268262	1
497.70631537433826	489.3874713065289	1
241.4415834908218	266.2876804084561	1
176.62168072028533	132.1263196656961	1
597.1973289291152	56.754768686617446	1
506.75095297022705	213.52759472310103	1
203.75559350795174	343.16666240711635	1
443.43848979900537	222.57218084059048	1
538.407184555838	551.1921431093734	1
514.288150966801	163.78237107690913	1
278.3125	38.0	1
280.3125	66.0	1
395.3125	71.0	1
518.3125	119.0	1
563.3125	232.0	1
594.3125	431.0	1
491.3125	361.0	1
530.3125	370.0	1
400.3125	374.0	1
419.3125	525.0	1
399.3125	572.0	1
305.3125	472.0	1
203.3125	351.0	1
233.3125	366.0	1
284.3125	382.0	1
167.3125	338.0	1
197.3125	283.0	1
228.3125	257.0	1
270.3125	269.0	1
177.3125	129.0	1
147.3125	90.0	1
253.3125	16.0	1
322.3125	113.0	1
230.3125	181.0	1
115.3125	240.0	1
265.3125	213.0	1
398.3125	236.0	1
336.3125	287.0	1
427.3125	20.0	1
434.3125	70.0	1
582.3125	166.0	1
499.3125	481.0	1
458.3125	514.0	1
579.3125	593.0	1
539.3125	550.0	1
410.3125	431.0	1
381.3125	329.0	1
502.3125	213.0	1
605.3125	59.0	1
307.3125	160.0	1
393.20969610488686	241.6594444067106	1
334.87810994475916	286.102560619439	1
376.5435286305647	336.10106635875843	1
230.7145632302454	174.994770087618	1
495.98439552987384	355.5449297018271	1
527.9278831889914	369.4334035183047	1
555.7048289795284	166.66168579773145	1
601.5367895339144	111.10779053182097	1
520.9836467413571	133.32934863818517	1
394.59854339441375	63.886979555797055	1
316.8230951809101	116.66318005841201	1
341.8223463923934	105.55240100522991	1
284.87960752179254	383.3218773347823	1
272.3799819160509	262.492155131427	1
173.77182435964454	129.16280649324187	1
279.32421836368513	31.943489777898527	1
282.10191294273886	66.66467431909258	1
236.2699523883528	263.8810025130748	1
202.9376174397084	281.9360184744957	1
569.5933018747968	595.8155267268896	1
580.7040801910117	449.9865516538749	1
420.9866418954239	24.999252869659717	1
140.43948941100012	84.71969028051349	1
404.32047442110166	373.599945663248	1
247.171875	15.0	1
280.171875	65.0	1
394.171875	63.0	1
423.171875	24.0	1
489.171875	94.0	1
319.171875	114.0	1
233.171875	181.0	1
174.171875	128.0	1
116.171875	244.0	1
168.171875	338.0	1
229.171875	365.0	1
197.171875	355.0	1
286.171875	383.0	1
300.171875	464.0	1
423.171875	521.0	1
497.171875	486.0	1
412.171875	431.0	1
568.171875	589.0	1
526.171875	623.0	1
592.171875	425.0	1
600.171875	114.0	1
394.171875	248.0	1
335.171875	287.0	1
280.171875	34.0	1
423.171875	160.0	1
394.1999584486628	68.4636695018226	1
446.0998321587719	36.44034021871203	1
421.8062742519123	27.606318347509113	1
534.4400427291703	45.274362089914945	1
486.9571795475812	43.06585662211422	1
596.2781901284492	54.10838396111786	1
567.5676216930698	26.50206561360875	1
602.9037059212291	111.52952612393682	1
521.1890111436105	125.88481166464156	1
581.9229059107595	161.22089914945323	1
556.5250953717699	168.95066828675576	1
515.6677479829607	162.32515188335358	1
564.2548637966798	234.10157958687728	1
601.7994532890991	422.9287970838396	1
551.00383221112	400.8437424058323	1
526.7102743042605	365.5076549210207	1
495.791200604621	355.5693803159174	1
496.895453236751	485.87120291616037	1
571.9846322215897	587.4624544349939	1
462.6636216407216	512.3732685297691	1
419.59776898765233	520.1030376670717	1
401.9297268735727	574.2114216281896	1
324.632042624474	472.620170109356	1
267.21090575371505	503.53924665856624	1
400.8254742414427	375.44592952612396	1
290.40021102844463	382.07144592952613	1
301.44273734974445	348.9438639125152	1
255.0641268002853	310.2950182260024	1
229.66631626129575	176.6804374240583	1
333.4660636815139	288.20996354799513	1
305.8597478782644	155.69963547995138	1
345.61284263494366	106.008262454435	1
323.5277899923441	119.25929526123937	1
174.45368465479672	126.98906439854191	1
89.42623198078823	100.48699878493316	1
282.6704426035348	68.4636695018226	1
283.77469523566475	38.64884568651276	1
246.23010574324545	22.08505467800729	1
300.3384847176145	17.668043742405832	1
216.41528467573596	86.13171324422844	1
143.53461095515726	85.02746051032807	1
121.44955831255766	200.97399756986633	1
114.82404251977778	239.6228432563791	1
204.26850572230617	277.1674362089915	1
247.33435837537542	249.5611178614824	1
224.14505310064584	272.75042527339	1
167.82816886201684	333.4843256379101	1
235.18757942194563	261.7078979343864	1
231.8748215255557	358.88213851761844	1
202.06000045804623	353.3608748481166	1
379.84467423097306	335.6928311057108	1
399.7212216093127	242.93560145808019	1
424.01477951617227	156.80388821385176	1
365.4893900132833	193.2442284325638	1
262.7938952251952	213.12077764277035	1
447.20408479090185	481.4541919805589	1
580.8186532786295	447.2223572296476	1
542.1698111540802	485.87120291616037	1
544.3783164183401	559.8561360874849	1
408.55524266635257	443.9095990279465	1
