489.234375	332.0	1
366.234375	340.0	1
262.234375	261.0	1
243.234375	71.0	1
175.234375	74.0	1
182.234375	178.0	1
76.234375	174.0	1
154.234375	289.0	1
55.234375	272.0	1
113.234375	329.0	1
176.234375	324.0	1
188.234375	242.0	1
236.234375	386.0	1
242.234375	329.0	1
169.234375	364.0	1
286.234375	383.0	1
328.234375	444.0	1
290.234375	476.0	1
421.234375	549.0	1
402.234375	379.0	1
469.234375	455.0	1
255.234375	172.0	1
265.43574546841666	258.32561298648375	1
495.98439552987384	327.76798206887185	1
365.4327503143499	336.10106635875843	1
330.7115680761786	444.43116212728387	1
233.4922578092991	395.8215037696122	1
176.54951893869824	324.9902873055763	1
157.10565688532233	293.04679752767777	1
65.4417357765502	270.8252394213136	1
80.71905596134556	177.77246485091354	1
175.16067164917138	176.38361746926577	1
168.21643520153714	79.16430075392243	1
490.1691173777642	323.57005915255587	1
232.396945894933	76.35137194117789	1
606.241966525004	136.64861272444082	1
262.54573788122906	260.2579563301298	1
170.5919223230261	174.33438821398013	1
78.63810676482315	177.34925025314328	1
54.51907317578631	34.14330339289385	1
173.6068015216557	77.85880296075946	1
193.20351631274815	243.67621511473249	1
158.5324055285077	293.4214387609244	1
62.056271172360326	267.79511142803767	1
233.9043854942478	389.8970240141451	1
328.87308025108035	447.17940275824486	1
369.57394943258004	337.13693832879005	1
179.6365599189149	323.57005915255587	1
111.80177794974881	320.55519711339275	1
12.310764394971844	10.024407079588679	1
345.4549158435432	493.90976436527365	1
173.87986889296718	77.60947838128943	1
175.97742231989096	176.19449146022467	1
76.34363454101042	176.19449146022467	1
48.0266632775391	50.341283274349905	1
264.07466625069065	269.53562086474847	1
181.2213058872005	246.46253269733808	1
158.14821819103867	294.7062625019234	1
59.56320712562	273.7307278042776	1
73.19730440062472	337.70610863209725	1
173.87986889296718	317.7793506693338	1
232.6113648468336	391.193722111094	1
323.85493891801895	445.7301123249731	1
361.6109006026474	338.7548853669796	1
489.5616596449993	328.2671180181567	1
344.830473187257	488.72995845514697	1
599.6832145584988	209.75534697645793	1
601.7807679854226	137.38975226957993	1
54.3193235583105	33.56085551623327	1
105.70938251794364	140.53608247422682	1
403.5619691411234	375.46207108785967	1
420.34239655651385	542.2175719341437	1
466.48857194883743	457.2666564086783	1
330.1475991987904	525.4371441760271	1
110.95326608525313	327.21834128327436	1
299.73307450839525	45.097399599938456	1
513.6835240546229	283.1697184182182	1
326.780951048536	441.94606096261754	1
231.38911110969795	389.4805492863295	1
267.1610510867622	260.7015660808952	1
485.36988494685426	325.09105768361235	1
356.5909010294229	340.59223158797016	1
161.03762915480488	291.7039138896109	1
183.6931911402789	322.7062616983265	1
73.99257521061516	341.78462958061306	1
58.49140122055398	271.43314801468136	1
78.76216720755707	180.81090057382022	1
168.19201715021774	174.84891061060566	1
174.15400714639512	80.64946919181577	1
182.50079314104346	249.96998414710902	1
52.5294112243766	38.91553944931392	1
344.66692103706816	486.0647866904052	1
268.3534490859977	506.3355525653347	1
491.1675989874878	325.12078781350976	1
330.704761827817	440.48622865056166	1
364.2656166585978	340.8524388367441	1
262.53427545279345	260.09663025080783	1
232.11975076239835	392.24249884597634	1
179.6809150893033	324.0720110786275	1
175.48580823545572	173.04816125557778	1
188.07112879699852	246.46253269733808	1
73.75446702965135	177.24326819510694	1
56.97403961426094	32.51207878135098	1
155.5590506796796	292.6087090321588	1
72.70569031618945	338.7548853669796	1
59.07159304118474	270.58439759963073	1
50.77738985623891	36.44034021871203	1
73.9666951309685	181.09744835965978	1
58.507158281148776	267.2291616038882	1
68.4454319703186	339.0055893074119	1
163.4111583334969	295.9397326852977	1
178.87069518331663	320.2332928311057	1
176.6621899190567	175.57618469015796	1
266.1066531215851	261.7078979343864	1
234.08332678981566	384.27995139732684	1
329.04905315299396	447.22235722964757	1
359.9681268526334	332.3800729040097	1
492.47844270823106	326.8588092345079	1
