524.5017690400005	141.34434993924665	1
565.3591164288098	231.89307411907654	1
489.1656848118411	287.1057108140948	1
421.8062742519123	367.7161603888214	1
396.40846371292275	345.6311057108141	1
421.8062742519123	394.21822600243013	1
410.7637479306125	425.13730255164035	1
448.30833742303184	562.0646415552856	1
440.57856899812197	532.2498177399757	1
418.4935163555224	506.8520048602673	1
363.28088474902336	478.14143377885785	1
319.11077946382414	460.473390036452	1
287.0874531320547	442.80534629404616	1
252.85562153602532	344.52685297691374	1
219.7280425721259	421.82454434993923	1
138.01334779450735	350.04811664641556	1
43.04762143132905	277.1674362089915	1
172.24517939053675	278.27168894289184	1
261.6896425930652	215.32928311057108	1
130.2835793695975	269.43766707168896	1
97.1560004056981	246.24835965978127	1
64.02842144179868	249.5611178614824	1
52.985895120498874	221.95479951397326	1
103.78151619847797	197.66123936816524	1
141.3261056908973	186.6187120291616	1
155.68138990858705	90.54872417982989	1
115.92829515190776	75.08918590522478	1
575.5591307813721	291.20646172090557	1
563.7009753251913	235.86840145477774	1
355.52446842779625	112.01655228772975	1
355.52446842779625	36.91489906941342	1
260.6592247783504	3.975577482432573	1
218.49689426748557	23.739170434621084	1
205.3211659828403	63.2663563389981	1
148.66553435886573	88.30024074510355	1
119.67893213264615	69.85422065639428	1
109.13834950492995	7.928296072870275	1
258.0240791214214	209.51694418519307	1
254.07136063602778	349.1796677139919	1
144.71281587347212	187.11820550604608	1
113.09106799032352	193.70606982344225	1
60.388154851742485	220.05752709302695	1
525.4913632997201	144.9558738747106	1
551.8428198690106	35.59732620593419	1
400.32194459559014	350.4972405774711	1
426.67340116488066	364.99054207574267	1
496.5047610735005	280.6658788130717	1
301.5039824607507	380.80141643749346	1
167.11155395736907	278.03073308611323	1
119.67893213264615	267.49015017827935	1
97.28019404874921	238.50354718173622	1
447.75456642031304	112.01655228772975	1
478.05874147499713	69.85422065639428	1
60.388154851742485	61.948783475518866	1
314.67971074539594	447.9976324749344	1
424.0382555079516	494.11268269670757	1
359.4771869131898	370.2608335296596	1
358.1596140847253	474.34908974451906	1
574.234375	294.0	1
562.234375	238.0	1
491.234375	288.0	1
423.234375	363.0	1
400.234375	346.0	1
418.234375	390.0	1
463.234375	456.0	1
426.234375	500.0	1
431.234375	529.0	1
447.234375	566.0	1
568.234375	584.0	1
360.234375	478.0	1
317.234375	463.0	1
289.234375	447.0	1
262.234375	422.0	1
224.234375	422.0	1
253.234375	347.0	1
274.234375	239.0	1
259.234375	212.0	1
167.234375	270.0	1
129.234375	267.0	1
75.234375	242.0	1
116.234375	78.0	1
146.234375	91.0	1
211.234375	71.0	1
205.234375	11.0	1
259.234375	13.0	1
356.234375	31.0	1
392.234375	84.0	1
400.234375	124.0	1
451.234375	109.0	1
547.234375	30.0	1
398.234375	294.0	1
287.234375	393.0	1
105.234375	193.0	1
55.234375	224.0	1
511.234375	408.0	1
400.10320219787826	125.12104149120287	1
351.2582101890188	113.44071745319073	1
441.5152606401722	110.25517453373287	1
545.5763305720902	33.80214446674424	1
571.0606742288865	292.89296858265016	1
485.0510143871991	282.2744921844573	1
395.8558115884122	343.8616552939759	1
424.525698202308	364.0367604505423	1
566.8132836194204	579.5918313338575	1
423.46385054994147	497.8295630677724	1
365.06222966978345	481.9018484704831	1
196.2284529435083	242.98612951114367	1
118.71357432075305	74.15235477987713	1
136.76498441098374	182.46081404144434	1
127.20835553968514	263.1612346677101	1
38.01315274089828	278.02710162518014	1
136.76498441098374	350.2327411328916	1
416.0309169833759	391.6447990858438	1
495.66949091086417	348.10904585325306	1
204.72323416244038	60.3483354622264	1
257.8156167807659	211.13070031656508	1
284.3618080899287	436.2423999582538	1
525.3050471680449	142.9251726232793	1
353.5997352781364	34.4169552927745	1
260.5926913377693	10.568995439916302	1
212.89677136835024	29.647363322202864	1
110.35054343409935	10.568995439916302	1
45.96105147538366	58.264915145632706	1
150.8920754081055	86.88246696906255	1
117.5049314295122	72.57369105734763	1
137.7756974165153	189.4286943363528	1
104.38855343792197	197.7754802848532	1
49.538245473090086	216.85384816713974	1
42.38385747767723	272.8965538213565	1
133.00610541957337	339.67084140935947	1
128.23651342263148	260.97257389492745	1
166.39324939816672	283.6281357551427	1
259.4002933385338	213.27665418921103	1
252.24590534312097	348.01762735785985	1
284.4406513224788	438.63987479872105	1
311.86580530489476	456.52584468836466	1
363.1389192720202	475.6042125706512	1
420.374023235323	499.45217242350947	1
435.8751972253842	534.0317142101538	1
443.02958522079706	568.6112559967983	1
565.846579142051	582.9200319085131	1
602.8109171183509	584.112429901156	1
218.85876136452762	420.7539049090774	1
401.29565524755543	344.4404333799311	1
425.14361523226495	367.0959952401464	1
561.0769871451091	233.54742006414048	1
545.575813155048	34.4169552927745	1
10.18911149831939	60.649711130918526	1
38.80666347997081	244.27900199792668	1
489.5331071909806	283.6281357551427	1
416.7968292376166	389.7515571003617	1
397.3762379734674	348.6006927935883	1
427.93087834305817	368.0445561366569	1
416.82010002684336	387.4884194797256	1
166.82758791201027	277.7694763295524	1
127.93986380525847	265.26984989472254	1
143.21718399005383	184.71670175915236	1
120.99562735762422	72.22006384568363	1
148.77257314816123	93.05277457040006	1
261.2692035998361	209.71595462881206	1
423.7643364744776	494.42966786660327	1
352.9331247086082	34.72118454119405	1
109.88484904140941	198.60517557562997	1
58.49749932891595	226.38212320858523	1
434.8751147906924	530.5396997894451	1
361.26620844576934	473.59695714188683	1
287.65730210084627	440.26461998234055	1
259.48113732880523	9.938274605103281	1
353.34261105985354	37.54459295261239	1
546.5868216826001	33.12758201701094	1
524.5017690400005	140.2400972053463	1
557.6293480038998	234.10157958687728	1
489.1656848118411	284.8972053462941	1
395.3042110807928	343.42260024301333	1
421.8062742519123	368.82041312272173	1
251.75136890389535	346.73535844471445	1
258.37688469667523	210.91227217496962	1
149.05587411580717	89.44447144592952	1
117.03254778403773	76.19343863912515	1
103.78151619847797	11.042527339003644	1
139.11760042663735	191.03572296476307	1
103.78151619847797	200.97399756986633	1
54.09014775262885	220.8505467800729	1
126.97082147320756	268.33341433778855	1
39.73486353493911	282.6886998784933	1
419.59776898765233	499.1222357229648	1
357.7596215883735	477.0371810449575	1
309.1725057746543	448.326609963548	1
221.93654783638587	415.19902794653706	1
176.6621899190567	281.58444714459296	1
135.8048425302474	347.8396111786148	1
436.1615584696021	528.9370595382746	1
489.1656848118412	493.6009720534629	1
564.2548637966798	589.6709599027946	1
559.3380853625114	234.92598861363288	1
522.6309003913448	144.73118941375597	1
486.9724921336402	285.26727188798276	1
354.82662623744073	33.56085551623327	1
543.6064346605829	33.56085551623327	1
293.9975768566505	391.193722111094	1
144.0225068315987	89.14602246499462	1
259.38794531240774	211.85290044622252	1
167.0955945277605	280.0233882135713	1
142.97373011813679	187.73103554392983	1
101.02266157966076	202.4139098322819	1
116.75431228158928	73.41437144176028	1
416.70445233169283	497.1201723342053	1
439.7775400278547	528.583474380674	1
400.9728016297643	347.1450992460379	1
253.09528503163637	347.1450992460379	1
362.168063231674	478.24219110632407	1
316.02188783935037	452.0227727342668	1
281.4122562951077	441.5350053854439	1
