482.54016901906124	143.5528554070474	1
521.1890111436105	164.53365735115432	1
516.7720006150906	199.86974483596597	1
575.2973901179796	298.1482381530984	1
514.5634953508306	417.40753341433776	1
551.00383221112	435.07557715674363	1
427.3275374125622	315.81628189550423	1
447.20408479090185	350.04811664641556	1
457.14235848007166	311.39927095990276	1
468.1848848013715	276.06318347509114	1
350.0298531634636	132.51032806804375	1
337.8830742100338	96.06998784933171	1
343.4043373706837	43.06585662211422	1
378.74042159884306	29.814823815309843	1
425.11903214830227	40.857351154313484	1
429.5360426768222	13.251032806804375	1
462.6636216407216	86.13171324422844	1
338.9873268421638	16.56379100850547	1
288.1917057641847	14.355285540704738	1
293.71296892483457	90.54872417982989	1
252.85562153602532	27.606318347509113	1
221.93654783638587	33.12758201701094	1
258.37688469667523	114.8422843256379	1
352.23835842772354	224.163304981774	1
357.7596215883735	270.5419198055893	1
334.57031631364384	327.9630619684083	1
314.6937689353042	417.40753341433776	1
472.6018953298914	437.28408262454434	1
506.8337269259208	601.8177399756987	1
592.9654322320592	522.3115431348724	1
384.261684759493	226.37181044957472	1
227.171875	10.0	1
178.171875	37.0	1
147.171875	56.0	1
237.171875	104.0	1
145.171875	127.0	1
334.171875	330.0	1
516.171875	418.0	1
514.171875	357.0	1
469.171875	273.0	1
479.171875	144.0	1
508.171875	599.0	1
471.171875	436.0	1
416.171875	269.0	1
434.8751147906924	43.05426883108063	1
384.8766123677258	52.776200502614955	1
344.60004097144713	43.05426883108063	1
372.37698676198414	104.16355362358216	1
333.4892626552323	91.6639271887523	1
380.7100704991452	218.04903891869864	1
401.542779842048	269.43639203966586	1
316.8230951809101	184.71670175915236	1
291.82384396942683	170.82822794267474	1
223.77032678261114	30.554642396250767	1
184.88260267585932	68.05352170074035	1
162.66104604342974	44.44311621272839	1
150.16142043768807	58.331590029206005	1
202.9376174397084	177.77246485091354	1
218.21493762450373	145.82897507301502	1
201.54877015018153	116.66318005841201	1
359.8773611562425	268.04754465801807	1
457.096671423122	270.8252394213136	1
225.159174072138	54.16504788426272	1
229.32571594071854	9.721931671534334	1
333.4892626552323	327.76798206887185	1
427.93087834305817	313.8795082523942	1
452.93012955454145	311.1018134890987	1
476.5405334764979	330.5456768321674	1
486.26246450318587	429.1538409291585	1
469.59629702886366	438.8757726006928	1
483.48476992413214	486.09658357671674	1
511.26171571466915	499.9850573931943	1
315.4342478913833	419.4319092576241	1
408.48701628968223	213.88249677375535	1
593.2037057967533	522.2066154995586	1
570.9821491643237	349.989540175236	1
482.0959226346053	148.6066698363105	1
515.3125	424.0	1
463.3125	437.0	1
478.3125	492.0	1
551.3125	430.0	1
611.3125	503.0	1
524.3125	519.0	1
506.3125	599.0	1
495.3125	555.0	1
599.3125	524.0	1
465.3125	571.0	1
356.3125	360.0	1
335.3125	333.0	1
298.3125	463.0	1
277.3125	446.0	1
273.3125	352.0	1
445.3125	341.0	1
470.3125	274.0	1
576.3125	289.0	1
580.3125	345.0	1
522.3125	354.0	1
429.3125	219.0	1
376.3125	222.0	1
353.3125	225.0	1
340.3125	119.0	1
349.3125	41.0	1
436.3125	40.0	1
146.3125	56.0	1
224.3125	8.0	1
185.3125	70.0	1
150.3125	131.0	1
292.3125	89.0	1
259.3125	123.0	1
285.3125	172.0	1
267.3125	210.0	1
156.3125	262.0	1
136.3125	245.0	1
212.3125	117.0	1
201.3125	172.0	1
423.3125	318.0	1
355.3125	267.0	1
89.42623198078823	7.729769137302552	1
192.1217267688764	8.834021871202916	1
228.56206362916575	5.521263669501822	1
165.61966359775687	47.48286755771567	1
112.61553725551782	51.89987849331713	1
149.05587411580717	58.52539489671932	1
226.35355836490578	60.733900364520046	1
221.93654783638587	29.814823815309843	1
280.4619373392748	18.772296476306195	1
255.0641268002853	29.814823815309843	1
342.3000847385537	45.274362089914945	1
379.84467423097306	51.89987849331713	1
350.0298531634636	132.51032806804375	1
340.0915794742938	97.17424058323208	1
288.1917057641847	93.86148238153099	1
252.85562153602532	103.79975698663426	1
217.51953730786596	122.57205346294046	1
577.5058953822396	289.3142162818955	1
562.0463585324198	261.7078979343864	1
491.37419007610106	259.4993924665857	1
584.1314111750195	245.14410692588092	1
409.6594952984825	213.12077764277035	1
481.43591638693124	147.96986634264886	1
467.08063216924154	276.06318347509114	1
359.9681268526334	262.81215066828673	1
411.8680005627425	270.5419198055893	1
441.68282163025196	251.76962332928312	1
421.8062742519123	228.58031591737546	1
319.11077946382414	185.51445929526125	1
287.0874531320547	172.26342648845687	1
276.04492681075493	210.91227217496962	1
202.06000045804623	175.57618469015796	1
183.28770571183657	68.4636695018226	1
91.63473724504819	106.008262454435	1
261.6896425930652	186.6187120291616	1
341.1958321064238	221.95479951397326	1
378.74042159884306	220.8505467800729	1
501.31246376527093	225.26755771567437	1
573.0888848537196	343.42260024301333	1
514.5634953508306	359.98639125151885	1
426.22328478043227	320.2332928311057	1
330.15330578512396	330.171567436209	1
515.6677479829607	416.3032806804374	1
547.69107431473	430.65856622114217	1
589.6526743356693	451.6393681652491	1
606.216463817619	506.8520048602673	1
165.61966359775687	197.66123936816524	1
147.9516214836772	172.26342648845687	1
149.05587411580717	131.40607533414337	1
117.03254778403773	138.03159173754557	1
214.20677941147602	286.0014580801944	1
249.54286363963539	290.4184690157959	1
288.1917057641847	303.66950182260024	1
271.627916282235	353.3608748481166	1
186.6004636082265	249.5611178614824	1
231.8748215255557	232.99732685297693	1
152.3686320121971	263.91640340218714	1
129.17932673746753	241.83134872417983	1
112.61553725551782	182.20170109356013	1
359.9681268526334	358.88213851761844	1
481.43591638693124	355.5693803159174	1
510.14648482231075	599.6092345078979	1
553.21233747538	600.7134872417982	1
527.8145269363904	556.5433778857837	1
527.8145269363904	520.1030376670717	1
512.3549900865708	490.28821385176184	1
473.7061479620214	506.8520048602673	1
485.8529269154512	558.7518833535844	1
463.7678742728516	580.8369380315918	1
431.74454794108215	457.1606318347509	1
398.61696897718275	470.41166464155526	1
404.13823213783263	427.34580801944105	1
341.1958321064238	430.65856622114217	1
356.6553689562435	484.76695018226	1
257.27263206454523	406.3650060753341	1
367.6978952775433	505.74775212636695	1
349.234375	139.0	1
240.234375	64.0	1
333.234375	49.0	1
269.234375	216.0	1
338.234375	327.0	1
424.234375	316.0	1
426.234375	454.0	1
474.234375	487.0	1
270.234375	355.0	1
198.234375	172.0	1
213.234375	122.0	1
333.234375	99.0	1
384.234375	223.0	1
363.234375	269.0	1
268.234375	442.0	1
300.234375	311.0	1
244.234375	233.0	1
441.234375	346.0	1
313.234375	422.0	1
345.234375	437.0	1
354.234375	357.0	1
469.234375	278.0	1
408.234375	276.0	1
355.234375	223.0	1
347.05171703553907	129.53778689017508	1
339.89732904012624	47.26232539781429	1
232.58150910893343	10.297987625884073	1
223.04232511504964	34.14594747874227	1
231.38911110969795	57.993907331600475	1
387.5932490095453	223.73722830896497	1
357.78329902865835	267.8559540367527	1
419.7879949889031	319.1290677203978	1
460.3295269629093	316.74427173511197	1
469.8687109567931	279.77993396318175	1
577.1845308879859	294.08870987489667	1
430.5195769820224	46.06992740517138	1
285.04702107529437	92.57344911824487	1
287.43181707376533	21.029569559670264	1
332.7429410447134	329.860649654184	1
444.8283529728481	351.32381352175634	1
513.9874369285056	426.4448870582597	1
546.1821829078635	430.0220810361884	1
485.36988494685426	432.40687702147426	1
465.09911895985124	434.79167300676005	1
527.1038149200959	520.6443284770496	1
504.4482529346219	601.7273919767675	1
317.2417670546522	421.6752950876881	1
364.93768702407124	102.11263305938814	1
429.3271789827869	11.490385618526982	1
365.3143933720597	105.92645022311126	1
261.48549873933155	122.70687798122789	1
357.9729563778264	268.48684412986614	1
330.704761827817	330.3646714879212	1
420.89955918554045	315.6817971995692	1
478.582278425945	146.82874288352056	1
336.9974221085884	17.829204492998922	1
502.7041428355687	594.6564086782582	1
344.3388591028217	353.4377596553316	1
352.7290728105169	218.14556085551624	1
348.5339659566693	123.75565471611017	1
289.80247000280286	92.29235266964149	1
218.48565348739362	29.36574857670411	1
181.77846851622712	69.21926450223111	1
549.8990949413542	435.2423449761502	1
