180.0337249033921	66.89448159095475	1
209.37340681018955	93.88699170660315	1
226.97721595426802	29.339684908313487	1
270.39994517632823	57.50578242029443	1
239.88667599325888	70.41524377995236	1
202.33188315255816	126.74743880391426	1
182.38089945593592	183.07963382787614	1
229.32439050681182	147.87201193789997	1
461.69467120864755	51.637845438631736	1
555.5816533103994	58.67936981662697	1
457.00032210355994	158.4342985048928	1
408.88324377641214	171.34375986455075	1
356.07181634417674	159.60788590122536	1
377.1963873170709	259.3628145894912	1
390.1058473560618	305.1327230464602	1
280.9622306627753	305.1327230464602	1
263.35842151869684	383.7630786007404	1
546.1929551002241	226.5023674921801	1
596.6572079799158	211.2457313398571	1
512.1589240883392	197.16268258386663	1
464.0418457611913	312.1742474244555	1
525.06838412733	389.6310155824031	1
461.69467120864755	415.44993830171893	1
487.51359128662926	368.5064424484174	1
541.4986059951366	350.9026315034293	1
588.4420970460125	300.4383734611301	1
548.540129652768	436.57451143570466	1
526.241971403602	474.12930811834593	1
444.0908620645691	485.8651820816713	1
444.0908620645691	443.6160358136999	1
383.0643236984304	481.1708324963412	1
418.2719419865873	526.9407409533102	1
411.2304183289559	552.7596636726261	1
478.1248930764541	537.503027520303	1
508.6381622595234	605.5710965075904	1
452.3059729984724	557.4540132579563	1
550.8873042053118	564.4955376359515	1
610.7402552951785	544.5445518982983	1
609.5666680189066	609.0918586965879	1
318.517023503476	462.39343415502054	1
457.94473096443835	162.92493068417656	1
510.41024293079926	199.88926845610678	1
540.2201929116861	227.31442228689372	1
586.7237148818697	301.24309783075415	1
554.5289689025119	276.202739985253	1
599.84009287346	208.23605440460716	1
552.1441729040409	61.571101309529205	1
459.13712896367383	55.609111346314656	1
375.6692690171905	261.8939640735381	1
394.7476370049581	303.62789381603994	1
462.7143229613802	310.78228177189743	1
535.4506009147442	351.32381352175634	1
521.1418249239185	393.0577432642582	1
457.94473096443835	412.13611114654475	1
384.01605501183883	480.10279672719065	1
437.6739649774352	487.25718468304814	1
312.4721750577103	470.5636127860474	1
506.8330489330928	600.5349939841245	1
417.40319899043214	530.1835124181929	1
406.6716169973128	548.0694823078366	1
277.8926330798815	308.3974857866116	1
298.1633990668846	331.0530476468269	1
400.7096270011355	166.5021246621053	1
412.6336069934903	248.7775861544661	1
200.3867631295756	86.61145915503032	1
198.00196713110464	134.30737886074672	1
184.8855891395144	177.23370659589148	1
232.58150910893343	149.80855276510457	1
234.96630510740437	68.72548926538667	1
218.2727331181077	29.376355508170633	1
180.1159971425725	67.53309127274376	1
307.7025830607684	53.224315361028836	1
277.8926330798815	137.88457283867547	1
358.97569702789383	162.92493068417656	1
606.9944808688728	551.6466762857652	1
480.6002929499124	538.5302983666933	1
485.36988494685426	371.59457939668584	1
609.3792768673437	617.2285658811253	1
267.1610510867622	60.378703316886295	1
153.88324115939204	11.490385618526982	1
556.9137649009829	11.490385618526982	1
467.7248256203918	310.1690517862658	1
398.9543085194637	310.1690517862658	1
375.09514952526416	262.4507361268403	1
536.49534272132	352.2734479563471	1
540.7057825438258	296.1342530629054	1
521.057063372132	392.97436425409245	1
484.56658491041503	373.3256460413878	1
453.69002621203913	421.0439617008133	1
445.2691465670275	449.1135591475342	1
443.86566662619225	489.8144754452795	1
412.9891079278164	527.7084319983527	1
384.91950911111104	488.4109955729435	1
417.19954775032215	405.60568310511684	1
334.3942312410414	273.67857510552864	1
415.7960678094869	249.8194172758159	1
398.9543085194637	171.22454442499742	1
460.70742591621547	159.99670544630908	1
568.775381360531	115.08534953155565	1
554.7405819521783	140.34798723360444	1
558.9510217746841	63.156594255122	1
362.46383005774675	98.24359106352311	1
268.43067402178383	56.139194893441775	1
243.16803508674903	71.57747348913827	1
227.72975573756108	32.28003706372902	1
184.2218775716678	65.96355399979409	1
206.67755662503208	92.62967157417893	1
201.063636861691	134.73406774426027	1
233.34367550090215	155.78626582930093	1
307.72811236517134	53.33223514876969	1
514.0396636679557	199.2941418717183	1
588.4241005322248	304.5551322969216	1
557.5475418338489	460.3413981262226	1
522.4605433129673	475.7796767219191	1
508.42574390461454	606.3033048491712	1
601.0554199997422	616.1276639555235	1
362.46383005774675	371.92216616905176	1
297.90375277932446	336.83516936065064	1
271.23763390345437	310.1690517862658	1
279.658513548466	134.73406774426024	1
313.3420321285124	398.5882837434366	1
299.30723272015973	380.34304540306806	1
267.02719408094856	385.9569648924122	1
478.95266514707396	543.1467105940492	1
182.42443346274368	180.33711876180578	1
199.41399590060783	131.4921273301186	1
230.20757781923663	150.60538484686575	1
313.0316947038244	464.9122862333746	1
298.1658275706933	333.24317889578305	1
376.74255384581505	254.66645354915582	1
391.6084209789462	302.4495973410237	1
382.0517921076476	481.9018484704831	1
419.21645994047543	527.5612969827124	1
503.10242447742974	599.766936490424	1
480.80362377773304	538.1797733809053	1
609.2871897140808	547.7364021392789	1
603.9779514522482	610.3854128886168	1
447.88634655437124	485.087391389941	1
557.2566547481218	458.5412003944588	1
545.5763305720902	437.3042475980731	1
466.9996042969684	310.944378459578	1
540.2670923102576	349.1708934930723	1
525.4012251771264	392.70664672566306	1
275.8670268709966	134.67767024957647	1
219.58910129557154	24.245515708370657	1
310.9079993990914	48.66801142421425	1
400.10320219787826	167.59494708397435	1
459.56667073040285	159.10016596542005	1
514.7827486534613	197.32668099891436	1
545.5763305720902	228.12026255367365	1
455.3192801209368	258.91384410843295	1
550.8855688339228	58.22464018258783	1
585.9265413620176	302.4495973410237	1
597.6068655380492	418.19099008132594	1
344.8871242748197	192.01744279981793	1
357.6292961032179	152.72908012650433	1
551.9474164862893	271.6560157862644	1
459.56667073040285	413.9435995220488	1
219.171875	27.0	1
265.171875	11.0	1
554.171875	12.0	1
178.171875	67.0	1
204.171875	87.0	1
201.171875	135.0	1
414.171875	116.0	1
364.171875	95.0	1
356.171875	119.0	1
358.171875	164.0	1
246.171875	284.0	1
321.171875	279.0	1
345.171875	204.0	1
373.171875	261.0	1
399.171875	311.0	1
278.171875	309.0	1
316.171875	404.0	1
374.171875	360.0	1
315.171875	467.0	1
445.171875	442.0	1
481.171875	373.0	1
531.171875	471.0	1
550.171875	446.0	1
535.171875	289.0	1
538.171875	354.0	1
460.171875	164.0	1
410.171875	168.0	1
467.171875	314.0	1
387.171875	481.0	1
421.171875	529.0	1
442.171875	486.0	1
462.171875	414.0	1
527.171875	385.0	1
515.171875	197.0	1
557.171875	128.0	1
302.171875	97.0	1
246.171875	70.0	1
310.171875	50.0	1
232.171875	147.0	1
411.46056876438337	525.4371441760271	1
478.582278425945	541.1687951992615	1
507.9480264028782	600.949069087552	1
445.02142359516415	486.6324049853824	1
386.2899276412977	485.5836282505001	1
240.50996447009354	60.8290506231728	1
310.7780042720409	290.5111555623942	1
280.3634795816458	307.2915833205109	1
394.68014134899295	304.145253115864	1
374.7533837932168	264.291737190337	1
411.46056876438337	251.70641637174953	1
264.63182887971726	271.633174334513	1
239.46118775663166	284.2184951531005	1
458.65552087016886	413.21803354362214	1
437.6799866009309	441.5350053854439	1
484.8749387067164	371.26696414833054	1
526.8260072451924	389.0961686413295	1
541.508881233659	351.340206185567	1
551.996648368278	62.92660409293738	1
558.2893086490494	7.3414371441760276	1
306.5828974181933	52.43883674411448	1
526.8260072451924	461.46176334820746	1
356.92417966436454	158.36528696722573	1
461.80185101055457	314.63302046468687	1
385.24115092783586	367.07185720880136	1
224.77831376816505	25.170641637174953	1
181.77846851622712	69.21926450223111	1
508.9968031163401	199.26757962763503	1
408.31423862399765	407.9741498692107	1
384.3125	483.0	1
445.3125	485.0	1
418.3125	527.0	1
477.3125	540.0	1
549.3125	438.0	1
527.3125	475.0	1
460.3125	414.0	1
439.3125	441.0	1
527.3125	391.0	1
489.3125	376.0	1
540.3125	358.0	1
535.3125	294.0	1
501.3125	303.0	1
463.3125	316.0	1
377.3125	362.0	1
323.3125	294.0	1
276.3125	312.0	1
310.3125	100.0	1
242.3125	71.0	1
206.3125	87.0	1
307.3125	51.0	1
365.3125	95.0	1
565.3125	11.0	1
554.3125	141.0	1
516.3125	201.0	1
462.3125	159.0	1
355.3125	160.0	1
401.3125	173.0	1
375.3125	260.0	1
391.3125	304.0	1
553.3125	273.0	1
585.3125	303.0	1
414.3125	409.0	1
507.3125	600.0	1
346.3125	197.0	1
276.3125	138.0	1
460.3125	54.0	1
554.3125	70.0	1
195.3125	136.0	1
187.3125	185.0	1
464.234375	314.0	1
398.234375	313.0	1
319.234375	300.0	1
283.234375	313.0	1
240.234375	203.0	1
178.234375	65.0	1
218.234375	25.0	1
199.234375	138.0	1
237.234375	156.0	1
179.234375	218.0	1
269.234375	278.0	1
236.234375	283.0	1
332.234375	269.0	1
384.234375	262.0	1
317.234375	462.0	1
395.234375	491.0	1
356.234375	534.0	1
416.234375	525.0	1
413.234375	561.0	1
508.234375	605.0	1
481.234375	543.0	1
446.234375	491.0	1
433.234375	441.0	1
457.234375	413.0	1
474.234375	376.0	1
504.234375	299.0	1
402.234375	292.0	1
409.234375	253.0	1
517.234375	385.0	1
535.234375	353.0	1
532.234375	482.0	1
547.234375	438.0	1
587.234375	301.0	1
456.234375	259.0	1
539.234375	289.0	1
351.234375	501.0	1
505.234375	200.0	1
548.234375	228.0	1
569.234375	126.0	1
551.234375	69.0	1
459.234375	45.0	1
398.234375	170.0	1
419.234375	214.0	1
347.234375	126.0	1
361.234375	165.0	1
284.234375	141.0	1
266.234375	66.0	1
239.234375	70.0	1
361.234375	92.0	1
418.234375	114.0	1
454.234375	164.0	1
305.234375	98.0	1
456.234375	565.0	1
259.234375	378.0	1
233.234375	355.0	1
227.234375	381.0	1
548.234375	144.0	1
593.234375	210.0	1
355.234375	370.0	1
514.234375	465.0	1
185.234375	187.0	1
