142.4789320626914	65.7208941946222	1
168.29785214067314	136.13613797457458	1
224.6300414017242	215.94008092518726	1
300.91321435939756	132.61537578557696	1
302.0868016356695	203.03061956552932	1
277.4414688339596	241.7590036445031	1
223.45645412545232	266.4043389674864	1
276.2678815576877	352.07621889976184	1
297.39245253058186	423.6650500760467	1
318.517023503476	463.5670215513531	1
373.6756254882552	332.12523316210866	1
400.66813284250884	296.9176112721325	1
392.4530219086056	225.32878009584758	1
581.4005733883811	65.7208941946222	1
572.011875178206	140.83048755990473	1
486.3400040103574	383.7630786007404	1
459.3474966561038	410.7555887163888	1
500.4230513256202	434.22733664303956	1
410.05683105268406	484.69159468533877	1
548.540129652768	503.4689930266594	1
546.1929551002241	543.3709645019658	1
380.7171491458866	517.5520417826499	1
602.5251443612752	528.1143283496427	1
380.97268159042494	514.85954085411	1
415.7453269552675	480.0868921254011	1
438.1792917067788	502.52085904714886	1
469.5868423588947	550.7538879289065	1
539.1321330885798	540.65860281412	1
544.7406242764577	507.0076524314984	1
321.52267499891985	458.7746235497408	1
303.5755031977108	421.75857812885704	1
498.75099653585943	432.97556158973094	1
403.40664634193627	300.6151567514194	1
303.5755031977108	335.38780548012835	1
266.5594613577171	344.3613922488274	1
302.45380496013524	204.1490989879042	1
170.09341292621835	140.21229326092322	1
109.52170809713773	192.93211552703036	1
143.17265522440474	61.693409034806216	1
364.1472080267914	179.47173537398172	1
356.29532036376247	150.3075783757097	1
479.6821264970748	385.8642310540607	1
598.5821396800849	522.7114292767218	1
300.2104084849841	130.11700814613675	1
379.87970583474606	327.09038533229403	1
543.4249055426392	543.3026739417766	1
415.915088821231	486.47764937133564	1
318.8967500114639	468.45995865387874	1
299.49308224951045	422.72274375571897	1
138.71983507903929	56.82502457044092	1
169.21131299068037	139.98359711254957	1
220.49243493298582	220.37021723658793	1
596.0920037536556	525.2849832243197	1
484.139358980505	376.33014483791095	1
503.73607377159743	432.10509256242915	1
377.111147429154	328.0923522113006	1
140.44313033673006	64.29192378452531	1
360.5293118366912	154.73778495941968	1
307.7689258606731	127.60402660695138	1
245.96390228876623	19.068993197078118	1
227.8746270969886	218.04988778184577	1
227.8746270969886	267.79511142803767	1
271.59037547711785	353.71867954418735	1
541.4220637544676	545.1624190310471	1
548.9592617510415	507.47664354150766	1
598.70476852843	528.5806778156498	1
416.3045770113389	486.37260926736576	1
372.58882863120965	444.1645407190817	1
274.60525467574746	246.69107715389563	1
301.73916746341393	195.43842248812217	1
574.5857349393932	135.14118170485924	1
166.0696035250817	132.1263196656961	1
407.2599394154501	297.94373181966915	1
461.527764990783	411.0010582882871	1
446.453368997635	505.9692125219262	1
221.171875	262.0	1
139.171875	62.0	1
167.171875	139.0	1
498.171875	437.0	1
541.171875	542.0	1
600.171875	527.0	1
381.171875	513.0	1
299.171875	420.0	1
321.171875	468.0	1
371.171875	330.0	1
225.171875	220.0	1
268.171875	353.0	1
248.171875	399.0	1
414.171875	484.0	1
555.171875	608.0	1
398.171875	303.0	1
143.53461095515726	56.31688942891859	1
168.9324214941468	133.6145808019441	1
298.1299794533545	129.19756986634266	1
226.35355836490578	216.43353584447144	1
299.2342320854845	207.59951397326853	1
401.9297268735727	299.25249088699877	1
371.01065317393324	329.06731470230864	1
273.83642154649493	249.5611178614824	1
584.1314111750195	60.733900364520046	1
499.10395850101094	432.8670716889429	1
547.69107431473	506.8520048602673	1
537.7528006255602	542.188092345079	1
595.1739374963192	524.5200486026731	1
412.97225319487245	484.76695018226	1
318.00652683169415	463.7861482381531	1
260.5853899609352	351.1523693803159	1
486.9571795475812	383.1756986634265	1
596.921875	526.0	1
537.921875	543.0	1
552.921875	507.0	1
555.921875	602.0	1
469.921875	554.0	1
385.921875	516.0	1
316.921875	468.0	1
442.921875	421.0	1
501.921875	441.0	1
375.921875	332.0	1
408.921875	301.0	1
390.921875	261.0	1
299.921875	422.0	1
271.921875	356.0	1
279.921875	252.0	1
292.921875	198.0	1
309.921875	133.0	1
222.921875	266.0	1
230.921875	219.0	1
415.921875	488.0	1
448.921875	511.0	1
484.921875	391.0	1
311.921875	338.0	1
169.921875	143.0	1
138.921875	64.0	1
587.921875	64.0	1
569.921875	145.0	1
392.921875	220.0	1
367.921875	174.0	1
252.921875	390.0	1
245.921875	406.0	1
458.921875	408.0	1
377.8997139336025	328.2671180181567	1
378.94849064706443	510.75426988767504	1
500.6065894086449	432.09601477150335	1
543.6064346605829	542.2175719341437	1
305.5341207047314	122.70687798122789	1
301.33901385088376	421.60824742268045	1
254.14406174509824	400.63271272503465	1
169.1931479546843	139.48730573934452	1
137.7298465508273	62.92660409293738	1
150.3151671123701	8.390213879058317	1
