468.171875	86.0	1
598.171875	26.0	1
587.171875	97.0	1
576.171875	181.0	1
593.171875	257.0	1
528.171875	259.0	1
466.171875	324.0	1
267.171875	162.0	1
391.171875	163.0	1
380.171875	191.0	1
339.171875	330.0	1
306.171875	348.0	1
528.171875	428.0	1
606.171875	470.0	1
564.171875	591.0	1
338.171875	271.0	1
396.77769477591676	156.26773349746117	1
471.24084143171166	77.60947838128943	1
329.6559851143551	270.58439759963073	1
384.19237421437396	188.77981227881213	1
475.4359482855593	124.80443145099247	1
576.1185127779017	99.63378981381751	1
590.8013867663684	253.8039698415141	1
528.9235606721162	253.8039698415141	1
500.6065894086449	262.1941837205724	1
542.5576579471209	291.55993229727653	1
575.0697360644399	313.5842437298046	1
602.3379306144493	470.90075396214803	1
474.3871715720974	418.4619172180336	1
450.2653071624737	424.7545776273273	1
418.80200575861664	425.8033543622096	1
459.70429758363076	320.92568087398064	1
270.9244891604887	156.26773349746117	1
368.46072351244544	125.85320818587476	1
312.8755576989647	173.04816125557778	1
206.94910963931272	149.97507308816742	1
381.55168248445585	196.89937409725565	1
494.06560356962336	270.03342733337917	1
530.6326279223027	258.78203452782174	1
460.3114272440731	317.8518467569984	1
478.5949394204128	419.1143820070156	1
449.06003513555646	421.9272302084051	1
423.7444028913937	433.17862301396246	1
568.6060762885468	485.21631473966573	1
599.5474045869679	471.15207373271886	1
541.8840200308196	289.72336474310475	1
592.5152845191449	260.1884586285164	1
477.18851540684824	127.98459316321618	1
309.82405779266156	351.6060251736708	1
339.358962077518	270.03342733337917	1
322.4818739147429	172.99016438544604	1
273.25703343998214	156.11307517710983	1
207.15510480244623	153.30022697572048	1
363.2681703081161	120.95247265974275	1
582.6703164241927	102.66895935071187	1
605.1731006412263	64.69550863195543	1
562.9803802342884	29.53490611458835	1
444.84076309486255	21.096361510420248	1
533.4454759494321	430.36577481257314	1
594.1824497304856	255.73566327138508	1
494.69143617570865	260.2579563301298	1
539.9146241551528	285.88428366301656	1
585.1378121345967	106.49999233280936	1
600.2122081277448	23.591286255822837	1
503.73607377159743	11.531838099170253	1
472.0798421859866	82.38109601950418	1
392.1855434223021	159.26007801816442	1
377.111147429154	204.4830086056116	1
319.82844265519157	180.36411229230643	1
270.08293587780304	159.26007801816442	1
209.78535190521097	147.20062986151183	1
340.93259704559875	332.6146452700453	1
337.9177178469692	264.7802493888745	1
466.05008378872736	319.04776609381116	1
476.602160983931	417.0307823666134	1
455.4980065935238	418.53821338619497	1
420.8268958092833	433.6125235820107	1
533.8848657578935	549.6847120897918	1
562.5262181448747	484.8651782477842	1
603.2270873263744	465.26857499322375	1
527.8551073606343	427.5827995036844	1
601.7196477270596	62.784492764943735	1
469.064962987357	132.1263196656961	1
318.32100305587676	347.68895546586106	1
319.82844265519157	392.91188605330825	1
399.72274141887607	382.35986891623725	1
571.5708557407636	597.9225047164022	1
529.3625469599491	251.21337021264037	1
368.06650983326523	123.08173354820666	1
559.5113389462451	23.591286255822837	1
604.0331024900461	26.612525378728723	1
469.9059777589754	81.96657816648447	1
478.4219856784084	126.67562080274871	1
576.3560767518886	174.5781664844604	1
584.8720846713217	104.3210994846166	1
600.8395995202586	72.38606903014212	1
596.5815955605422	261.8672497266906	1
497.58300349713284	267.18975480243637	1
465.64797379925886	318.2858035295955	1
538.0340411144398	431.1229111354053	1
546.5500490338729	286.350773075121	1
531.6470351748651	258.6737466812432	1
608.2911064497625	474.7674527565204	1
451.80946093018014	418.3488989536155	1
420.9389322222353	430.05841012025616	1
480.5509876582667	414.0908948930189	1
565.7110668525972	590.7980634077776	1
567.8400688324556	476.8964547868187	1
314.4888332293221	349.1563329689208	1
209.103235226338	145.8366390754334	1
267.6507896724403	157.54615024207402	1
317.6823361991095	176.7071685147587	1
363.45587876606214	121.35311572700297	1
397.5199104437944	162.8686553178198	1
383.6813975747157	192.67468374199595	1
336.84335401783386	268.25425581758554	1
343.23035995740867	329.99531469623616	1
189.9422174076136	110.70810557551148	1
159.07168869966878	93.6760893331251	1
191.00671839754276	78.77307512103701	1
562.5175638828099	23.419022333281276	1
508.22801339642416	20.22551928783383	1
205.37275835443617	153.49113001215068	1
271.627916282235	154.59538274605103	1
315.7980215674342	172.26342648845687	1
365.4893900132833	125.88481166464156	1
379.84467423097306	192.13997569866342	1
399.7212216093127	161.22089914945323	1
480.3316637548013	125.88481166464156	1
471.4976426977614	80.61044957472662	1
558.7336006360299	22.08505467800729	1
607.320716449749	27.606318347509113	1
605.1122111854891	66.25516403402187	1
583.0271585428894	101.59125151883353	1
590.7569269677994	253.97812879708383	1
542.1698111540802	289.3142162818955	1
496.895453236751	258.3951397326853	1
465.97637953711154	318.024787363305	1
330.15330578512396	268.33341433778855	1
338.9873268421638	329.06731470230864	1
313.58951630317426	347.8396111786148	1
414.07650582700245	426.2415552855407	1
536.6485479934303	429.5543134872418	1
564.2548637966798	483.66269744835967	1
601.7994532890991	469.3074119076549	1
539.9613058898202	546.6051032806804	1
569.7761269573297	600.7134872417982	1
449.41259005516184	425.13730255164035	1
474.81040059415136	416.3032806804374	1
217.51953730786596	236.310085054678	1
532.2315374649104	257.2908869987849	1
459.234375	318.0	1
396.234375	386.0	1
419.234375	431.0	1
455.234375	425.0	1
483.234375	418.0	1
538.234375	438.0	1
568.234375	482.0	1
499.234375	265.0	1
531.234375	259.0	1
541.234375	294.0	1
588.234375	253.0	1
594.234375	473.0	1
592.234375	530.0	1
538.234375	551.0	1
577.234375	607.0	1
346.234375	329.0	1
317.234375	349.0	1
274.234375	165.0	1
205.234375	151.0	1
317.234375	175.0	1
347.234375	210.0	1
471.234375	80.0	1
474.234375	127.0	1
421.234375	173.0	1
387.234375	159.0	1
386.234375	199.0	1
347.234375	428.0	1
433.234375	529.0	1
583.234375	372.0	1
576.234375	318.0	1
332.234375	269.0	1
367.234375	125.0	1
446.234375	26.0	1
499.32754056445026	262.65815742673857	1
544.313573858307	286.7200439587035	1
592.4381676145258	256.38114354883464	1
528.6207715464965	257.4273125284853	1
412.4940344390989	170.5952872174813	1
380.0622429946906	194.6571737494463	1
394.70885848571373	162.2259353802761	1
478.40380414870293	129.79469701110594	1
583.0224862274395	101.54813456053837	1
597.6691017184626	67.0245582320669	1
599.7614753600374	26.223968025691523	1
558.9601893493301	24.131630066390223	1
471.0804964031914	77.4862480285734	1
315.19866010587396	172.6876251767826	1
271.2588136328046	159.08742844132416	1
369.60037478681693	118.28683823494877	1
315.19866010587396	347.39784477844125	1
460.61862819531774	322.28978926682566	1
335.0762097008339	271.0275092639438	1
336.1223965216213	329.61297212438024	1
311.0139128227245	385.0599280458647	1
287.99780276540247	388.19843498481663	1
268.1202531704425	360.99804151389975	1
205.34904392320058	145.4872317058657	1
213.7185384894995	240.68860885407491	1
155.13207652540703	98.40962762158642	1
536.9902661127954	427.95285621154136	1
474.2190568655535	414.3526594760829	1
416.6787817222484	424.8143492725894	1
452.24913362901884	419.58350437433614	1
533.8517056504334	541.9852749934623	1
432.37158403405886	530.4774162173052	1
560.0063761701175	484.4459811126765	1
604.9924094639741	467.7072774382661	1
567.3296839156291	598.4783998945974	1
476.3114305071282	214.53438436280865	1
343.44570426713284	208.25737048490473	1
361.23088022051803	165.36444231922806	1
576.7453653027153	177.91847007503586	1
498.2813537436629	11.577602310582416	1
444.9258258835073	25.177799046040874	1
477.3576173279156	22.039292107088922	1
395.7550453065011	388.19843498481663	1
