578.6101480143695	278.27168894289184	1
532.2315374649104	268.33341433778855	1
485.8529269154512	230.7888213851762	1
426.22328478043227	200.97399756986633	1
385.365937391623	57.42114216281895	1
363.28088474902336	38.64884568651276	1
261.6896425930652	34.2318347509113	1
245.12585311111545	60.733900364520046	1
273.83642154649493	68.4636695018226	1
147.9516214836772	109.32102065613608	1
175.5579372869267	118.155042527339	1
28.692337213639306	132.51032806804375	1
97.1560004056981	244.03985419198057	1
87.21772671652826	196.5569866342649	1
259.48113732880523	230.7888213851762	1
302.54698998187445	270.5419198055893	1
280.4619373392748	321.33754556500605	1
292.6087162927046	343.42260024301333	1
478.1231584905413	304.7737545565006	1
464.87212690498154	327.9630619684083	1
505.7294742937908	337.9013365735115	1
551.00383221112	326.8588092345079	1
585.2356638071494	333.4843256379101	1
426.8677707408685	200.15811459567303	1
491.8872825407514	230.75553338736827	1
531.4089465759744	263.90273707837144	1
584.9544268817604	277.9265540245651	1
317.22702535283054	112.19053556954921	1
243.28326683531662	63.74462248269842	1
345.27465789395654	79.04333187854604	1
503.3613140348484	340.39628405760953	1
484.2379282113534	312.34865016522224	1
466.3894347760915	323.82268221210796	1
457.46518805846046	247.32913523286987	1
407.74438491737345	290.67547852110476	1
428.14266312910144	247.32913523286987	1
387.3461067056455	246.0542427832159	1
365.6729361056845	216.73171644117463	1
327.42616445869453	211.63214664255875	1
303.20320908226756	275.37676912525717	1
277.7053613176076	322.547789762454	1
295.5538547528696	353.14520855414924	1
270.0560069882096	290.67547852110476	1
248.38283638824853	290.67547852110476	1
254.75729832941363	226.93085603840638	1
29.101345612172814	133.8637072136667	1
588.7791040464593	331.47203691003176	1
560.7314715053334	331.47203691003176	1
494.4370673172174	444.937464929235	1
386.0712143174125	65.0195149323524	1
361.84825894098554	39.52166593927302	1
487.1483293870592	231.16262407885466	1
532.4594533580073	262.16497188757035	1
581.3477713266618	280.050941777214	1
507.4190953740623	337.2860454240737	1
553.9226173442459	332.51645345350204	1
587.3097613228392	336.0936474314308	1
425.14363342681446	245.47139999056958	1
476.41674739393994	305.0912996227151	1
408.45006143751783	284.82053374778565	1
402.4880714413404	239.50941002735505	1
260.59270953231885	28.454965329559954	1
252.2459235376705	227.58543010092595	1
267.7470975277317	296.7445136742147	1
279.67107752008644	324.16966750500166	1
296.3646495093831	355.17201531371734	1
301.134241506325	272.8965538213565	1
245.09153554225765	290.7825237110002	1
465.68516540082067	320.5924735270729	1
30.459895679872027	129.80879470420732	1
168.7780635911872	80.920477005848	1
154.4692876003615	63.03450711620434	1
241.51434154455123	61.842109123561436	1
361.9465394673343	34.4169552927745	1
388.17929545051476	57.072517152989796	1
456.14598140693687	476.79661056329417	1
435.87521541993374	457.7182426810076	1
497.8799113801785	443.4094667692927	1
344.0605694788021	243.08660400528376	1
345.2529674780376	183.46670437313827	1
426.33603142604994	198.96787827749608	1
148.50729760418412	108.34563083663492	1
272.5166895246736	154.84915254970844	1
260.59270953231885	386.17436312243296	1
474.031951395469	359.941607284289	1
121.08214362176818	68.9964970794189	1
35.229487676813925	167.96553046878043	1
214.0891875621353	331.32405546085914	1
382.09482078745015	63.97538082781967	1
488.0212688471021	225.48699799969228	1
536.2649976663495	262.1941837205724	1
580.3136196317494	274.77950453915986	1
256.2416151720221	225.48699799969228	1
305.5341207047314	269.53562086474847	1
505.8504729759544	333.51100169256813	1
363.2168399451359	34.609632251115556	1
264.63182887971726	33.56085551623327	1
25.510738210403918	137.38975226957993	1
270.9244891604887	289.46237882751194	1
242.60751789701735	289.46237882751194	1
295.0463535701124	350.29142945068475	1
277.21714944126006	325.12078781350976	1
339.0949755355122	240.16987228804433	1
456.5579674432451	470.90075396214803	1
348.234375	78.0	1
489.234375	313.0	1
465.234375	324.0	1
526.234375	271.0	1
491.234375	234.0	1
577.234375	286.0	1
462.234375	251.0	1
428.234375	199.0	1
429.234375	245.0	1
390.234375	245.0	1
390.234375	195.0	1
342.234375	241.0	1
357.234375	198.0	1
302.234375	265.0	1
268.234375	294.0	1
282.234375	326.0	1
288.234375	350.0	1
249.234375	347.0	1
332.234375	312.0	1
503.234375	345.0	1
597.234375	373.0	1
584.234375	332.0	1
548.234375	333.0	1
471.234375	366.0	1
368.234375	322.0	1
320.234375	207.0	1
255.234375	234.0	1
246.234375	62.0	1
274.234375	154.0	1
246.234375	293.0	1
369.234375	298.0	1
413.234375	335.0	1
437.234375	464.0	1
252.234375	140.0	1
175.234375	199.0	1
254.234375	193.0	1
346.234375	354.0	1
410.234375	284.0	1
474.234375	432.0	1
532.834158743692	263.1612346677101	1
491.42210030139813	229.18211019349295	1
426.649393507041	197.32668099891436	1
301.3513705277928	269.53232050662587	1
506.2879674345293	337.49056945506015	1
477.6180808206335	304.5732926206623	1
425.5875458546745	246.17167243060155	1
409.65983106917685	284.3981874640958	1
296.0421322659603	349.1708934930723	1
279.0525698280961	320.5010072179516	1
585.9265413620176	328.9957883365059	1
492.48394795376464	443.6753334369888	1
457.44297542566983	473.40706735192884	1
325.77386653222254	213.25439559620366	1
576.369912490719	276.96525398536085	1
612.4727326711803	447.922723996266	1
529.6486157865925	419.2528377211452	1
161.89374507338388	69.65255474452555	1
267.2505598335431	33.36298840704165	1
364.4129556679121	36.87488192357235	1
386.65494989505686	64.97003005581794	1
30.783042260741322	135.20790038643196	1
120.92165044443308	71.99381708887935	1
429.9683070742334	199.59261485616145	1
429.9683070742334	166.81494203520825	1
489.6705021049903	231.19965650493774	1
532.9838592841669	266.31859167024476	1
577.4678477384563	278.02490339201375	1
474.4522955285228	303.7787891799056	1
454.5515638516039	248.75912408759126	1
421.77388814844323	253.44164877629885	1
254.3736158073014	232.37028767711465	1
270.7624536588817	297.9256333190211	1
242.6673030561726	296.75500214684416	1
298.85760426159084	358.79845427221983	1
280.1275038597848	326.02078145126666	1
300.02823553670373	272.17174753112926	1
510.74186505702215	336.55646200085874	1
554.0552222361987	334.2151996565049	1
589.1741604895851	338.89772434521257	1
323.4408610389613	219.49334478316874	1
255.54424708241427	191.39819665092315	1
274.27434748422036	157.44989265779304	1
248.520459431737	145.74358093602405	1
316.41707338828405	117.64843280377845	1
343.34159271588027	84.87075998282525	1
146.67553849691643	114.13653928724774	1
177.11195164985133	121.16032632030915	1
243.83793433128548	66.14066122799485	1
273.10371620910746	73.16444826105625	1
411.23820667242734	287.38995276942893	1
362.0716931176864	223.00523829969944	1
386.65494989505686	248.75912408759126	1
463.91661405250693	324.85015027908975	1
404.2144190217501	240.56470588235294	1
459.2340889520554	390.40549592099615	1
458.0634576769425	478.20283383426363	1
205.20710225256045	253.44164877629885	1
234.47288413038245	382.2110777157578	1
349.1947490914447	382.2110777157578	1
359.7304305674606	424.3537999141262	1
472.1110329782971	431.37758694718764	1
572.7853226380048	390.40549592099615	1
473.28166425341	359.96908544439674	1
598.5392106904882	377.52855302705024	1
532.9838592841669	425.52443108630314	1
612.5867859918427	451.27831687419496	1
490.1691173777642	230.10933593849833	1
579.1080537373376	281.36199060427185	1
253.50110028534024	228.60190491891677	1
478.1096005832458	305.480886917577	1
512.7807113674862	346.18152444627947	1
271.59037547711785	285.88428366301656	1
294.2019694668399	356.7335415833505	1
319.82844265519157	106.49999233280936	1
539.9146241551528	258.75052531054826	1
586.6452517339116	329.59978323088217	1
592.6750101311708	376.33014483791095	1
163.0547243264521	76.35137194117789	1
390.6781038229873	58.26219970619901	1
283.6498922716363	317.5403350742296	1
273.09781507643265	154.73778495941968	1
426.85665420654254	195.43842248812217	1
458.5128857921534	246.69107715389563	1
345.4549158435432	245.18364613431407	1
405.7524998161353	243.67621511473249	1
371.08138903189484	186.39383637063273	1
307.7689258606731	261.7653873497114	1
343.94747624422837	77.85880296075946	1
