124.8796096793275	141.5618777117399	1
331.7065746587131	97.69101652566098	1
428.8525733611519	154.09640947919104	1
389.68079969081367	171.33139065943632	1
312.9041232969508	16.2165600372287	1
236.12744690308796	14.649743566297309	1
511.8967335422688	99.25783299659237	1
571.4378295211828	133.72779535708295	1
504.0623788082012	168.19775771757355	1
508.7629916486418	218.33588478737803	1
604.3421194042669	141.5618777117399	1
562.0366038403017	86.72330122914126	1
552.6353781594205	229.30360008389775	1
469.5912179783036	271.60764479904526	1
430.41944430796536	293.54307539208475	1
381.84644495674604	370.31708246772286	1
388.11392874400013	426.7224754212529	1
488.3936693400659	431.4229248340471	1
576.1384423616234	412.6211271828704	1
215.7581245945121	301.3771577467417	1
217.32499554132562	342.1143859909578	1
115.47838399844633	301.3771577467417	1
34.0010947641429	152.52959300825964	1
34.0010947641429	229.30360008389775	1
54.37041707271876	265.3403789153197	1
237.6943178499015	205.8013530199269	1
178.15322187098744	237.1376824385547	1
323.8722199246455	362.4830001130659	1
319.17160708420494	403.22022835728205	1
580.8390552020641	299.8103412758103	1
420.89955918554045	152.072626557932	1
127.24207941620828	140.53608247422682	1
238.41241104316975	202.4139098322819	1
217.43687677393174	334.5597784274504	1
213.24176992008412	298.9013694414526	1
153.4614972527558	321.9744576088629	1
382.09482078745015	367.07185720880136	1
395.72891806245485	423.70580089244504	1
578.2160662048256	416.364363748269	1
469.1432880047879	272.6819510693953	1
545.7039880875067	226.53577473457457	1
579.2648429182874	297.85259270657025	1
538.3625510932733	269.53562086474847	1
567.7282990702065	135.29219879981537	1
607.5818141817588	137.38975226957993	1
554.0942017952018	89.14602246499462	1
241.55874118355544	9.438990613940607	1
21.315631356556317	96.48745960917064	1
39.14483548540863	121.6581012463456	1
32.85217520463722	155.21895676257887	1
428.24099617977373	287.36482535774735	1
511.0943565432639	208.70657024157563	1
495.3627058413354	159.41406370210802	1
308.0682531425243	19.876549210206562	1
241.8130952147255	11.042527339003644	1
73.9666951309685	82.81895504252734	1
125.86656884107758	142.44860267314704	1
37.52635827067915	126.98906439854191	1
18.754063524469483	100.48699878493316	1
33.10934774215923	156.80388821385176	1
49.673137224108935	184.41020656136087	1
23.171074052989404	193.2442284325638	1
35.31785300641919	223.05905224787364	1
117.03254778403773	300.3567436208991	1
214.20677941147602	298.1482381530984	1
217.51953730786596	339.0055893074119	1
235.18757942194563	199.86974483596597	1
395.3042110807928	171.1591737545565	1
424.01477951617227	146.86561360874848	1
573.0888848537196	134.71883353584448	1
601.7994532890991	146.86561360874848	1
497.99970586888094	162.32515188335358	1
524.5017690400005	191.03572296476307	1
502.4167163974009	217.53778857837182	1
553.21233747538	226.37181044957472	1
536.6485479934303	273.8546780072904	1
585.2356638071494	300.3567436208991	1
471.4976426977614	272.75042527339	1
425.11903214830227	295.9397326852977	1
385.365937391623	366.611907654921	1
312.48526367104427	362.19489671931956	1
331.2575584172539	379.8629404617254	1
318.00652683169415	409.67776427703524	1
395.3042110807928	430.65856622114217	1
579.7144006464995	417.40753341433776	1
393.234375	435.0	1
339.234375	379.0	1
389.234375	370.0	1
463.234375	325.0	1
471.234375	280.0	1
552.234375	231.0	1
587.234375	307.0	1
570.234375	419.0	1
522.234375	477.0	1
533.234375	284.0	1
508.234375	223.0	1
496.234375	168.0	1
512.234375	104.0	1
386.234375	177.0	1
422.234375	149.0	1
225.234375	204.0	1
332.234375	98.0	1
315.234375	17.0	1
242.234375	16.0	1
121.234375	148.0	1
25.234375	168.0	1
34.234375	135.0	1
18.234375	106.0	1
77.234375	83.0	1
21.234375	201.0	1
33.234375	231.0	1
111.234375	303.0	1
160.234375	309.0	1
144.234375	336.0	1
210.234375	334.0	1
208.234375	302.0	1
309.234375	300.0	1
547.234375	89.0	1
565.234375	133.0	1
593.234375	143.0	1
488.234375	451.0	1
420.234375	299.0	1
528.234375	199.0	1
177.234375	242.0	1
235.171875	10.0	1
128.171875	148.0	1
547.171875	228.0	1
159.171875	315.0	1
385.171875	372.0	1
397.171875	428.0	1
579.171875	410.0	1
215.171875	298.0	1
278.171875	401.0	1
551.317287630987	225.97596353087442	1
507.53444495492823	213.26481558226274	1
545.6678885760117	271.17115623704933	1
462.3392525151256	278.23290509738916	1
383.247665745471	371.44799005387483	1
397.37116338290934	433.5913800248653	1
335.22777377818073	378.50973891421467	1
322.51662590448626	361.5615416493991	1
213.76569409621118	299.4181516784086	1
237.77564007985634	203.378367177787	1
130.4370580353251	144.05967675093245	1
32.98492433700068	156.77082469954414	1
40.046673155719844	129.9361790302528	1
573.9148838508884	132.76087857438873	1
604.9865786532526	141.23497720679651	1
525.8949918835981	192.07956900124327	1
504.7097454274406	162.42022378781598	1
583.8013321970952	292.3564028180688	1
489.1738980262584	454.7766266058848	1
575.3272336146322	412.4061334438458	1
556.84375	232.0	1
509.84375	95.0	1
501.84375	165.0	1
590.84375	299.0	1
427.84375	150.0	1
396.84375	174.0	1
559.84375	87.0	1
569.84375	132.0	1
601.84375	142.0	1
533.84375	190.0	1
507.84375	207.0	1
529.84375	237.0	1
531.84375	269.0	1
473.84375	274.0	1
50.84375	192.0	1
36.84375	153.0	1
43.84375	127.0	1
25.84375	107.0	1
35.84375	230.0	1
568.84375	404.0	1
577.8086200551269	413.25460669704773	1
526.1517898996515	465.92431147216166	1
384.34872672775833	369.70081236378047	1
398.52903304494765	432.499306518724	1
314.4600741644681	292.7220130770755	1
212.15929287617368	293.73489201505845	1
215.19792994414283	339.31444422429166	1
160.50246272069828	309.94095502278583	1
114.92290670116118	298.79928670497327	1
125.05169692772498	143.82880919358035	1
21.7380366167742	101.28789379829601	1
78.45926188553149	85.08183079056866	1
36.9312219566199	125.59698830988707	1
32.87970586599438	156.99623538735884	1
47.0600121831837	185.35684565088172	1
32.87970586599438	227.89776104616604	1
547.4222493754355	226.88488210818306	1
587.9374102816907	298.79928670497327	1
534.2548220809026	277.52882900733107	1
460.3146534269868	320.0697444026154	1
489.68814508402187	452.7568852783832	1
605.1563536668492	141.80305131761443	1
566.6669508059067	135.72577768971667	1
559.5767976473121	85.08183079056866	1
509.9457255371494	100.27501486031305	1
422.8381295887008	153.95759857340994	1
503.8684514012112	168.1379037051714	1
500.82981433324204	217.76897166633643	1
474.49495974417613	274.4901921933822	1
309.39567905118616	21.270457697642165	1
375.2328155238509	165.0992668912225	1
243.55854257852147	14.180305131761441	1
287.1123405527458	313.9924707747177	1
318.5115902550936	365.6492966118486	1
316.4858322097808	405.15157519318404	1
112.342488406554	304.5732926206623	1
150.56900389174837	324.7483977772287	1
160.12563276304695	309.8825308197588	1
211.09432007663946	298.20220678174655	1
216.403558338472	335.36687417542163	1
315.15539000855745	291.83112094283086	1
239.76420669053522	203.69776683783007	1
128.27020319205164	139.9869084486729	1
36.95130508853177	159.10016596542005	1
38.01315274089828	125.12104149120287	1
22.08543795540063	102.82224105499786	1
319.4027806180235	362.974912810723	1
334.2686477511546	375.71708448855446	1
384.1754874123806	369.3459986496388	1
392.6702686313127	425.623923560061	1
390.5465733265797	173.96603292289007	1
308.7843040943584	17.87442986945494	1
239.76420669053522	10.441496390719934	1
73.05412526899312	83.7089835382507	1
423.46385054994147	152.72908012650433	1
512.6590533487283	98.57485049572071	1
499.9168815203302	165.47125180433576	1
497.7931862155972	217.5017861554808	1
461.69036603513587	317.31546429849374	1
532.834158743692	276.96525398536085	1
586.9883890143841	297.14035914192726	1
599.7305608427822	137.8632131690343	1
550.8855688339228	227.05841491385436	1
548.7618735291898	82.64713589843142	1
34.82760978379875	228.12026255367365	1
493.54579560613115	431.99500939897666	1
574.246217185986	406.5106660433138	1
21.023590303034116	195.20298571927577	1
