515.2894633971115	76.56070164640714	1
488.0212688471021	92.29235266964149	1
463.8994044374784	93.34112940452378	1
426.14344275285	87.04846899523004	1
417.75322904515474	48.24372980458532	1
375.8021605066787	69.21926450223111	1
350.6315193835931	63.97538082781967	1
524.7284538182686	181.43837513463612	1
547.8015415144305	101.73134328358209	1
577.1672894913637	144.73118941375597	1
309.729227558579	54.53639021387906	1
406.21668519707384	297.85259270657025	1
398.87524820284057	333.51100169256813	1
455.5091907297832	325.12078781350976	1
460.75307429709267	251.70641637174953	1
387.3387043547596	147.87751961840283	1
293.9975768566505	93.34112940452378	1
454.4604140163213	200.31635636251733	1
384.19237421437396	264.291737190337	1
357.9729563778264	357.6328665948608	1
580.6140807116051	20.22551928783383	1
515.679520325928	79.83757613618617	1
381.5523955948575	8.51600812119319	1
415.61642727258965	47.9025456817117	1
430.5194411315975	96.86959237857255	1
466.712474789188	92.61158831797596	1
551.8725539835185	109.64360456036233	1
494.38950052734543	103.25659846946743	1
585.9365856612508	102.19209745431829	1
460.3254688496132	129.86912384819615	1
485.87349260791234	133.0626268936436	1
472.0349797388336	156.48164922692487	1
336.84335401783386	8.516008121193192	1
316.6178352091803	55.35405278775574	1
346.42386292719607	62.80555989379978	1
383.6813975747157	65.99906293924722	1
385.81039955457396	114.96610963610807	1
299.58581937031425	9.58050913634234	1
254.87677779329067	19.16101827268468	1
399.64891242365263	331.0598157113853	1
410.29392232294396	294.86678119631426	1
453.93846291003837	291.6732781508668	1
461.38996983954235	252.28674059034827	1
575.2915757619595	145.8366390754334	1
516.7440213158571	185.22317663595192	1
428.3904391517392	343.8338278931751	1
508.22801339642416	305.51179134780574	1
459.26096785968406	191.6101827268468	1
367.71388272577866	138.38513196938936	1
300.65032036024337	96.86959237857255	1
287.87630848109376	111.77260659066063	1
448.6159579603928	387.4783695142902	1
447.5514569704636	400.25238169607996	1
450.744959940251	324.6728096204904	1
482.67998963812494	277.83476495392784	1
376.22989064521175	293.8022801811651	1
589.1300886310381	328.930813681087	1
591.2590906108965	253.35124160549742	1
589.1300886310381	292.73777916601597	1
617.8716153591247	258.6737466812432	1
547.614550023802	242.70623145400594	1
569.9690708123138	236.31922536311106	1
389.0039025243613	153.28814618147737	1
338.97235599769215	150.09464313603	1
343.23035995740867	251.22223957519913	1
376.22989064521175	225.67421521161955	1
196.32922334718842	51.09604872715914	1
197.39372433711753	15.967515227237232	1
197.39372433711753	117.09511166640638	1
271.9087936321568	150.09464313603	1
274.03779561201503	183.09417460565362	1
249.554272843645	196.93268780259254	1
387.9394015344322	192.67468374199595	1
366.64938173584954	188.41667968139936	1
403.9069163833692	391.7363735748868	1
381.5523955948574	377.89786037794784	1
359.1978748063456	362.99484616585977	1
345.3593619372669	319.3503045447447	1
324.06934213868425	250.15773856004998	1
392.1974054941487	267.18975480243637	1
230.39325502492065	232.06122130251447	1
516.234375	77.0	1
549.234375	103.0	1
462.234375	90.0	1
505.234375	104.0	1
424.234375	52.0	1
428.234375	87.0	1
458.234375	131.0	1
496.234375	133.0	1
463.234375	155.0	1
446.234375	183.0	1
457.234375	203.0	1
500.234375	189.0	1
534.234375	186.0	1
381.234375	10.0	1
378.234375	67.0	1
349.234375	67.0	1
357.234375	126.0	1
297.234375	92.0	1
317.234375	52.0	1
275.234375	179.0	1
248.234375	194.0	1
269.234375	209.0	1
414.234375	292.0	1
344.234375	252.0	1
378.234375	232.0	1
453.234375	290.0	1
453.234375	323.0	1
386.234375	154.0	1
284.234375	119.0	1
265.234375	150.0	1
229.234375	236.0	1
399.234375	327.0	1
287.234375	229.0	1
509.234375	304.0	1
481.234375	276.0	1
458.234375	254.0	1
586.234375	284.0	1
585.234375	367.0	1
490.234375	487.0	1
421.234375	444.0	1
433.234375	344.0	1
430.234375	310.0	1
306.234375	331.0	1
245.234375	263.0	1
109.234375	237.0	1
479.234375	375.0	1
403.234375	396.0	1
340.234375	311.0	1
187.234375	317.0	1
578.234375	154.0	1
335.234375	11.0	1
256.234375	22.0	1
338.234375	151.0	1
124.234375	281.0	1
520.0847585114806	76.19343863912515	1
548.7953269468601	108.21676792223572	1
583.0271585428894	106.008262454435	1
580.8186532786295	147.96986634264886	1
470.3933900656315	92.75722964763062	1
494.686947972491	99.38274605103281	1
427.3275374125622	87.2359659781288	1
415.18075845913245	50.795625759416765	1
383.157432127363	7.729769137302552	1
346.71709526707366	59.62964763061969	1
382.05317949523305	66.25516403402187	1
387.57444265588293	103.79975698663426	1
468.1848848013715	149.0741190765492	1
513.4592427187007	179.99319562575943	1
591.8611795999293	253.97812879708383	1
457.14235848007166	324.65030376670717	1
427.3275374125622	342.318347509113	1
397.51271634505275	337.9013365735115	1
432.84880057321215	303.66950182260024	1
475.91465322628136	276.06318347509114	1
459.35086374433166	249.5611178614824	1
452.7253479515518	283.79295261239366	1
412.97225319487245	293.73122721749695	1
386.47019002375293	269.43766707168896	1
341.1958321064238	246.24835965978127	1
315.7980215674342	245.14410692588092	1
342.3000847385537	314.7120291616039	1
451.6210953194218	193.2442284325638	1
386.47019002375293	152.3868772782503	1
365.4893900132833	133.6145808019441	1
300.3384847176145	88.34021871202916	1
276.04492681075493	176.6804374240583	1
246.23010574324545	195.4527339003645	1
269.41941101797505	147.96986634264886	1
580.8186532786295	20.980801944106926	1
466.32134567955654	94.03315144651498	1
469.1283055612271	148.7688664676207	1
464.9178657387213	131.92710799958817	1
525.2675031946378	182.4523834036858	1
481.7596250287445	276.48553485020074	1
455.0935061528744	287.71337382888913	1
463.514385797886	248.41593740347986	1
407.37518816447533	293.3272933182333	1
394.7438686969579	336.83516936065064	1
432.6378270995101	345.25604859466694	1
505.618784022944	307.3620920415937	1
547.723182248002	98.2435910635231	1
572.9858211830368	151.5758262122928	1
421.40998757282796	44.91135591475342	1
431.23434715867484	89.82271182950684	1
376.49862946609943	60.34963451044991	1
351.2359905310646	64.56007412745804	1
387.7264689927816	110.87490991454752	1
252.9923946725959	19.648718212704622	1
300.710712660995	98.24359106352311	1
387.7264689927816	151.5758262122928	1
344.21859082688826	251.22289714815196	1
271.23763390345437	145.9619067229486	1
272.64111384428963	183.8558632760218	1
250.18543479092537	192.27674251003808	1
455.0935061528744	319.99341089261816	1
318.9559518918535	63.156594255122	1
355.4464303535704	357.8873674456913	1
373.6916695844289	376.1326057860599	1
396.1473486377932	390.16740450942035	1
520.3179093640603	85.39595805866733	1
464.5426441894126	92.9331131565752	1
419.3194562099685	46.202751549546434	1
346.962355442858	62.784492764943735	1
583.6303725352819	26.60614829498598	1
384.64834542572805	7.009545040425533	1
580.6154933366523	150.21549190067498	1
469.26235939852705	95.22925291756292	1
425.14363342681446	89.26726295434837	1
421.5664394291081	46.34093521920361	1
375.0629174589245	67.80409908677599	1
345.2529674780376	66.61170109413308	1
295.17225151014765	90.45966094699128	1
272.5166895246736	148.88716258649387	1
452.5687874092304	201.35267426278193	1
466.87756340005615	152.46435656442262	1
271.3242915254381	179.88951039520953	1
247.4763315407286	191.81349032163862	1
407.25766343828235	288.39772772571433	1
395.3336834459276	334.90124943878783	1
355.98454947115687	355.17201531371734	1
479.99394139164633	274.0889518139994	1
426.33603142604994	344.4404333799311	1
516.9582793679461	74.95848704263345	1
549.1530253473039	104.7684368587062	1
340.4833754810957	250.24099196114122	1
363.13893746656976	131.0011926968502	1
386.9868974512793	151.2719585717797	1
236.74474954760933	92.8444569322771	1
164.0084715942453	102.38364087342038	1
576.5781793297199	21.30057737370249	1
592.079353319781	26.07016934427414	1
328.55939548874096	40.37894525598905	1
309.4810275009733	58.264915145632706	1
481.1863393908818	374.2503831960039	1
196.20321757360315	10.568995439916302	1
18.535915687517267	54.68772116770398	1
586.1173633236037	282.4357377624998	1
584.9249653243683	373.057985203361	1
198.5880135720741	49.91812919713234	1
515.171875	79.0	1
553.171875	108.0	1
473.171875	93.0	1
430.171875	94.0	1
414.171875	52.0	1
463.171875	150.0	1
600.171875	228.0	1
508.171875	306.0	1
398.171875	337.0	1
196.171875	51.0	1
585.171875	375.0	1
341.171875	314.0	1
406.171875	291.0	1
313.171875	55.0	1
