261.97679760681496	61.948783475518866	1
234.3077682090599	88.30024074510355	1
248.80106932216967	160.7667482364614	1
339.71359448622195	197.65878841387996	1
368.70019671244154	224.01024568346463	1
339.71359448622195	251.67927581652856	1
323.90272054464765	280.6658788130717	1
529.4440817851137	245.0914114991324	1
579.5118492667657	133.0977181033975	1
571.6064122959785	326.78092903484486	1
478.05874147499713	397.9298636627235	1
489.9168969311779	461.1733611097267	1
397.68679893866107	372.8959792566181	1
229.0374768952018	357.08510489486724	1
214.544175782092	383.43656216445197	1
240.89563235138252	209.51694418519307	1
176.33456375662075	247.72655722609085	1
247.48349649370516	247.72655722609085	1
517.5859263289329	201.61150700431767	1
416.13281853716444	151.54373819210676	1
338.39602165775744	94.88810506249972	1
293.59854548996356	96.20567792597895	1
516.2683535004684	64.58392920247734	1
430.62611965027423	447.9976324749344	1
426.67340116488066	401.8825822531612	1
350.25417711393817	359.72025062182576	1
313.36213791693143	362.3553963487842	1
280.42281720531827	332.0512204887618	1
488.59932410271335	527.0520042836885	1
567.6536938105849	517.8289942393338	1
558.4306840113333	210.8345170486723	1
207.95631163976935	209.51694418519307	1
157.88854415811738	156.8140296460237	1
128.90194193189782	172.62490400777452	1
99.91533970567826	104.11111510685436	1
81.4693201071749	162.08432109994064	1
279.10524437685376	146.27344673818985	1
298.86883680382164	267.49015017827935	1
326.5378662015767	419.01102947839127	1
383.1934978255513	422.963748068829	1
363.4299053985834	484.88967265235294	1
339.71359448622195	533.6398686010846	1
500.4574795588941	420.32860234187046	1
186.87514638433697	172.62490400777452	1
460.9302947049583	64.58392920247734	1
240.3125	221.0	1
211.3125	220.0	1
178.3125	251.0	1
158.3125	158.0	1
126.3125	170.0	1
109.3125	203.0	1
86.3125	200.0	1
266.3125	68.0	1
293.3125	90.0	1
248.3125	157.0	1
341.3125	202.0	1
372.3125	219.0	1
342.3125	246.0	1
324.3125	276.0	1
231.3125	362.0	1
219.3125	398.0	1
395.3125	375.0	1
423.3125	401.0	1
499.3125	413.0	1
430.3125	449.0	1
357.3125	493.0	1
491.3125	529.0	1
464.3125	586.0	1
569.3125	324.0	1
580.3125	133.0	1
480.3125	397.0	1
489.3125	464.0	1
563.3125	600.0	1
335.3125	534.0	1
352.234375	358.0	1
373.234375	236.0	1
337.234375	213.0	1
292.234375	103.0	1
266.234375	64.0	1
273.234375	147.0	1
329.234375	114.0	1
571.234375	219.0	1
546.234375	202.0	1
515.234375	204.0	1
567.234375	334.0	1
553.234375	305.0	1
491.234375	429.0	1
487.234375	471.0	1
427.234375	456.0	1
397.234375	376.0	1
306.234375	367.0	1
279.234375	326.0	1
239.234375	214.0	1
198.234375	227.0	1
245.234375	147.0	1
227.234375	98.0	1
161.234375	162.0	1
227.234375	357.0	1
212.234375	388.0	1
356.234375	491.0	1
469.234375	594.0	1
437.234375	594.0	1
545.234375	584.0	1
568.234375	608.0	1
567.234375	522.0	1
502.234375	404.0	1
338.234375	255.0	1
306.234375	272.0	1
177.234375	246.0	1
117.234375	183.0	1
577.234375	141.0	1
422.234375	407.0	1
482.234375	398.0	1
487.234375	511.0	1
193.234375	174.0	1
77.234375	158.0	1
54.234375	30.0	1
115.234375	213.0	1
82.234375	206.0	1
329.234375	290.0	1
45.652975910039714	92.75722964763062	1
65.52952328837937	35.336087484811664	1
152.7654812266478	155.69963547995138	1
124.05491279126832	176.6804374240583	1
79.88480750606911	163.42940461725394	1
84.30181803458903	205.3910085054678	1
96.4485969880188	107.11251518833535	1
233.37592337213638	92.75722964763062	1
263.19074443964587	60.733900364520046	1
290.7970602428954	97.17424058323208	1
246.62695495769614	162.32515188335358	1
237.7929339006563	220.8505467800729	1
201.35259704036696	215.32928311057108	1
185.89306019054723	179.99319562575943	1
173.74628123711744	257.2908869987849	1
227.85466021148648	367.7161603888214	1
204.6653549367569	401.94799513973265	1
252.14821811834605	249.5611178614824	1
341.5926813208745	205.3910085054678	1
346.00969184939436	251.76962332928312	1
328.3416497353147	283.79295261239366	1
299.6310812999352	276.06318347509114	1
275.3375233930756	150.17837181044956	1
330.55015499957466	106.008262454435	1
481.83276560138194	396.42673147023083	1
495.08379718694175	432.8670716889429	1
426.62013399488296	453.8478736330498	1
357.0522181706942	358.88213851761844	1
309.569354989105	359.98639125151885	1
374.7202602847739	227.47606318347508	1
413.3691024093232	161.22089914945323	1
468.5817340158222	68.4636695018226	1
516.0645971974113	67.35941676792224	1
582.3197551252101	133.6145808019441	1
510.54333403676145	210.91227217496962	1
322.8203865746648	424.03304981774	1
399.01381819163345	378.758687727825	1
424.41162873062297	406.3650060753341	1
373.6160076526439	417.40753341433776	1
401.2223234558934	437.28408262454434	1
360.3649760670841	490.28821385176184	1
328.3416497353147	536.6668286755771	1
482.93701823351194	506.8520048602673	1
562.4432077468705	220.8505467800729	1
564.6517130111305	324.65030376670717	1
338.27992342448454	85.02746051032807	1
461.9562182230423	594.0879708383961	1
408.95209188080327	605.1304981773998	1
486.2497761299019	536.6668286755771	1
533.7326393114911	202.0782503037667	1
289.6928076107654	320.2332928311057	1
272.0247654966857	358.88213851761844	1
283.38517704414215	94.82855569403786	1
337.9115969877759	199.1399669574795	1
369.9162347807784	229.9592475580418	1
418.5158699479302	158.8378307875134	1
465.93014815978563	65.19463203965103	1
516.9004972375303	65.19463203965103	1
580.9097728235351	137.5014057563549	1
569.0562032705712	321.23173241355323	1
483.71050248923143	393.5385061302571	1
495.56407204219533	420.801715892293	1
430.3694395008941	405.39207559201185	1
398.3648017078916	373.38743804527405	1
355.6919513172217	359.16315469116836	1
341.4676678536651	246.55424480449844	1
256.1219670723253	247.7396017506739	1
272.71696444647466	148.16961827193416	1
187.37126366513488	177.80354192632097	1
155.36662587213243	152.91104605663605	1
81.87449464375648	161.20854467986436	1
225.30268623461924	365.08993942204575	1
209.89304581576621	393.5385061302571	1
358.0626652278145	489.5524187704704	1
331.984812211294	541.7081244021913	1
425.62801167970855	450.4356395466798	1
174.33233715687462	254.85174342772675	1
337.2011911227119	204.9080613610625	1
369.4812297619231	228.76721919077525	1
344.21859082688826	255.43333676516008	1
356.8499102944057	359.2908473180274	1
397.55082857862845	377.53608565839596	1
427.02390733616903	402.79872336044474	1
431.23434715867484	454.7274786368784	1
567.3719014196957	329.81776999897045	1
580.0032208872132	134.73406774426027	1
415.7960678094869	155.78626582930093	1
241.76455514591376	217.53938021208688	1
254.39587461343118	251.22289714815196	1
178.60795780832672	248.41593740347986	1
154.74879881412718	157.18974570163698	1
290.8863530751481	96.84011119118706	1
226.3262757967258	359.2908473180274	1
210.8879964475379	395.78132399876455	1
203.87059674336155	210.52198085040666	1
276.85155366679544	152.97930608462883	1
107.03048082572809	105.26099042520333	1
466.32134567955654	589.4615463811386	1
258.171875	64.0	1
292.171875	95.0	1
230.171875	91.0	1
158.171875	153.0	1
108.171875	103.0	1
125.171875	175.0	1
107.171875	209.0	1
178.171875	251.0	1
225.171875	367.0	1
205.171875	402.0	1
305.171875	272.0	1
241.171875	219.0	1
345.171875	201.0	1
374.171875	227.0	1
584.171875	134.0	1
567.171875	327.0	1
481.171875	402.0	1
490.171875	428.0	1
491.171875	532.0	1
558.171875	600.0	1
396.171875	372.0	1
321.171875	417.0	1
359.171875	491.0	1
332.171875	537.0	1
343.171875	249.0	1
