514.234375	372.0	1
458.234375	173.0	1
229.234375	129.0	1
333.234375	166.0	1
562.234375	311.0	1
300.234375	407.0	1
377.234375	388.0	1
367.234375	355.0	1
392.234375	349.0	1
353.234375	234.0	1
266.234375	301.0	1
159.234375	333.0	1
144.234375	189.0	1
120.234375	103.0	1
83.234375	76.0	1
35.234375	63.0	1
49.234375	12.0	1
119.234375	169.0	1
220.234375	192.0	1
234.234375	158.0	1
237.234375	310.0	1
194.234375	375.0	1
163.234375	362.0	1
16.234375	187.0	1
136.234375	266.0	1
453.234375	301.0	1
245.234375	357.0	1
229.3820666963034	129.11145762653294	1
80.14554636413796	71.82907888243318	1
470.5724025866718	169.81209515523543	1
592.6750101311708	83.88852703908576	1
354.499553439432	228.60190491891677	1
328.87308025108035	169.81209515523543	1
49.9967543778419	7.009545040425533	1
262.54573788122906	210.51273268393788	1
580.6154933366523	260.2579563301298	1
279.1275734736919	291.91400774134286	1
463.0352045900978	306.98831793715857	1
119.33897594632282	100.47026825448306	1
126.87617394289683	35.65073441247542	1
375.60370782983927	386.88216197498195	1
306.2614862613583	198.45328452728532	1
144.96544913467446	190.91612942937743	1
346.962355442858	117.05200946988036	1
383.14090582641325	340.1518003679532	1
523.3327885626899	367.2855587204215	1
109.90448937179123	46.146176334820744	1
116.19714965256264	97.53623634405294	1
77.39241125447232	76.56070164640714	1
50.124216704462896	11.536544083705186	1
34.39256600253439	68.17048776734883	1
143.46534420257206	197.17002615787044	1
119.34347979294834	176.19449146022467	1
229.4650347064479	162.56039390675488	1
227.3674812795241	126.90198492075704	1
186.46518945450998	53.48761347899677	1
129.83124692756735	42.99984613017388	1
3.978041312139271	18.877981227881214	1
19.709692014067784	42.99984613017387	1
5.026818025601171	126.90198492075704	1
12.368255019834477	182.48715186951839	1
101.51427566409603	166.75550084628406	1
80.53874139485802	221.29189106016312	1
123.53858664679595	221.29189106016312	1
222.1235977122146	187.73103554392983	1
144.51412091603396	88.09724573011233	1
336.44025947956175	120.60932451146331	1
150.80678119680536	104.87767348822896	1
329.09882248532847	165.70672411140177	1
358.4645704622617	225.48699799969228	1
466.48857194883743	175.14571472534237	1
589.1954474238798	82.85336205570088	1
512.6347473411611	176.19449146022467	1
534.659058323861	200.31635636251733	1
491.6592130719231	184.58470533928298	1
373.1474444507283	160.46284043699032	1
241.0015785545288	352.38898292044934	1
302.87940464878096	398.53515925527006	1
282.9526470930048	374.4132943529774	1
148.70922776988155	306.24280658562856	1
122.48980993333404	242.2674257578089	1
97.31916881024843	208.70657024157563	1
592.3417775642655	114.31666410216957	1
582.9027871431084	140.53608247422682	1
574.5125734354132	251.70641637174953	1
596.5368844181131	221.29189106016312	1
596.5368844181131	197.17002615787044	1
518.9274076219325	369.16941067856595	1
562.9760295873323	313.5842437298046	1
489.5616596449993	378.6084012925066	1
576.610126862337	329.31589475303895	1
579.7564570027228	395.3888290506232	1
596.5368844181131	465.6568702877366	1
352.17191018149026	376.510847822742	1
454.95202810075654	307.2915833205109	1
271.41610324492393	304.145253115864	1
162.34332504488626	328.2671180181567	1
550.3907090257895	444.6813355900908	1
380.4888814449616	391.193722111094	1
313.36717178339995	376.510847822742	1
267.2209963910763	207.65779350669334	1
298.68429779493334	200.31635636251733	1
382.5864348718854	342.9499923065087	1
210.5870538641337	57.68272041852593	1
465.4297551602831	165.2728384160837	1
327.9338734971249	166.66168579773145	1
364.043903024823	229.15981797188073	1
304.3234695751685	204.16056510222103	1
234.88110509882594	126.38511172994635	1
123.77332193667792	98.6081640969911	1
80.71905596134556	79.16430075392243	1
36.27594269648635	70.83121646403586	1
130.71755838431216	38.887726686137334	1
97.38522343566775	161.1062962711404	1
145.99487856910753	198.60517557562997	1
118.21793277857051	170.82822794267474	1
354.3219719981351	369.4334035183047	1
564.0379127166894	312.49066087074647	1
216.8260903349769	291.65795014603003	1
123.77332193667792	243.04829178835837	1
133.49525296336586	263.8810025130748	1
154.32796230626863	302.76872919921215	1
164.04989333295657	322.2125925422808	1
151.55026772721493	111.10779053182097	1
187.66029725491302	51.3873531209672	1
52.94211017080855	8.333084289886573	1
486.26246450318587	377.76648780819136	1
523.7613413204107	366.65570875500924	1
243.2141888359871	352.76723493853154	1
269.6022873369972	302.76872919921215	1
461.2632132917026	298.6021870542688	1
597.3702476653339	463.8750254703525	1
233.4922578092991	165.2728384160837	1
226.54802136166484	186.10554914080012	1
465.99695786440225	173.0481612555778	1
590.8013867663684	80.75580858593631	1
326.5096549739694	164.65794737651947	1
344.3388591028217	116.41421757193415	1
226.87586719508883	125.85320818587476	1
230.02219733547454	163.60917064163718	1
146.1200602585225	187.73103554392983	1
116.75431228158928	98.58501307893522	1
75.85202045657515	75.51192491152486	1
355.87540295090264	221.29189106016312	1
450.2653071624737	293.6574857670411	1
159.7541575335272	325.12078781350976	1
598.1428237606017	466.7056470226189	1
376.8509372201406	391.193722111094	1
85.3125	168.0	1
115.3125	177.0	1
145.3125	192.0	1
90.3125	214.0	1
123.3125	233.0	1
159.3125	331.0	1
177.3125	366.0	1
228.3125	130.0	1
234.3125	164.0	1
118.3125	97.0	1
78.3125	80.0	1
117.3125	50.0	1
274.3125	209.0	1
325.3125	167.0	1
335.3125	124.0	1
474.3125	170.0	1
356.3125	228.0	1
544.3125	203.0	1
524.3125	374.0	1
386.3125	344.0	1
378.3125	389.0	1
354.3125	376.0	1
219.3125	305.0	1
603.3125	463.0	1
564.3125	319.0	1
577.3125	258.0	1
454.3125	301.0	1
273.3125	302.0	1
242.3125	356.0	1
150.3125	108.0	1
592.3125	84.0	1
229.32439050681182	125.57385140758171	1
232.84515233562752	163.12864809022298	1
334.9472453712826	164.30223548655553	1
345.50953085772966	118.53232702958648	1
462.86825848491947	167.82299767555313	1
352.55105451536105	228.8495422848452	1
119.00718653725345	95.06057910293569	1
115.48642470843775	48.11708324963411	1
81.45239369655272	79.80394295061268	1
53.286299066027176	7.041524377995237	1
23.946617159229735	39.90197147530634	1
40.3768390270363	69.24165638361983	1
6.342808015151269	22.29816053031825	1
154.21480482541037	298.09119866846504	1
246.9281996508903	353.2498062960944	1
381.8907364221585	345.0346945217666	1
523.8947968510581	366.1592676557523	1
575.5326370070217	253.49487760782853	1
455.8267348272881	301.61196085746263	1
591.9628588748282	75.10959336528252	1
600.1779698087314	463.5670215513531	1
157.73556665422606	327.4308835767785	1
144.82610661523518	190.12115820587138	1
11.03715712023886	183.07963382787614	1
117.171875	47.0	1
51.171875	10.0	1
19.171875	36.0	1
80.171875	70.0	1
122.171875	98.0	1
227.171875	121.0	1
231.171875	164.0	1
337.171875	171.0	1
593.171875	86.0	1
382.171875	347.0	1
