436.234375	426.0	1
368.234375	374.0	1
399.234375	257.0	1
357.234375	231.0	1
304.234375	275.0	1
268.234375	288.0	1
241.234375	169.0	1
235.234375	252.0	1
364.234375	183.0	1
418.234375	208.0	1
527.234375	244.0	1
528.234375	147.0	1
536.234375	327.0	1
473.234375	291.0	1
402.234375	304.0	1
271.234375	325.0	1
233.234375	326.0	1
205.234375	317.0	1
206.234375	211.0	1
402.234375	461.0	1
442.234375	507.0	1
481.234375	540.0	1
532.234375	460.0	1
559.234375	219.0	1
495.234375	162.0	1
486.234375	27.0	1
418.234375	57.0	1
386.234375	76.0	1
418.234375	151.0	1
362.234375	144.0	1
338.234375	104.0	1
289.234375	176.0	1
302.234375	209.0	1
474.234375	123.0	1
442.234375	99.0	1
512.234375	224.0	1
504.234375	328.0	1
326.234375	380.0	1
338.234375	425.0	1
505.234375	480.0	1
378.234375	207.0	1
513.6332078435394	320.1930647174487	1
248.80106932216967	162.08432109994064	1
181.60485507047886	98.84082365293742	1
149.98310718733023	13.198587526787211	1
385.82864348248035	69.85422065639428	1
532.0792274420427	144.9558738747106	1
576.8767036098366	156.8140296460237	1
588.7348590660173	206.88179845823458	1
532.0792274420427	238.50354718173622	1
472.78845016113905	287.25374313046785	1
400.32194459559014	305.69976321917716	1
418.7679641940935	212.15208991215152	1
354.20689559933174	220.05752709302695	1
500.4574795588941	158.13160250950295	1
475.4235958180681	129.1449995129598	1
443.80184793491946	102.79354224337511	1
517.5859263289329	61.948783475518866	1
562.3834024967268	288.5713159939471	1
590.0524318944819	322.8282104444072	1
608.4984514929852	437.4570495671005	1
526.8089361281847	458.53821538276827	1
503.09262521582315	476.9842354714776	1
439.8491294495259	421.6461752053497	1
367.382623883977	366.3081149392219	1
326.5378662015767	376.84869784705575	1
304.1391281176798	276.713160222634	1
275.1525258914602	313.6052004000525	1
318.6324292307895	318.8754918539695	1
399.00437176712563	245.0914114991324	1
509.6804893581458	222.6926728199854	1
608.4984514929852	254.31442154348701	1
528.1265089566491	98.84082365293742	1
595.32272320834	63.2663563389981	1
421.4031098510226	50.09062770420576	1
462.24786753342283	151.54373819210676	1
513.6332078435394	362.3553963487842	1
525.4913632997201	401.8825822531612	1
565.0185481536558	425.59889379578743	1
400.32194459559014	459.8557882462475	1
442.48427510645496	504.65326560454145	1
371.33534236937055	280.6658788130717	1
312.0445650884669	183.1654869156084	1
338.39602165775744	100.15839651641664	1
260.6592247783504	276.713160222634	1
234.3077682090599	235.86840145477774	1
294.91611831842806	214.78723563911	1
317.314856402325	13.198587526787211	1
226.40233123827272	51.40820056768499	1
207.95631163976938	198.9763612773592	1
458.29514904802926	396.6122907992443	1
500.4574795588941	419.01102947839127	1
425.35582833641615	471.7139440175606	1
258.0240791214214	214.78723563911	1
555.7955383544041	224.01024568346463	1
558.4306840113333	133.0977181033975	1
334.44330317236387	450.63277820189285	1
341.03116731468646	349.1796677139919	1
287.0106813476409	164.71946682689912	1
566.3361209821203	92.25295933554125	1
460.9302947049583	258.2671401339247	1
387.14621631094485	130.46257237643903	1
160.52368981504645	127.82742664948054	1
218.49689426748557	21.104024707662614	1
529.3167304785183	458.31963594376145	1
504.3174792670349	474.9858045235346	1
570.9821491643237	424.98729878421517	1
489.04015908223954	322.2125925422808	1
511.26171571466915	227.77097059023296	1
587.648316638646	211.10480201045982	1
500.15093739845435	163.88399103443592	1
472.37399160791733	126.38511172994635	1
465.4297551602831	263.8810025130748	1
522.3724940308838	402.765740677851	1
514.0394102937229	329.1568294505196	1
532.0944250575719	322.2125925422808	1
358.4885138667156	224.99327582693746	1
312.65655331232955	186.10554914080012	1
297.37923312753423	166.66168579773145	1
247.3807307045676	158.32860150784487	1
175.16067164917138	79.16430075392243	1
261.2692035998361	284.71371323779124	1
307.10116415422215	273.6029341846091	1
340.43349910286656	349.989540175236	1
326.5450262075981	381.93302995313456	1
312.65655331232955	365.2668613733614	1
558.4825235585821	134.71819601983293	1
569.5933018747969	66.66467431909258	1
590.4260112176996	65.27582693744482	1
441.81935123832665	102.7747062419344	1
230.7145632302454	54.16504788426272	1
375.1546813410378	286.102560619439	1
241.8130952147255	166.74216281895505	1
314.6937689353042	183.3059538274605	1
357.7596215883735	225.26755771567437	1
384.261684759493	202.0782503037667	1
404.13823213783263	245.14410692588092	1
234.08332678981566	54.10838396111786	1
151.26437938006714	17.668043742405832	1
172.24517939053675	77.29769137302551	1
177.76644255118666	103.79975698663426	1
237.3960846862056	245.14410692588092	1
268.31515838584505	284.8972053462941	1
302.54698998187445	279.3759416767922	1
208.6855162508261	316.92053462940464	1
235.18757942194563	322.44179829890646	1
331.2575584172539	348.9438639125152	1
420.70202161978233	308.0865127582017	1
396.40846371292275	304.7737545565006	1
437.265811101732	502.43499392466583	1
457.14235848007166	394.21822600243013	1
566.4633690609397	426.2415552855407	1
598.4866953927092	351.1523693803159	1
587.4441690714094	316.92053462940464	1
585.2356638071494	209.80801944106926	1
555.42084273964	221.95479951397326	1
575.2973901179796	160.11664641555285	1
554.3165901075099	132.51032806804375	1
559.8378532681598	90.54872417982989	1
588.5484217035394	43.06585662211422	1
564.2548637966798	67.35941676792224	1
598.4866953927092	65.1509113001215	1
245.84375	165.0	1
170.84375	85.0	1
173.84375	112.0	1
328.84375	105.0	1
416.84375	48.0	1
437.84375	104.0	1
470.84375	122.0	1
492.84375	164.0	1
516.84375	65.0	1
535.84375	35.0	1
559.84375	135.0	1
584.84375	210.0	1
561.84375	222.0	1
527.84375	242.0	1
513.84375	225.0	1
361.84375	230.0	1
411.84375	211.0	1
281.84375	315.0	1
264.84375	287.0	1
310.84375	184.0	1
402.84375	307.0	1
373.84375	288.0	1
460.84375	299.0	1
465.84375	265.0	1
461.84375	392.0	1
272.3125	316.0	1
260.3125	288.0	1
297.3125	285.0	1
302.3125	319.0	1
266.3125	381.0	1
431.3125	421.0	1
406.3125	460.0	1
439.3125	513.0	1
475.3125	504.0	1
518.3125	462.0	1
499.3125	423.0	1
571.3125	429.0	1
596.3125	432.0	1
322.3125	371.0	1
407.3125	309.0	1
476.3125	279.0	1
516.3125	327.0	1
615.3125	256.0	1
582.3125	211.0	1
517.3125	236.0	1
578.3125	166.0	1
536.3125	152.0	1
501.3125	155.0	1
445.3125	197.0	1
413.3125	209.0	1
366.3125	182.0	1
361.3125	228.0	1
371.3125	286.0	1
367.3125	374.0	1
231.3125	255.0	1
215.3125	210.0	1
250.3125	166.0	1
160.3125	129.0	1
174.3125	104.0	1
220.3125	30.0	1
384.3125	68.0	1
364.3125	87.0	1
422.3125	56.0	1
479.3125	28.0	1
532.3125	102.0	1
343.3125	158.0	1
313.3125	184.0	1
149.75800448334346	26.21941837205724	1
170.73353875258147	79.70703185105401	1
215.8309374314432	22.024311432528084	1
238.90402512760502	35.658408985997845	1
243.09913198145262	160.46284043699032	1
227.3674812795241	56.63394368364364	1
171.78231546604337	108.02400369287584	1
164.44087847181007	134.24342206493307	1
155.00188805065295	197.17002615787044	1
206.3919470102861	210.80412371134022	1
241.0015785545288	213.95045391598708	1
233.6601415602955	244.36497922757349	1
258.83078268338113	288.4136020926297	1
210.5870538641337	314.63302046468687	1
238.90402512760502	325.12078781350976	1
211.63583057759558	346.09632251115556	1
247.2942388353002	386.9986151715649	1
284.00142380646673	423.70580089244504	1
322.80616220455704	376.510847822742	1
268.2697731045382	345.0475457762733	1
269.3185498180001	318.82812740421605	1
301.83062793531906	276.87705800892445	1
315.46472521032376	324.0720110786275	1
293.4404142276238	218.14556085551624	1
285.05020051992864	164.65794737651947	1
336.44025947956175	102.78012001846439	1
309.17206492955233	13.634097553469765	1
417.19606641612813	55.58516694876135	1
440.2691541122899	17.829204492998922	1
482.22022265076595	33.56085551623327	1
386.781541725733	76.56070164640714	1
411.9521828488186	154.17018002769657	1
389.9278718661187	135.29219879981537	1
357.4157937487998	221.29189106016312	1
313.36717178339995	186.68225880904757	1
363.7084540295712	182.48715186951839	1
416.1472897026662	207.65779350669334	1
402.5131924276615	249.60886290198493	1
419.29361984305194	310.43791352515774	1
392.02542529304253	309.3891367902755	1
359.5133471757236	361.8279735343899	1
329.09882248532847	352.38898292044934	1
400.4156390007377	459.36420987844286	1
311.26961835647614	362.87675026927224	1
376.293774591114	373.36451761809514	1
408.8058527084329	427.90090783197417	1
438.1716006853661	418.4619172180336	1
364.75723074303306	510.75426988767504	1
330.1475991987904	454.1203262040314	1
478.0251157969183	549.5590090783197	1
466.48857194883743	500.26650253885214	1
508.43964048731345	477.1934143714418	1
501.0982034930802	414.2668102785044	1
521.0249610488563	459.36420987844286	1
543.0492720315561	497.1201723342053	1
501.0982034930802	511.80304662255736	1
603.8783214123464	571.5833205108479	1
601.7807679854226	432.09601477150335	1
565.0735830142561	422.6570241575627	1
523.1225144757801	403.7790429296815	1
518.9274076219325	359.7304200646253	1
512.6347473411611	330.3646714879212	1
540.9517186046324	318.82812740421605	1
491.6592130719231	323.02323434374523	1
472.78123222960886	292.6087090321588	1
463.3422418084517	262.1941837205724	1
611.2197584065798	262.1941837205724	1
586.0491172834941	212.9016771811048	1
556.6833693065608	223.3894445299277	1
526.2688446161658	247.51130943222034	1
507.39086377385155	225.48699799969228	1
539.9029418911705	235.97476534851518	1
553.5370391661752	135.29219879981537	1
579.7564570027228	168.85305431604863	1
496.90309663923256	163.60917064163718	1
471.73245551614696	125.85320818587476	1
435.0252705449804	225.48699799969228	1
442.36670753921373	195.07247268810588	1
453.90325138729463	155.21895676257887	1
384.6839882988092	205.56024003692877	1
591.2930008508037	68.17048776734883	1
588.1466707104179	9.438990613940607	1
588.1466707104179	51.390060009232194	1
559.8296994469466	100.68256654869981	1
521.0249610488563	63.97538082781967	1
439.220377398828	106.97522695799354	1
511.58597062769917	103.82889675334667	1
588.1466707104179	319.8769041390983	1
370.0011143103426	284.2184951531005	1
564.0248063007942	292.6087090321588	1
459.14713495460416	394.3400523157409	1
421.3911732699757	474.04708416679495	1
437.1228239719042	503.41283274349905	1
562.9760295873323	590.461301738729	1
445.51303767959945	288.4136020926297	1
599.6832145584988	348.19387598092015	1
368.9523375968807	454.1203262040314	1
301.83062793531906	446.7788890598554	1
396.2205321468901	177.24326819510694	1
531.5127281834752	207.65779350669334	1
486.41532950461357	275.8282812740422	1
451.8056979603708	349.2426527158025	1
550.3907090257895	6.292660409293738	1
411.9521828488186	8.390213879058317	1
462.29346509498987	216.04800738575167	1
420.34239655651385	57.68272041852593	1
363.7084540295712	286.3160486228651	1
303.92818136224287	281.07216494845363	1
360.5621238891855	225.48699799969228	1
406.7082992815091	248.56008616710264	1
422.4399499834376	309.3891367902755	1
447.61059110652326	289.46237882751194	1
285.05020051992864	166.75550084628406	1
220.0260442852908	25.170641637174953	1
151.85555791026727	24.12186490229266	1
239.9528018410669	161.51161717187262	1
178.07497574681477	98.58501307893522	1
166.53843189873388	76.56070164640714	1
309.17206492955233	16.780427758116634	1
385.7327650122711	74.46314817664256	1
331.1963759122523	99.63378981381751	1
332.2451526257142	143.68241267887367	1
268.2697731045382	345.0475457762733	1
268.2697731045382	285.26727188798276	1
233.6601415602955	247.51130943222034	1
460.19591166806606	12.585320818587476	1
516.8298541950087	101.73134328358209	1
361.6109006026474	361.8279735343899	1
441.31793082575183	420.5594706877981	1
400.4156390007377	428.9496845668565	1
517.8786309084705	241.21864902292663	1
503.195756920004	217.09678412063397	1
493.75676649884684	161.51161717187262	1
163.39210175834816	128.99953839052162	1
291.34286080070007	415.3155870133867	1
312.31839506993805	360.77919679950764	1
422.4399499834376	476.1446376365595	1
371.0498910238045	463.55931681797205	1
335.39148276609984	462.5105400830897	1
497.95187335269446	470.90075396214803	1
523.1225144757801	456.217879673796	1
480.12266922384214	492.92506539467615	1
443.41548425267564	505.5103862132636	1
497.95187335269446	513.900600092322	1
566.122359727718	432.09601477150335	1
600.7319912719607	426.8521310970919	1
512.6347473411611	327.21834128327436	1
536.7566117507848	324.0720110786275	1
550.3907090257895	227.58455146945684	1
550.3907090257895	141.5848592091091	1
416.79684743216615	47.53333321184652	1
519.3430753664171	63.034507116204345	1
475.22434939470446	125.03920273363568	1
497.8799113801785	162.0035405055659	1
557.4998113419523	136.96318266006477	1
583.7325673251328	207.31466422599647	1
508.6114933732978	225.20063411564013	1
510.99628937176874	330.1316574682162	1
588.5021593220746	319.40007553443	1
301.134241506325	275.28134980664237	1
259.40031153308337	286.01293174042854	1
240.32194354531575	166.77313247613753	1
292.7874555116767	165.5807344834946	1
314.25061949791524	189.4286943363528	1
296.3646495093831	216.85384816713974	1
230.78275955143195	49.91812919713234	1
156.85408359883246	132.19359068949313	1
394.1412854466921	306.283697615358	1
354.7921514719214	225.20063411564013	1
612.3501193067841	260.97257389492745	1
440.64480741687566	286.01293174042854	1
404.8728674398114	246.6637979832125	1
366.71613146427615	284.82053374778565	1
458.5307774054078	396.9059450562192	1
522.9202693641234	458.9106406736505	1
206.93479956672243	201.35267426278193	1
172.35525758889364	79.72807901320509	1
334.5213854849183	460.1030386662934	1
524.1126673633589	402.86793501943373	1
567.038995335836	425.52349687964903	1
605.1957313113713	433.8702828281494	1
367.9085294635116	364.7111992548606	1
229.59036155219647	247.8561959758554	1
285.6330675162638	417.17671093114865	1
146.12250160571315	21.30057737370249	1
440.64480741687566	503.02936640143815	1
212.8967895628998	314.6304835638584	1
537.2290453549492	315.8228815565013	1
398.87524820284057	245.41375596245578	1
395.72891806245485	299.95014617633484	1
370.55827693936925	288.4136020926297	1
360.0705098047502	227.58455146945684	1
241.55874118355544	160.46284043699032	1
535.2162209528876	316.73057393445146	1
584.508726485597	317.7793506693338	1
293.9975768566505	161.51161717187262	1
302.38779056434566	276.87705800892445	1
161.851710960451	126.90198492075704	1
458.65552087016886	395.3888290506232	1
557.2405319355876	134.24342206493307	1
568.7770757836685	422.6570241575627	1
526.8260072451924	462.5105400830897	1
420.89955918554045	475.0958609016772	1
234.21730418932214	253.8039698415141	1
207.99788635277463	205.56024003692877	1
477.5335017124831	540.1200184643792	1
