301.3321067225597	7.851888422611701	1
334.98305384982666	17.94717353739817	1
282.26323668377506	31.407553690446804	1
216.0830406668166	14.582078499136015	1
177.94530058924732	7.851888422611701	1
207.10945476621205	133.4821031843989	1
217.20473890439217	87.49247099481609	1
185.7971882522763	57.206615650456676	1
273.2896507831705	60.57171068871883	1
328.2528644243733	49.354727227844975	1
365.268906264367	83.00567761046655	1
386.58117277830274	117.7783263391755	1
314.7924855734665	177.22833868180695	1
285.6283313965017	252.38212786966182	1
281.1415384461995	281.5462848679338	1
310.3056926231642	336.50950382621573	1
322.6443732364954	390.35102443841026	1
352.93022565103576	371.2821525549247	1
291.2368225843796	437.4623549740805	1
357.41701860133804	509.25104912367317	1
402.2849481043607	554.1189829671688	1
478.56042825949925	588.8916316958775	1
422.4755163807209	570.9444581584794	1
495.38590182313277	459.8963218958282	1
462.8566529334413	447.55764008886695	1
424.718912855872	375.76894593927426	1
527.9151507128242	386.9859294001481	1
530.1585471879753	432.97556158973094	1
444.90948113223226	381.3774376697112	1
511.08967714919066	286.03307825228336	1
443.7877828946567	262.4774129844483	1
349.56513093830904	287.15477659837074	1
449.3962740825345	145.82078499136014	1
480.8038247346504	118.90002468526289	1
471.8302388340459	182.8368304122439	1
521.1849612873708	133.4821031843989	1
478.56042825949925	164.8896568748457	1
421.35381814314536	94.22266107134041	1
468.46514412131916	60.57171068871883	1
423.59721461829645	114.41323130091335	1
487.53401416010377	79.6405825722044	1
442.6660846570811	100.95285114786472	1
558.2010031273645	113.29153295482597	1
542.4972278013065	78.51888422611701	1
377.6075868776982	51.598123920019745	1
584.0000625916025	373.5255492470995	1
431.44910228132545	326.41421871142927	1
385.4594745407272	273.6943964453221	1
251.97738426923473	139.09059491483583	1
529.0368489503998	330.9010120957788	1
360.76616544926435	75.10959336528252	1
386.5850855272461	123.22667661491664	1
415.92476743404353	84.49829253594284	1
465.21543303746324	68.06806898728729	1
488.6871785629012	96.23416649926823	1
483.99282945781357	129.09461359657934	1
458.17390937983185	150.21918673056504	1
487.51359128662926	205.3777943581944	1
474.6041312476384	179.55887163887854	1
279.7886433865034	36.381209286308724	1
266.87918334751254	61.02654460929205	1
218.76210502036474	88.01905472494046	1
205.85264498137386	123.22667661491664	1
245.75461237461838	143.1776623525698	1
341.98876902891396	287.52891210147214	1
305.60756346448517	329.77805836944356	1
345.50953085772966	375.5479668264126	1
309.12832529330086	389.6310155824031	1
290.3509288729505	436.57451143570466	1
513.332511364611	22.29816053031825	1
534.4570823375052	70.41524377995236	1
557.9288278629432	109.14362785892617	1
522.7212095747863	126.74743880391426	1
518.0268604696986	291.0496742904698	1
441.7436875120253	260.5364019858238	1
381.8907364221585	267.577926363819	1
368.98127638316765	165.47582288288805	1
280.9622306627753	249.9741154188309	1
293.87169070176617	280.4873877234769	1
442.91727478829716	372.027204637415	1
493.3815276679888	456.52549717335785	1
527.4155586798738	427.1858122650444	1
583.7477479409249	377.8951416190777	1
520.3740350222424	350.9026315034293	1
425.3134656442187	325.0837087841134	1
610.7402552951785	354.4233936924269	1
607.2194934663628	309.82707263179043	1
385.41149825097415	234.71747926650792	1
489.8607658391731	157.2607111085603	1
296.21886525431	7.041524377995237	1
353.72464179163296	501.12181823399436	1
278.6623180793155	252.09486959849121	1
281.7012699388492	294.64019233472374	1
306.0128848151181	328.06866019890646	1
340.96083119975475	282.4843858386573	1
336.4024034104543	376.6918861831722	1
385.0256331629922	124.45890138979367	1
357.6750664271896	84.95253027757775	1
246.75332355421256	142.6926111338933	1
201.1690456612083	130.5368046378269	1
216.36380495887636	89.51095771360266	1
185.9742863635402	60.640917285444885	1
508.10318347410373	25.692973609253883	1
462.5189055810995	65.1993447214698	1
486.83052045736844	89.51095771360266	1
532.4147983503727	68.2382963454864	1
550.6485095075744	110.78361908171892	1
489.86947231690203	122.93942557778536	1
433.6488629155301	116.86152232975215	1
482.272092668068	157.88736925397635	1
413.8956758285616	92.54990933761927	1
415.41515175832836	156.36789344196805	1
459.47995372156583	153.32894181795146	1
471.63576115970034	236.90011147840818	1
438.20729070483054	268.80910353058255	1
381.98668130345857	236.90011147840818	1
381.98668130345857	273.3675309666075	1
514.181087193171	288.56228908669055	1
438.20729070483054	378.2113619951805	1
492.90842417643563	449.6267251595708	1
581.0380281029106	376.6918861831722	1
533.9342742801394	434.43196703948774	1
356.1555904974228	508.88628182789466	1
328.80502376162025	19.615070361220667	1
538.4927020694399	565.1068868722019	1
609.90807076848	311.3544262668151	1
438.20729070483054	428.3540637914545	1
381.98668130345857	435.95144285149604	1
292.33760144721685	437.47091866350434	1
310.57131260441855	393.40612011526355	1
281.7012699388492	33.2903526692954	1
261.94808285188066	62.16039309745319	1
401.7398683904271	8.978739677162535	1
600.7912151898792	355.41922481505594	1
573.4406484540765	522.5615641359694	1
344.60004097144713	286.102560619439	1
386.2654596572526	274.99178156625686	1
387.65430694677946	236.10405488011955	1
279.32421836368513	251.38137607824493	1
291.82384396942683	288.8802553827345	1
304.3234695751685	330.5456768321674	1
347.3777355505008	379.15533518983904	1
497.3732428194007	458.31963594376145	1
480.70707534507847	388.87726686137336	1
308.49001144374904	387.4884194797257	1
369.5992921829304	165.2728384160837	1
394.59854339441375	120.8297222033553	1
458.48551871264885	147.21782245466278	1
486.26246450318587	163.88399103443592	1
491.81785366129327	127.77395911159411	1
469.59629702886366	74.99775860897915	1
487.6513117927127	91.6639271887523	1
557.0936762690552	109.7189431501732	1
534.8721196366256	80.5531481355702	1
515.4282575832497	26.388100251307478	1
420.9866418954239	90.27507980710453	1
287.65730210084627	31.943489777898527	1
272.3799819160509	63.886979555797055	1
225.159174072138	87.497385043809	1
247.3807307045676	148.60666983631054	1
439.041656659273	380.54418257148683	1
520.9836467413571	386.09957209807783	1
530.705577768045	429.1538409291585	1
362.036751436006	82.38109601950418	1
339.425157446284	17.561562177496544	1
404.2450602168205	10.024407079588679	1
512.7807113674862	20.57642421665969	1
559.5113389462451	108.00742335239093	1
535.3923053572083	71.82907888243318	1
488.6616777784494	123.08173354820666	1
461.527764990783	157.75264699858283	1
395.20042262093165	123.08173354820666	1
343.94747624422837	215.03502574268262	1
282.1424526723215	249.70593919305878	1
188.68119751480373	56.754768686617446	1
283.6498922716363	28.113579314567556	1
515.7955905661158	290.40657672176127	1
485.6467985798198	202.97557758603003	1
607.7494061243189	168.30466413565384	1
607.7494061243189	308.49574895674016	1
527.8551073606343	349.1963864854426	1
346.962355442858	377.8375758574925	1
309.2763654599879	394.4193170728898	1
309.2763654599879	331.10721425046376	1
343.94747624422837	320.55519711339275	1
386.15578502504286	267.79511142803767	1
449.46824819626454	260.2579563301298	1
493.18399657639384	55.24733766703587	1
375.60370782983927	168.30466413565384	1
247.47134188808104	141.17090578318556	1
220.3374291004146	83.88852703908576	1
262.54573788122906	59.76963072578059	1
440.42361060037575	112.52971641113565	1
437.40873140174614	374.82271381832936	1
493.18399657639384	448.68683377782645	1
535.3923053572083	435.11995460159227	1
485.6467985798198	392.91188605330825	1
444.9459293983202	421.55307542535814	1
603.2270873263744	350.7038175050242	1
381.63346622709844	430.59766154284756	1
387.66322462435767	228.60190491891677	1
464.5426441894126	65.79935480410688	1
316.81356345656195	114.03714743071721	1
295.7094090661547	156.24521597900127	1
378.6185870284688	41.68045849080171	1
205.26303310726655	124.58916456778823	1
214.30767070315537	20.57642421665969	1
420.8268958092833	94.44054417615676	1
481.12447978187544	300.9585938588323	1
425.34921460722774	320.55519711339275	1
345.4549158435432	281.36199060427185	1
586.6452517339116	379.34500687707407	1
357.51443263806163	501.4469194631815	1
319.82844265519157	177.34925025314328	1
220.3374291004146	204.4830086056116	1
413.2896978127093	157.75264699858283	1
527.8551073606343	129.11145762653294	1
473.5872817853014	525.5658157764866	1
434.53365646054516	379.65717802738885	1
521.5821236778829	290.5111555623942	1
384.19237421437396	232.8284351438683	1
532.069890812502	434.19356824126794	1
607.5818141817588	312.53546699492233	1
555.1429785086638	113.26788736728729	1
415.65567561823093	158.36528696722573	1
344.3388591028217	219.19433759039853	1
314.97311112588847	388.04739190644716	1
231.07097404893645	90.19479919987691	1
455.5091907297832	148.92629635328512	1
473.33839485863547	180.38959839975382	1
383.14359750091205	270.58439759963073	1
346.4364125297455	285.26727188798276	1
422.99711261246426	321.9744576088629	1
484.8089916179832	199.06168983289083	1
483.7444906280541	161.80415430267064	1
459.26096785968406	153.28814618147743	1
475.228482708621	183.09417460565362	1
486.9379935978415	125.61111978759956	1
511.4215163662115	24.483523348430424	1
359.1978748063456	77.70857410588786	1
281.489302541519	287.4152740902702	1
280.42480155158984	252.28674059034827	1
347.4883639171252	285.2862720599719	1
305.972825309889	334.25331875683275	1
291.0698114508813	432.18741215055434	1
342.1658589674795	375.76885834764954	1
515.679520325928	291.6732781508668	1
354.93987084662905	505.6379821958457	1
491.19599755755803	453.4774324535374	1
469.9059777589754	524.7990004685304	1
601.9041005101877	595.0560674683742	1
582.7430826914634	375.76885834764954	1
534.8405381446524	73.45057004529127	1
417.7454292524479	90.48258628767765	1
391.1329045042196	119.22411369670468	1
490.13149656762886	93.6760893331251	1
464.5834728093297	64.93456192409808	1
369.84288470563695	162.8686553178198	1
300.65032036024337	11.709511166640638	1
183.55521146803883	6.387006090894893	1
203.78073027669234	130.9336248633453	1
440.0999500409597	382.1558644385444	1
439.0354490510305	419.4133999687647	1
606.1621044699043	309.76979540840233	1
380.4878946049283	236.31922536311106	1
387.9394015344322	273.57676089333125	1
437.9709480611014	265.0607527721381	1
425.1969361819518	320.4148055598938	1
523.131027255432	133.0626268936436	1
552.9370549734476	114.96610963610807	1
432.6484431114558	119.22411369670468	1
221.87724710548758	92.61158831797596	1
265.521787692582	60.676557863501486	1
383.6813975747157	440.70342027174763	1
310.2308292696056	392.80087459003596	1
336.84335401783386	202.25519287833828	1
346.42386292719607	223.54521318132126	1
251.6832748235033	140.51413399968766	1
314.4888332293221	174.5781664844604	1
312.3598312494638	113.90160862095892	1
333.64985104804646	22.354521318132125	1
607.2266054598334	166.06215836326723	1
540.1630430942981	37.25753553022021	1
493.32499953741626	57.483054818054036	1
379.42339361499916	46.83804466656255	1
399.64891242365263	378.962361393097	1
529.5180331950068	427.92940808995786	1
483.7444906280541	393.86537560518497	1
473.0994807287628	320.4148055598938	1
416.68092826251876	154.35264719662658	1
486.921875	205.0	1
349.921875	283.0	1
479.921875	186.0	1
456.921875	152.0	1
490.921875	129.0	1
538.921875	75.0	1
489.921875	162.0	1
419.921875	162.0	1
389.921875	124.0	1
356.921875	86.0	1
596.921875	192.0	1
522.921875	130.0	1
556.921875	107.0	1
601.921875	164.0	1
601.921875	310.0	1
513.921875	295.0	1
519.921875	84.0	1
491.921875	98.0	1
417.921875	92.0	1
438.921875	121.0	1
469.921875	73.0	1
513.921875	27.0	1
384.921875	54.0	1
339.921875	24.0	1
370.921875	165.0	1
267.921875	56.0	1
314.921875	116.0	1
341.921875	204.0	1
444.921875	264.0	1
376.921875	229.0	1
388.921875	269.0	1
306.921875	328.0	1
286.921875	282.0	1
281.921875	239.0	1
321.921875	181.0	1
296.921875	163.0	1
244.921875	145.0	1
201.921875	133.0	1
224.921875	95.0	1
189.921875	62.0	1
435.921875	382.0	1
427.921875	327.0	1
472.921875	326.0	1
579.921875	376.0	1
586.921875	426.0	1
496.921875	456.0	1
537.921875	442.0	1
492.921875	401.0	1
447.921875	430.0	1
339.921875	377.0	1
314.921875	383.0	1
346.921875	328.0	1
362.921875	503.0	1
539.921875	569.0	1
578.921875	528.0	1
556.921875	551.0	1
466.921875	596.0	1
602.921875	506.0	1
367.921875	388.0	1
523.921875	391.0	1
480.921875	311.0	1
479.921875	247.0	1
398.921875	45.0	1
397.921875	18.0	1
286.921875	43.0	1
221.921875	20.0	1
198.921875	31.0	1
604.921875	359.0	1
523.921875	351.0	1
401.921875	369.0	1
226.921875	190.0	1
609.921875	480.0	1
593.921875	566.0	1
604.921875	601.0	1
469.921875	458.0	1
440.921875	101.0	1
230.921875	240.0	1
219.921875	214.0	1
204.921875	240.0	1
513.921875	622.0	1
353.3125	501.5	1
289.3125	431.5	1
342.3125	378.5	1
305.3125	332.5	1
189.3125	63.5	1
281.3125	252.5	1
284.3125	285.5	1
345.3125	281.5	1
445.3125	382.5	1
460.3125	165.5	1
513.3125	293.5	1
422.3125	341.5	1
388.3125	237.5	1
443.3125	269.5	1
491.3125	452.5	1
469.3125	524.5	1
584.3125	378.5	1
436.3125	115.5	1
207.3125	133.5	1
225.3125	185.5	1
468.3125	67.5	1
476.3125	238.5	1
476.3125	325.5	1
440.3125	422.5	1
385.3125	442.5	1
266.3125	61.5	1
310.3125	392.5	1
389.3125	120.5	1
362.3125	80.5	1
377.3125	50.5	1
344.3125	217.5	1
370.3125	164.5	1
249.3125	145.5	1
520.3125	381.5	1
489.3125	127.5	1
489.3125	92.5	1
530.3125	72.5	1
510.3125	27.5	1
379.3125	271.5	1
484.3125	202.5	1
486.3125	160.5	1
476.3125	183.5	1
527.3125	137.5	1
219.3125	90.5	1
281.3125	40.5	1
333.3125	23.5	1
339.3125	317.5	1
527.3125	424.5	1
601.3125	191.5	1
602.3125	165.5	1
553.3125	110.5	1
421.3125	91.5	1
403.3125	13.5	1
543.3125	39.5	1
524.3125	8.5	1
329.3125	49.5	1
296.3125	161.5	1
468.3125	451.5	1
485.3125	393.5	1
317.3125	174.5	1
419.3125	159.5	1
299.3125	9.5	1
184.3125	7.5	1
487.171875	122.0	1
533.171875	70.0	1
510.171875	21.0	1
490.171875	90.0	1
470.171875	66.0	1
405.171875	10.0	1
380.171875	52.0	1
335.171875	17.0	1
267.171875	61.0	1
342.171875	213.0	1
200.171875	128.0	1
430.171875	117.0	1
462.171875	154.0	1
484.171875	157.0	1
481.171875	197.0	1
604.171875	309.0	1
514.171875	292.0	1
381.171875	269.0	1
346.171875	283.0	1
307.171875	335.0	1
280.171875	253.0	1
282.171875	289.0	1
340.171875	375.0	1
437.171875	380.0	1
438.171875	420.0	1
496.171875	447.0	1
575.171875	516.0	1
540.171875	559.0	1
356.171875	504.0	1
458.171875	601.0	1
254.171875	146.0	1
