110.20489229405473	224.3876268985077	1
169.82478842614748	252.57158003551834	1
156.81681108823634	360.9713997932515	1
243.53666000764395	299.1835025313436	1
263.04862601451066	321.9474646804676	1
229.4446845582402	273.16754578948763	1
222.94069588928463	367.4753889787155	1
255.46063923406248	372.89537996660215	1
293.4005731363033	109.48381795531053	1
356.27246360287387	66.12389005221725	1
335.6764994845145	13.007978370927983	1
259.7966316800329	110.56781615288786	1
173.07678276062526	209.21165213242506	1
131.88485452390663	213.54764492273438	1
112.37288851703993	292.6795133458796	1
502.61220865437423	293.76351154345696	1
544.8881350025854	278.5875367773743	1
521.0401765497484	249.31958544278635	1
482.0162445360149	233.05961247912637	1
458.1682860831778	302.4354971240756	1
477.6802520900445	386.9873565351075	1
470.09226530959637	350.1314178174782	1
392.0444012821295	394.5753439181488	1
390.9604031706369	547.4190897765526	1
486.3522369819853	471.5392159461394	1
508.03219921183717	536.5791078007793	1
534.0481538876595	584.2750284941819	1
564.4001010094521	537.6631059983566	1
531.8801576646742	384.81936013995283	1
596.92004435423	330.61945026108623	1
517.7881822152706	399.99533490603545	1
492.85622565094087	424.9272934503141	1
463.5882766406408	450.94325019217007	1
465.75627286362595	416.25530786969546	1
361.6924541603368	44.44392610067061	1
230.5286826697328	75.87987383041323	1
181.74876765256602	53.11591168128926	1
253.2926430110773	183.19569539056909	1
212.1007147743587	157.1797386487131	1
114.5408847400251	94.30784318922788	1
83.10493950673985	121.40779812866117	1
59.25698105390275	163.68372783417712	1
88.52493006420282	164.76772603175445	1
163.3207997571919	173.43971161237312	1
247.87265245361434	223.30362870093037	1
384.4564145016813	241.731598059745	1
267.384618460481	204.87565934211574	1
476.59625397855194	172.35571341479576	1
545.972133114078	187.5316881808784	1
549.2241274485558	139.8357674874758	1
506.9482011003446	94.30784318922788	1
82.02094139524725	39.023935112783946	1
320.5005259236182	462.8672303655207	1
377.95242583272574	507.31115646619133	1
358.440459825859	522.487131232274	1
492.85622565094087	507.31115646619133	1
435.4043257418333	541.999098788666	1
305.3245523627219	208.12765393484773	1
342.1804881534701	218.96763591062106	1
271.72061090645144	421.6752988575821	1
399.63238806257766	350.1314178174782	1
130.80085641241405	15.175974766082646	1
9.39306792524337	48.779918890979935	1
38.661016935543444	130.07978370927984	1
13.72906037121375	111.65181435046519	1
369.280440940785	175.60770800752778	1
354.10446737988866	354.46741060778754	1
377.95242583272574	433.59927903093273	1
568.7360934554225	311.10748270469423	1
330.2565089270516	270.999549394333	1
565.6307456432827	538.0224649946146	1
505.8504729759544	295.75503923680566	1
543.6064346605829	272.6819510693953	1
464.9481811509403	412.1692568087398	1
480.6798318528688	380.7059547622711	1
171.2907013816081	202.4139098322819	1
157.6566041066034	171.99938452069551	1
111.51042871427977	289.46237882751194	1
155.5590506796796	356.58408985997846	1
551.996648368278	140.53608247422682	1
389.4362577816834	395.3888290506232	1
398.87524820284057	350.29142945068475	1
491.1675989874878	506.5591629481459	1
507.9480264028782	541.1687951992615	1
482.7773852797926	469.85197722726576	1
464.9481811509403	447.8276657947377	1
490.1188222740259	422.6570241575627	1
433.48487974708326	547.4614556085552	1
541.508881233659	588.3637482689645	1
570.8746292105923	309.3891367902755	1
120.94941913543687	99.63378981381751	1
445.02142359516415	204.51146330204648	1
481.7286085663307	163.60917064163718	1
456.5579674432451	308.34036005539315	1
239.46118775663166	297.85259270657025	1
230.02219733547454	267.4380673949839	1
275.11959601433625	207.65779350669334	1
319.1682179797361	461.46176334820746	1
333.8510919682027	489.77873519002924	1
525.7772305317305	318.82812740421605	1
463.8994044374784	350.29142945068475	1
367.41194679898354	42.99984613017388	1
441.8750934547785	36.70718572088014	1
109.41287528735597	221.29189106016312	1
254.14406174509824	371.26696414833054	1
212.19299320662222	361.8279735343899	1
214.29054663354603	326.1695645483921	1
339.0949755355122	267.4380673949839	1
457.8295955442961	295.2136656398768	1
504.9110848230544	295.2136656398768	1
540.5403199529255	273.5816297955755	1
522.72570238799	245.58723046765613	1
476.9166857924414	229.04508541024924	1
478.1891584756511	171.78381405768693	1
384.02617991813446	241.76981237748532	1
470.554322376393	351.2024642957155	1
569.8071916667483	169.23886866423973	1
551.9925741018127	134.88210585270232	1
544.3577380025546	193.41584990198825	1
508.72850287268346	90.34556146737609	1
440.01497797936054	35.629235508261	1
396.75090675023125	57.26127135256231	1
367.48403503640856	43.264071688602634	1
359.84919893715045	73.8034164099692	1
331.8547999065374	62.35116213945674	1
334.39974527295675	6.362363483618035	1
224.9670945169239	54.716325959115096	1
260.5963296467951	111.97759731167741	1
231.32945793297233	136.15457854942593	1
312.7677096583921	208.68552226267153	1
353.486835521102	220.137776533184	1
352.21436283789234	290.12377485298236	1
389.11607065097314	394.46653598431817	1
520.1807570215707	404.646317558107	1
535.4504292200868	383.0142817138057	1
601.6190087469904	327.025483057967	1
564.7173009339095	307.93839260711286	1
576.1695550827967	318.11817418090175	1
259.3238569635854	323.20806496779613	1
238.96429403223044	300.30355642677125	1
232.60193061618202	271.0366844021283	1
251.6890208643273	227.77261271352563	1
163.8884057228591	250.67712125455057	1
259.3238569635854	367.7446093531224	1
226.2395672001336	369.017082049846	1
385.29865260134414	425.0058807056847	1
461.6470135939252	411.008681041725	1
492.18635799095756	431.36824418930274	1
478.1891584756511	379.19686362363484	1
484.5515218916995	473.35984318118176	1
464.19195896034455	445.36544385326243	1
507.4560301894738	543.3458415009801	1
352.21436283789234	465.72500700084015	1
272.04858379568225	394.46653598431817	1
207.15247695198835	319.39064687762533	1
174.06818718853654	204.86810417250072	1
165.16087840606878	174.32875945113415	1
120.62433449372982	225.22766732007844	1
110.44455302805234	290.12377485298236	1
375.11887113566667	170.5113413609633	1
573.7571039645014	321.0826233405984	1
599.0790795309109	329.1856548444621	1
613.2593858481002	440.6023380225877	1
535.2677011035589	383.8811174955419	1
516.0229996730877	404.1386962552011	1
477.5335968121453	387.93263324747375	1
471.456322676207	352.4818704180701	1
503.8684514012112	294.7477709530414	1
545.3964913301228	277.52882900733107	1
457.27601635901766	309.94095502278583	1
523.1131528316824	243.09094511591044	1
548.4351283980919	184.34396671289875	1
477.5335968121453	172.18941945710324	1
549.4480074207482	135.72577768971667	1
392.45175890900936	394.0099068753715	1
397.51615402229123	352.4818704180701	1
464.3661695176123	411.22884882108184	1
486.6495080160527	473.0144640380424	1
504.88133042386755	540.8773528829007	1
354.9752350707233	355.52050723201904	1
13.63500443552316	49.63106796116505	1
374.2199365011945	3.0386368139488806	1
134.1676081316324	212.70457697642163	1
169.61837392460572	254.232613433723	1
158.47670467538552	362.61065979789976	1
274.9577922808692	397.0485436893204	1
284.0737034847767	425.40915395284327	1
242.54566355586508	302.8508024569051	1
295.21537273399684	111.41668317812562	1
88.5880521120953	161.04775113929065	1
112.89714865584841	225.87200317020012	1
355.98811409337964	64.82425203090945	1
519.0616367410569	112.42956211610858	1
477.234375	356.0	1
510.234375	300.0	1
462.234375	319.0	1
490.234375	181.0	1
547.234375	193.0	1
552.234375	146.0	1
520.234375	115.0	1
511.234375	91.0	1
484.234375	39.0	1
442.234375	49.0	1
397.234375	59.0	1
362.234375	44.0	1
357.234375	70.0	1
289.234375	116.0	1
256.234375	111.0	1
224.234375	139.0	1
233.234375	78.0	1
220.234375	54.0	1
183.234375	55.0	1
127.234375	211.0	1
173.234375	210.0	1
169.234375	259.0	1
156.234375	296.0	1
157.234375	363.0	1
221.234375	361.0	1
258.234375	321.0	1
241.234375	297.0	1
310.234375	205.0	1
349.234375	219.0	1
353.234375	356.0	1
274.234375	404.0	1
250.234375	371.0	1
193.234375	404.0	1
326.234375	101.0	1
567.234375	171.0	1
543.234375	278.0	1
575.234375	316.0	1
536.234375	382.0	1
514.234375	410.0	1
490.234375	432.0	1
478.234375	383.0	1
391.234375	393.0	1
288.234375	436.0	1
480.234375	465.0	1
461.234375	448.0	1
445.234375	386.0	1
405.234375	228.0	1
382.234375	244.0	1
445.234375	210.0	1
253.234375	183.0	1
242.234375	233.0	1
111.234375	232.0	1
80.234375	130.0	1
64.234375	163.0	1
229.234375	265.0	1
452.234375	296.0	1
601.234375	325.0	1
585.234375	393.0	1
604.234375	441.0	1
356.234375	291.0	1
15.171875	47.0	1
73.171875	42.0	1
133.171875	18.0	1
15.171875	114.0	1
112.171875	98.0	1
332.171875	9.0	1
444.171875	39.0	1
400.171875	53.0	1
359.171875	66.0	1
300.171875	105.0	1
333.171875	61.0	1
229.171875	127.0	1
134.171875	209.0	1
107.171875	229.0	1
162.171875	250.0	1
163.171875	295.0	1
221.171875	369.0	1
285.171875	426.0	1
269.171875	396.0	1
256.171875	365.0	1
503.171875	287.0	1
572.171875	317.0	1
394.171875	399.0	1
532.171875	383.0	1
348.171875	217.0	1
226.171875	272.0	1
240.171875	301.0	1
477.171875	23.0	1
510.171875	93.0	1
81.171875	118.0	1
65.171875	153.0	1
106.171875	293.0	1
224.171875	329.0	1
396.171875	353.0	1
454.171875	298.0	1
383.171875	234.0	1
478.171875	168.0	1
376.171875	6.0	1
567.171875	169.0	1
545.171875	139.0	1
585.171875	382.0	1
475.171875	420.0	1
1.303730579255899	48.03063803712308	1
85.87942216306217	38.63333929072944	1
93.18843254684789	1.0441443051548498	1
130.77762880631735	14.618020272167895	1
14.877607006286535	110.67929634641406	1
31.583916454939626	132.6063267546659	1
78.57041177927644	115.90001787218831	1
114.07131935766425	92.92884315878162	1
181.94070149281742	52.20721525774248	1
339.60649691448094	1.0441443051548498	1
92.14428820630708	160.79822299384685	1
56.64338062791926	159.754078688692	1
31.583916454939626	172.2838103505502	1
40.98121551980699	231.80003574437663	1
114.07131935766425	228.6676028289121	1
367.79839410908306	39.67748359588429	1
361.53352806583814	65.78109122475553	1
330.2091978496136	61.604514004136135	1
319.7677544442054	95.01713176909132	1
290.5317129090625	99.19370898971071	1
297.8407232928482	126.34146092373682	1
168.3668250657868	176.4603875711696	1
179.8524128117358	210.91714964127965	1
119.29204106036835	290.2721168330482	1
156.8812373198378	365.4505068041974	1
212.22088736850117	313.2432915464549	1
227.88305247661344	340.391043480481	1
242.50107324418488	297.5811269691322	1
248.7659392874298	241.1973344907703	1
438.8002092658587	35.50090637526489	1
548.4353650226446	139.91533689074987	1
504.58130271993025	95.01713176909132	1
258.1632383522971	322.6405902928486	1
253.98666099013388	374.84780555059103	1
215.3533203901236	364.40636249904253	1
188.20556753606235	400.9514131794623	1
544.2587876604813	275.6540965608803	1
500.40472535776695	292.36040544335793	1
461.77138475775666	304.8901371052161	1
473.2569725037057	345.61176500625527	1
491.0074262928996	424.9667321980238	1
485.7867045901955	471.9532259299921	1
484.7425602496547	509.54242091556665	1
560.9650971091344	542.9550386805219	1
527.5524782118282	584.7208108867159	1
598.5542933686039	581.5883779712512	1
336.44025947956175	11.536544083705186	1
293.4404142276238	114.31666410216957	1
334.342706052638	65.02415756270196	1
372.0986677372664	4.1951069395291585	1
360.5621238891855	40.902292660409294	1
399.3668622872758	50.341283274349905	1
362.6596773161093	67.12171103246654	1
427.6838335507471	9.438990613940607	1
437.1228239719042	37.75596245576243	1
507.39086377385155	95.43868287428836	1
471.73245551614696	33.56085551623327	1
547.2443788854038	80.75580858593631	1
524.171291189242	8.390213879058317	1
553.5370391661752	53.48761347899677	1
604.9270981258084	69.21926450223111	1
608.073428266194	131.0970918602862	1
546.1956021719419	138.43852900446223	1
572.4150200084894	119.56054777658102	1
561.9272528738704	169.90183105093092	1
513.6835240546229	110.12155716264041	1
526.2688446161658	77.60947838128943	1
475.9275623699946	173.04816125557778	1
447.61059110652326	206.60901677181107	1
376.293774591114	173.04816125557778	1
420.34239655651385	192.97491921834128	1
540.9517186046324	189.82858901369443	1
609.122204979656	184.58470533928298	1
574.5125734354132	188.77981227881213	1
522.0737377623182	249.60886290198493	1
548.2931555988657	275.8282812740422	1
500.0494267796183	294.7062625019234	1
456.00080481421844	300.9989229112171	1
596.5368844181131	327.21834128327436	1
528.3663980430896	320.92568087398064	1
568.2199131546419	308.34036005539315	1
585.0003405700322	377.55962455762426	1
613.3173118335035	445.7301123249731	1
533.610281610399	382.8035082320357	1
516.8298541950087	403.7790429296815	1
468.58612537576124	353.4377596553316	1
478.0251157969183	385.94983843668257	1
492.70798978538494	427.90090783197417	1
465.4397952353755	420.5594706877981	1
461.24468838152796	454.1203262040314	1
483.26899936422785	471.94953069703035	1
486.41532950461357	505.5103862132636	1
492.70798978538494	550.6077858132021	1
607.0246515527322	514.9493768272042	1
566.122359727718	538.0224649946146	1
504.2445336334659	539.0712417294969	1
533.610281610399	579.9735343899061	1
615.4148652604273	562.1443298969073	1
427.6838335507471	500.26650253885214	1
432.92771711805665	540.1200184643792	1
430.83016369113284	476.1446376365595	1
376.293774591114	506.5591629481459	1
390.9766485795806	545.3639021387906	1
351.12313346802836	466.7056470226189	1
385.7327650122711	393.2912755808586	1
392.02542529304253	352.38898292044934	1
377.3425513045759	425.8033543622096	1
379.4401047314997	477.1934143714418	1
407.757075994971	482.43729804585325	1
320.7086087776333	462.5105400830897	1
361.6109006026474	519.1444837667334	1
333.2939293391761	488.72995845514697	1
287.14775394685245	429.99846130173876	1
273.51365667184774	398.53515925527006	1
256.7332292564573	371.26696414833054	1
311.26961835647614	400.63271272503465	1
353.22068689495217	354.48653639021387	1
323.85493891801895	381.75473149715344	1
260.92833611030494	320.92568087398064	1
241.0015785545288	449.92521926450223	1
294.4891909410857	484.5348515156178	1
192.75784973528138	401.6814894599169	1
218.9772675718289	363.9255270041545	1
156.05066476411486	362.87675026927224	1
206.3919470102861	320.92568087398064	1
239.9528018410669	293.6574857670411	1
220.0260442852908	331.41344822280354	1
156.05066476411486	295.75503923680566	1
108.85571265832934	292.6087090321588	1
228.416257992986	271.633174334513	1
164.44087847181007	275.8282812740422	1
112.00204279871504	226.53577473457457	1
170.73353875258147	249.60886290198493	1
166.53843189873388	205.56024003692877	1
130.88002364102925	218.14556085551624	1
82.63629482178182	162.56039390675488	1
40.685226283305795	170.95060778581322	1
26.002352294839184	198.21880289275273	1
85.78262496216752	123.75565471611017	1
59.56320712562	160.46284043699032	1
141.36779077564825	151.02384982304972	1
165.48965518527197	175.14571472534237	1
302.87940464878096	204.51146330204648	1
343.7816964737951	217.09678412063397	1
385.7327650122711	242.2674257578089	1
339.58658961994746	271.633174334513	1
401.4644157141996	217.09678412063397	1
357.4157937487998	241.21864902292663	1
315.46472521032376	96.48745960917064	1
421.3911732699757	141.5848592091091	1
456.00080481421844	167.80427758116633	1
257.7820059699192	116.41421757193415	1
230.5138114199098	133.19464533005078	1
231.56258813337172	76.56070164640714	1
204.29439358336228	206.60901677181107	1
246.24546212183833	226.53577473457457	1
248.3430155487621	182.48715186951839	1
178.07497574681477	55.58516694876135	1
128.78247021410544	20.97553469764579	1
81.58751810831991	42.99984613017388	1
7.124371452524973	47.19495306970303	1
96.27039209678652	10.487767348822896	1
60.61198383908191	31.46330204646869	1
116.19714965256264	98.58501307893522	1
17.612138587143978	110.12155716264041	1
36.49011942945819	132.1458685951685	1
0.831711171753569	92.29235266964149	1
91.02650852947703	69.21926450223111	1
170.73353875258147	89.14602246499462	1
221.0748209987527	51.390060009232194	1
193.8066264487433	105.92645022311126	1
210.5870538641337	161.51161717187262	1
191.70907302181948	125.85320818587476	1
266.1722196776144	210.80412371134022	1
213.7333840045194	117.46299430681644	1
481.17144593730404	230.73088167410373	1
407.757075994971	345.0475457762733	1
400.4156390007377	276.87705800892445	1
357.4157937487998	294.7062625019234	1
352.17191018149026	391.193722111094	1
557.7321460200228	405.8765963994461	1
560.8784761604085	379.65717802738885	1
591.2930008508037	406.92537313432837	1
571.3662432950275	326.1695645483921	1
507.39086377385155	262.1941837205724	1
479.07389251038023	18.877981227881214	1
302.87940464878096	12.585320818587476	1
113.05081951217694	123.75565471611017	1
375.60370782983927	11.531838099170253	1
337.9177178469692	13.039269118751825	1
357.51443263806163	70.3216478628516	1
437.40873140174614	35.65073441247542	1
515.7955905661158	100.47026825448306	1
485.6467985798198	159.26007801816442	1
300.2317278640991	106.49999233280936	1
551.9741409496711	278.3471285651087	1
556.4964597476155	59.76963072578059	1
484.139358980505	29.62101033414913	1
464.5426441894126	306.98831793715857	1
473.5872817853014	355.2261105637689	1
610.7642853229485	130.61888864611453	1
408.7673790147649	55.24733766703587	1
488.6616777784494	468.28343703238687	1
559.5113389462451	533.1029708743945	1
609.2568457236337	513.5063676198341	1
392.1855434223021	398.94161013163455	1
402.7376206175057	341.65923138753476	1
259.53085868259944	319.04776609381116	1
259.53085868259944	374.82271381832936	1
482.6319193811902	385.37473095540037	1
499.21375497365307	430.59766154284756	1
466.05008378872736	420.04564440577656	1
469.064962987357	469.79086805196846	1
478.1096005832458	228.60190491891677	1
514.288150966801	249.70593919305878	1
570.0634161414488	180.36411229230643	1
573.0782953400784	127.60402660695138	1
12.310764394971844	44.69532052996486	1
547.4518221517267	147.20062986151183	1
175.11424112097052	207.49787064477474	1
132.90593234015603	218.04988778184577	1
506.75095297022705	290.40657672176127	1
515.6677479829607	7.729769137302552	1
439.474316365992	35.336087484811664	1
396.40846371292275	54.10838396111786	1
373.2191584381932	6.625516403402187	1
334.57031631364384	8.834021871202916	1
364.38513738115336	43.06585662211422	1
361.0723794847634	67.35941676792224	1
336.77882157790384	69.56792223572296	1
316.9022741995642	99.38274605103281	1
294.81722155696457	108.21676792223572	1
255.0641268002853	117.05078979343864	1
181.0792004475766	50.795625759416765	1
130.2835793695975	18.772296476306195	1
94.94749514143813	7.729769137302552	1
16.54555826020952	49.691373025516405	1
35.31785300641919	175.57618469015796	1
88.32197934865825	161.22089914945323	1
60.71566354540874	159.0123936816525	1
168.9324214941468	212.01652490887	1
167.82816886201684	253.97812879708383	1
112.61553725551782	288.20996354799513	1
227.45781099703578	268.33341433778855	1
240.70884258259554	298.1482381530984	1
265.0024004894551	323.5460510328068	1
221.93654783638587	365.5076549210207	1
156.78564254071702	361.0906439854192	1
259.48113732880523	368.82041312272173	1
273.83642154649493	399.73948967193195	1
457.14235848007166	304.7737545565006	1
505.7294742937908	295.9397326852977	1
548.7953269468601	274.9589307411908	1
527.8145269363904	316.92053462940464	1
474.81040059415136	350.04811664641556	1
396.40846371292275	348.9438639125152	1
386.47019002375293	393.1139732685298	1
484.7486742833212	474.82867557715673	1
468.1848848013715	453.8478736330498	1
467.08063216924154	414.0947752126367	1
492.47844270823106	430.65856622114217	1
477.01890585841136	386.4884568651276	1
516.7720006150906	406.3650060753341	1
533.3357900970403	377.65443499392467	1
598.4866953927092	326.8588092345079	1
489.1656848118411	502.43499392466583	1
565.3591164288098	539.9795868772783	1
431.74454794108215	546.6051032806804	1
321.3192847280841	459.3691373025516	1
517.8762532472206	409.67776427703524	1
531.1272848327803	379.8629404617254	1
567.5676216930698	405.26075334143377	1
584.1314111750195	368.82041312272173	1
489.1656848118411	428.4500607533414	1
482.54016901906124	475.9329283110571	1
491.37419007610106	504.6434993924666	1
464.87212690498154	451.6393681652491	1
462.6636216407216	419.6160388821385	1
481.43591638693124	383.1756986634265	1
469.2891374335015	355.5693803159174	1
459.35086374433166	308.0865127582017	1
504.6252216616609	298.1482381530984	1
534.4400427291703	322.44179829890646	1
545.4825690504701	279.3759416767922	1
484.7486742833212	171.1591737545565	1
359.9681268526334	292.6269744835966	1
331.2575584172539	271.64617253948967	1
204.26850572230617	208.70376670716888	1
220.8322952042559	331.27582017010934	1
400.8254742414427	352.25662211421627	1
573.0888848537196	188.82721749696233	1
394.1999584486628	389.80121506682866	1
433.9530532053421	474.82867557715673	1
428.4317900446922	503.53924665856624	1
265.0024004894551	371.0289185905225	1
217.51953730786596	368.82041312272173	1
259.48113732880523	320.2332928311057	1
242.9173478468555	299.25249088699877	1
234.08332678981566	271.64617253948967	1
240.70884258259554	236.310085054678	1
554.3165901075099	138.03159173754557	1
522.2932637757406	110.42527339003645	1
298.1299794533545	102.6955042527339	1
174.45368465479672	251.76962332928312	1
175.5579372869267	203.18250303766706	1
108.1985267269979	227.47606318347508	1
398.61696897718275	54.10838396111786	1
439.474316365992	40.857351154313484	1
545.4825690504701	76.19343863912515	1
157.88989517284702	358.88213851761844	1
226.35355836490578	53.0041312272175	1
234.08332678981566	81.71470230862697	1
598.4866953927092	330.171567436209	1
480.3316637548013	231.89307411907654	1
536.64854799343	583.0454434993925	1
568.6718743251997	536.6668286755771	1
509.04223219018075	542.188092345079	1
430.64029530895215	546.6051032806804	1
522.2932637757406	249.5611178614824	1
373.03638767542435	3.1935030454474465	1
337.907855007763	5.322505075745744	1
366.64938173584954	40.45103857566766	1
336.84335401783386	62.80555989379978	1
363.45587876606214	65.99906293924722	1
442.2289520208179	39.386537560518505	1
434.777445091314	14.903014212088085	1
485.87349260791234	36.19303451507106	1
473.0994807287628	31.935030454474465	1
514.6150193359989	100.06309542401999	1
548.6790510137312	84.09558019678276	1
611.48460941955	62.80555989379978	1
607.2266054598334	139.4496329845385	1
555.066056953306	139.4496329845385	1
565.7110668525972	178.836170545057	1
579.549579721676	124.54661877245042	1
546.5500490338729	273.57676089333125	1
510.3570153762824	291.6732781508668	1
459.26096785968406	305.51179134780574	1
574.2270747720303	320.4148055598938	1
595.5170945706129	328.930813681087	1
534.8405381446524	322.5438075901921	1
524.1955282453611	260.8027487115415	1
481.6154886481958	169.25566140871467	1
448.61595796039273	205.44869592378572	1
429.4549401416684	186.28767765110106	1
383.6813975747157	172.44916445416212	1
296.39231640052685	109.64360456036233	1
224.00624908534584	56.41855380290489	1
185.6842134478971	53.225050757457446	1
135.65266692122788	15.967515227237232	1
616.8071143691956	439.6389192565985	1
535.9050391345816	384.2848664688427	1
521.0020252755737	395.9943776354834	1
590.1945896209673	386.413868499141	1
572.098072792172	387.4783695142902	1
477.3574846884793	348.0918319537717	1
394.326407474007	390.67187255973766	1
401.7779144035109	347.0273309386225	1
480.5509876582667	385.3493674839919	1
466.712474789188	421.542401999063	1
491.19599755755803	426.8649070748087	1
465.64797379925886	449.2194283929408	1
482.67998963812494	465.18694362017806	1
488.0024945877706	506.70248321099484	1
611.48460941955	507.766984226144	1
568.9045698223847	538.6375136654693	1
500.7765064669202	539.7020146806185	1
538.0340411144398	589.7335623926285	1
428.3904391517392	542.8955177260659	1
271.9087936321568	398.12337966578167	1
224.00624908534584	366.18834921130724	1
263.39278571272376	368.31735124160554	1
154.81368473995227	359.8013431204123	1
271.9087936321568	320.4148055598938	1
175.03920354860577	251.22223957519913	1
243.16726690407023	298.0602842417617	1
231.45775601484976	267.18975480243637	1
109.04014217299958	223.54521318132126	1
133.52366494136962	216.09370607527723	1
177.16820552846403	204.38419490863657	1
161.20069067952704	174.5781664844604	1
249.554272843645	226.7387162267687	1
116.4916491025035	293.8022801811651	1
214.42574017598366	314.0277994689989	1
167.58769661910185	272.51225987818214	1
169.7166985989601	301.25378728720915	1
336.84335401783386	266.1252537872872	1
381.5523955948574	434.31641418085275	1
363.45587876606214	464.12244260502894	1
328.3273460984008	463.05794158987976	1
287.87630848109376	426.8649070748087	1
11.106051099519417	46.83804466656255	1
18.557558029023344	114.96610963610807	1
37.71857584774772	128.804622833047	1
62.20209861611776	157.54615024207402	1
10.041550109590284	98.99859440887084	1
76.04061148519648	44.70904263626425	1
96.26613029384998	7.451507106044042	1
119.68515207229089	101.12759643916914	1
88.81462336434606	113.90160862095892	1
135.65266692122788	134.12712790879277	1
184.61971245796795	84.09558019678276	1
188.8777164176845	130.9336248633453	1
196.32922334718842	105.38560049976574	1
234.65125898463717	72.38606903014212	1
233.58675799470802	133.0626268936436	1
261.2637837328655	119.22411369670468	1
248.4897718537159	184.15867562080277	1
269.7797916522985	208.6421989692332	1
307.0373262998182	207.57769795408404	1
351.7463678768417	218.22270810557552	1
356.0043718365582	243.7707324691551	1
386.8749005445031	237.3837263782602	1
351.7463678768417	358.7368421052632	1
330.45634807825905	382.1558644385444	1
314.4888332293221	389.6073715445885	1
431.5839421215266	474.7674527565204	1
429.4549401416684	497.12197407465254	1
599.7750985303295	579.088552241137	1
