276.04492681075493	134.71883353584448	1
154.57713727645708	15.459538274605103	1
86.11347408439829	67.35941676792224	1
107.09427409486791	90.54872417982989	1
26.483831949379347	77.29769137302551	1
80.59221092374838	179.99319562575943	1
210.89402151508608	123.67630619684083	1
358.8638742205034	290.4184690157959	1
292.6087162927046	341.21409477521263	1
266.1066531215851	373.2374240583232	1
200.95574782591623	339.0055893074119	1
115.92829515190776	345.6311057108141	1
300.3384847176145	409.67776427703524	1
358.8638742205034	376.5501822600243	1
425.11903214830227	406.3650060753341	1
411.8680005627425	456.05637910085056	1
453.8296005836817	504.6434993924666	1
418.4935163555224	352.25662211421627	1
524.5017690400005	398.6352369380316	1
571.9846322215897	246.24835965978127	1
446.0998321587719	225.26755771567437	1
586.3399164392794	272.75042527339	1
590.7569269677994	475.9329283110571	1
538.8570532576903	535.5625759416768	1
84.11780564546844	65.41930310149017	1
152.08449160189053	21.30057737370249	1
121.08214362176818	345.63283137257406	1
208.1271975659579	340.8632394020024	1
272.5166895246736	370.67318921807515	1
296.3646495093831	408.82992498264827	1
354.7921514719214	369.48079122543226	1
354.7921514719214	290.7825237110002	1
450.18399141075946	222.8158381303543	1
414.4120514336952	351.5948213357886	1
421.5664394291081	405.2527310047195	1
409.6424594367533	451.756252717793	1
451.37638940999494	499.45217242350947	1
594.464149318252	477.98900855593706	1
533.6518513572428	531.646918224868	1
507.4190953740623	390.9439550930046	1
277.2862815216155	131.0011926968502	1
577.7705773289554	239.50941002735505	1
582.5401693258973	274.0889518139994	1
19.728313686752745	68.9964970794189	1
81.73300964699747	176.3123164172808	1
6.6119356951625115	225.20063411564013	1
448.234375	221.0	1
577.234375	241.0	1
357.234375	291.0	1
354.234375	386.0	1
299.234375	420.0	1
259.234375	372.0	1
299.234375	342.0	1
278.234375	132.0	1
228.234375	113.0	1
83.234375	71.0	1
191.234375	334.0	1
421.234375	407.0	1
404.234375	453.0	1
429.234375	358.0	1
516.234375	389.0	1
113.234375	346.0	1
79.234375	184.0	1
166.234375	126.0	1
153.234375	11.0	1
105.234375	89.0	1
517.3030301654306	386.88216197498195	1
574.5857349393932	246.69107715389563	1
155.51752632987808	10.024407079588679	1
92.20506315865637	68.81421684327003	1
22.86284159017546	73.33650990201474	1
280.6350130730067	135.14118170485924	1
268.5754962784883	370.30042075958465	1
295.70940906615465	340.15180036795323	1
205.26303310726655	338.6443693483716	1
122.35385514495242	340.1518003679532	1
359.0218722373764	370.30042075958465	1
354.499553439432	287.3917146825981	1
423.84177500791293	352.21124852460576	1
423.84177500791293	403.46390319037926	1
414.7971374120241	456.2239888757343	1
452.48312739489415	222.57218084059048	1
300.23172786409907	407.98619624912396	1
582.1229329359671	522.5509537373235	1
450.97568779557935	499.93948844359994	1
267.3125	372.0	1
292.3125	341.0	1
294.3125	408.0	1
360.3125	370.0	1
413.3125	453.0	1
423.3125	405.0	1
455.3125	502.0	1
591.3125	479.0	1
517.3125	392.0	1
447.3125	221.0	1
274.3125	137.0	1
91.3125	71.0	1
204.3125	341.0	1
120.3125	347.0	1
74.3125	171.0	1
357.3125	291.0	1
426.3125	349.0	1
574.3125	248.0	1
152.3125	20.0	1
93.171875	68.0	1
147.171875	20.0	1
221.171875	120.0	1
278.171875	137.0	1
452.171875	218.0	1
362.171875	292.0	1
273.171875	370.0	1
81.171875	336.0	1
121.171875	347.0	1
194.171875	334.0	1
75.171875	182.0	1
426.171875	420.0	1
360.171875	377.0	1
298.171875	407.0	1
401.171875	451.0	1
503.171875	393.0	1
566.171875	237.0	1
600.171875	481.0	1
459.171875	506.0	1
359.6568701760762	284.90641408421703	1
361.0603501169115	373.3256460413878	1
275.44807372596017	373.3256460413878	1
205.2740766841968	339.64212910532274	1
278.2550336076307	136.13754761659632	1
88.78524159486962	68.77051374446617	1
418.6030276911574	401.3952434881087	1
412.9891079278164	451.9205188922063	1
525.2675031946378	391.5708843817564	1
449.4795863895333	508.05971378564806	1
574.3893011238721	242.8020179141357	1
420.0065076319927	346.659528467003	1
119.6618002932455	345.25604859466694	1
295.0967928976539	343.8525687223309	1
295.0967928976539	404.2022032327808	1
448.4375	221.0	1
584.4375	242.0	1
514.4375	385.0	1
588.4375	475.0	1
408.4375	452.0	1
451.4375	504.0	1
429.4375	409.0	1
428.4375	350.0	1
533.4375	535.0	1
584.4375	520.0	1
361.4375	375.0	1
355.4375	286.0	1
299.4375	407.0	1
274.4375	373.0	1
293.4375	343.0	1
281.4375	134.0	1
219.4375	116.0	1
107.4375	90.0	1
90.4375	70.0	1
153.4375	18.0	1
19.4375	81.0	1
122.4375	346.0	1
155.00188805065295	16.780427758116634	1
89.97773181601512	73.41437144176028	1
17.612138587143978	79.70703185105401	1
104.66060580448173	84.95091552546546	1
223.1723744256765	108.02400369287584	1
278.7575402391572	133.19464533005078	1
211.63583057759558	130.04831512540392	1
354.26946360841407	286.3160486228651	1
225.2699278526003	144.73118941375597	1
195.9041798756671	342.9499923065087	1
270.367326531462	375.46207108785967	1
114.09959622563883	346.09632251115556	1
76.34363454101042	184.58470533928298	1
423.4887266968995	402.73026619479924	1
404.61074585458533	446.7788890598554	1
354.26946360841407	371.26696414833054	1
297.63552108147144	411.12048007385755	1
292.39163751416197	347.1450992460379	1
352.17191018149026	446.7788890598554	1
443.41548425267564	225.48699799969228	1
424.5375034103614	351.340206185567	1
570.3174665815656	245.41375596245578	1
517.8786309084705	391.193722111094	1
452.8544746738327	343.99876904139103	1
555.634592593099	348.19387598092015	1
588.1466707104179	275.8282812740422	1
590.2442241373417	476.1446376365595	1
581.8540104296466	522.2908139713802	1
531.5127281834752	535.92491152485	1
532.5615048969372	489.77873519002924	1
445.51303767959945	501.31527927373446	1
8.173148165986873	228.63332820433914	1
