213.84375	58.0	1
258.84375	42.0	1
332.84375	38.0	1
350.84375	70.0	1
297.84375	81.0	1
579.84375	115.0	1
573.84375	157.0	1
162.84375	227.0	1
369.84375	218.0	1
422.84375	177.0	1
518.8730232957155	390.67187255973766	1
512.4860173561407	332.12431672653446	1
419.87443123230616	174.5781664844604	1
365.58488074592043	216.09370607527723	1
328.3273460984008	215.02920506012808	1
335.77885302790474	40.45103857566766	1
351.7463678768417	72.38606903014212	1
267.6507896724403	70.25706699984383	1
215.49024116591278	59.61205684835234	1
161.20069067952704	220.35171013587382	1
185.6842134478971	188.41667968139936	1
580.6140807116051	112.83710760580978	1
516.7440213158571	77.70857410588786	1
496.51850250720366	96.86959237857255	1
433.7129441013849	60.676557863501486	1
574.2270747720303	156.48164922692487	1
545.4855480439437	370.44635327190383	1
313.4243322393929	192.67468374199595	1
282.5538035314481	27.67702639387787	1
250.61877383357415	42.580040605965955	1
398.5844114337235	23.419022333281276	1
268.7152906623694	46.83804466656255	1
293.19881343073945	277.83476495392784	1
350.6818668869126	373.63985631735125	1
88.81462336434606	215.02920506012808	1
138.84616989101528	146.90114009058254	1
422.00343321216445	7.451507106044042	1
608.2911064497625	294.86678119631426	1
607.2266054598334	374.7043573325004	1
608.2911064497625	210.7712009995315	1
331.0288689208124	40.4331468187955	1
346.5300429108736	66.66590265693952	1
265.44697896286124	71.43549462751116	1
220.13585499191316	61.89631068636788	1
135.47559704619437	153.71095611987195	1
162.90075102861033	221.67764170051782	1
310.7581029338093	189.48289589915927	1
329.8364709215769	212.13845775937455	1
369.1856048963476	218.1004477225891	1
418.0739228650021	179.94371195801597	1
438.3446888520052	65.47350466429661	1
579.0476527617914	117.93901634058466	1
517.0429568015466	78.58988258336862	1
55.58493109741751	102.43784243622683	1
239.21422297968076	380.26657472202487	1
86.58727907753988	216.90804972994619	1
574.2780607648494	159.67294608308652	1
353.6844309062864	371.9197887735245	1
145.0147810400782	38.04835083350968	1
394.2259628802926	20.16238094386603	1
424.0359128611795	9.430799010079838	1
551.6224987793754	507.85315993481623	1
539.6985187870206	448.2332603026708	1
515.8505588023111	385.0361666925965	1
295.2569289437481	275.3355513694488	1
115.3125	216.0	1
85.3125	215.0	1
112.3125	256.0	1
162.3125	218.0	1
252.3125	279.0	1
236.3125	383.0	1
295.3125	279.0	1
355.3125	370.0	1
383.3125	395.0	1
539.3125	451.0	1
516.3125	491.0	1
546.3125	412.0	1
589.3125	394.0	1
543.3125	379.0	1
524.3125	352.0	1
565.3125	182.0	1
571.3125	159.0	1
581.3125	112.0	1
596.3125	16.0	1
271.3125	66.0	1
269.3125	42.0	1
333.3125	42.0	1
353.3125	71.0	1
222.3125	56.0	1
41.3125	221.0	1
53.3125	125.0	1
321.3125	195.0	1
443.3125	64.0	1
396.3125	90.0	1
398.3125	14.0	1
482.3125	67.0	1
444.3125	236.0	1
270.3125	240.0	1
551.3125	514.0	1
59.3125	104.0	1
221.3125	245.0	1
352.3125	256.0	1
217.928490858367	63.97538082781967	1
269.3185498180001	63.97538082781967	1
253.5868991160716	17.829204492998922	1
259.87955939684304	50.341283274349905	1
335.39148276609984	44.04862286505617	1
353.22068689495217	71.31681797199569	1
301.83062793531906	82.85336205570088	1
332.2451526257142	96.48745960917064	1
210.5870538641337	14.682874288352055	1
166.53843189873388	13.634097553469765	1
143.46534420257206	38.80473919064472	1
10.270701592910674	51.390060009232194	1
18.66091530060588	92.29235266964149	1
83.68507153524372	89.14602246499462	1
394.1229787199663	22.024311432528084	1
426.6350568372852	11.536544083705186	1
436.0740472584423	59.78027388829051	1
490.6104363584612	63.97538082781967	1
515.7810774815467	81.80458532081859	1
578.7076802892608	110.12155716264041	1
574.5125734354134	159.41406370210802	1
316.51350192378567	194.02369595322358	1
364.75723074303306	219.19433759039853	1
331.1963759122523	212.9016771811048	1
161.29454833142435	227.58455146945684	1
82.63629482178182	214.99923065086938	1
114.09959622563883	219.19433759039853	1
138.22146063526256	153.12140329281428	1
125.63614007371974	205.56024003692877	1
300.78185122185715	128.99953839052162	1
451.8056979603708	182.48715186951839	1
480.12266922384214	153.12140329281428	1
545.14682545848	375.46207108785967	1
352.17191018149026	371.26696414833054	1
381.5376581584235	390.14494537621175	1
542.0004953180943	442.58378212032625	1
578.7076802892608	327.21834128327436	1
608.073428266194	210.80412371134022	1
501.0982034930802	30.4145253115864	1
268.2697731045382	109.07278042775812	1
56.4168769852343	104.87767348822896	1
79.48996468139612	114.31666410216957	1
236.80647170068121	182.48715186951839	1
418.24484312959004	179.34082166487153	1
489.5616596449993	120.60932451146331	1
490.6104363584612	174.09693799046008	1
249.39179226222402	199.26757962763503	1
237.85524841414312	119.56054777658102	1
318.6110553507095	145.77996614863827	1
432.92771711805665	102.78012001846439	1
598.6344378450369	18.877981227881214	1
518.9274076219325	388.04739190644716	1
551.4394857392514	508.6567164179105	1
232.6113648468336	376.510847822742	1
295.53796765454763	278.97461147868904	1
602.8295446988845	337.70610863209725	1
259.87955939684304	383.85228496691803	1
281.9038703795429	309.3891367902755	1
189.61151959489567	187.73103554392983	1
604.9270981258084	292.6087090321588	1
513.4592427187007	78.40194410692588	1
584.1314111750195	109.32102065613608	1
404.13823213783263	24.29356014580802	1
329.04905315299396	38.64884568651276	1
357.7596215883735	73.98493317132443	1
332.3618110493839	99.38274605103281	1
269.41941101797505	68.4636695018226	1
210.89402151508608	61.83815309842041	1
142.4303583230273	35.336087484811664	1
139.11760042663735	152.3868772782503	1
80.59221092374838	114.8422843256379	1
160.09840043710696	221.95479951397326	1
333.4660636815139	207.59951397326853	1
314.6937689353042	197.66123936816524	1
366.5936426454133	216.43353584447144	1
421.8062742519123	181.09744835965978	1
351.1341057955936	372.13317132442285	1
382.05317949523305	384.27995139732684	1
520.0847585114806	385.3842041312272	1
541.0655585219502	445.0138517618469	1
558.7336006360299	510.1647630619684	1
427.234375	179.0	1
345.234375	213.0	1
318.234375	197.0	1
264.234375	247.0	1
252.234375	288.0	1
227.234375	263.0	1
239.234375	121.0	1
335.234375	39.0	1
210.234375	73.0	1
260.234375	39.0	1
272.234375	71.0	1
393.234375	83.0	1
437.234375	61.0	1
380.234375	270.0	1
347.234375	367.0	1
171.234375	223.0	1
122.234375	204.0	1
112.234375	116.0	1
148.234375	98.0	1
333.234375	97.0	1
546.234375	57.0	1
559.234375	90.0	1
590.234375	119.0	1
583.234375	163.0	1
499.234375	123.0	1
466.234375	107.0	1
488.234375	64.0	1
532.234375	203.0	1
525.234375	285.0	1
502.234375	338.0	1
553.234375	375.0	1
350.234375	263.0	1
370.234375	217.0	1
392.234375	170.0	1
500.234375	96.0	1
499.234375	26.0	1
351.234375	70.0	1
269.234375	115.0	1
258.234375	201.0	1
202.234375	283.0	1
362.234375	304.0	1
433.234375	243.0	1
513.234375	252.0	1
304.234375	132.0	1
307.234375	87.0	1
451.234375	220.0	1
509.8728684251423	330.5456768321674	1
548.7605925318941	374.9887930448958	1
545.9828979528404	416.65421449432864	1
519.5947994518302	390.26611424302115	1
393.20969610488686	169.43938056102698	1
423.7643364744776	181.93900699585683	1
270.99113462652406	69.4423690823881	1
162.66104604342974	222.21558106364193	1
580.7040801910117	112.49663791346873	1
522.372494030884	77.77545337227467	1
487.65131179271276	123.60741696665082	1
494.59554824034694	95.83046933369558	1
436.26396208021924	65.27582693744482	1
400.15393255252116	24.999252869659717	1
339.0446518133397	41.66542144943286	1
139.05064212147326	149.9955172179583	1
329.32272078665176	211.10480201045982	1
312.6565533123296	193.04978604903891	1
351.54427741908137	372.21109828160024	1
579.2648429182874	111.1703338975227	1
578.2160662048256	159.41406370210802	1
216.38810006046984	59.78027388829051	1
329.6559851143551	207.65779350669334	1
351.680296097055	70.26804123711341	1
433.48487974708326	60.8290506231728	1
256.2416151720221	49.29250653946761	1
335.9486453951265	37.75596245576243	1
145.0712835450606	37.75596245576243	1
295.0463535701124	275.8282812740422	1
158.7053808200653	217.09678412063397	1
213.4015211783506	64.3847144697295	1
332.8059112398644	38.6308286818377	1
352.7066429167833	73.7497638471447	1
268.421191108656	72.5791326749678	1
434.6508321746849	63.2140832975526	1
584.4916353891335	114.7218548733362	1
404.2144190217501	114.7218548733362	1
333.97654251497727	92.4798626019751	1
269.59182238376883	111.2099613568055	1
236.81414668060822	115.8924860455131	1
168.91753272406118	217.7373980249034	1
335.1471737900901	213.0548733361958	1
579.8091102886821	156.8645770717046	1
520.1069152579252	83.1148132245599	1
488.4998708298774	126.4281665951052	1
545.8608033104085	373.4313439244311	1
595.0273168651495	395.6733361957922	1
357.38916801723485	257.538857878918	1
352.7066429167833	373.4313439244311	1
534.1544905592797	444.839845427222	1
520.1069152579252	387.4789179905539	1
532.9838592841669	287.9752683555174	1
316.41707338828405	191.9835122370116	1
141.99301339646493	148.6701588664663	1
90.48523729149821	214.2255045083727	1
469.76977042807135	106.5274366680979	1
503.71807740634483	23.412623443538	1
400.7025251964114	23.412623443538	1
605.5629983411654	300.8522112494633	1
421.77388814844323	179.1065693430657	1
85.80271219104668	111.2099613568055	1
60.048824138563326	105.356805495921	1
15.564835684273882	94.8211249463289	1
129.11606937022324	201.34856161442679	1
370.26611204347654	216.5667668527265	1
303.54012936204236	131.1106912838128	1
607.9042608913911	209.5429798196651	1
530.6425967339411	199.007299270073	1
493.18239593032894	97.1623872906827	1
549.3726971357472	49.1665092314298	1
487.3292395547645	59.7021897810219	1
