594.0051503798754	205.56422559475536	1
421.4031098510226	442.7273410210175	1
464.8830131903519	491.4775369697491	1
605.8633058360562	424.2813209323082	1
495.187188245036	192.38849695996302	1
580.8294220952301	293.841607447864	1
561.0658296682623	329.4160747618034	1
536.0319459274363	436.1394767036213	1
587.4172862375528	474.34908974451906	1
604.5457330075916	509.9235570584584	1
541.3022372412944	380.80141643749346	1
570.288839467514	422.963748068829	1
590.0524318944819	359.72025062182576	1
532.0792274420427	259.5847129974039	1
503.09262521582315	233.23325572781928	1
570.288839467514	177.89519546169146	1
597.957868865269	256.94956727044547	1
421.171875	447.0	1
473.171875	196.0	1
558.171875	401.0	1
586.171875	474.0	1
598.171875	505.0	1
583.171875	300.0	1
556.171875	329.0	1
227.171875	117.0	1
363.171875	155.0	1
461.3125	348.0	1
459.3125	373.0	1
452.3125	407.0	1
417.3125	447.0	1
581.3125	474.0	1
600.3125	496.0	1
562.3125	503.0	1
575.3125	527.0	1
499.3125	517.0	1
523.3125	496.0	1
561.3125	402.0	1
539.3125	388.0	1
590.3125	355.0	1
589.3125	300.0	1
559.3125	331.0	1
492.3125	305.0	1
535.3125	265.0	1
544.3125	46.0	1
608.3125	42.0	1
553.3125	107.0	1
466.3125	265.0	1
438.3125	298.0	1
491.3125	475.0	1
527.3125	413.0	1
489.3125	335.0	1
555.7048289795284	401.3768932962032	1
543.2052033737867	388.87726686137336	1
540.4275087947331	433.32038307410176	1
586.2594693491191	472.2081097602391	1
605.703331402495	511.09583644637644	1
554.3159816900015	341.6564558853495	1
232.10341051977224	119.44087482170754	1
533.4832723470988	265.26984989472254	1
416.82010002684336	448.59770427222713	1
500.15093739845435	516.6512259729675	1
600.8395995202586	205.44869592378572	1
230.39325502492065	121.35311572700297	1
396.45540945386523	133.0626268936436	1
364.5203797559913	161.80415430267064	1
422.00343321216445	448.1549273777917	1
534.8405381446524	430.05841012025616	1
572.098072792172	428.993909105107	1
587.0010866511799	472.6384507262221	1
598.7105975404004	502.44447915039825	1
583.8075836813925	232.06122130251447	1
600.8395995202586	262.9317507418398	1
587.0010866511801	304.44729033265656	1
616.8071143691956	295.93128221146327	1
592.3235916008256	359.8013431204123	1
555.066056953306	336.3823207871311	1
469.9059777589754	491.7994689989068	1
503.9700094367076	523.7344994533812	1
534.8405381446524	387.4783695142902	1
564.6465658626681	394.92987662033426	1
455.00296389996754	404.51038575667656	1
558.2595599230933	504.57348118069655	1
521.0020252755737	503.5089801655474	1
483.7444906280541	480.0899578322661	1
507.163512406495	471.57394971107294	1
479.4864866683376	442.8324223020459	1
496.51850250720366	426.8649070748087	1
440.0999500409597	311.8987974387006	1
611.48460941955	575.8950491956896	1
543.3565460640855	527.9925035139778	1
577.4205777418177	532.2505075745744	1
563.582064872739	553.5405278775575	1
583.8075836813925	585.4755583320319	1
531.6470351748651	266.1252537872872	1
544.4210470540146	190.54568171169765	1
578.4850787317469	104.3210994846166	1
559.3240609130224	61.741058878650634	1
605.0976034799752	41.51553959081681	1
609.3556074396917	72.38606903014212	1
606.1621044699043	88.35358425737935	1
462.45447082947146	248.02873652975168	1
465.64797379925886	286.350773075121	1
456.06746488989666	367.25285022645636	1
453.93846291003837	343.8338278931751	1
495.45400151727455	299.12478525691085	1
491.19599755755803	334.25331875683275	1
468.84147676904627	322.5438075901921	1
497.58300349713284	394.92987662033426	1
503.9700094367076	237.3837263782602	1
500.7765064669202	191.6101827268468	1
439.0354490510305	50.031547712009996	1
354.9398708466291	203.31969389348743	1
456.06746488989666	200.12619084803998	1
550.8080529935894	109.64360456036233	1
541.2275440842272	47.9025456817117	1
225.2699278526003	120.60932451146331	1
233.6601415602955	158.36528696722573	1
242.0503552679907	195.07247268810588	1
271.41610324492393	231.77965840898602	1
278.7575402391572	103.82889675334667	1
515.7810774815467	52.43883674411448	1
554.5858158796372	60.8290506231728	1
530.4639514700134	71.31681797199569	1
469.63490208922315	195.07247268810588	1
419.29361984305194	448.87644252961996	1
452.8544746738327	404.8278196645638	1
454.95202810075654	367.07185720880136	1
454.95202810075654	249.60886290198493	1
534.659058323861	103.82889675334667	1
545.14682545848	151.02384982304972	1
552.4882624527133	115.36544083705186	1
601.7807679854226	35.658408985997845	1
505.2933103469278	466.7056470226189	1
506.34208706038964	523.3395907062626	1
502.1469802065421	431.047238036621	1
467.53734866229934	491.87628865979383	1
558.7809227334847	551.6565625480844	1
551.4394857392514	503.41283274349905	1
517.8786309084705	503.41283274349905	1
488.5128829315374	478.24219110632407	1
471.73245551614696	443.6325588552085	1
536.7566117507848	434.19356824126794	1
560.8784761604085	401.6814894599169	1
571.3662432950275	429.99846130173876	1
587.097893996956	470.90075396214803	1
597.5856611315751	500.26650253885214	1
572.4150200084894	531.7298045853208	1
605.9758748392702	569.4857670410832	1
546.1956021719419	528.583474380674	1
577.658903575799	585.2174180643176	1
525.2200679027039	412.1692568087398	1
500.0494267796183	339.80366210186185	1
532.5615048969372	380.7059547622711	1
460.19591166806606	346.09632251115556	1
438.1716006853661	317.7793506693338	1
535.7078350373229	268.48684412986614	1
533.610281610399	185.63348207416527	1
575.5613501488751	101.73134328358209	1
540.9517186046324	45.097399599938456	1
511.58597062769917	206.60901677181107	1
501.0982034930802	237.02354208339747	1
574.5125734354132	202.4139098322819	1
582.9027871431084	232.8284351438683	1
600.7319912719607	263.2429604554547	1
588.1466707104179	360.77919679950764	1
580.8052337161846	303.0964763809817	1
554.5858158796372	336.657331897215	1
230.77056889342572	121.46780072904009	1
202.06000045804623	87.2359659781288	1
363.28088474902336	157.90814094775212	1
537.7528006255602	266.12490886998785	1
562.0463585324198	401.94799513973265	1
536.6485479934303	383.1756986634265	1
525.6060216721305	414.0947752126367	1
585.2356638071494	473.7244228432564	1
571.9846322215897	424.03304981774	1
601.7994532890991	505.74775212636695	1
555.42084273964	500.2264884568651	1
506.8337269259208	517.894532199271	1
469.2891374335015	490.28821385176184	1
523.3975164078705	500.2264884568651	1
421.8062742519123	449.43086269744833	1
