586.6452517339116	136.64861272444082	1
554.9890201483007	97.45540621531991	1
600.2122081277448	88.41082009783048	1
402.7376206175057	144.18576782234868	1
304.75404666204355	76.35137194117789	1
226.3671874976738	61.27706174536216	1
205.26303310726655	43.187889510383286	1
163.0547243264521	19.068993197078118	1
181.14399951822972	88.41082009783048	1
150.99520753193366	129.11145762653294	1
68.08602956961954	109.5148543719725	1
96.72738195660077	83.88852703908576	1
24.370281189490264	135.14118170485924	1
163.0547243264521	180.36411229230643	1
401.2301810181909	311.5106109959033	1
497.70631537433826	201.46814656644847	1
544.4369429530971	181.87154331188802	1
407.2599394154501	216.54245676226418	1
357.51443263806163	213.52759472310103	1
279.1275734736919	233.12419797766148	1
357.51443263806163	10.024407079588679	1
606.241966525004	278.3471285651087	1
526.3476677613195	462.2537129540606	1
609.2568457236337	388.3895929945635	1
511.27327176817147	2.487251981680814	1
362.036751436006	347.68895546586106	1
315.30612385724714	395.92674809247137	1
212.80023110384056	353.71867954418735	1
135.92081153878564	187.9012673902143	1
369.57394943258004	144.18576782234868	1
414.7971374120241	58.26219970619901	1
333.3953990490248	168.30466413565384	1
392.1855434223021	180.36411229230643	1
227.8746270969886	279.85455958469026	1
108.7868987511192	14.546700138333398	1
99.74226115523038	302.46602487841386	1
432.8864126038017	489.3874713065289	1
497.70631537433826	504.46178150234465	1
340.93259704559875	490.89490232611047	1
343.94747624422837	427.5827995036844	1
101.24970075454519	248.19850817347722	1
592.6750101311708	207.49787064477474	1
109.3125	292.0	1
91.3125	333.0	1
348.3125	319.0	1
319.3125	399.0	1
344.3125	423.0	1
403.3125	316.0	1
527.3125	471.0	1
420.3125	496.0	1
490.3125	497.0	1
512.3125	113.0	1
580.3125	136.0	1
537.3125	179.0	1
498.3125	197.0	1
555.3125	246.0	1
598.3125	286.0	1
373.3125	139.0	1
401.3125	142.0	1
395.3125	189.0	1
356.3125	208.0	1
340.3125	173.0	1
304.3125	75.0	1
363.3125	13.0	1
207.3125	47.0	1
149.3125	112.0	1
164.3125	178.0	1
110.3125	160.0	1
96.3125	103.0	1
14.3125	136.0	1
108.3125	22.0	1
277.3125	235.0	1
307.3125	264.0	1
320.3125	296.0	1
530.0230322006504	469.3074119076549	1
411.8680005627425	359.98639125151885	1
537.7528006255602	176.6804374240583	1
497.99970586888094	200.97399756986633	1
396.40846371292275	146.86561360874848	1
371.01065317393324	140.2400972053463	1
579.7144006464995	135.82308626974483	1
604.0079585533591	286.0014580801944	1
403.03397950570263	215.32928311057108	1
351.1341057955936	212.01652490887	1
214.20677941147602	357.7778857837181	1
22.066821420859423	132.51032806804375	1
69.54968460244858	115.94653705953827	1
205.37275835443617	47.48286755771567	1
297.0257268212245	72.88068043742406	1
244.02160047898548	204.28675577156744	1
152.3686320121971	125.88481166464156	1
274.94067417862493	239.6228432563791	1
513.4592427187007	115.94653705953827	1
559.8378532681598	98.27849331713244	1
356.6553689562435	12.14678007290401	1
91.63473724504819	336.79708383961116	1
107.09427409486791	300.3567436208991	1
346.71709526707366	326.8588092345079	1
228.56206362916575	283.79295261239366	1
401.9297268735727	312.5035236938032	1
393.0957058165328	193.2442284325638	1
558.2595599230933	248.02873652975168	1
496.51850250720366	197.9971888177417	1
539.098542104369	183.09417460565362	1
578.4850787317469	139.4496329845385	1
556.1305579432351	100.06309542401999	1
578.4850787317469	65.99906293924722	1
604.0331024900461	93.6760893331251	1
516.7440213158571	104.3210994846166	1
506.0990114165659	139.4496329845385	1
404.97141737329844	145.8366390754334	1
349.6173658969834	209.70669998438234	1
403.9069163833692	221.41621115102296	1
418.80993024237705	61.741058878650634	1
378.35889262507	131.99812587849445	1
332.58535005811734	168.19116039356553	1
367.71388272577866	145.8366390754334	1
527.3890312151485	467.31594565047635	1
496.51850250720366	503.5089801655474	1
341.1013579775504	317.2213025144464	1
399.64891242365263	306.57629236295486	1
412.42292430280224	355.5433390598157	1
337.907855007763	425.80040605965957	1
301.7148213501725	304.44729033265656	1
332.58535005811734	288.4797751054193	1
286.81180749116464	322.5438075901921	1
242.1027659141411	250.15773856004998	1
230.39325502492065	70.25706699984383	1
214.42574017598366	13.838513196938935	1
296.39231640052685	72.38606903014212	1
154.81368473995227	106.45010151491489	1
92.00812633413346	93.6760893331251	1
62.20209861611776	117.09511166640638	1
105.84663920321218	299.12478525691085	1
95.20162930392085	336.38232078713105	1
214.42574017598366	356.6078400749649	1
312.3598312494638	395.9943776354834	1
362.391377776133	347.0273309386225	1
271.9087936321568	241.6417304388568	1
351.7463678768417	9.58050913634234	1
513.5505183460698	6.387006090894893	1
159.07168869966878	187.3521786662502	1
162.2651916694562	20.22551928783383	1
73.91160950533822	10.645010151491489	1
17.49305703909421	138.38513196938936	1
115.42714811257437	157.54615024207402	1
99.45963326363739	253.35124160549742	1
299.58581937031425	257.609245666094	1
427.3259381618101	493.92847102920507	1
345.3593619372669	496.05747305950337	1
394.326407474007	186.28767765110106	1
142.03967286080268	127.74012181789786	1
201.65172829683408	39.386537560518505	1
211.70439156366433	17.723383395773762	1
355.98454947115687	9.376597447273392	1
419.1816434306371	60.649711130918526	1
513.3810853702397	109.53802882927783	1
512.1886873710042	138.15558065270767	1
495.49511538170754	197.7754802848532	1
400.10327544286946	146.50236660120805	1
298.74944550785403	74.95848704263345	1
229.59036155219647	63.034507116204345	1
148.50729760418412	122.65440674834986	1
62.65464165922987	115.50001879249238	1
113.92775562635532	156.04155054235133	1
161.62367559577436	183.46670437313827	1
107.96576563017794	18.915781388416672	1
156.85408359883246	18.915781388416672	1
582.5401693258973	139.3479786453506	1
558.6922093411878	97.61404890284874	1
558.6922093411878	252.62578794642704	1
581.3477713266618	70.18889507206181	1
355.98454947115687	210.8918582039252	1
332.13658948644735	169.15792846142335	1
396.5260814451631	189.4286943363528	1
402.4880714413404	224.0082361229972	1
404.8728674398114	314.6304835638584	1
342.8681714795666	319.40007553443	1
364.33133546580524	344.4404333799311	1
407.25766343828235	356.36441330636023	1
525.3050653625944	462.48783465157925	1
427.5284294252854	498.2597744308665	1
313.05822149867976	399.290741041505	1
93.65698963935223	336.0936474314308	1
93.65698963935223	250.24099196114122	1
164.0084715942453	251.43338995378414	1
240.32194354531575	244.27900199792668	1
23.305507684459172	136.96318266006477	1
30.459895679872027	294.3597176889289	1
135.39091961259388	189.4286943363528	1
341.6757734803312	494.6825804529378	1
214.0891875621353	351.5948213357886	1
88.88739764241033	95.22925291756292	1
229.59036155219647	281.2433397698569	1
175.93245158660005	88.07486496170546	1
490.72552338476567	542.3785001586542	1
74.57862165158463	5.799403469344662	1
510.4375	110.0	1
558.4375	93.0	1
582.4375	130.0	1
533.4375	177.0	1
506.4375	140.0	1
422.4375	62.0	1
348.4375	11.0	1
376.4375	134.0	1
401.4375	139.0	1
396.4375	188.0	1
404.4375	219.0	1
501.4375	197.0	1
563.4375	247.0	1
406.4375	308.0	1
405.4375	356.0	1
294.4375	73.0	1
354.4375	209.0	1
336.4375	168.0	1
236.4375	245.0	1
247.4375	198.0	1
279.4375	197.0	1
238.4375	284.0	1
340.4375	426.0	1
340.4375	392.0	1
315.4375	395.0	1
432.4375	494.0	1
491.4375	495.0	1
531.4375	464.0	1
342.4375	493.0	1
162.4375	182.0	1
96.4375	332.0	1
106.4375	296.0	1
97.4375	251.0	1
145.4375	213.0	1
133.4375	186.0	1
121.4375	159.0	1
91.4375	124.0	1
156.4375	15.0	1
31.4375	298.0	1
158.4375	252.0	1
207.4375	43.0	1
148.4375	118.0	1
89.4375	94.0	1
66.4375	113.0	1
28.4375	134.0	1
502.1501198561931	196.4025974025974	1
405.3319365478302	222.6818181818182	1
392.8838844081836	190.87012987012986	1
401.18258583461466	139.69480519480518	1
338.9423251363814	168.74025974025975	1
355.5397279892436	207.46753246753246	1
402.56570273901986	311.2012987012987	1
524.279990326676	463.34415584415586	1
536.7280424663227	179.80519480519482	1
574.0721988852627	134.16233766233765	1
561.624146745616	99.58441558441558	1
585.1371341205041	74.68831168831169	1
515.9812889002449	112.03246753246754	1
305.74751943065695	69.15584415584415	1
242.1241418280185	242.04545454545453	1
235.2085573059926	284.9220779220779	1
240.74102492361334	203.3181818181818	1
69.23452877737053	117.56493506493507	1
312.6631039526829	395.57142857142856	1
373.52024774651096	135.54545454545453	1
367.9877801288902	352.6948051948052	1
212.171875	11.0	1
204.171875	45.0	1
91.171875	94.0	1
66.171875	115.0	1
22.171875	137.0	1
145.171875	111.0	1
115.171875	156.0	1
159.171875	183.0	1
98.171875	250.0	1
108.171875	295.0	1
213.171875	346.0	1
372.171875	135.0	1
418.171875	61.0	1
509.171875	113.0	1
495.171875	198.0	1
604.171875	283.0	1
400.171875	310.0	1
350.171875	208.0	1
348.171875	317.0	1
263.171875	484.0	1
309.171875	391.0	1
244.171875	246.0	1
497.171875	499.0	1
523.171875	458.0	1
425.171875	492.0	1
335.171875	423.0	1
392.171875	187.0	1
534.171875	178.0	1
301.171875	63.0	1
351.171875	10.0	1
583.171875	136.0	1
333.171875	170.0	1
163.171875	249.0	1
419.59776898765233	61.83815309842041	1
351.1341057955936	6.625516403402187	1
513.4592427187007	5.521263669501822	1
484.7486742833212	8.834021871202916	1
583.0271585428894	67.35941676792224	1
601.7994532890991	88.34021871202916	1
562.0463585324198	96.06998784933171	1
577.5058953822396	139.13584447144592	1
510.14648482231075	110.42527339003645	1
507.9379795580508	134.71883353584448	1
532.2315374649104	175.57618469015796	1
496.895453236751	198.76549210206562	1
560.9421059002898	248.456865127582	1
557.6293480038998	332.3800729040097	1
523.3975164078705	465.99465370595385	1
496.895453236751	499.1222357229648	1
428.4317900446922	495.80947752126366	1
338.9873268421638	499.1222357229648	1
337.8830742100338	471.5159173754557	1
340.0915794742938	425.13730255164035	1
316.9022741995642	398.6352369380316	1
263.8981478573251	425.13730255164035	1
364.38513738115336	351.1523693803159	1
395.3042110807928	310.2950182260024	1
407.45099003422257	358.88213851761844	1
350.0298531634636	208.70376670716888	1
330.15330578512396	168.95066828675576	1
300.3384847176145	79.50619684082625	1
213.10252677934602	9.938274605103281	1
157.88989517284702	13.251032806804375	1
177.76644255118666	90.54872417982989	1
164.5154109656269	183.3059538274605	1
111.51128462338784	159.0123936816525	1
59.61141091327876	113.73803159173754	1
90.5304846129182	89.44447144592952	1
70.65393723457856	7.729769137302552	1
101.573010934218	251.76962332928312	1
97.1560004056981	339.0055893074119	1
216.41528467573596	350.04811664641556	1
192.1217267688764	409.67776427703524	1
18.754063524469483	135.82308626974483	1
105.99002146273793	302.5652490886999	1
529.921875	462.0	1
604.921875	286.0	1
552.921875	254.0	1
500.921875	200.0	1
577.921875	143.0	1
509.921875	147.0	1
511.921875	112.0	1
396.921875	188.0	1
404.921875	217.0	1
352.921875	209.0	1
333.921875	158.0	1
398.921875	148.0	1
366.921875	133.0	1
421.921875	68.0	1
350.921875	12.0	1
298.921875	76.0	1
234.921875	66.0	1
201.921875	45.0	1
208.921875	15.0	1
156.921875	17.0	1
109.921875	16.0	1
88.921875	97.0	1
70.921875	123.0	1
146.921875	120.0	1
348.921875	325.0	1
369.921875	349.0	1
411.921875	359.0	1
314.921875	305.0	1
306.921875	267.0	1
243.921875	246.0	1
195.921875	181.0	1
163.921875	182.0	1
187.921875	91.0	1
30.921875	138.0	1
117.921875	161.0	1
285.921875	323.0	1
503.921875	501.0	1
433.921875	505.0	1
345.921875	496.0	1
340.921875	421.0	1
219.921875	347.0	1
238.921875	280.0	1
108.921875	290.0	1
536.921875	188.0	1
592.921875	213.0	1
579.921875	75.0	1
559.921875	101.0	1
338.921875	292.0	1
401.921875	316.0	1
139.921875	188.0	1
73.921875	12.0	1
96.921875	339.0	1
277.921875	244.0	1
314.921875	398.0	1
149.921875	218.0	1
