520.234375	333.0	1
510.234375	370.0	1
346.234375	314.0	1
433.234375	299.0	1
426.234375	339.0	1
220.234375	315.0	1
158.234375	281.0	1
95.234375	284.0	1
105.234375	242.0	1
118.234375	210.0	1
254.234375	60.0	1
196.234375	30.0	1
130.234375	147.0	1
107.234375	175.0	1
83.234375	185.0	1
47.234375	185.0	1
22.234375	204.0	1
269.234375	376.0	1
369.234375	470.0	1
274.234375	452.0	1
362.234375	284.0	1
215.234375	394.0	1
173.234375	400.0	1
30.3125	197.0	1
252.3125	62.0	1
42.3125	183.0	1
110.3125	210.0	1
82.3125	187.0	1
112.3125	171.0	1
219.3125	308.0	1
210.3125	396.0	1
268.3125	381.0	1
548.3125	394.0	1
519.3125	327.0	1
500.3125	365.0	1
439.3125	298.0	1
362.3125	470.0	1
481.3125	531.0	1
266.3125	452.0	1
250.99773160471256	60.8290506231728	1
219.53443020085552	310.43791352515774	1
205.90033292585082	403.7790429296815	1
362.168063231674	468.8032004923835	1
454.4604140163213	438.38867518079707	1
610.7281443221444	240.16987228804433	1
158.7053808200653	286.3160486228651	1
274.07081930087435	380.7059547622711	1
357.9729563778264	277.9258347438068	1
434.53365646054516	304.145253115864	1
506.8992496894163	360.77919679950764	1
40.193612198870525	183.53592860440068	1
479.6310551394069	530.6810278504386	1
224.92279585589054	311.57253165860186	1
212.29147638837316	401.3952434881087	1
274.0445937851249	378.939565530732	1
163.1696784591388	286.3098939565531	1
121.06528023408077	211.9254607227427	1
50.8912831923174	183.8558632760218	1
547.723182248002	395.78132399876455	1
477.5491852062387	533.3223514876969	1
359.6568701760762	474.37619684958304	1
83.17132183152854	182.4523834036858	1
193.8066264487433	26.21941837205724	1
252.53812240260973	67.12171103246654	1
122.48980993333404	154.17018002769657	1
121.44103321987214	79.70703185105401	1
108.85571265832934	177.24326819510694	1
109.90448937179123	212.9016771811048	1
83.68507153524372	181.43837513463612	1
44.88033313715339	185.63348207416527	1
100.46549895063413	275.8282812740422	1
28.099905721762987	199.26757962763503	1
153.95311133719105	287.36482535774735	1
220.0260442852908	310.43791352515774	1
267.2209963910763	376.510847822742	1
358.4645704622617	470.90075396214803	1
436.0740472584423	299.95014617633484	1
515.7810774815467	336.657331897215	1
550.3907090257895	393.2912755808586	1
608.073428266194	239.12109555316204	1
511.58597062769917	368.1206339436837	1
458.09835824114225	438.38867518079707	1
265.1234429641525	449.92521926450223	1
479.07389251038023	530.6810278504386	1
214.7821607179813	399.5839359901523	1
358.4645704622617	287.36482535774735	1
479.07389251038023	418.4619172180336	1
32.171875	197.0	1
105.171875	178.0	1
113.171875	210.0	1
101.171875	278.0	1
224.171875	312.0	1
217.171875	396.0	1
270.171875	379.0	1
474.171875	423.0	1
548.171875	397.0	1
510.171875	366.0	1
360.171875	472.0	1
43.66095110506275	183.5209059359447	1
111.62763706148486	215.7156517373033	1
111.62763706148486	178.75131396537307	1
81.81768708059798	188.29049790651635	1
28.159777115001567	199.02207984030255	1
216.55866099420672	311.1074911487361	1
154.553965033962	286.067133303235	1
248.75340697356458	53.549524737867515	1
612.4347967403846	238.3712135975186	1
437.15229085276974	305.14550118552154	1
273.79376495750955	383.8437686999536	1
215.36626299497124	400.5373405969543	1
518.235354800782	328.99346103837973	1
482.4634148237178	534.0859157729603	1
357.26162490399287	472.08122015552897	1
549.2377027809044	390.99815665581104	1
502.7341808107209	368.3425947955958	1
100.89605506836558	278.9127453473775	1
195.84375	25.0	1
253.84375	55.0	1
107.84375	180.0	1
80.84375	191.0	1
121.84375	218.0	1
42.84375	182.0	1
22.84375	200.0	1
504.84375	364.0	1
514.84375	331.0	1
434.84375	302.0	1
222.84375	310.0	1
269.84375	382.0	1
361.84375	468.0	1
207.84375	398.0	1
360.84375	286.0	1
157.84375	291.0	1
100.84375	275.0	1
223.04080046851584	311.39927095990276	1
158.994147804977	289.3142162818955	1
97.1560004056981	279.3759416767922	1
119.2410530482977	214.2250303766707	1
108.1985267269979	175.57618469015796	1
83.90496882013832	184.41020656136087	1
44.15187406345903	178.88894289185905	1
30.900842477899268	198.76549210206562	1
256.16837943241524	59.62964763061969	1
121.44955831255766	75.08918590522478	1
193.22597940100638	25.397812879708383	1
214.20677941147602	397.53098420413124	1
268.31515838584505	379.8629404617254	1
358.8638742205034	474.82867557715673	1
507.9379795580508	363.2991494532199	1
433.9530532053421	301.46099635479953	1
359.9681268526334	280.4801944106926	1
607.320716449749	235.20583232077763	1
