59.3125	61.0	1
38.3125	93.0	1
113.3125	87.0	1
244.3125	100.0	1
258.3125	68.0	1
125.3125	180.0	1
116.3125	246.0	1
79.3125	217.0	1
176.3125	186.0	1
224.3125	255.0	1
231.3125	283.0	1
295.3125	191.0	1
399.3125	70.0	1
434.3125	114.0	1
496.3125	76.0	1
498.3125	180.0	1
519.3125	225.0	1
594.3125	243.0	1
449.3125	277.0	1
424.3125	262.0	1
354.3125	149.0	1
439.3125	333.0	1
523.3125	384.0	1
524.3125	425.0	1
464.3125	435.0	1
495.3125	501.0	1
380.3125	342.0	1
394.3125	217.0	1
267.3125	398.0	1
192.3125	280.0	1
267.3125	277.0	1
343.3125	261.0	1
400.8254742414427	70.67217496962333	1
495.791200604621	80.61044957472662	1
501.31246376527093	179.99319562575943	1
517.8762532472206	225.26755771567437	1
425.11903214830227	266.12490886998785	1
411.8680005627425	198.76549210206562	1
393.0957058165328	219.74629404617255	1
353.34261105985354	152.3868772782503	1
319.11077946382414	24.29356014580802	1
345.61284263494366	8.834021871202916	1
256.16837943241524	62.94240583232078	1
240.70884258259554	112.63377885783719	1
230.77056889342572	170.05492102065614	1
288.1917057641847	280.4801944106926	1
384.261684759493	334.58857837181046	1
468.1848848013715	431.7628189550425	1
516.7720006150906	382.07144592952613	1
518.9805058793506	420.7202916160389	1
438.370063733862	329.06731470230864	1
398.61696897718275	266.12490886998785	1
327.94480052086396	312.5035236938032	1
351.1341057955936	371.0289185905225	1
432.84880057321215	120.36354799513973	1
219.7280425721259	27.606318347509113	1
108.1985267269979	235.20583232077763	1
61.819916177538715	60.733900364520046	1
242.171875	113.0	1
358.171875	151.0	1
236.171875	284.0	1
450.171875	274.0	1
397.171875	251.0	1
320.171875	157.0	1
252.171875	62.0	1
445.171875	432.0	1
520.0847585114806	227.47606318347508	1
438.370063733862	129.19756986634266	1
401.9297268735727	75.08918590522478	1
362.17663211689336	156.80388821385176	1
322.4235373602141	29.814823815309843	1
251.75136890389535	67.35941676792224	1
241.8130952147255	111.52952612393682	1
393.0957058165328	217.53778857837182	1
426.22328478043227	268.33341433778855	1
396.40846371292275	261.7078979343864	1
494.686947972491	82.81895504252734	1
422.9105268840423	107.11251518833535	1
504.6252216616609	177.7846901579587	1
591.8611795999293	247.35261239368165	1
398.87524820284057	73.41437144176028	1
356.92417966436454	154.17018002769657	1
517.3870168240353	227.58455146945684	1
253.09528503163637	66.07293429758425	1
429.28977289323564	329.31589475303895	1
317.0706645528123	22.024311432528084	1
496.4114825547973	80.75580858593631	1
415.65567561823093	198.21880289275273	1
523.6796771048067	380.7059547622711	1
521.5821236778829	423.70580089244504	1
472.28961814517356	433.1447915063856	1
401.2301810181909	71.82907888243318	1
438.91617100106095	123.08173354820666	1
505.24351337091224	79.36623398034104	1
248.97878148739582	61.27706174536216	1
245.96390228876623	112.52971641113565	1
520.3179093640603	222.57218084059048	1
591.167570531856	242.16878409515093	1
359.0218722373764	151.72292292025654	1
342.44003664491356	10.024407079588679	1
315.30612385724714	25.098717275404404	1
428.36409380585735	270.8099734672008	1
227.8746270969886	172.82695719439857	1
408.7673790147649	198.45328452728532	1
398.21530181956126	254.22823225180352	1
500.7211945729678	177.34925025314328	1
242.234375	108.0	1
369.234375	332.0	1
426.234375	265.0	1
457.234375	274.0	1
443.234375	482.0	1
448.234375	435.0	1
412.234375	422.0	1
532.234375	312.0	1
156.234375	244.0	1
107.234375	240.0	1
222.234375	210.0	1
364.234375	155.0	1
354.234375	200.0	1
337.234375	255.0	1
400.234375	75.0	1
220.234375	261.0	1
520.234375	423.0	1
476.234375	437.0	1
525.234375	229.0	1
405.234375	258.0	1
316.234375	343.0	1
331.234375	303.0	1
398.76508526299426	69.4423690823881	1
522.372494030884	218.04903891869864	1
433.48626750116557	265.26984989472254	1
397.3762379734674	249.99252869659716	1
390.4320015258332	219.4378863003464	1
255.7138144417287	61.10928479250153	1
362.6550557352962	151.38436459960607	1
352.9331247086082	234.71520749847178	1
526.5390358994645	374.9887930448958	1
523.7613413204108	423.59845140256743	1
469.59629702886366	430.5426883108062	1
447.37474039643405	336.10106635875843	1
436.26396208021924	329.1568294505196	1
455.7078241335952	272.2140868029614	1
497.3732428194007	80.5531481355702	1
425.15318376400444	108.33009576852544	1
434.8751147906924	123.60741696665082	1
291.82384396942683	287.49140800108677	1
219.6037849140306	208.32710724716432	1
230.7145632302454	259.7144603681315	1
380.7100704991452	329.1568294505196	1
322.3784843390175	308.3241187258032	1
396.2205321468901	76.56070164640714	1
493.75676649884684	84.95091552546546	1
423.4887266968995	109.07278042775812	1
346.9280266141808	11.536544083705186	1
320.7086087776333	23.073088167410372	1
253.5868991160716	62.92660409293738	1
236.80647170068121	112.21911063240499	1
591.2930008508037	245.41375596245578	1
517.8786309084705	51.390060009232194	1
519.9761843353944	226.53577473457457	1
502.1469802065421	179.34082166487153	1
410.9034061353567	202.4139098322819	1
339.58658961994746	141.5848592091091	1
451.8056979603708	269.53562086474847	1
389.9278718661187	218.14556085551624	1
358.4645704622617	157.31651023234343	1
425.5862801238233	265.3405139252193	1
497.95187335269446	249.60886290198493	1
522.0737377623182	383.85228496691803	1
525.2200679027039	424.7545776273273	1
467.53734866229934	437.3398984459148	1
427.6838335507471	329.31589475303895	1
425.5862801238233	405.8765963994461	1
446.56181439306135	428.9496845668565	1
377.3425513045759	336.657331897215	1
397.269308860352	251.70641637174953	1
328.05004577186656	307.2915833205109	1
319.6598320641714	156.26773349746117	1
353.22068689495217	222.3406677950454	1
341.68414304687127	282.1209416833359	1
353.22068689495217	247.51130943222034	1
334.342706052638	263.2429604554547	1
515.7810774815467	281.07216494845363	1
593.3905542777275	521.2420372364979	1
461.24468838152796	514.9493768272042	1
419.29361984305194	488.72995845514697	1
427.6838335507471	456.217879673796	1
405.65952256804724	355.5353131250962	1
232.6113648468336	289.46237882751194	1
129.83124692756735	292.6087090321588	1
221.0748209987527	210.80412371134022	1
223.1723744256765	173.04816125557778	1
146.61167434295777	141.5848592091091	1
220.0260442852908	263.2429604554547	1
260.92833611030494	274.77950453915986	1
401.7779144035109	72.38606903014212	1
343.23035995740867	14.903014212088085	1
316.6178352091803	28.741527409027018	1
420.9389322222353	108.57910354521319	1
439.0354490510305	128.804622833047	1
493.32499953741626	85.16008121193191	1
517.8085223057864	50.031547712009996	1
425.1969361819518	270.38325784788384	1
403.9069163833692	259.7382476963923	1
393.2619064840779	220.35171013587382	1
419.87443123230616	191.6101827268468	1
338.97235599769215	262.9317507418398	1
535.9050391345816	312.96329845384975	1
551.8725539835185	329.99531469623616	1
243.16726690407023	111.77260659066063	1
255.94127878321981	67.06356395439639	1
344.2948609473378	144.77213806028425	1
363.45587876606214	154.35264719662658	1
519.9375242856446	224.6097141964704	1
500.7765064669202	172.44916445416212	1
592.3235916008256	248.02873652975168	1
601.9041005101877	374.7043573325004	1
524.1955282453611	381.0913634233953	1
527.3890312151485	422.6069030142121	1
433.7129441013849	326.8018116507887	1
450.744959940251	337.44682180228017	1
229.3287540349915	256.5447446509449	1
468.84147676904627	432.18741215055445	1
428.3904391517392	480.0899578322661	1
451.80946093018014	275.70576292362955	1
230.39325502492065	176.7071685147587	1
145.23317583059006	134.12712790879277	1
324.06934213868425	157.54615024207402	1
