176.171875	157.0	1
45.171875	208.0	1
113.171875	226.0	1
101.171875	266.0	1
124.171875	261.0	1
152.171875	322.0	1
203.171875	278.0	1
238.171875	257.0	1
234.171875	284.0	1
222.171875	317.0	1
228.171875	363.0	1
378.171875	381.0	1
451.171875	363.0	1
435.171875	416.0	1
584.171875	410.0	1
550.171875	434.0	1
485.171875	459.0	1
484.171875	295.0	1
537.171875	269.0	1
594.171875	300.0	1
349.171875	281.0	1
106.171875	93.0	1
78.171875	52.0	1
541.171875	506.0	1
261.171875	348.0	1
287.0874531320547	203.18250303766706	1
348.9256005313336	282.6886998784933	1
483.64442165119124	301.46099635479953	1
526.7102743042605	271.64617253948967	1
539.9613058898202	390.905467800729	1
551.00383221112	432.8670716889429	1
590.7569269677994	407.46925880923453	1
373.2191584381932	386.4884568651276	1
340.0915794742938	377.65443499392467	1
255.0641268002853	345.6311057108141	1
225.2493057327758	365.5076549210207	1
220.8322952042559	320.2332928311057	1
234.08332678981566	281.58444714459296	1
200.95574782591623	277.1674362089915	1
152.3686320121971	324.65030376670717	1
96.05174777356811	268.33341433778855	1
113.71978988764779	225.26755771567437	1
181.0792004475766	155.69963547995138	1
179.5096455843065	153.6567545570655	1
117.50494962406175	220.4310421450685	1
102.00377563400056	266.934563858142	1
200.97280957054505	272.8965538213565	1
143.73770560724222	318.2076775417871	1
227.2055655537255	358.749209291646	1
222.4359735567836	320.5924735270729	1
344.0605694788021	278.85854378457105	1
372.67812146045355	388.5591591077188	1
531.2670553587718	272.8965538213565	1
425.14363342681446	418.36910892379154	1
454.9535834077014	417.17671093114865	1
432.29802142222735	475.6042125706512	1
546.768229348833	380.21237315921843	1
544.383433350362	504.2217643940811	1
593.2717513190165	410.02232297529116	1
125.85173561871008	257.3953799169987	1
236.74474954760933	282.4357377624998	1
254.63071953614138	344.44043337993116	1
481.1863393908818	300.32170765214346	1
553.9226173442459	429.1006908575778	1
241.51434154455123	257.3953799169987	1
5.419537695927035	46.34093521920361	1
44.768671670697735	203.73747024806775	1
588.5021593220746	297.9369116668576	1
598.921875	307.0	1
538.921875	276.0	1
586.921875	412.0	1
550.921875	390.0	1
553.921875	439.0	1
459.921875	417.0	1
379.921875	386.0	1
481.921875	309.0	1
355.921875	279.0	1
259.921875	352.0	1
224.921875	370.0	1
225.921875	316.0	1
197.921875	280.0	1
159.921875	327.0	1
89.921875	276.0	1
118.921875	231.0	1
189.921875	161.0	1
81.921875	61.0	1
70.921875	160.0	1
60.921875	126.0	1
63.921875	212.0	1
40.921875	205.0	1
55.921875	174.0	1
550.921875	514.0	1
429.921875	477.0	1
446.921875	372.0	1
238.921875	280.0	1
122.921875	265.0	1
66.921875	44.0	1
107.921875	104.0	1
113.921875	79.0	1
330.921875	339.0	1
309.921875	296.0	1
334.921875	309.0	1
241.921875	262.0	1
464.921875	355.0	1
432.921875	231.0	1
366.921875	187.0	1
286.921875	201.0	1
148.921875	85.0	1
481.921875	458.0	1
427.921875	420.0	1
347.921875	381.0	1
596.6402960368044	291.20646172090557	1
529.4440817851137	274.0780144956755	1
485.9641784457843	296.4767531748225	1
449.0721392487776	358.4026777583465	1
488.59932410271335	444.0449138844967	1
451.7072849057066	408.4704465705574	1
430.62611965027423	416.37588375143275	1
380.55835216862226	386.0717078914104	1
258.0240791214214	339.9566576696372	1
227.71990406673726	359.72025062182576	1
221.13203992441464	316.24034612701104	1
105.18563101953636	86.98266788162431	1
97.28019404874921	267.49015017827935	1
235.6253410375244	276.713160222634	1
557.1131111828687	429.55161238622514	1
541.3022372412944	391.34199934532734	1
289.64582700457	200.29393414083842	1
153.9358256727238	320.1930647174487	1
55.11786353788438	204.24665273127613	1
109.13834950492995	226.64539141042312	1
182.9224278989434	154.17888391906524	1
74.88145596485226	52.72577343116423	1
9.002814541625982	47.455481977247295	1
200.05087466898223	272.7604416321963	1
431.94369247873874	474.34908974451906	1
541.3022372412944	503.33569274106225	1
578.1942764383011	469.07879829060215	1
481.7596250287445	296.1342530629054	1
588.4241005322248	409.816122722125	1
543.5127424254962	387.36044476474825	1
452.28654627120386	415.43004221146913	1
431.23434715867484	421.0439617008133	1
257.2028344951017	343.8525687223309	1
380.70906928860524	383.1500051477401	1
222.11583597422	366.3082466797076	1
224.92279585589054	321.39689076495415	1
199.66015692085574	275.0820549778647	1
234.74715544173742	284.90641408421703	1
240.3610752050785	258.24029650983215	1
184.2218775716678	151.5758262122928	1
115.4513604707397	220.34633995675898	1
97.20612123988123	265.2576958715124	1
48.08432331064686	203.50458148872644	1
529.4779430171436	266.66117574384845	1
351.2359905310646	277.8890147225368	1
532.7115361647942	275.70576292362955	1
483.7444906280541	299.12478525691085	1
536.9695401245107	395.9943776354834	1
380.4878946049283	386.413868499141	1
238.90926294435369	254.41574262064657	1
233.58675799470802	286.350773075121	1
204.84523126662148	278.899265969077	1
221.87724710548758	324.6728096204904	1
258.0702807630781	349.1563329689208	1
228.2642530450624	364.0593471810089	1
344.2948609473378	282.09276901452444	1
178.23270651839317	157.54615024207402	1
112.23364514278697	228.867718257067	1
121.81415405214916	262.9317507418398	1
96.26613029384998	273.57676089333125	1
148.42667880037746	321.479306575043	1
60.0730966362595	209.70669998438234	1
34.525072877960326	206.51319693893487	1
448.61595796039273	365.12384819615806	1
453.93846291003837	418.3488989536155	1
427.3259381618101	424.7359050445104	1
429.4549401416684	475.83195377166953	1
546.5500490338729	504.57348118069655	1
552.9370549734476	431.1229111354053	1
594.4525935806838	300.18928627206	1
587.0010866511799	413.02639387786974	1
480.5509876582667	465.18694362017806	1
288.94080947102293	205.44869592378572	1
148.42667880037746	79.83757613618617	1
61.13759762618863	127.74012181789786	1
68.58910455569256	160.7396532875215	1
46.23458376718078	180.9651725753553	1
66.46010257583428	41.51553959081681	1
41.97657980746425	31.935030454474465	1
5.783546149873756	50.031547712009996	1
344.2948609473378	378.962361393097	1
493.32499953741626	441.7679212868968	1
577.4205777418177	470.5094486959238	1
227.3125	317.0	1
233.3125	277.0	1
228.3125	360.0	1
152.3125	326.0	1
101.3125	270.0	1
124.3125	259.0	1
118.3125	227.0	1
106.3125	92.0	1
74.3125	57.0	1
44.3125	32.0	1
49.3125	204.0	1
179.3125	155.0	1
202.3125	274.0	1
347.3125	281.0	1
378.3125	385.0	1
428.3125	418.0	1
437.3125	478.0	1
452.3125	415.0	1
484.3125	296.0	1
534.3125	266.0	1
594.3125	296.0	1
586.3125	410.0	1
538.3125	394.0	1
555.3125	436.0	1
532.4375	271.0	1
481.4375	301.0	1
542.4375	393.0	1
552.4375	430.0	1
589.4375	406.0	1
595.4375	294.0	1
452.4375	416.0	1
430.4375	419.0	1
453.4375	363.0	1
381.4375	385.0	1
348.4375	378.0	1
349.4375	278.0	1
289.4375	203.0	1
261.4375	347.0	1
227.4375	363.0	1
225.4375	330.0	1
234.4375	282.0	1
239.4375	257.0	1
202.4375	277.0	1
157.4375	328.0	1
126.4375	259.0	1
99.4375	272.0	1
114.4375	221.0	1
178.4375	157.0	1
53.4375	202.0	1
31.4375	204.0	1
51.4375	31.0	1
8.4375	53.0	1
435.4375	479.0	1
545.4375	514.0	1
178.84375	155.0	1
110.84375	233.0	1
224.84375	360.0	1
255.84375	345.0	1
225.84375	318.0	1
145.84375	323.0	1
98.84375	269.0	1
122.84375	259.0	1
197.84375	280.0	1
236.84375	283.0	1
256.84375	309.0	1
240.84375	258.0	1
346.84375	280.0	1
375.84375	384.0	1
432.84375	416.0	1
458.84375	448.0	1
448.84375	420.0	1
484.84375	299.0	1
526.84375	272.0	1
596.84375	301.0	1
536.84375	393.0	1
550.84375	434.0	1
597.84375	406.0	1
449.84375	365.0	1
486.84375	461.0	1
44.84375	203.0	1
102.84375	91.0	1
