386.2899276412977	105.92645022311126	1
224.77831376816505	74.46314817664256	1
342.24130567589793	271.633174334513	1
349.5827426701312	220.24311432528083	1
413.5581221913072	220.24311432528083	1
415.65567561823093	189.82858901369443	1
398.87524820284057	257.99907678104324	1
411.46056876438337	306.24280658562856	1
463.8994044374784	335.60855516233266	1
407.26546191053575	360.77919679950764	1
399.9240249163024	526.4859209109094	1
551.996648368278	214.99923065086938	1
512.1431332567258	314.63302046468687	1
501.6553661221068	425.8033543622096	1
504.8016962624925	467.7544237575012	1
551.996648368278	410.0717033389752	1
577.1672894913637	576.8272041852593	1
355.87540295090264	135.29219879981537	1
280.3634795816458	321.9744576088629	1
293.9975768566505	294.7062625019234	1
352.7290728105169	334.5597784274504	1
417.1104696815862	33.08429011481378	1
391.6610160173925	72.53094371324559	1
338.2171633225858	21.632035844301317	1
321.6750184408599	86.52814337720527	1
230.05698524976265	80.16577989358724	1
269.5036384292629	73.8034164099692	1
228.78451256655296	125.97479697563709	1
334.39974527295675	113.25007000840101	1
376.39134381887635	170.5113413609633	1
417.1104696815862	184.508541024923	1
412.02057894874747	220.137776533184	1
394.2059613838119	263.4018482217866	1
349.66941747147297	221.4102492299076	1
294.9530920934565	193.41584990198825	1
410.7481062655378	307.9383926071129	1
405.65821553269905	365.19966395967526	1
487.0964672581188	370.2895547465696	1
462.91948627713487	334.66031923830866	1
504.9110848230544	286.30635676281156	1
480.73410384207045	152.69672360683282	1
551.9925741018127	217.59283113973677	1
568.5347189835386	269.76421170540465	1
551.9925741018127	307.93839260711286	1
562.1723555674902	348.6575189022683	1
588.8942819148936	367.7446093531224	1
557.0824648346514	402.1013721646598	1
591.4392272813129	315.57322878745447	1
597.8015906973613	227.77261271352563	1
597.8015906973613	175.60123214785776	1
591.4392272813129	208.68552226267153	1
553.2650467850224	152.69672360683282	1
534.1779565368772	114.52254270512462	1
492.18635799095756	99.25287034444133	1
382.7537072349248	105.61523382805937	1
278.4109472117307	34.356762811537386	1
181.70302328779465	27.994399327919353	1
161.34346035643972	49.62643517222067	1
175.34065987174623	81.43825259031084	1
213.51484036803677	173.05628675441054	1
319.13007307444053	221.4102492299076	1
342.03458137221486	273.5816297955755	1
297.4980374598759	302.8485018202185	1
264.41374769642414	271.0366844021283	1
278.4109472117307	323.20806496779613	1
364.9390896699892	371.56202744329323	1
504.9110848230544	430.09577149257916	1
466.7369043267639	427.55082609913194	1
501.09366677342535	466.99747969756373	1
520.1807570215707	505.17166059927195	1
438.74250529615085	516.6239148697844	1
593.9841726477323	492.4469336320359	1
312.7677096583921	171.78381405768695	1
325.49243649048896	159.05908709045087	1
468.0093770099736	80.16577989358724	1
350.94189015468265	332.1153738448614	1
382.7537072349248	305.39344721366564	1
210.54699408646147	180.73245903521106	1
376.02280004079904	167.82299767555313	1
406.53606922386837	221.80801790684995	1
414.7511801577716	190.12115820587138	1
481.6456549052698	151.3927741268976	1
553.2344787578555	217.11366832151978	1
509.81174953579534	316.8685970097856	1
503.9438131544359	280.4873877234769	1
552.0608914815837	309.82707263179043	1
568.4911133493903	268.7515137601515	1
325.5585471611074	73.93600596894998	1
269.2263579000563	75.10959336528252	1
223.45645412545232	132.61537578557696	1
417.09835471031545	311.0006600281229	1
399.494545566237	258.1892271931587	1
383.0643236984304	303.95913565012773	1
408.88324377641214	361.46491807042213	1
284.482992491591	388.45742818607056	1
279.7886433865034	332.12523316210866	1
295.0452779780381	294.5704364794674	1
235.1923268881713	268.7515137601515	1
451.13238572220047	377.8951416190777	1
492.2079403917169	380.24231641174276	1
459.3474966561038	335.64599535110625	1
464.0418457611913	428.35939966137687	1
588.4420970460125	374.37437943008007	1
590.7892715985563	334.47240795477376	1
554.4080660341275	411.92917611272134	1
574.3590497307497	483.5180072890062	1
601.3515570850034	503.4689930266594	1
577.8798115595654	564.4955376359515	1
488.6871785629012	85.67187993227537	1
540.3250187188647	110.3172152552587	1
228.1508032305399	77.45676815794761	1
174.16578852203264	70.41524377995236	1
295.0452779780381	191.29474560220393	1
353.72464179163296	221.80801790684995	1
320.8641980560198	218.28725571785233	1
437.0493384069377	514.0312795936522	1
482.6319193811902	85.39595805866733	1
386.15578502504286	71.82907888243318	1
414.7971374120241	26.60614829498598	1
280.6350130730067	37.158165432057	1
273.09781507643265	74.84394092159631	1
322.8433218538212	79.36623398034104	1
573.0782953400784	80.87366499992261	1
616.7940437202076	145.69319884193024	1
478.1096005832458	154.73778495941968	1
556.4964597476155	218.04988778184577	1
554.9890201483007	306.98831793715857	1
380.12602662778363	166.79723311607228	1
220.3374291004146	174.33438821398013	1
235.4118250935626	82.38109601950418	1
416.3045770113389	193.93099146854058	1
503.73607377159743	281.36199060427185	1
402.7376206175057	255.73566327138508	1
354.499553439432	219.55731880142733	1
416.3045770113389	306.98831793715857	1
463.0352045900978	331.10721425046376	1
512.7807113674862	311.5106109959033	1
490.1691173777642	376.33014483791095	1
405.7524998161353	358.24097260293206	1
603.2270873263744	225.58704287975362	1
559.5113389462451	414.01592032745026	1
591.167570531856	361.2558346420952	1
594.1824497304856	320.55519711339275	1
503.73607377159743	462.2537129540606	1
363.5441910353208	371.8078517791662	1
297.2168486654695	299.4511628392507	1
279.1275734736919	332.6146452700453	1
592.6750101311708	10.024407079588679	1
470.5724025866718	432.1050925624291	1
435.90129180243133	477.32802314987634	1
595.6898893298004	172.82695719439857	1
573.0782953400784	489.3874713065289	1
405.7524998161353	218.04988778184577	1
536.8997449565231	114.03714743071721	1
392.1855434223021	109.5148543719725	1
565.5410973435044	29.62101033414913	1
508.25839256954185	421.55307542535814	1
586.6452517339116	447.17940275824486	1
219.5	179.48333740234375	1
206.5	203.48333740234375	1
169.5	132.48333740234375	1
165.5	96.48333740234375	1
180.5	68.48333740234375	1
167.5	48.48333740234375	1
222.5	80.48333740234375	1
270.5	73.48333740234375	1
235.5	137.48333740234375	1
290.5	189.48333740234375	1
381.5	166.48333740234375	1
424.5	201.48333740234375	1
411.5	229.48333740234375	1
401.5	258.48333740234375	1
347.5	274.48333740234375	1
317.5	262.48333740234375	1
297.5	296.48333740234375	1
268.5	270.48333740234375	1
271.5	329.48333740234375	1
230.5	274.48333740234375	1
230.5	306.48333740234375	1
348.5	342.48333740234375	1
380.5	309.48333740234375	1
412.5	313.48333740234375	1
409.5	354.48333740234375	1
369.5	373.48333740234375	1
356.5	401.48333740234375	1
372.5	506.48333740234375	1
358.5	457.48333740234375	1
342.5	476.48333740234375	1
467.5	422.48333740234375	1
451.5	364.48333740234375	1
488.5	368.48333740234375	1
501.5	392.48333740234375	1
461.5	329.48333740234375	1
501.5	282.48333740234375	1
558.5	310.48333740234375	1
563.5	344.48333740234375	1
595.5	323.48333740234375	1
593.5	362.48333740234375	1
548.5	207.48333740234375	1
568.5	227.48333740234375	1
588.5	168.48333740234375	1
485.5	78.48333740234375	1
391.5	105.48333740234375	1
386.5	67.48333740234375	1
318.5	82.48333740234375	1
404.5	526.4833374023438	1
445.5	523.4833374023438	1
526.5	612.4833374023438	1
557.5	622.4833374023438	1
577.5	575.4833374023438	1
597.5	497.48333740234375	1
575.5	488.48333740234375	1
585.5	442.48333740234375	1
553.5	400.48333740234375	1
522.5	407.48333740234375	1
494.5	439.48333740234375	1
523.5	453.48333740234375	1
505.5	474.48333740234375	1
292.5	385.48333740234375	1
377.234375	170.0	1
203.234375	179.0	1
383.234375	108.0	1
321.234375	77.0	1
550.234375	222.0	1
413.234375	227.0	1
413.234375	191.0	1
393.234375	260.0	1
498.234375	323.0	1
552.234375	308.0	1
415.234375	315.0	1
379.234375	303.0	1
333.234375	273.0	1
311.234375	247.0	1
298.234375	305.0	1
279.234375	336.0	1
404.234375	364.0	1
292.234375	186.0	1
501.234375	433.0	1
554.234375	414.0	1
451.234375	375.0	1
270.234375	269.0	1
230.234375	275.0	1
484.2630515810653	86.39239503564826	1
553.1069853425433	209.23158172696066	1
392.4711398990947	261.8769474518088	1
400.57042622397444	220.03063110641668	1
412.7193557112941	176.83443358859256	1
389.7713777908014	106.64061262212833	1
388.42149673665483	74.24346448376023	1
329.0267303542032	75.59334565619224	1
297.9794661088308	302.37338262476896	1
360.07399459957566	387.4158964879852	1
585.5041306420624	450.8603115922894	1
495.06210001423835	379.3166094533932	1
466.7145978771592	338.82017428043304	1
200.78803021027366	178.18431476102455	1
585.5041306420624	367.16767890150516	1
222.3861270766197	86.39239503564826	1
553.1069853425433	616.895695801426	1
576.0549632630359	568.2999735938738	1
401.9203072781211	526.4536572484816	1
361.4238756537223	484.6073409030895	1
374.92268619518853	164.68550303670452	1
512.6105537181445	425.21256931608133	1
593.6034169669421	502.15579614470556	1
551.7571042883967	313.17243200422496	1
573.3552011547426	265.92659096910484	1
504.51126739326475	284.8249273831529	1
523.4096021513175	612.8460522841299	1
