488.77702473292084	53.33223514876969	1
432.6378270995101	53.33223514876969	1
487.37354479208557	124.90970863790795	1
582.8101807688837	124.90970863790795	1
505.618784022944	494.0249150622876	1
485.9700648512503	454.7274786368784	1
376.49862946609943	421.0439617008133	1
328.7803114777003	404.2022032327808	1
282.4654734301365	168.41758468032532	1
311.93855218767715	60.34963451044991	1
257.2028344951017	47.718315659425514	1
212.29147638837316	224.5567795737671	1
158.959238636633	154.38278595696488	1
436.1615584696021	57.42114216281895	1
490.2699374439711	53.0041312272175	1
475.91465322628136	177.7846901579587	1
581.9229059107595	126.98906439854191	1
581.9229059107595	8.834021871202916	1
261.6896425930652	48.58712029161604	1
310.2767584067843	64.04665856622114	1
157.88989517284702	157.90814094775212	1
198.7472425616563	189.9314702308627	1
210.89402151508608	221.95479951397326	1
217.51953730786596	253.97812879708383	1
342.3000847385537	274.9589307411908	1
419.59776898765233	373.2374240583232	1
368.80214790967324	417.40753341433776	1
320.21503209595414	408.5735115431349	1
482.54016901906124	453.8478736330498	1
502.4167163974009	501.3307411907655	1
489.1656848118411	336.79708383961116	1
489.070045560564	445.7301123249731	1
585.5575031990588	123.75565471611017	1
582.4111730586732	8.390213879058317	1
485.92371542017827	130.04831512540392	1
364.2656166585978	421.60824742268045	1
483.8261619932545	335.60855516233266	1
281.4122562951077	168.85305431604863	1
206.94910963931272	224.43822126480998	1
257.290391885484	49.29250653946761	1
435.58243317400706	58.73149715340822	1
311.8267809855028	62.92660409293738	1
567.8400688324556	227.80321724191785	1
584.8720846713217	128.804622833047	1
575.2915757619595	12.774012181789786	1
542.2920450741564	7.451507106044042	1
432.6484431114558	58.54755583320319	1
345.3593619372669	25.54802436357957	1
310.2308292696056	71.32156801499298	1
254.87677779329067	50.031547712009996	1
156.94268671981052	157.54615024207402	1
209.103235226338	224.6097141964704	1
217.61924314577107	253.35124160549742	1
418.80993024237705	373.63985631735125	1
479.4864866683376	453.4774324535374	1
509.2925143863533	496.05747305950337	1
600.8395995202586	608.8945806653131	1
478.4219856784084	344.89832890832423	1
413.48742529273136	310.83429642355145	1
208.03873423640886	36.19303451507106	1
495.45400151727455	331.0598157113853	1
341.1013579775504	273.57676089333125	1
300.65032036024337	327.86631266593787	1
323.00484114875513	406.63938778697485	1
369.84288470563695	421.542401999063	1
491.19599755755803	125.61111978759956	1
476.2929836985502	177.77166952990785	1
494.38950052734543	58.54755583320319	1
286.81180749116464	195.8681867874434	1
284.68280551130636	170.32016242386382	1
201.65172829683408	186.28767765110106	1
418.84375	372.0	1
483.84375	348.0	1
490.84375	449.0	1
509.84375	499.0	1
316.84375	67.0	1
259.84375	53.0	1
489.84375	127.0	1
426.84375	60.0	1
484.84375	53.0	1
368.84375	417.0	1
318.84375	404.0	1
338.84375	275.0	1
412.234375	380.0	1
415.234375	315.0	1
572.234375	236.0	1
586.234375	123.0	1
503.234375	131.0	1
582.234375	18.0	1
492.234375	59.0	1
402.234375	86.0	1
431.234375	56.0	1
348.234375	25.0	1
266.234375	50.0	1
235.234375	123.0	1
309.234375	64.0	1
155.234375	162.0	1
275.234375	170.0	1
211.234375	267.0	1
211.234375	222.0	1
192.234375	115.0	1
206.234375	37.0	1
479.234375	184.0	1
460.234375	157.0	1
487.234375	341.0	1
537.234375	443.0	1
481.234375	456.0	1
502.234375	494.0	1
369.234375	424.0	1
306.234375	336.0	1
277.234375	301.0	1
275.234375	264.0	1
223.234375	252.0	1
277.234375	197.0	1
340.234375	283.0	1
485.6467985798198	337.13693832879005	1
580.6154933366523	231.61676695807992	1
585.1378121345967	118.55944048946193	1
577.6006141380228	7.009545040425533	1
496.19887577502345	120.06687150904351	1
268.5754962784883	49.217613588709575	1
155.51752632987808	154.73778495941968	1
286.6647714702659	166.79723311607228	1
503.73607377159743	493.90976436527365	1
487.1542381791346	448.68683377782645	1
346.962355442858	281.36199060427185	1
437.40873140174614	61.27706174536216	1
233.9043854942478	121.57430252862508	1
309.2763654599879	59.76963072578059	1
212.80023110384056	216.54245676226418	1
321.3358822545064	407.98619624912396	1
377.111147429154	420.04564440577656	1
213.3125	222.0	1
161.3125	158.0	1
260.3125	51.0	1
281.3125	167.0	1
493.3125	121.0	1
581.3125	126.0	1
570.3125	224.0	1
488.3125	332.0	1
414.3125	373.0	1
501.3125	498.0	1
488.3125	447.0	1
365.3125	417.0	1
345.1289032162807	29.33022339166987	1
410.6236637265827	82.01070610796286	1
474.69462509535646	177.4050937293583	1
413.47126200963936	314.0895894256861	1
302.41492897043156	328.3275577273869	1
214.1393821956767	248.59493523786236	1
158.61121567607282	156.0481412768071	1
484.6612190860546	452.19788195218393	1
574.3605650023378	231.5093732758214	1
582.9033598515076	126.14840784323538	1
431.9806508495073	56.382363164901406	1
310.9577238196014	63.501347315751815	1
266.81995043222395	49.263379014051004	1
601.4127486913756	607.3917364407228	1
367.9096894807336	420.8743516884422	1
