277.171875	12.0	1
247.171875	42.0	1
211.171875	147.0	1
231.171875	220.0	1
384.171875	235.0	1
423.171875	105.0	1
608.171875	15.0	1
515.171875	516.0	1
402.171875	397.0	1
232.171875	73.0	1
480.6997994437954	97.4521342726896	1
599.3371795982773	268.34645669291336	1
578.1519331421199	323.428097803564	1
534.369090466061	199.1413178615831	1
476.46275015256396	136.99792789059262	1
475.0504003888201	168.06962287608786	1
497.6479966087214	170.8943224202238	1
442.566355822712	172.30667219229176	1
404.43291220162854	281.0576046415251	1
443.9787055864558	266.9341069208454	1
520.2455928286228	518.3323663489432	1
497.6479966087214	511.2706174886034	1
401.6082126741409	399.69498549523416	1
394.5464638554217	237.27476170741815	1
306.9807785033041	166.6572731040199	1
254.72383724478232	156.77082469954414	1
232.126241024881	217.50186489846664	1
244.83738889857548	200.55366763365106	1
209.52864480497968	103.10153336096145	1
244.83738889857548	120.04973062577704	1
233.53859078862484	83.32863655200995	1
322.51662590448626	80.50393700787401	1
369.12416810803273	100.27683381682553	1
357.82536999808207	84.74098632407791	1
249.07443818980698	39.54579361790302	1
275.9090837009398	63.55573974305843	1
282.970832519659	9.886448404475756	1
219.4150931511865	26.83464566929134	1
329.5783747232054	25.422295897223375	1
572.5025340871446	151.1214256112723	1
520.2455928286228	453.36427683381686	1
499.0603463724653	449.12722751761294	1
562.6160857409377	477.3742229589722	1
366.29946858054507	357.3244923331952	1
260.37323629975765	257.04765851636967	1
175.63225047512773	96.03978450062164	1
469.4010013338448	32.4840447575632	1
514.5634953508306	520.1030376670717	1
490.2699374439711	512.3732685297691	1
576.4016427501095	555.4391251518833	1
463.7678742728516	501.3307411907655	1
595.1739374963192	482.5584447144593	1
564.2548637966798	481.4541919805589	1
577.5058953822396	577.5241798298906	1
429.5360426768222	431.7628189550425	1
542.1698111540802	400.8437424058323	1
401.9297268735727	404.1565006075334	1
481.43591638693124	102.6955042527339	1
499.10395850101094	26.50206561360875	1
560.9421059002898	35.336087484811664	1
544.3783164183401	69.56792223572296	1
590.7569269677994	121.46780072904009	1
575.2973901179796	159.01239368165253	1
602.9037059212291	196.5569866342649	1
576.4016427501095	194.34848116646415	1
534.4400427291703	206.49526123936818	1
596.2781901284492	269.43766707168896	1
281.5661899714048	13.251032806804375	1
210.89402151508608	149.0741190765492	1
220.8322952042559	100.48699878493316	1
166.72391622988684	103.79975698663426	1
251.75136890389535	157.90814094775212	1
230.77056889342572	215.32928311057108	1
225.2493057327758	256.18663426488456	1
411.8680005627425	278.27168894289184	1
431.74454794108215	195.4527339003645	1
474.81040059415136	139.13584447144592	1
478.1231584905413	165.63791008505467	1
516.7720006150906	185.51445929526125	1
429.5360426768222	109.32102065613608	1
439.474316365992	27.606318347509113	1
322.4235373602141	24.29356014580802	1
363.28088474902336	45.274362089914945	1
250.64711627176536	39.753098420413124	1
237.3960846862056	72.88068043742406	1
274.94067417862493	94.96573511543134	1
198.7472425616563	89.44447144592952	1
305.8597478782644	162.32515188335358	1
336.77882157790384	248.456865127582	1
384.261684759493	239.6228432563791	1
333.4660636815139	390.905467800729	1
524.5017690400005	450.53511543134874	1
497.99970586888094	448.326609963548	1
610.633474346139	405.26075334143377	1
611.7377269782689	15.459538274605103	1
590.7569269677994	56.31688942891859	1
350.0298531634636	79.50619684082625	1
299.2342320854845	132.51032806804375	1
383.157432127363	79.50619684082625	1
465.97637953711154	34.2318347509113	1
223.04080046851584	27.606318347509113	1
192.1217267688764	164.53365735115432	1
268.31515838584505	256.18663426488456	1
536.6485479934303	8.834021871202916	1
249.54286363963539	114.8422843256379	1
152.3686320121971	85.02746051032807	1
604.0079585533591	579.7326852976913	1
608.424969081879	14.355285540704738	1
281.5661899714048	14.355285540704738	1
322.4235373602141	23.189307411907656	1
397.51271634505275	38.64884568651276	1
431.74454794108215	28.710571081409476	1
486.9571795475812	26.50206561360875	1
537.7528006255602	16.56379100850547	1
250.64711627176536	40.857351154313484	1
205.37275835443617	16.56379100850547	1
251.75136890389535	62.94240583232078	1
150.16012674793714	82.81895504252734	1
228.56206362916575	73.98493317132443	1
198.7472425616563	85.02746051032807	1
270.523663650105	92.75722964763062	1
246.23010574324545	115.94653705953827	1
214.20677941147602	144.65710814094774	1
188.80896887248647	166.74216281895505	1
348.9256005313336	81.71470230862697	1
252.85562153602532	157.90814094775212	1
315.7980215674342	118.155042527339	1
380.94892686310305	78.40194410692588	1
364.38513738115336	109.32102065613608	1
312.48526367104427	164.53365735115432	1
363.28088474902336	132.51032806804375	1
559.8378532681598	40.857351154313484	1
541.0655585219502	69.56792223572296	1
239.60458995046557	218.64204131227217	1
288.1917057641847	266.12490886998785	1
350.0298531634636	179.99319562575943	1
592.9654322320592	124.7805589307412	1
573.0888848537196	187.72296476306198	1
503.5209690295309	230.7888213851762	1
470.3933900656315	226.37181044957472	1
477.01890585841136	194.34848116646415	1
478.1231584905413	163.42940461725394	1
420.70202161978233	244.03985419198057	1
427.3275374125622	207.59951397326853	1
331.2575584172539	253.97812879708383	1
312.48526367104427	322.44179829890646	1
401.9297268735727	281.58444714459296	1
597.3824427605792	266.12490886998785	1
602.9037059212291	197.66123936816524	1
444.9955795266419	111.52952612393682	1
532.2315374649104	282.6886998784933	1
514.5634953508306	515.6860267314702	1
416.2850110912624	376.5501822600243	1
405.24248476996263	404.1565006075334	1
425.11903214830227	427.34580801944105	1
464.87212690498154	375.44592952612396	1
602.9037059212291	399.73948967193195	1
589.6526743356693	491.3924665856622	1
580.8186532786295	555.4391251518833	1
279.1275734736919	8.516976060007106	1
368.06650983326523	40.17302747122014	1
600.2122081277448	267.79511142803767	1
478.1096005832458	97.45540621531991	1
545.9443825524119	64.29192378452531	1
494.69143617570865	28.113579314567556	1
595.6898893298004	120.06687150904351	1
253.50110028534024	156.24521597900127	1
200.74071430932216	11.531838099170253	1
514.288150966801	511.9989366002525	1
407.2599394154501	279.85455958469026	1
386.15578502504286	239.15392205598778	1
545.9443825524119	8.516976060007106	1
612.2717249222633	20.57642421665969	1
570.0634161414488	201.46814656644847	1
233.9043854942478	215.03502574268262	1
209.78535190521097	104.99256131322778	1
327.36564065176555	26.60614829498598	1
432.8864126038017	28.113579314567556	1
426.85665420654254	432.10509256242915	1
404.2450602168205	371.8078517791662	1
606.241966525004	395.92674809247137	1
396.70786222024645	400.4490411512161	1
502.2286341722826	448.68683377782645	1
461.527764990783	492.40233334569206	1
438.91617100106095	103.48513029364621	1
280.0902695036543	12.529731661858197	1
249.8100836279706	59.51622539382643	1
241.45692890364407	36.54505068041974	1
229.97134115769506	76.22253427630403	1
201.77944396309297	102.32614190517526	1
196.5587222603889	79.35496719176858	1
153.74880429821533	81.44325580207827	1
212.22088736850117	139.91533689074987	1
270.692970438787	93.97298746393648	1
273.8254034604094	57.427936783516735	1
245.63350626580734	117.98830648249802	1
249.8100836279706	157.66579007838232	1
259.207382692838	181.68110909694386	1
228.92719681715425	213.00543825158934	1
187.16142319552154	164.97480021446626	1
403.29930168747086	404.08384609492686	1
424.18218849828725	430.18745372379806	1
391.8137139415219	238.06490157530573	1
597.5101490280631	269.38923072995124	1
603.775015071308	360.22978527842315	1
477.6091453931754	97.61404890284874	1
582.5401693258973	121.46200875570695	1
602.8109353129004	152.46435656442262	1
596.848945316723	266.934563858142	1
381.02490745510187	233.54742006414048	1
406.06526543904687	282.4357377624998	1
211.70439156366433	99.99884488813456	1
212.8967895628998	144.11757061592223	1
271.3242915254381	92.8444569322771	1
229.59036155219647	74.95848704263345	1
277.2862815216155	9.376597447273392	1
328.55939548874096	20.108179381059582	1
366.71613146427615	42.76374124127487	1
435.87521541993374	28.454965329559954	1
392.9488874474566	34.4169552927745	1
468.0699613992916	32.03215930748868	1
546.768229348833	10.568995439916302	1
303.51903750479596	167.96553046878043	1
355.98454947115687	172.73512243935207	1
575.3857813304844	312.24568757857253	1
601.6185373136649	352.7872193284315	1
499.072309379414	450.5638547251501	1
570.6161893335425	189.4286943363528	1
189.0488295781903	160.81114251292297	1
611.1577213075486	14.146189417845033	1
402.4880714413404	190.62109232899573	1
227.2055655537255	214.46905218185393	1
576.5781793297199	156.04155054235133	1
471.647155396998	165.5807344834946	1
435.87521541993374	166.77313247613753	1
402.4880714413404	400.4831390341479	1
429.9132254237564	425.52349687964903	1
335.7137834841538	330.1316574682162	1
366.71613146427615	357.55681129900313	1
234.3125	76.0	1
212.3125	100.0	1
211.3125	150.0	1
199.3125	86.0	1
247.3125	119.0	1
272.3125	94.0	1
248.3125	42.0	1
280.3125	12.0	1
254.3125	57.0	1
332.3125	27.0	1
327.3125	78.0	1
249.3125	154.0	1
250.3125	196.0	1
233.3125	214.0	1
503.3125	450.0	1
517.3125	514.0	1
592.3125	483.0	1
478.3125	95.0	1
386.3125	80.0	1
367.3125	35.0	1
608.3125	17.0	1
558.3125	41.0	1
586.3125	122.0	1
571.3125	187.0	1
472.3125	162.0	1
330.3125	249.0	1
417.3125	239.0	1
431.3125	201.0	1
207.3125	19.0	1
406.3125	362.0	1
406.3125	397.0	1
462.3125	303.0	1
598.3125	267.0	1
580.3125	314.0	1
431.3125	432.0	1
466.3125	374.0	1
604.3125	404.0	1
406.3125	287.0	1
143.3125	40.0	1
340.3125	342.0	1
365.3125	364.0	1
388.3125	237.0	1
383.14359750091205	233.8772118787506	1
399.9240249163024	186.68225880904757	1
209.04666306623653	147.87751961840283	1
210.09543977969844	101.73134328358209	1
237.36363432970785	76.56070164640714	1
580.3136196317494	312.53546699492233	1
594.9964936202159	265.3405139252193	1
585.5575031990588	128.99953839052162	1
405.16790848361194	398.53515925527006	1
428.24099617977373	427.90090783197417	1
235.26608090278404	216.04800738575167	1
278.26592615472197	10.487767348822896	1
231.8748215255557	217.53778857837182	1
388.67869528801293	236.310085054678	1
401.9297268735727	281.58444714459296	1
364.38513738115336	359.98639125151885	1
598.4866953927092	266.12490886998785	1
477.01890585841136	141.34434993924665	1
509.04223219018075	68.4636695018226	1
332.3618110493839	20.980801944106926	1
280.4619373392748	12.14678007290401	1
496.895453236751	27.606318347509113	1
432.84880057321215	27.606318347509113	1
465.97637953711154	34.2318347509113	1
589.6526743356693	130.301822600243	1
