436.84375	77.0	1
440.84375	127.0	1
403.84375	133.0	1
394.84375	44.0	1
472.84375	12.0	1
494.84375	170.0	1
313.84375	200.0	1
373.84375	174.0	1
259.84375	165.0	1
422.84375	337.0	1
366.84375	370.0	1
476.84375	379.0	1
514.84375	357.0	1
520.84375	237.0	1
437.84375	218.0	1
82.84375	257.0	1
183.84375	355.0	1
500.84375	421.0	1
475.84375	449.0	1
473.3387453837329	12.6313188510244	1
441.0587067445217	82.80531246782662	1
405.97170822364006	134.73406774426027	1
539.3023026029905	134.73406774426027	1
521.057063372132	234.38113868011942	1
490.1805046737561	249.8194172758159	1
592.6345403547306	108.06795016987542	1
442.462186685357	138.9445073612684	1
435.44478698118064	214.73242046741478	1
407.37518816447533	214.73242046741478	1
400.357788460299	251.22289714815196	1
414.3925878686516	327.01081025429835	1
425.62042739533376	342.44908884999484	1
478.95266514707396	373.3256460413878	1
526.6709831354731	377.53608565839596	1
501.4083442004382	416.8335220838052	1
542.1092624846609	322.8003706372902	1
592.6345403547306	304.5551322969216	1
379.30558934776997	172.62802429733347	1
318.9559518918535	157.18974570163698	1
345.6220707677235	234.38113868011942	1
369.4812297619231	259.6437763821682	1
262.81675425844276	162.80366519098115	1
182.81839763083252	195.08370225471018	1
158.959238636633	188.06630289302996	1
189.83579733500886	293.3272933182333	1
178.60795780832672	359.2908473180274	1
354.04295041273514	352.2734479563471	1
90.18872153570489	251.22289714815196	1
556.1440618930136	357.8873674456913	1
277.70876352569536	6.292660409293738	1
469.63490208922315	12.585320818587476	1
610.1709816931178	25.170641637174953	1
592.3417775642655	102.78012001846439	1
543.0492720315561	137.38975226957993	1
608.073428266194	214.99923065086938	1
522.0737377623182	232.8284351438683	1
484.31777607768976	245.41375596245578	1
492.70798978538494	168.85305431604863	1
456.00080481421844	199.26757962763503	1
435.0252705449804	213.95045391598708	1
408.8058527084329	217.09678412063397	1
374.1962211641902	175.14571472534237	1
404.61074585458533	136.34097553469766	1
439.220377398828	142.63363594399138	1
432.92771711805665	83.90213879058317	1
442.36670753921373	111.1703338975227	1
394.1229787199663	59.78027388829051	1
400.4156390007377	36.70718572088014	1
267.2209963910763	160.46284043699032	1
317.5622786372476	155.21895676257887	1
325.95249234494275	180.38959839975382	1
349.0255800411046	240.16987228804433	1
403.5619691411234	242.2674257578089	1
363.7084540295712	257.99907678104324	1
403.5619691411234	281.07216494845363	1
543.0492720315561	325.12078781350976	1
474.87878565653267	378.6084012925066	1
502.1469802065421	421.60824742268045	1
401.4644157141996	314.63302046468687	1
427.6838335507471	347.1450992460379	1
355.318240321876	357.6328665948608	1
411.9521828488186	331.41344822280354	1
596.5368844181131	303.0964763809817	1
401.4644157141996	389.0961686413295	1
260.92833611030494	39.853515925527006	1
235.7576949872193	57.68272041852593	1
230.5138114199098	29.36574857670411	1
190.66029630835757	115.36544083705186	1
140.31901406218634	75.51192491152486	1
93.12406195640082	71.31681797199569	1
98.36794552371033	120.60932451146331	1
83.68507153524372	92.29235266964149	1
48.0266632775391	52.43883674411448	1
1.8804878852154696	40.902292660409294	1
6.075594739063072	90.19479919987691	1
9.221924879448775	132.1458685951685	1
38.58767285638199	149.97507308816742	1
24.953575581377283	115.36544083705186	1
38.58767285638199	174.09693799046008	1
74.2460811140866	28.31697184182182	1
263.02588953722875	73.41437144176028	1
254.6356758295335	121.6581012463456	1
325.95249234494275	435.2423449761502	1
414.0497362757424	472.9983074319126	1
523.1225144757801	382.8035082320357	1
189.61151959489567	297.85259270657025	1
179.12375246027668	259.04785351592557	1
216.8797141449051	173.04816125557778	1
184.36763602758617	195.07247268810588	1
367.9035608834188	378.6084012925066	1
268.2697731045382	399.5839359901523	1
278.7575402391572	233.8772118787506	1
268.2697731045382	263.2429604554547	1
213.7333840045194	251.70641637174953	1
218.9772675718289	289.46237882751194	1
179.12375246027668	358.68164332974305	1
82.63629482178182	252.7551931066318	1
284.00142380646673	289.46237882751194	1
261.97711282376684	313.5842437298046	1
462.29346509498987	499.21772580396987	1
550.3907090257895	366.0230804739191	1
509.48841720077536	363.9255270041545	1
315.46472521032376	206.60901677181107	1
504.3125	414.0	1
477.3125	386.0	1
426.3125	442.0	1
418.3125	335.0	1
369.3125	365.0	1
88.3125	252.0	1
22.3125	111.0	1
279.3125	10.0	1
471.3125	12.0	1
439.3125	86.0	1
548.3125	133.0	1
405.3125	134.0	1
369.3125	173.0	1
492.3125	243.0	1
539.3125	321.0	1
603.3125	303.0	1
519.3125	358.0	1
615.3125	452.0	1
323.3125	435.0	1
213.3125	247.0	1
262.3125	170.0	1
143.3125	78.0	1
124.3125	211.0	1
192.3125	295.0	1
178.3125	363.0	1
179.3125	248.0	1
319.3125	163.0	1
395.3125	46.0	1
442.3125	141.0	1
599.3125	103.0	1
438.3125	215.0	1
346.3125	238.0	1
317.3125	204.0	1
401.3125	251.0	1
469.2891374335015	16.56379100850547	1
517.8762532472206	236.310085054678	1
489.1656848118411	242.93560145808019	1
406.3467374020926	210.91227217496962	1
407.45099003422257	131.40607533414337	1
377.6361689667131	174.4719319562576	1
401.9297268735727	246.24835965978127	1
345.61284263494366	231.89307411907654	1
371.01065317393324	256.18663426488456	1
354.44686369198354	353.3608748481166	1
368.80214790967324	375.44592952612396	1
474.81040059415136	384.27995139732684	1
511.25073745444075	356.67363304981774	1
499.10395850101094	414.0947752126367	1
467.08063216924154	448.326609963548	1
596.2781901284492	302.5652490886999	1
262.7938952251952	167.8464155528554	1
277.1491794428849	2.208505467800729	1
139.11760042663735	72.88068043742406	1
17.649810892339502	44.17010935601458	1
83.90496882013832	253.97812879708383	1
120.34530568042767	210.91227217496962	1
193.22597940100638	292.6269744835966	1
177.76644255118666	363.2991494532199	1
322.4235373602141	436.179829890644	1
396.40846371292275	389.80121506682866	1
398.61696897718275	38.64884568651276	1
442.787074262382	209.80801944106923	1
470.5724025866718	13.039269118751825	1
538.407184555838	135.14118170485924	1
321.3358822545064	160.76750903774598	1
434.3938522031165	85.39595805866733	1
444.9459293983202	142.67833680276712	1
496.19887577502345	174.33438821398013	1
435.90129180243133	213.52759472310103	1
374.09626823052446	169.81209515523543	1
408.7673790147649	129.11145762653294	1
399.72274141887607	35.65073441247542	1
589.6601309325412	112.52971641113565	1
542.9295033537824	323.57005915255587	1
423.84177500791293	335.62950730920846	1
313.79868425793234	201.46814656644847	1
261.03829828191425	163.78237107690913	1
469.064962987357	379.34500687707407	1
511.27327176817147	414.01592032745026	1
360.5293118366912	373.3152827987478	1
598.70476852843	296.43630080008757	1
610.7642853229485	215.03502574268262	1
399.72274141887607	252.72080123222193	1
280.6350130730067	7.009545040425533	1
90.69762355934157	252.72080123222193	1
181.14399951822972	359.74840362251365	1
515.7955905661158	237.64649103640622	1
16.833083192916252	117.05200946988036	1
7.788445597027437	37.158165432057	1
346.962355442858	234.63162899724307	1
401.2301810181909	386.88216197498195	1
316.81356345656195	430.59766154284756	1
436.1615584696021	216.43353584447144	1
440.57856899812197	141.34434993924665	1
542.1698111540802	132.51032806804375	1
407.45099003422257	33.12758201701094	1
393.0957058165328	56.31688942891859	1
433.9530532053421	83.9232077764277	1
479.2274111226713	13.251032806804375	1
406.3467374020926	129.19756986634266	1
376.5319163345831	174.4719319562576	1
492.47844270823106	242.93560145808019	1
543.2740637862101	320.2332928311057	1
478.1231584905413	383.1756986634265	1
503.5209690295309	418.5117861482382	1
515.6677479829607	500.2264884568651	1
610.633474346139	450.53511543134874	1
596.2781901284492	304.7737545565006	1
415.18075845913245	331.27582017010934	1
369.90640054180324	371.0289185905225	1
344.5085900028137	295.9397326852977	1
399.7212216093127	244.03985419198057	1
405.24248476996263	283.79295261239366	1
367.6978952775433	256.18663426488456	1
346.71709526707366	232.99732685297693	1
284.87894786779475	235.20583232077763	1
352.23835842772354	354.46512758201703	1
325.736295256604	432.8670716889429	1
406.3467374020926	387.59270959902796	1
462.6636216407216	496.913730255164	1
229.66631626129575	415.19902794653706	1
179.97494781544663	358.88213851761844	1
192.1217267688764	294.8354799513973	1
191.01747413674642	111.52952612393682	1
239.60458995046557	55.212636695018226	1
97.15600040569808	119.25929526123937	1
26.483831949379347	115.94653705953827	1
40.83911616706909	149.0741190765492	1
181.0792004475766	193.2442284325638	1
268.31515838584505	165.63791008505467	1
318.00652683169415	151.28262454434994	1
316.9022741995642	199.86974483596597	1
522.2932637757406	231.8930741190766	1
499.1039585010109	170.0549210206561	1
595.1739374963192	101.59125151883353	1
570.8803795894597	129.19756986634266	1
609.5292217140089	215.32928311057108	1
430.640295308952	439.4925880923451	1
473.7061479620214	446.1181044957473	1
494.686947972491	475.9329283110571	1
267.21090575371505	401.94799513973265	1
175.5579372869267	257.2908869987849	1
217.51953730786596	172.26342648845687	1
138.01334779450735	72.88068043742406	1
85.0092214522683	252.87387606318347	1
280.4619373392748	11.042527339003644	1
513.4592427187007	358.88213851761844	1
8.81578983529966	41.96160388821385	1
471.24084143171166	384.9010617018003	1
570.8746292105923	130.04831512540392	1
402.0215783432262	131.0970918602862	1
314.97311112588847	152.072626557932	1
308.6804508451171	204.51146330204648	1
325.4608782605075	177.24326819510694	1
375.8021605066787	174.09693799046008	1
84.24223416427036	249.60886290198493	1
126.19330270274638	205.56024003692877	1
86.33978759119415	91.24357593475919	1
30.75462177771342	168.85305431604863	1
189.11990551046043	294.7062625019234	1
520.5333469644211	238.07231881827974	1
262.53427545279345	165.70672411140177	1
471.24084143171166	7.3414371441760276	1
498.5090359817211	420.5594706877981	1
428.24099617977373	345.0475457762733	1
411.46056876438337	327.21834128327436	1
176.5345849489176	358.68164332974305	1
432.43610303362135	217.09678412063397	1
406.21668519707384	217.09678412063397	1
492.2163757009497	167.80427758116633	1
522.2932637757406	378.758687727825	1
556.5250953717699	365.5076549210207	1
515.6677479829607	354.46512758201703	1
539.9613058898202	321.33754556500605	1
325.736295256604	177.7846901579587	1
265.0024004894551	162.32515188335358	1
375.4276637024531	174.4719319562576	1
406.3467374020926	131.40607533414337	1
473.7061479620214	13.251032806804375	1
367.6978952775433	374.34167679222355	1
355.5511163241135	351.1523693803159	1
491.37419007610106	172.26342648845687	1
520.0847585114806	236.310085054678	1
521.1890111436105	206.49526123936818	1
542.1698111540802	138.03159173754557	1
474.81040059415136	385.3842041312272	1
504.6252216616609	421.82454434993923	1
472.6018953298914	449.43086269744833	1
428.4317900446922	345.6311057108141	1
395.3042110807928	390.905467800729	1
436.1615584696021	217.53778857837182	1
492.47844270823106	241.83134872417983	1
394.1999584486628	251.76962332928312	1
182.18345307970657	356.67363304981774	1
342.3000847385537	232.99732685297693	1
452.7253479515518	198.76549210206562	1
433.9530532053421	85.02746051032807	1
185.4962109760965	240.72709599027945	1
147.9516214836772	268.33341433778855	1
470.171875	12.0	1
275.171875	5.0	1
9.171875	42.0	1
23.171875	116.0	1
136.171875	75.0	1
267.171875	164.0	1
85.171875	252.0	1
177.171875	264.0	1
315.171875	207.0	1
377.171875	177.0	1
407.171875	127.0	1
546.171875	137.0	1
191.171875	296.0	1
498.171875	421.0	1
544.171875	325.0	1
597.171875	304.0	1
269.171875	398.0	1
354.171875	355.0	1
477.171875	381.0	1
347.171875	231.0	1
317.171875	155.0	1
181.171875	357.0	1
323.171875	434.0	1
420.171875	332.0	1
398.171875	253.0	1
466.171875	501.0	1
35.171875	166.0	1
186.171875	190.0	1
490.171875	243.0	1
