457.096671423122	315.268355634042	1
398.76508526299426	249.99252869659716	1
402.9316271315748	316.65720301568973	1
393.20969610488686	280.5471710928479	1
526.5390358994645	245.82598655165387	1
459.8743660021757	423.59845140256743	1
527.9278831889914	444.43116212728387	1
598.7590949548608	524.984310262854	1
551.5382871109479	551.3724105141615	1
273.76882920557773	398.59919853290774	1
204.32646472923523	327.76798206887185	1
170.99412978059084	365.2668613733614	1
127.93986380525847	399.98804591455547	1
287.65730210084627	169.43938056102698	1
347.3777355505008	186.10554914080012	1
380.7100704991452	401.3768932962033	1
375.1546813410378	465.2638728520003	1
270.99113462652406	97.21931671534334	1
80.71905596134556	361.10031922841813	1
386.2654596572527	530.5396997894451	1
105.97140249235494	30.616601547286376	1
271.61963626153056	102.82224105499786	1
344.8871242748197	185.6463569609022	1
394.7939639360457	246.17167243060155	1
455.3192801209368	312.0062260993973	1
389.48472567421317	275.90340634554155	1
526.463072829493	249.3572153500594	1
127.20835553968514	214.31624323602293	1
26.33282856486667	48.66801142421425	1
79.42521118319218	358.7275222514459	1
274.8051792186301	400.1395802043981	1
527.5249204818595	443.6753334369888	1
544.5144829197237	557.2930308976524	1
473.37069021116747	585.9629171727732	1
387.36103036948015	539.2416210207246	1
354.44375314611835	410.75805660259095	1
383.1136397600141	396.9540372849402	1
170.74410928671205	368.2841510098195	1
204.72323416244038	382.0881703274702	1
113.71978988764779	30.919076549210207	1
27.588084581509325	47.48286755771567	1
271.627916282235	101.59125151883353	1
283.77469523566475	165.63791008505467	1
347.82134789920366	186.6187120291616	1
399.7212216093127	249.5611178614824	1
394.1999584486628	277.1674362089915	1
403.03397950570263	308.0865127582017	1
452.7253479515518	312.5035236938032	1
523.3975164078705	252.87387606318347	1
459.35086374433166	422.9287970838396	1
522.2932637757406	445.0138517618469	1
600.6952006569692	518.9987849331714	1
547.69107431473	558.7518833535844	1
384.261684759493	531.1455650060753	1
377.6361689667131	399.73948967193195	1
272.732168914365	399.73948967193195	1
203.1642530901762	387.59270959902796	1
178.87069518331663	371.0289185905225	1
210.89402151508608	319.12904009720535	1
79.4879582916184	359.98639125151885	1
47.7598192274347	93.76584711088778	1
28.681451239667087	46.06992740517138	1
269.54584708523316	99.72783707410233	1
341.0897270393617	187.96528852967768	1
397.13243300342907	245.20039217653735	1
388.78564700878076	278.58753597053885	1
403.0944229996065	310.78228177189743	1
456.75233296520287	311.9746797645403	1
529.4886109185669	252.35478013239484	1
208.7335491242239	322.7062616983265	1
175.3464051456306	366.8249874261142	1
203.96395712728201	384.71095731575787	1
271.9306430837041	403.7893251980444	1
455.5599349659674	421.6752950876881	1
527.1038149200959	447.9080509258321	1
382.82365701260335	534.9531043887645	1
597.455296874989	518.2595324917638	1
280.27742907835244	168.88692064739112	1
106.187321189973	32.95354948609936	1
122.88089317926966	403.7893251980444	1
76.37737120908612	360.8629974628996	1
547.374580907099	552.8390742784081	1
38.09605877194672	90.19479919987691	1
391.53381120860723	273.7307278042776	1
455.5091907297832	311.48669026004	1
524.7284538182686	248.56008616710264	1
597.0940470471397	521.2420372364979	1
522.6309003913448	446.7788890598554	1
209.04666306623653	326.1695645483921	1
344.3388591028217	189.82858901369443	1
269.8757124470268	98.58501307893522	1
381.04604407398824	534.8761347899678	1
171.2907013816081	367.07185720880136	1
457.60674415670695	423.705800892445	1
284.5585864354934	165.70672411140177	1
400.32194459559014	309.65248180961487	1
392.416507624803	278.03073308611323	1
346.3014586285446	188.4357783695253	1
288.3282541761055	159.44917537298218	1
271.1998074060666	96.20567792597895	1
496.5047610735005	79.07723070074891	1
524.1737904712555	447.9976324749344	1
455.66000339110025	309.65248180961487	1
462.24786753342283	428.2340395227459	1
379.2407793401577	403.2001551166405	1
206.63873881130485	378.166270710535	1
213.2266029536275	326.78092903484486	1
172.38184527122718	363.6729692122634	1
123.63165061803973	399.24743652620276	1
48.52999939556176	101.47596937989589	1
110.45592233339447	27.691889025058785	1
27.448834140129343	47.455481977247295	1
273.8349530629957	391.34199934532734	1
385.82864348248035	528.3695771471677	1
538.6670915843654	552.0858886897939	1
597.957868865269	520.4641399662922	1
372.6529151978351	465.12607970016444	1
351.5717499424027	378.166270710535	1
337.0784488292929	482.2545269253945	1
335.7608760008284	458.5382153827683	1
530.7616546135782	249.04413008957007	1
81.4693201071749	355.76753203138804	1
460.234375	312.0	1
527.234375	382.0	1
513.234375	188.0	1
503.234375	90.0	1
341.234375	186.0	1
256.234375	103.0	1
338.234375	38.0	1
296.234375	164.0	1
295.234375	96.0	1
400.234375	250.0	1
365.234375	323.0	1
206.234375	321.0	1
130.234375	218.0	1
100.234375	273.0	1
166.234375	370.0	1
200.234375	381.0	1
282.234375	398.0	1
461.234375	426.0	1
382.234375	405.0	1
596.234375	526.0	1
553.234375	553.0	1
384.234375	537.0	1
342.234375	490.0	1
330.234375	469.0	1
356.234375	416.0	1
343.234375	385.0	1
81.234375	363.0	1
538.234375	247.0	1
