452.87396192010925	62.80555989379978	1
415.61642727258965	79.83757613618617	1
303.8438233300308	57.483054818054036	1
244.23176789399935	15.967515227237232	1
206.97423324647974	19.16101827268468	1
166.5231956291727	35.128533499921915	1
186.7487144378262	51.09604872715914	1
287.87630848109376	71.32156801499298	1
391.1329045042196	88.35358425737935	1
366.64938173584954	144.77213806028425	1
403.9069163833692	149.03014212088084	1
585.9365856612508	101.12759643916914	1
598.7105975404004	169.25566140871467	1
536.9695401245107	293.8022801811651	1
482.67998963812494	332.12431672653446	1
409.22942133301484	309.76979540840233	1
386.874900544503	298.06028424176174	1
575.2915757619595	303.38278931750745	1
602.9686015001168	281.0282679993753	1
588.065587641109	496.05747305950337	1
333.64985104804646	419.4133999687647	1
311.2953302595347	270.38325784788384	1
296.39231640052685	248.02873652975168	1
272.9732946220859	134.12712790879277	1
217.61924314577107	285.2862720599719	1
285.7473065012355	345.9628299234734	1
255.94127878321981	332.12431672653446	1
311.2953302595347	333.1888177416836	1
199.52272631697582	176.7071685147587	1
479.2274111226713	330.171567436209	1
575.2973901179796	312.5035236938032	1
598.4866953927092	278.27168894289184	1
409.6594952984825	152.3868772782503	1
369.90640054180324	150.17837181044956	1
390.8872005522729	83.9232077764277	1
590.7569269677994	56.31688942891859	1
364.38513738115336	28.710571081409476	1
596.2781901284492	167.8464155528554	1
419.59776898765233	320.2332928311057	1
412.97225319487256	303.6695018226001	1
588.5484217035394	493.60097205346295	1
331.2575584172539	420.7202916160389	1
283.77469523566475	345.6311057108141	1
454.9338532158117	252.87387606318347	1
471.4976426977614	151.28262454434994	1
346.71709526707366	202.0782503037667	1
585.2356638071494	104.90400972053463	1
355.5511163241135	271.64617253948967	1
532.069890812502	295.75503923680566	1
550.9478716548161	101.73134328358209	1
585.5575031990588	101.73134328358209	1
585.5575031990588	57.68272041852593	1
389.4362577816834	78.65825511617172	1
303.43656727780757	55.58516694876135	1
283.5098097220315	73.41437144176028	1
490.1188222740259	394.3400523157409	1
594.9964936202159	277.9258347438068	1
569.8258524971303	309.3891367902755	1
243.65629461047925	18.877981227881214	1
250.99773160471256	339.80366210186185	1
277.21714944126006	231.77965840898602	1
599.1916004740635	165.70672411140177	1
586.2594693491191	108.33009576852544	1
457.096671423122	63.886979555797055	1
389.04315423630635	83.33084289886573	1
369.5992921829304	152.77321198125384	1
283.4907602322657	72.22006384568363	1
205.7153120187621	16.666168579773146	1
482.0959226346053	326.3791346872241	1
490.42900637176643	402.765740677851	1
536.2609669261525	298.6021870542688	1
283.4907602322657	343.0453032669972	1
272.3799819160509	140.27358554642393	1
304.3234695751685	61.10928479250153	1
285.3125	346.0	1
310.3125	332.0	1
480.3125	332.0	1
355.3125	399.0	1
491.3125	398.0	1
571.3125	310.0	1
534.3125	293.0	1
568.3125	291.0	1
599.3125	282.0	1
554.3125	101.0	1
580.3125	103.0	1
589.3125	54.0	1
460.3125	44.0	1
452.3125	66.0	1
420.3125	83.0	1
387.3125	82.0	1
419.3125	33.0	1
323.3125	71.0	1
297.3125	61.0	1
278.3125	72.0	1
208.3125	18.0	1
198.3125	159.0	1
197.3125	176.0	1
224.3125	286.0	1
207.3125	275.0	1
369.3125	149.0	1
404.3125	149.0	1
274.3125	122.0	1
273.3125	140.0	1
359.3125	28.0	1
359.3125	269.0	1
457.3125	249.0	1
341.3125	199.0	1
406.3125	300.0	1
420.3125	318.0	1
588.3125	489.0	1
310.3125	271.0	1
297.3125	253.0	1
282.3125	234.0	1
243.3125	18.0	1
591.3125	169.0	1
607.3125	167.0	1
493.3125	345.0	1
539.3125	324.0	1
333.3125	420.0	1
503.3125	473.0	1
495.3125	461.0	1
543.3125	543.0	1
178.3125	72.0	1
189.3125	49.0	1
164.3125	38.0	1
586.3399164392794	106.008262454435	1
590.7569269677994	55.212636695018226	1
386.47019002375293	81.71470230862697	1
371.01065317393324	145.76136087484812	1
410.7637479306125	145.76136087484812	1
537.7528006255602	291.52272174969625	1
601.7994532890991	277.1674362089915	1
480.3316637548013	332.3800729040097	1
453.8296005836817	248.456865127582	1
493.58269534036106	397.53098420413124	1
589.6526743356693	492.49671931956254	1
312.48526367104427	329.06731470230864	1
289.2959583963147	343.42260024301333	1
303.65124261400445	248.456865127582	1
457.14235848007166	64.04665856622114	1
462.6636216407216	48.587120291616046	1
420.70202161978233	319.12904009720535	1
410.76374793061257	303.6695018226001	1
324.632042624474	417.40753341433776	1
285.98320049992475	240.72709599027945	1
196.53873729739632	178.88894289185905	1
280.4619373392748	76.19343863912515	1
298.1299794533545	60.733900364520046	1
319.11077946382414	78.40194410692588	1
247.33435837537542	23.189307411907656	1
204.26850572230617	15.459538274605103	1
163.4111583334969	36.44034021871203	1
193.22597940100638	55.212636695018226	1
136.90909516237738	86.13171324422844	1
557.234375	511.0	1
546.234375	331.0	1
580.234375	314.0	1
473.234375	343.0	1
421.234375	329.0	1
486.234375	401.0	1
368.234375	150.0	1
388.234375	86.0	1
585.234375	103.0	1
412.234375	150.0	1
453.234375	260.0	1
350.234375	268.0	1
301.234375	252.0	1
312.234375	278.0	1
337.234375	195.0	1
265.234375	157.0	1
276.234375	118.0	1
276.234375	234.0	1
283.234375	302.0	1
285.234375	347.0	1
412.234375	308.0	1
536.234375	297.0	1
514.234375	402.0	1
202.1968401564385	14.682874288352055	1
460.19591166806606	46.146176334820744	1
588.1466707104179	105.92645022311126	1
554.5858158796372	104.87767348822896	1
451.8056979603708	65.02415756270196	1
415.0985129892043	87.04846899523004	1
385.7327650122711	88.09724573011233	1
358.4645704622617	26.21941837205724	1
415.0985129892043	32.51207878135098	1
318.6110553507095	75.51192491152486	1
365.80600745649497	149.97507308816742	1
410.9034061353567	147.87751961840283	1
280.855093666081	77.60947838128943	1
248.3430155487621	20.97553469764579	1
300.78185122185715	58.73149715340822	1
165.48965518527197	37.75596245576243	1
272.46487995838584	112.21911063240499	1
273.51365667184774	142.63363594399138	1
339.58658961994746	200.31635636251733	1
448.65936781998516	253.8039698415141	1
535.7078350373229	300.9989229112171	1
597.5856611315751	169.90183105093092	1
576.610126862337	311.48669026004	1
478.0251157969183	330.3646714879212	1
598.6344378450369	278.97461147868904	1
561.9272528738704	292.6087090321588	1
420.34239655651385	312.53546699492233	1
291.34286080070007	343.99876904139103	1
250.44056897568592	336.657331897215	1
221.0748209987527	283.1697184182182	1
198.00173330259088	180.38959839975382	1
205.34317029682418	274.77950453915986	1
311.26961835647614	268.48684412986614	1
349.0255800411046	269.53562086474847	1
324.90371563148085	421.60824742268045	1
492.70798978538494	393.2912755808586	1
590.2442241373417	496.071395599323	1
536.7566117507848	331.41344822280354	1
411.9521828488186	299.95014617633484	1
280.855093666081	239.12109555316204	1
311.26961835647614	334.5597784274504	1
591.2930008508037	56.63394368364364	1
310.22084164301424	302.04769964609943	1
282.9526470930048	292.6087090321588	1
230.5138114199098	212.9016771811048	1
504.2445336334659	476.1446376365595	1
251.3125	20.0	1
210.3125	15.0	1
165.3125	38.0	1
301.3125	53.0	1
199.3125	175.0	1
269.3125	117.0	1
390.3125	86.0	1
460.3125	59.0	1
587.3125	102.0	1
598.3125	160.0	1
492.3125	396.0	1
592.3125	493.0	1
570.3125	302.0	1
538.3125	294.0	1
482.3125	329.0	1
414.3125	318.0	1
385.3125	294.0	1
312.3125	266.0	1
331.3125	417.0	1
374.3125	148.0	1
579.1080537373376	469.79086805196846	1
505.24351337091224	400.4490411512161	1
481.12447978187544	331.10721425046376	1
463.0352045900978	58.26219970619901	1
392.1855434223021	79.36623398034104	1
303.24660706272874	58.26219970619901	1
206.77047270658136	19.068993197078118	1
248.97878148739582	20.57642421665969	1
586.6452517339116	103.48513029364621	1
603.2270873263744	169.81209515523543	1
411.78225821339447	310.0031799763217	1
307.7689258606731	261.7653873497114	1
282.1424526723215	335.62950730920846	1
333.3953990490248	420.04564440577656	1
419.3194562099685	486.37260926736576	1
506.75095297022705	468.28343703238687	1
571.5708557407636	300.9585938588323	1
282.1424526723215	136.64861272444082	1
164.5621639257669	37.158165432057	1
405.7524998161353	144.18576782234868	1
603.2270873263744	279.85455958469026	1
536.8997449565231	291.91400774134286	1
612.2717249222633	361.2558346420952	1
556.4964597476155	508.98407456108936	1
352.9921138401172	261.7653873497114	1
450.97568779557935	251.21337021264037	1
369.57394943258004	150.21549190067498	1
200.74071430932216	175.84181923356172	1
586.6452517339116	50.72504460829115	1
211.29279150452578	281.36199060427185	1
479.4864866683376	333.1888177416836	1
494.38950052734543	401.31688271122914	1
589.1300886310381	498.18647508980166	1
535.9050391345816	294.86678119631426	1
576.3560767518886	312.96329845384975	1
584.8720846713217	105.38560049976574	1
556.1305579432351	106.45010151491489	1
302.7793223401016	58.54755583320319	1
269.7797916522985	142.64313602998595	1
192.07121938747187	187.3521786662502	1
