596.2781901284492	27.606318347509113	1
17.649810892339502	39.753098420413124	1
13.232800363819582	73.98493317132443	1
44.15187406345903	112.63377885783719	1
3.294526674649758	114.8422843256379	1
41.94336879919907	132.51032806804375	1
26.483831949379347	174.4719319562576	1
46.360379327718995	209.80801944106926	1
87.21772671652826	198.76549210206562	1
69.54968460244858	171.1591737545565	1
59.61141091327876	43.06585662211422	1
96.05174777356811	13.251032806804375	1
205.37275835443617	13.251032806804375	1
155.68138990858705	9.938274605103281	1
149.05587411580717	58.52539489671932	1
110.40703199125785	87.2359659781288	1
185.4962109760965	25.397812879708383	1
89.42623198078823	114.8422843256379	1
105.99002146273793	145.76136087484812	1
113.71978988764779	200.97399756986633	1
147.9516214836772	251.76962332928312	1
113.71978988764779	272.75042527339	1
140.22185305876732	288.20996354799513	1
80.59221092374838	245.14410692588092	1
166.72391622988684	214.2250303766707	1
183.28770571183657	166.74216281895505	1
208.6855162508261	283.79295261239366	1
185.4962109760965	309.19076549210206	1
228.56206362916575	204.28675577156744	1
218.62378993999593	114.8422843256379	1
263.8981478573251	24.29356014580802	1
220.8322952042559	61.83815309842041	1
322.4235373602141	60.733900364520046	1
255.0641268002853	51.89987849331713	1
270.523663650105	101.59125151883353	1
262.7938952251952	138.03159173754557	1
289.2959583963147	154.59538274605103	1
340.0915794742938	188.82721749696233	1
294.81722155696457	223.05905224787364	1
260.5853899609352	213.12077764277035	1
298.1299794533545	266.12490886998785	1
258.37688469667523	282.6886998784933	1
231.8748215255557	304.7737545565006	1
205.37275835443617	331.27582017010934	1
206.47701098656614	373.2374240583232	1
255.0641268002853	363.2991494532199	1
282.6704426035348	408.5735115431349	1
314.6937689353042	392.0097205346294	1
314.6937689353042	353.3608748481166	1
327.94480052086396	305.87800729040094	1
294.81722155696457	312.5035236938032	1
345.61284263494366	232.99732685297693	1
326.840547888734	276.06318347509114	1
313.58951630317426	159.0123936816525	1
383.157432127363	121.46780072904009	1
330.15330578512396	139.13584447144592	1
371.01065317393324	160.11664641555285	1
380.94892686310305	203.18250303766706	1
395.3042110807928	167.8464155528554	1
393.0957058165328	43.06585662211422	1
430.64029530895215	12.14678007290401	1
553.21233747538	18.772296476306195	1
581.9229059107595	71.7764277035237	1
463.7678742728516	64.04665856622114	1
403.03397950570263	76.19343863912515	1
341.1958321064238	88.34021871202916	1
436.1615584696021	96.06998784933171	1
488.0614321797111	71.7764277035237	1
406.3467374020926	140.2400972053463	1
604.0079585533591	78.40194410692588	1
607.320716449749	111.52952612393682	1
545.4825690504701	124.7805589307412	1
557.6293480038998	76.19343863912515	1
499.10395850101094	90.54872417982989	1
464.87212690498154	128.09331713244228	1
583.0271585428894	139.13584447144592	1
607.320716449749	192.13997569866342	1
552.10808484325	161.22089914945323	1
605.1122111854891	150.17837181044956	1
521.1890111436105	141.34434993924665	1
472.6018953298914	191.03572296476307	1
429.5360426768222	192.13997569866342	1
442.78707426238196	228.58031591737546	1
418.4935163555224	217.53778857837182	1
514.5634953508306	194.34848116646415	1
571.9846322215897	303.66950182260024	1
531.1272848327803	361.0906439854192	1
473.7061479620214	371.0289185905225	1
424.01477951617227	356.67363304981774	1
450.5168426872918	324.65030376670717	1
595.1739374963192	344.52685297691374	1
590.7569269677994	274.9589307411908	1
547.69107431473	274.9589307411908	1
471.4976426977614	283.79295261239366	1
406.3467374020926	267.2291616038882	1
376.5319163345831	291.52272174969625	1
384.261684759493	335.6928311057108	1
398.61696897718275	393.1139732685298	1
358.8638742205034	414.0947752126367	1
416.2850110912624	438.3883353584447	1
461.5593690085916	396.42673147023083	1
524.5017690400005	409.67776427703524	1
488.0614321797111	462.68189550425274	1
584.1314111750195	379.8629404617254	1
559.8378532681598	460.473390036452	1
525.6060216721305	513.4775212636695	1
565.3591164288098	513.4775212636695	1
450.5168426872918	475.9329283110571	1
322.171875	59.0	1
21.171875	45.0	1
67.171875	57.0	1
144.171875	250.0	1
310.171875	396.0	1
279.171875	404.0	1
120.171875	326.0	1
369.171875	410.0	1
420.171875	354.0	1
484.171875	462.0	1
523.171875	402.0	1
570.171875	514.0	1
509.171875	192.0	1
468.171875	191.0	1
225.171875	206.0	1
296.171875	266.0	1
528.171875	502.0	1
485.171875	75.0	1
47.171875	203.0	1
287.171875	156.0	1
386.171875	200.0	1
331.171875	191.0	1
426.171875	206.0	1
450.171875	159.0	1
439.171875	103.0	1
600.171875	28.0	1
544.171875	271.0	1
471.171875	371.0	1
338.234375	233.0	1
293.234375	265.0	1
292.234375	159.0	1
350.234375	92.0	1
324.234375	63.0	1
327.234375	274.0	1
314.234375	398.0	1
399.234375	389.0	1
375.234375	337.0	1
312.234375	347.0	1
261.234375	275.0	1
415.234375	356.0	1
419.234375	320.0	1
280.234375	417.0	1
490.234375	463.0	1
347.234375	128.0	1
294.234375	105.0	1
265.234375	138.0	1
248.234375	202.0	1
225.234375	203.0	1
151.234375	252.0	1
110.234375	261.0	1
147.234375	284.0	1
294.234375	220.0	1
434.234375	288.0	1
470.234375	369.0	1
502.234375	369.0	1
450.234375	331.0	1
443.234375	435.0	1
600.234375	343.0	1
467.234375	60.0	1
398.234375	77.0	1
164.234375	214.0	1
381.234375	115.0	1
322.68208292616407	54.741922730510424	1
393.03356488105715	41.62554481143841	1
461.00025083747926	63.08870867901079	1
540.8909167862561	120.32381232587048	1
585.0096427579687	69.05069864222534	1
401.38035087570546	77.39748459072571	1
342.95284891316714	88.1290665245119	1
429.99790285735685	11.815594995365657	1
274.98616295674503	100.05304645094101	1
301.2189189399255	106.01503641415556	1
434.7674948542988	100.05304645094101	1
57.96972709588846	44.01034079672423	1
171.24753702325864	221.67764170051782	1
147.39957703854913	246.71799954601894	1
115.20483105919129	266.9887654209484	1
223.71304898961958	204.9840698035171	1
328.6440729223414	196.63728385501673	1
297.64172494221907	265.79636742830553	1
295.2569289437481	222.87003969316075	1
348.91483890934455	230.0244276490182	1
514.6581608030756	189.48289589915927	1
511.0809668053692	137.01738422287121	1
556.3920907763173	78.58988258336862	1
148.5919750377846	101.24544444358392	1
66.31651309053679	169.2121300242298	1
313.1428989322803	394.5753506337398	1
277.370958955216	400.5373405969543	1
378.7247888902314	338.532644979523	1
416.88152486576666	355.2262168765238	1
452.6534648428309	327.80106304573684	1
433.5750968550633	292.0291232664495	1
483.6558128229533	462.5420362143857	1
527.7745387946659	405.30693256752596	1
503.92657880995637	369.5349927882387	1
575.4704587640849	305.14550118552154	1
557.5844887755528	354.0338188838809	1
526.5821407954304	358.8034108544525	1
610.0500007419137	188.29049790651635	1
446.69147484665353	168.01973203158687	1
483.6558128229533	73.82029061279698	1
493.19499681683715	91.70626050244064	1
289.29493894757076	156.09575210515777	1
16.235797122646808	38.04835083350968	1
137.86039304466533	280.10514334002045	1
359.64642090246383	444.656066324742	1
590.9716327541461	487.5823940598868	1
569.5084687679075	515.0075478906737	1
249.94580497280003	359.9958088470954	1
599.3184187487944	29.701564885009308	1
259.48498896668383	132.24779225229958	1
472.924230829834	369.5349927882387	1
457.4230568397728	390.99815665581104	1
596.9336227503235	350.45662490595214	1
253.52299897050648	210.94605976673165	1
481.7286085663307	459.36420987844286	1
470.1920647182498	369.16941067856595	1
458.65552087016886	391.193722111094	1
521.5821236778829	403.7790429296815	1
533.1186675259638	496.071395599323	1
518.4357935374973	517.0469302969688	1
564.5819689298208	517.0469302969688	1
591.8501634798303	491.87628865979383	1
454.4604140163213	326.1695645483921	1
366.36317008552163	444.6813355900908	1
317.0706645528123	420.5594706877981	1
309.729227558579	394.3400523157409	1
280.3634795816458	404.8278196645638	1
515.2894633971115	139.48730573934452	1
498.5090359817211	91.24357593475919	1
484.8749387067164	66.07293429758425	1
322.3145481201218	54.53639021387906	1
416.70445233169283	39.853515925527006	1
293.9975768566505	218.14556085551624	1
168.14437124122242	222.3406677950454	1
140.87617669121298	281.07216494845363	1
112.55920542774167	269.53562086474847	1
295.0463535701124	266.38929066010155	1
351.680296097055	225.48699799969228	1
328.6072084008932	192.97491921834128	1
283.5098097220315	155.21895676257887	1
275.11959601433625	97.53623634405294	1
47.53504919310383	202.4139098322819	1
378.94849064706443	333.51100169256813	1
514.2406866836496	195.07247268810588	1
558.2893086490494	77.60947838128943	1
147.1688369719844	249.60886290198493	1
74.80324374311324	198.21880289275273	1
402.84375	76.0	1
463.84375	61.0	1
482.84375	74.0	1
499.84375	94.0	1
539.84375	120.0	1
558.84375	73.0	1
592.84375	63.0	1
595.84375	25.0	1
514.84375	137.0	1
547.84375	159.0	1
609.84375	187.0	1
517.84375	196.0	1
433.84375	103.0	1
318.84375	65.0	1
223.84375	206.0	1
247.84375	212.0	1
292.84375	215.0	1
335.84375	196.0	1
346.84375	226.0	1
289.84375	256.0	1
327.84375	274.0	1
168.84375	218.0	1
105.84375	212.0	1
143.84375	252.0	1
341.84375	81.0	1
378.84375	332.0	1
423.84375	355.0	1
451.84375	330.0	1
484.84375	463.0	1
449.84375	474.0	1
460.84375	391.0	1
469.84375	362.0	1
571.84375	312.0	1
595.84375	489.0	1
283.84375	400.0	1
308.84375	393.0	1
286.84375	157.0	1
268.84375	95.0	1
305.84375	105.0	1
420.84375	38.0	1
390.84375	35.0	1
425.84375	18.0	1
19.3125	35.0	1
13.3125	76.0	1
5.3125	180.0	1
143.3125	251.0	1
169.3125	222.0	1
113.3125	265.0	1
140.3125	280.0	1
116.3125	300.0	1
229.3125	199.0	1
321.3125	56.0	1
345.3125	87.0	1
112.3125	77.0	1
63.3125	46.0	1
45.3125	199.0	1
114.3125	203.0	1
338.3125	194.0	1
463.3125	61.0	1
605.3125	187.0	1
486.3125	78.0	1
599.3125	31.0	1
558.3125	75.0	1
518.3125	141.0	1
549.3125	158.0	1
520.3125	198.0	1
573.3125	517.0	1
598.3125	489.0	1
487.3125	464.0	1
525.3125	410.0	1
315.3125	391.0	1
384.3125	340.0	1
295.3125	263.0	1
292.3125	216.0	1
274.3125	406.0	1
451.3125	162.0	1
437.3125	102.0	1
474.3125	131.0	1
403.3125	80.0	1
393.3125	44.0	1
286.3125	160.0	1
273.3125	103.0	1
353.3125	233.0	1
547.3125	269.0	1
575.3125	307.0	1
448.3125	474.0	1
454.3125	330.0	1
425.3125	360.0	1
360.3125	446.0	1
383.157432127363	202.0782503037667	1
352.23835842772354	225.26755771567437	1
441.68282163025196	98.27849331713244	1
562.0463585324198	73.98493317132443	1
586.3399164392794	71.77642770352371	1
602.9037059212291	29.814823815309843	1
430.64029530895215	7.729769137302552	1
401.9297268735727	75.08918590522478	1
343.4043373706837	90.54872417982989	1
322.4235373602141	55.212636695018226	1
302.54698998187445	106.008262454435	1
273.83642154649493	92.75722964763062	1
262.7938952251952	128.09331713244228	1
287.0874531320547	155.69963547995138	1
334.57031631364384	196.5569866342649	1
295.92147418909457	216.43353584447144	1
294.81722155696457	268.33341433778855	1
517.8762532472206	139.13584447144592	1
481.43591638693124	70.67217496962333	1
388.67869528801293	41.96160388821385	1
552.10808484325	155.69963547995138	1
545.4825690504701	118.155042527339	1
607.320716449749	187.72296476306198	1
514.5634953508306	193.2442284325638	1
573.0888848537196	308.0865127582017	1
525.6060216721305	405.26075334143377	1
485.8529269154512	460.47339003645203	1
565.3591164288099	513.4775212636696	1
473.7061479620214	368.82041312272173	1
457.14235848007166	387.59270959902796	1
443.8913268945119	470.41166464155526	1
424.01477951617227	355.5693803159174	1
383.157432127363	335.6928311057108	1
452.7253479515518	330.171567436209	1
316.9022741995642	392.0097205346294	1
276.04492681075493	404.1565006075334	1
361.0723794847634	442.80534629404616	1
167.82816886201684	218.64204131227217	1
146.8473688515472	252.87387606318347	1
144.63886358728723	281.58444714459296	1
120.34530568042767	304.7737545565006	1
110.40703199125785	267.2291616038882	1
120.34530568042767	210.91227217496962	1
82.80071618800835	192.13997569866345	1
40.83911616706909	198.76549210206562	1
67.34117933818862	167.8464155528554	1
153.47288464432708	99.38274605103281	1
17.649810892339502	70.67217496962333	1
19.858316156599464	38.64884568651276	1
592.9654322320592	491.3924665856622	1
460.0203253914682	62.784492764943735	1
325.85820105245074	58.26219970619901	1
334.9028386483396	192.42356044895902	1
390.6781038229873	205.99043962519318	1
422.33433540859806	209.00530166435635	1
512.7807113674862	139.66347476360397	1
550.4667013503563	123.08173354820666	1
583.6303725352819	65.79935480410688	1
600.2122081277448	23.591286255822837	1
437.40873140174614	8.516976060007106	1
283.6498922716363	154.73778495941968	1
229.3820666963034	201.46814656644847	1
346.962355442858	230.10933593849833	1
577.6006141380228	302.46602487841386	1
457.0054461928386	331.10721425046376	1
170.5919223230261	219.55731880142733	1
297.2168486654695	267.79511142803767	1
295.7094090661547	219.55731880142733	1
473.5872817853014	193.93099146854058	1
607.7494061243189	183.37897433146958	1
437.40873140174614	98.96283723490149	1
401.2301810181909	76.35137194117789	1
345.4549158435432	83.88852703908576	1
21.35540199086066	43.187889510383286	1
377.111147429154	329.59978323088217	1
490.1691173777642	456.2239888757343	1
527.8551073606343	403.46390319037926	1
469.064962987357	371.8078517791662	1
452.48312739489415	165.2898020964907	1
554.9890201483007	16.05413115791497	1
312.29124465861753	394.4193170728898	1
276.11269427506227	401.95647217079767	1
150.99520753193366	248.19850817347722	1
141.95056993604484	290.40657672176127	1
114.81665714837841	261.7653873497114	1
502.2286341722826	88.41082009783048	1
416.3045770113389	34.14330339289385	1
609.2568457236337	108.00742335239093	1
423.84177500791293	349.1963864854426	1
69.59346916893433	168.30466413565384	1
48.4893147785271	212.02016370351947	1
4.773566398397831	174.33438821398013	1
116.32409674769322	209.00530166435632	1
304.75404666204355	108.00742335239093	1
196.21839551137774	279.85455958469026	1
357.51443263806163	438.13481664075545	1
551.9741409496711	159.26007801816442	1
446.453368997635	469.79086805196846	1
570.0634161414488	513.5063676198341	1
592.6750101311708	487.8800402869473	1
535.3923053572083	495.4171953848552	1
515.7955905661158	187.9012673902143	1
482.6319193811902	65.79935480410688	1
435.90129180243133	293.4214387609244	1
