502.4167163974009	480.34993924665855	1
597.3824427605792	525.6243013365735	1
348.9256005313336	295.9397326852977	1
301.44273734974445	309.19076549210206	1
261.6896425930652	305.87800729040094	1
268.31515838584505	258.3951397326853	1
268.31515838584505	39.753098420413124	1
554.3165901075099	121.46780072904009	1
545.4825690504701	66.25516403402187	1
583.0271585428894	44.17010935601458	1
605.1122111854891	143.5528554070474	1
567.5676216930698	246.24835965978127	1
537.7528006255602	167.8464155528554	1
512.3549900865708	18.772296476306195	1
431.74454794108215	23.189307411907656	1
306.9640005103944	250.66537059538274	1
330.15330578512396	216.43353584447144	1
325.736295256604	430.65856622114217	1
310.2767584067843	385.3842041312272	1
209.78976888295608	61.83815309842041	1
234.08332678981566	25.397812879708383	1
569.7761269573297	209.80801944106926	1
601.7994532890991	200.97399756986633	1
479.2274111226713	511.26901579586877	1
448.30833742303184	518.9987849331714	1
414.07650582700245	509.06051032806806	1
160.09840043710696	16.56379100850547	1
121.44955831255766	18.772296476306195	1
351.5717499424027	293.841607447864	1
392.416507624803	293.841607447864	1
355.52446842779625	188.4357783695253	1
297.55126397535713	119.92198946860516	1
261.97679760681496	32.96218047897572	1
551.8428198690106	118.60441660512592	1
534.7143730989718	173.94247687125375	1
492.55204258810693	151.54373819210676	1
567.6536938105849	205.56422559475536	1
537.3495187559008	339.9566576696372	1
492.55204258810693	343.9093762600749	1
597.957868865269	191.0709240964838	1
504.41019804428765	475.6666626079983	1
595.32272320834	516.5114213758545	1
312.0445650884669	312.2876275365733	1
310.72699226000236	246.40898436261162	1
264.61194326374397	258.2671401339247	1
284.37553569071184	192.38849695996302	1
229.0374768952018	32.96218047897572	1
205.3211659828403	56.67849202160193	1
603.2281601791271	144.9558738747106	1
570.288839467514	263.53743158784164	1
395.05165328173206	395.29471793576505	1
344.98388580008003	378.166270710535	1
263.29437043527946	303.0646174922187	1
583.4645677521593	40.86761765985112	1
330.4905846869703	217.42238136606846	1
259.3416519498859	139.68558242079368	1
155.25339850118834	15.83373325374568	1
325.22029337311216	424.2813209323082	1
271.1998074060666	345.22694912355416	1
590.0524318944819	316.24034612701104	1
505.3125	476.0	1
484.3125	515.0	1
416.3125	515.0	1
590.3125	532.0	1
530.3125	345.0	1
554.3125	113.0	1
533.3125	162.0	1
568.3125	202.0	1
569.3125	240.0	1
346.3125	297.0	1
383.3125	275.0	1
299.3125	298.0	1
352.3125	188.0	1
331.3125	217.0	1
313.3125	253.0	1
265.3125	255.0	1
256.3125	306.0	1
314.3125	398.0	1
343.3125	379.0	1
401.3125	397.0	1
328.3125	429.0	1
304.3125	118.0	1
260.3125	142.0	1
394.3125	304.0	1
211.0784027710626	64.00927509347555	1
301.16553137358795	111.42355294049447	1
314.2044578818482	245.36888785832295	1
260.8633948935108	259.5931712124286	1
286.94124791003134	190.84246833425118	1
391.2526599761133	45.04356395466798	1
512.1590694163448	9.482855569403785	1
588.0219145553134	41.487493116141565	1
551.2758489411254	122.09176545607373	1
527.5687098351978	168.3206863569172	1
570.2415602258676	214.54960725776064	1
348.5798095854434	297.5245934900438	1
305.9069591947735	307.00744905944754	1
386.51123215492777	277.3735254050607	1
391.2526599761133	305.8220921132721	1
604.6169119294628	435.02599924639867	1
585.6512006447207	468.2159937393119	1
393.6233738867061	493.1084896089969	1
395.99408779729885	398.279933914959	1
317.76052874773734	430.28457146169677	1
598.690127152981	194.39853917277762	1
263.2341088041036	343.75351439088723	1
353.32123740662894	183.73032665719833	1
120.99127416853723	20.151068084983045	1
157.7373397827252	10.668212515579258	1
119.6379022627484	23.189307411907656	1
158.28674438729772	13.251032806804375	1
226.7504075793565	30.919076549210207	1
269.81626023242575	39.753098420413124	1
210.18661809740678	62.94240583232078	1
231.16741810787641	173.36767922235722	1
290.7970602428954	193.2442284325638	1
265.3992497039058	257.2908869987849	1
256.565228646866	303.66950182260024	1
310.673607621235	247.35261239368165	1
329.44590236744466	213.12077764277035	1
260.98223917538587	139.13584447144592	1
302.94383919632514	110.42527339003645	1
315.0906181497549	71.7764277035237	1
308.465102356975	303.66950182260024	1
352.63520764217424	298.1482381530984	1
387.97129187033363	279.3759416767922	1
393.4925550309835	311.39927095990276	1
353.73946027430424	188.82721749696233	1
490.6667866584218	149.0741190765492	1
391.28404976672357	46.37861482381531	1
553.6091866898307	115.94653705953827	1
533.7326393114911	171.1591737545565	1
576.7984919645603	204.28675577156744	1
555.8176919540906	241.83134872417983	1
575.6942393324302	266.12490886998785	1
523.7943656223213	345.6311057108141	1
503.91781824398157	480.34993924665855	1
307.3608497248451	385.3842041312272	1
346.00969184939436	380.9671931956258	1
396.80531292737345	398.6352369380316	1
318.40337604614484	428.4500607533414	1
344.9054392172644	468.20315917375456	1
395.7010602952435	491.3924665856622	1
458.64346032665236	513.4775212636695	1
588.9452709179901	478.14143377885785	1
520.4816077259313	456.05637910085056	1
585.6325130216001	44.17010935601458	1
510.54333403676145	15.459538274605103	1
432.14139715553284	17.668043742405832	1
602.1963025035499	144.65710814094774	1
601.0920498714198	431.7628189550425	1
167.12076544433756	156.80388821385176	1
163.80800754794762	46.37861482381531	1
237.7929339006563	14.355285540704738	1
541.4624077364009	341.21409477521263	1
492.87529192268175	348.9438639125152	1
415.57760767358315	512.3732685297691	1
482.93701823351194	488.07970838396113	1
486.2497761299019	528.9370595382746	1
264.2949970717758	346.73535844471445	1
347.171875	191.0	1
312.171875	249.0	1
259.171875	255.0	1
269.171875	343.0	1
310.171875	391.0	1
395.171875	403.0	1
345.171875	298.0	1
388.171875	274.0	1
548.171875	120.0	1
490.171875	151.0	1
392.171875	494.0	1
412.171875	511.0	1
326.171875	428.0	1
532.171875	172.0	1
572.171875	206.0	1
573.171875	258.0	1
522.171875	456.0	1
502.171875	481.0	1
532.171875	340.0	1
253.171875	143.0	1
302.171875	112.0	1
329.171875	219.0	1
344.60004097144713	291.65795014603003	1
311.2677060228027	244.43713917000613	1
270.99113462652406	261.1033077497793	1
305.7123168646953	304.1575765808599	1
394.59854339441375	304.1575765808599	1
386.2654596572526	277.7694763295524	1
327.9338734971249	216.66019153705088	1
258.4915090207824	143.0512803097195	1
302.93462228564164	111.10779053182097	1
319.6007897599638	70.83121646403586	1
272.3799819160509	38.887726686137334	1
540.4275087947331	169.43938056102698	1
569.5933018747969	263.8810025130748	1
587.648316638646	474.9858045235346	1
600.1479422443875	437.486925219045	1
343.2111936819203	379.15533518983904	1
508.4840211356155	480.54119405012574	1
308.49001144374904	388.87726686137336	1
298.76808041706107	369.4334035183047	1
266.8245927579435	348.6006927935883	1
459.8743660021757	516.6512259729675	1
532.234375	173.0	1
553.234375	128.0	1
488.234375	154.0	1
353.234375	189.0	1
332.234375	150.0	1
283.234375	199.0	1
258.234375	260.0	1
315.234375	247.0	1
330.234375	216.0	1
378.234375	271.0	1
392.234375	297.0	1
350.234375	304.0	1
303.234375	312.0	1
263.234375	306.0	1
491.234375	350.0	1
521.234375	343.0	1
575.234375	206.0	1
518.234375	214.0	1
395.234375	400.0	1
300.234375	363.0	1
266.234375	350.0	1
218.234375	83.0	1
259.234375	139.0	1
385.234375	485.0	1
408.234375	515.0	1
323.234375	432.0	1
574.234375	261.0	1
525.234375	455.0	1
458.234375	517.0	1
465.234375	543.0	1
548.234375	531.0	1
591.234375	475.0	1
303.234375	111.0	1
388.78564700878076	44.87752941252847	1
296.9710010676491	111.65181700053144	1
250.46747909746557	142.6541648092471	1
267.1610510867622	42.49273342724265	1
208.7335491242239	62.763499302172114	1
350.6289110332455	187.96528852967768	1
327.9733490477715	218.96763633839333	1
310.08737905923937	248.7775861544661	1
258.8142650921139	259.5091680882523	1
389.97804500801624	306.0126898013258	1
348.24411503477455	296.4735058601825	1
384.01605501183883	277.39513797789596	1
306.5101850615329	308.3974857866116	1
268.3534490859977	348.93901753647054	1
344.66692103706816	383.5185593231149	1
394.7476370049581	399.0197332274728	1
548.5669789063345	118.8062049563889	1
586.7237148818697	43.68513141988556	1
544.989784908628	67.53309127274376	1
528.2962129193314	168.88692064739112	1
573.6073368902795	202.2740644413926	1
511.60264093003474	10.297987625884073	1
326.780951048536	433.59927501411715	1
341.0897270393617	470.5636127860474	1
388.78564700878076	490.8343786609768	1
517.5646309262121	458.63963285961825	1
585.5313168826342	478.91039873454775	1
601.0324908726955	438.3688669846888	1
568.8377448933376	258.3167700956094	1
281.4698270775879	195.11967648553514	1
125.26568917774061	16.259977589098625	1
157.46043515709846	17.452375581741535	1
