500.0048642596029	85.61227221249871	1
469.1283055612271	54.73571502110573	1
415.7960678094869	102.45403068053125	1
380.70906928860524	94.03315144651498	1
349.83251059022933	51.92875527643364	1
307.72811236517134	74.38443323381036	1
340.00815100438246	102.45403068053125	1
420.0065076319927	150.17234633995676	1
405.97170822364006	178.24194378667764	1
393.34038875612265	192.27674251003808	1
396.1473486377932	138.9445073612684	1
345.6220707677235	138.9445073612684	1
342.815110886053	179.6454236590137	1
222.11583597422	77.19139297848244	1
264.220234199278	106.66447029753938	1
250.18543479092537	209.1185009780706	1
317.5524719510182	200.69762174405435	1
334.3942312410414	230.1706990631113	1
342.815110886053	263.85421599917635	1
347.0255507085588	310.1690517862658	1
275.44807372596017	328.4142901266344	1
231.94019556006688	276.48553485020074	1
268.43067402178383	279.29249459487284	1
412.9891079278164	296.1342530629054	1
417.19954775032215	255.43333676516008	1
463.514385797886	270.8716153608566	1
494.3909444962619	266.66117574384845	1
501.4083442004382	214.73242046741478	1
554.7405819521783	103.85751055286728	1
574.3893011238721	81.40183259549057	1
539.3023026029905	16.841758468032534	1
563.1614615971899	39.297436425409245	1
537.8988226621552	58.94615463811387	1
480.3561450879092	294.7307731905693	1
525.2675031946378	311.57253165860186	1
546.3197023071667	388.7639246370843	1
431.23434715867484	324.20385050962625	1
551.9336220705078	449.1135591475342	1
455.0935061528744	436.4822402965098	1
420.0065076319927	423.8509214454854	1
387.7264689927816	404.2022032327808	1
424.2169474544985	471.56923710491094	1
438.2517468628512	489.8144754452795	1
404.5682282828048	488.4109955729435	1
435.44478698118064	447.71007927519815	1
469.1283055612271	502.4457942963039	1
492.98746455542664	533.3223514876969	1
495.7944244370972	583.8476268917944	1
560.3545017155194	583.8476268917944	1
484.56658491041503	428.0613610624936	1
417.19954775032215	348.06300833933904	1
327.3768315368651	376.1326057860599	1
375.09514952526416	317.18645114794606	1
373.6916695844289	228.76721919077525	1
497.9997058688811	215.32928311057108	1
429.5360426768222	325.7545565006075	1
373.2191584381932	313.6077764277035	1
404.13823213783263	295.9397326852977	1
463.7678742728516	276.06318347509114	1
554.3165901075099	446.1181044957473	1
471.4976426977614	511.26901579586877	1
323.5277899923441	376.5501822600243	1
346.71709526707366	298.1482381530984	1
338.9873268421638	263.91640340218714	1
226.35355836490578	276.06318347509114	1
269.41941101797505	270.5419198055893	1
147.9516214836772	183.3059538274605	1
220.8322952042559	82.81895504252734	1
344.5085900028137	50.795625759416765	1
361.0723794847634	17.668043742405832	1
403.03397950570263	57.42114216281895	1
418.4935163555224	94.96573511543134	1
461.5593690085916	54.10838396111786	1
343.4043373706837	179.99319562575943	1
344.5085900028137	141.34434993924665	1
373.2191584381932	120.36354799513973	1
393.0957058165328	139.13584447144592	1
378.74042159884306	96.06998784933171	1
534.4400427291703	13.251032806804375	1
534.4400427291703	59.62964763061969	1
560.9421059002898	32.02332928311057	1
552.10808484325	102.6955042527339	1
575.2973901179797	80.61044957472662	1
97.1560004056981	57.42114216281895	1
269.41941101797505	111.52952612393682	1
538.171875	10.0	1
307.171875	29.0	1
219.171875	205.0	1
234.171875	273.0	1
259.171875	215.0	1
501.171875	212.0	1
271.171875	353.0	1
350.171875	478.0	1
431.171875	488.0	1
453.171875	438.0	1
430.171875	325.0	1
414.171875	352.0	1
347.171875	296.0	1
219.171875	82.0	1
270.171875	12.0	1
486.171875	267.0	1
416.171875	99.0	1
468.171875	88.0	1
501.171875	89.0	1
345.171875	50.0	1
343.171875	263.0	1
372.234375	234.0	1
331.234375	233.0	1
301.234375	233.0	1
278.234375	217.0	1
223.234375	210.0	1
428.234375	165.0	1
405.234375	187.0	1
292.234375	140.0	1
342.234375	108.0	1
467.234375	285.0	1
372.234375	293.0	1
346.234375	300.0	1
383.234375	98.0	1
424.234375	100.0	1
398.234375	146.0	1
371.234375	175.0	1
531.234375	149.0	1
560.234375	104.0	1
505.234375	214.0	1
266.234375	268.0	1
247.234375	203.0	1
253.234375	295.0	1
343.234375	268.0	1
379.234375	265.0	1
419.234375	260.0	1
407.234375	240.0	1
417.234375	208.0	1
320.3125	505.0	1
577.3125	631.0	1
533.3125	174.0	1
297.3125	417.0	1
323.3125	378.0	1
233.3125	277.0	1
97.3125	20.0	1
93.3125	59.0	1
267.3125	324.0	1
359.3125	469.0	1
495.3125	216.0	1
498.3125	88.0	1
469.3125	88.0	1
554.3125	104.0	1
577.3125	149.0	1
493.3125	35.0	1
537.3125	15.0	1
345.3125	50.0	1
371.3125	29.0	1
356.3125	89.0	1
379.3125	95.0	1
303.3125	135.0	1
488.3125	475.0	1
548.3125	447.0	1
430.3125	329.0	1
473.3125	353.0	1
566.3125	587.0	1
592.9654322320592	11.042527339003644	1
103.78151619847797	18.772296476306195	1
541.0655585219502	5.521263669501822	1
70.65393723457856	32.02332928311057	1
553.21233747538	30.919076549210207	1
94.94749514143813	55.212636695018226	1
500.20821113314094	8.834021871202916	1
202.06000045804623	26.50206561360875	1
467.08063216924154	15.459538274605103	1
227.45781099703578	6.625516403402187	1
365.4893900132833	22.08505467800729	1
267.21090575371505	5.521263669501822	1
417.3892637233924	36.44034021871203	1
288.1917057641847	17.668043742405832	1
460.45511637646166	56.31688942891859	1
311.38101103891427	32.02332928311057	1
600.6952006569692	69.56792223572296	1
549.89957957899	104.90400972053463	1
502.4167163974009	93.86148238153099	1
465.97637953711154	87.2359659781288	1
416.2850110912624	100.48699878493316	1
380.94892686310305	91.65297691373026	1
353.34261105985354	97.17424058323208	1
351.1341057955936	58.52539489671932	1
408.55524266635257	62.94240583232078	1
573.0888848537196	79.50619684082625	1
186.6004636082265	54.10838396111786	1
284.87894786779475	78.40194410692588	1
315.7980215674342	68.4636695018226	1
221.93654783638587	88.34021871202916	1
165.61966359775687	77.29769137302551	1
299.2342320854845	134.71883353584448	1
269.41941101797505	113.73803159173754	1
342.3000847385537	147.96986634264886	1
396.40846371292275	144.65710814094774	1
427.3275374125622	130.301822600243	1
429.5360426768222	163.42940461725394	1
403.03397950570263	185.51445929526125	1
347.82134789920366	185.51445929526125	1
299.2342320854845	165.63791008505467	1
465.97637953711154	118.155042527339	1
606.216463817619	177.7846901579587	1
224.14505310064584	187.72296476306198	1
151.26437938006714	181.09744835965978	1
219.7280425721259	213.12077764277035	1
249.54286363963539	218.64204131227217	1
229.66631626129575	272.75042527339	1
266.1066531215851	281.58444714459296	1
280.4619373392748	322.44179829890646	1
210.89402151508608	322.44179829890646	1
312.48526367104427	210.91227217496962	1
280.4619373392748	212.01652490887	1
333.4660636815139	235.20583232077763	1
346.71709526707366	266.12490886998785	1
400.8254742414427	237.41433778857837	1
373.2191584381932	229.6845686512758	1
407.45099003422257	213.12077764277035	1
495.791200604621	213.12077764277035	1
482.54016901906124	149.0741190765492	1
454.9338532158117	256.18663426488456	1
418.4935163555224	266.12490886998785	1
589.6526743356693	325.7545565006075	1
534.4400427291703	314.7120291616039	1
486.9571795475812	342.318347509113	1
415.18075845913245	347.8396111786148	1
374.3234110703232	315.81628189550423	1
543.2740637862101	385.3842041312272	1
494.686947972491	405.26075334143377	1
463.7678742728516	369.9246658566221	1
430.64029530895215	425.13730255164035	1
485.8529269154512	438.3883353584447	1
602.9037059212291	395.3224787363305	1
607.320716449749	359.98639125151885	1
559.8378532681598	341.21409477521263	1
608.424969081879	265.0206561360875	1
612.8419796103989	431.7628189550425	1
584.1314111750195	450.53511543134874	1
437.265811101732	491.3924665856622	1
416.2850110912624	469.3074119076549	1
405.24248476996263	499.1222357229648	1
457.14235848007166	438.3883353584447	1
475.91465322628136	505.74775212636695	1
465.97637953711154	479.2456865127582	1
490.2699374439711	532.2498177399757	1
539.9613058898202	538.8753341433779	1
563.1506111645498	511.26901579586877	1
502.4167163974009	562.0646415552856	1
465.97637953711154	575.3156743620899	1
497.99970586888094	583.0454434993925	1
431.74454794108215	531.1455650060753	1
431.74454794108215	563.1688942891859	1
365.4893900132833	474.82867557715673	1
388.67869528801293	401.94799513973265	1
338.9873268421638	339.0055893074119	1
348.9256005313336	306.98226002430135	1
382.05317949523305	267.2291616038882	1
196.53873729739632	146.86561360874848	1
183.28770571183657	115.94653705953827	1
141.3261056908973	107.11251518833535	1
304.7114173094819	260.97257389492745	1
233.16753735535335	275.28134980664237	1
273.7090693293595	326.5544634902875	1
266.5546813339467	355.17201531371734	1
322.59738729801404	374.2503831960039	1
412.0272372406747	355.17201531371734	1
412.0272372406747	250.24099196114122	1
375.06289926437495	319.40007553443	1
344.0605512842526	299.12930965950056	1
344.0605512842526	270.51175783607073	1
332.13657129189784	234.7398180567834	1
295.1722333155981	166.77313247613753	1
468.06994320474206	86.88246696906255	1
551.5378031512254	102.38364087342038	1
381.0248892605523	91.65205893963419	1
193.81840338058265	46.34093521920361	1
223.62835336146955	82.11287499849091	1
268.9394773324176	108.34563083663492	1
302.3266213110109	134.57838667477895	1
354.7921332773719	95.22925291756292	1
308.2886113071883	65.41930310149017	1
310.6734073056593	26.070169344274134	1
346.44534728272356	51.11052718977525	1
466.8775452055066	51.11052718977525	1
404.8728492452618	63.034507116204345	1
417.98922723685206	97.61404890284874	1
389.37167525520067	132.19359068949313	1
408.45004324296826	177.5047144099237	1
469.26234120397754	156.04155054235133	1
540.806221158106	53.49532317506107	1
540.806221158106	14.146189417845033	1
499.0722911848644	4.607005476701751	1
598.0413251214089	65.41930310149017	1
574.1933651366994	79.72807901320509	1
222.43595536223407	10.568995439916302	1
93.65697144480269	54.68772116770398	1
165.20085139893123	68.9964970794189	1
236.74473135305976	381.4047711518613	1
149.69967740887003	182.27430638049535	1
167.58564739740217	225.20063411564013	1
431.1056052284423	488.72059048972324	1
401.29565524755543	485.14339651179455	1
469.26234120397754	506.6065603793669	1
494.30269918792254	584.112429901156	1
469.26234120397754	572.188449974727	1
425.14361523226495	531.646918224868	1
456.1459632123873	439.83227279136395	1
541.9986191573415	388.5591591077188	1
600.4261211198799	395.71354706357624	1
540.806221158106	536.4165101954396	1
562.2693851443446	590.0744198643706	1
550.3454051519899	446.9866607472214	1
428.72080922997134	322.97726951235876	1
481.1863211963323	346.82522936521696	1
497.87989318562893	91.65205893963419	1
421.5664212345585	153.6567545570655	1
369.1009092681976	231.16262407885466	1
344.0605512842526	185.8515003584241	1
262.97748733624024	270.51175783607073	1
557.4997931474028	29.647363322202864	1
586.1173451290541	18.915781388416672	1
524.1126491688094	308.66849360064384	1
534.8442311619287	352.7872193284315	1
459.72315721009375	271.7041558287136	1
481.1863211963323	294.3597176889289	1
342.8681532850171	140.5403766379935	1
421.5664212345585	32.03215930748868	1
365.52371527049115	22.4929753663454	1
287.70491657587905	85.99969226034776	1
224.77831376816505	280.0233882135713	1
321.2657714066599	373.36451761809514	1
148.21761368544628	183.53592860440068	1
542.5576579471209	534.8761347899678	1
343.2900823893598	134.24342206493307	1
338.0461988220503	174.09693799046008	1
379.99726736052634	93.34112940452378	1
304.4853439912695	20.97553469764579	1
191.2174589373842	47.19495306970303	1
184.9247986566128	143.68241267887367	1
461.80185101055457	272.6819510693953	1
529.9723373855782	310.43791352515774	1
541.508881233659	391.193722111094	1
426.14344275285	326.1695645483921	1
333.8510919682027	228.63332820433914	1
