528.0744630763083	345.25604859466694	1
529.4779430171436	405.60568310511684	1
492.98746455542664	408.41264284978894	1
456.49698609370967	425.2544013178215	1
485.9700648512503	449.1135591475342	1
553.3371020113431	429.46484093482957	1
275.44807372596017	324.20385050962625	1
260.0097943767722	259.6437763821682	1
198.25667698002047	270.8716153608566	1
121.06528023408077	225.96025944610315	1
46.6808433698116	182.4523834036858	1
21.418204434776786	151.5758262122928	1
81.76784189069329	256.83681663749616	1
118.25832035241024	275.0820549778647	1
290.8863530751481	286.3098939565531	1
363.867309998582	338.2386492329867	1
418.6030276911574	334.0282096159786	1
455.0935061528744	362.0978070626995	1
439.65522680368645	378.939565530732	1
424.2169474544985	371.92216616905176	1
229.13323567839635	238.59157829712754	1
40.171875	237.0	1
6.171875	189.0	1
19.171875	147.0	1
46.171875	182.0	1
76.171875	145.0	1
127.171875	220.0	1
136.171875	256.0	1
228.171875	237.0	1
257.171875	259.0	1
161.171875	304.0	1
445.171875	356.0	1
464.171875	418.0	1
550.171875	430.0	1
256.2416151720221	262.1941837205724	1
276.16837272779816	199.26757962763503	1
230.02219733547454	237.02354208339747	1
201.70522607200323	266.38929066010155	1
129.33963284313208	170.95060778581322	1
123.04697256236068	225.48699799969228	1
185.9735753700747	213.95045391598708	1
292.9488001431886	281.07216494845363	1
276.16837272779816	324.0720110786275	1
448.16775373554987	355.5353131250962	1
464.9481811509403	417.41314048315127	1
164.9980411008367	304.145253115864	1
135.63229312390348	246.46253269733808	1
149.2663903989082	269.53562086474847	1
24.461961496942017	47.19495306970303	1
43.339942339256226	69.21926450223111	1
12.92541764886111	146.82874288352056	1
42.29116562579433	180.38959839975382	1
545.7039880875067	427.90090783197417	1
598.1428237606017	393.2912755808586	1
119.90064242197498	268.48684412986614	1
44.38871905271813	238.07231881827974	1
176.62168072028533	103.48513029364621	1
19.847962391545856	50.72504460829115	1
46.9818751792123	80.87366499992261	1
535.3923053572083	344.6740934266979	1
591.167570531856	293.4214387609244	1
255.00853988465505	254.22823225180352	1
230.88950629561822	234.6316289972431	1
134.41337193947084	165.2898020964907	1
126.87617394289683	227.09447389933518	1
40.95211678195309	236.13906001682463	1
7.788445597027437	189.40869840979587	1
16.833083192916252	139.66347476360397	1
78.63810676482315	150.21549190067498	1
362.036751436006	334.1220762896269	1
453.99056699420896	359.74840362251365	1
286.6647714702659	281.36199060427185	1
273.09781507643265	328.0923522113006	1
203.75559350795174	272.3174044867824	1
157.0249659291929	302.46602487841386	1
147.98032833330407	261.7653873497114	1
551.9741409496711	429.090230523266	1
245.96390228876623	353.71867954418735	1
467.55752338804217	414.01592032745026	1
524.8402281620047	401.95647217079767	1
589.6601309325412	394.4193170728898	1
277.6201338743771	198.45328452728532	1
45.474435579897495	180.36411229230643	1
229.66631626129575	234.10157958687728	1
249.54286363963539	259.4993924665857	1
194.33023203313635	263.91640340218714	1
130.2835793695975	168.95066828675576	1
76.17520039522846	147.96986634264886	1
40.83911616706909	73.98493317132443	1
18.754063524469483	47.48286755771567	1
17.649810892339502	145.76136087484812	1
48.56888459197895	179.99319562575943	1
39.73486353493911	237.41433778857837	1
121.44955831255766	219.74629404617255	1
166.72391622988684	308.0865127582017	1
121.44955831255766	274.9589307411908	1
273.83642154649493	322.44179829890646	1
353.34261105985354	327.9630619684083	1
417.3892637233924	329.06731470230864	1
522.2932637757406	348.9438639125152	1
545.4825690504701	433.9713244228432	1
522.2932637757406	399.73948967193195	1
588.5484217035394	392.0097205346294	1
241.8130952147255	353.3608748481166	1
268.31515838584505	369.9246658566221	1
110.40703199125785	365.5076549210207	1
44.18262522972827	72.3026832433154	1
19.14226724578328	46.06992740517138	1
110.9569131869149	44.87752941252847	1
181.30839514180798	102.11263305938814	1
135.9972711708599	168.88692064739112	1
126.4580871769761	226.1220242942508	1
186.07798713874988	217.77523834575044	1
196.80956913186915	266.6635560441097	1
227.81191711199153	234.46881024275118	1
255.23707109440747	258.3167700956094	1
274.3154390821751	321.5138637056836	1
244.5054891012882	351.32381352175634	1
356.5909010294229	334.6302416247556	1
415.0184029919612	331.0530476468269	1
522.334222923154	350.13141552911344	1
518.7570289254476	403.7893251980444	1
596.2628988757535	397.82733523482983	1
546.1821829078635	430.0220810361884	1
440.0587609759062	385.90335530840076	1
271.9306430837041	372.78697738932874	1
19.14226724578328	151.00095075774746	1
42.99022723049279	180.81090057382022	1
157.46043515709846	306.01268980132573	1
275.50783708141057	201.0816664487497	1
37.02823723431542	236.853606228037	1
465.0991189598512	419.29049910240224	1
170.234375	105.0	1
42.234375	71.0	1
127.234375	166.0	1
120.234375	225.0	1
136.234375	254.0	1
202.234375	268.0	1
155.234375	306.0	1
229.234375	240.0	1
252.234375	264.0	1
287.234375	282.0	1
270.234375	329.0	1
530.234375	342.0	1
442.234375	389.0	1
458.234375	362.0	1
421.234375	328.0	1
363.234375	339.0	1
349.234375	315.0	1
311.234375	396.0	1
120.234375	279.0	1
80.234375	263.0	1
53.234375	226.0	1
37.234375	241.0	1
48.234375	179.0	1
78.234375	163.0	1
18.234375	48.0	1
24.234375	149.0	1
109.234375	368.0	1
274.234375	372.0	1
484.234375	411.0	1
522.234375	402.0	1
542.234375	433.0	1
484.234375	446.0	1
427.234375	491.0	1
240.234375	352.0	1
208.234375	374.0	1
246.234375	396.0	1
526.7102743042605	344.52685297691374	1
457.14235848007166	363.2991494532199	1
433.9530532053421	350.04811664641556	1
442.78707426238196	383.1756986634265	1
419.59776898765233	333.4843256379101	1
362.17663211689336	340.1098420413123	1
351.1341057955936	319.12904009720535	1
273.83642154649493	334.58857837181046	1
291.50446366057463	286.0014580801944	1
261.6896425930652	291.52272174969625	1
250.64711627176536	261.7078979343864	1
229.66631626129575	239.6228432563791	1
193.22597940100638	269.43766707168896	1
129.17932673746753	168.95066828675576	1
43.04762143132905	174.4719319562576	1
18.754063524469483	149.0741190765492	1
43.04762143132905	73.98493317132443	1
20.962568788729445	48.58712029161604	1
78.38370565948843	155.69963547995138	1
122.55381094468764	221.95479951397326	1
525.6060216721305	404.1565006075334	1
