314.04332983335536	279.878396038242	1
307.0112097655324	247.53064172226425	1
378.7388344573267	255.96918632643235	1
328.1075699690013	234.8728248160121	1
332.3268420096951	255.96918632643235	1
273.25703343998214	270.03342733337917	1
260.5992173179008	279.878396038242	1
212.78080085670462	279.878396038242	1
353.42320221316396	386.7666276910379	1
416.7122828235707	450.0557122222986	1
470.15639533902527	315.03899855560906	1
273.25703343998214	165.95804388197263	1
155.11741630055627	77.35332553820759	1
346.391082145341	80.16617373959694	1
368.8938663623745	108.29465575349062	1
436.402219013475	120.95247265974275	1
419.5251308506999	149.08095467363643	1
184.65232058541272	267.22057913198984	1
164.96238439550842	164.55161978127794	1
432.1829469727812	587.8852740903776	1
494.06560356962336	502.09340394800194	1
378.6185870284688	255.73566327138508	1
366.5590702339504	28.113579314567556	1
152.50264713124847	80.87366499992261	1
163.0547243264521	150.21549190067498	1
469.064962987357	310.0031799763217	1
551.9741409496711	147.20062986151183	1
518.8104697647454	109.5148543719725	1
274.60525467574746	166.79723311607228	1
208.27791230589617	282.8694216238534	1
405.7524998161353	270.8099734672008	1
327.5584316874313	233.8772118787506	1
210.09543977969844	274.77950453915986	1
314.97311112588847	463.55931681797205	1
547.8015415144305	144.73118941375597	1
544.6552113740447	371.26696414833054	1
590.8013867663684	140.53608247422682	1
276.16837272779816	259.04785351592557	1
258.33916859894583	284.2184951531005	1
372.655830366293	257.99907678104324	1
447.11897702208796	556.9004462224958	1
135.43740840506	232.3703044738428	1
214.06775591527716	279.3138003271444	1
149.5204557203228	299.26478606479753	1
373.6756254882552	572.7106494102792	1
447.6116238933848	555.1068384652912	1
376.02280004079904	253.49487760782853	1
156.56197937795417	78.63035555428014	1
277.4414688339596	171.34375986455075	1
548.540129652768	149.04559933423252	1
590.7892715985563	144.35124974890235	1
519.2004477459706	110.3172152552587	1
576.7062242832935	279.3138003271444	1
468.73619486627894	312.1742474244555	1
184.7280740084797	268.7515137601515	1
304.43397618821325	249.9741154188309	1
292.234375	214.0	1
263.234375	219.0	1
277.234375	168.0	1
333.234375	359.0	1
307.234375	286.0	1
276.234375	268.0	1
212.234375	285.0	1
181.234375	268.0	1
131.234375	239.0	1
340.234375	440.0	1
315.234375	401.0	1
371.234375	573.0	1
266.234375	359.0	1
306.234375	255.0	1
474.234375	322.0	1
493.234375	503.0	1
376.234375	258.0	1
447.234375	563.0	1
426.234375	592.0	1
416.234375	364.0	1
288.234375	411.0	1
326.234375	235.0	1
235.234375	257.0	1
316.234375	575.0	1
405.234375	278.0	1
300.234375	366.0	1
257.234375	428.0	1
478.234375	584.0	1
99.234375	92.0	1
155.234375	81.0	1
398.89360576886315	213.48821538315798	1
272.30500045359196	169.54911823783067	1
279.6283081991035	215.5805533424593	1
261.8431322457183	217.6728913017606	1
235.68846172603418	262.65815742673857	1
208.4876043855627	279.396861101149	1
380.0622429946906	143.3948937465644	1
222.08803305579843	149.6719076244683	1
128.9774060057229	170.5952872174813	1
173.96343929957962	113.05599333669552	1
196.97954935690166	124.56385211285269	1
196.97954935690166	153.8565835430709	1
166.64013155406806	156.99509048202285	1
543.2673870375196	301.36640967381265	1
542.2212002167322	232.3192570168697	1
550.5906947830312	147.57956966516699	1
523.3898374425596	115.14833129599683	1
427.14064993012204	137.11787986866048	1
183.3791206866659	93.17878272333317	1
128.9774060057229	97.36345864193576	1
543.2673870375196	374.5982382493582	1
519.2050901594102	392.38311090341927	1
508.74322195153655	320.1974513075244	1
504.5584746683871	351.5825206970439	1
573.6068048403532	278.35069212149835	1
354.9537592957938	302.4125786534633	1
377.9698693531159	257.4273125284853	1
328.7990887761097	234.411594976171	1
306.829165539575	250.10412967093075	1
229.41134080131	104.68664149949032	1
287.99780276540247	387.152266005166	1
405.17072669358737	276.258354162197	1
181.28674704509118	67.0245582320669	1
155.13207652540703	82.71709292682665	1
414.58640808067366	363.09037947320104	1
496.1889801020882	501.1846847870869	1
563.1449366324796	231.27308803721905	1
590.345793972951	145.4872317058657	1
366.46181432445485	29.362474964643475	1
116.42316415627452	37.73182680184868	1
108.0536695899756	143.3948937465644	1
253.4736376794194	356.8133655952971	1
444.9258258835073	438.41454600804786	1
529.6669583672839	480.2613051940739	1
497.2351669228755	257.4273125284853	1
459.5724413745304	228.1345810982671	1
501.419914206025	84.80943088612796	1
162.4553842709186	12.623771290233066	1
101.77654866525141	101.54813456053837	1
134.20834010965973	236.5039329354723	1
184.42530750745328	269.98134028429314	1
274.3973740951667	267.8890023249918	1
329.84527559689707	357.85953457494776	1
255.5660113209941	284.6277059994022	1
305.78297871878766	432.137532130144	1
416.6787817222484	450.96857376385566	1
463.7571886576798	482.3536431533752	1
584.0686730482269	591.1552170370429	1
443.8796390627199	553.4931337696195	1
552.683068424606	553.4931337696195	1
601.853849001612	515.831050502196	1
571.5144311987784	546.1699509120649	1
608.1309699263362	418.5373353946855	1
314.15247328508656	282.53536804010093	1
468.98812276161664	312.8742684499698	1
353.9075724750065	388.19843498481663	1
372.73893524917906	574.4165133626325	1
428.18683675090944	585.9243721387896	1
153.03970288383232	228.1345810982671	1
266.3125	220.0	1
213.3125	279.0	1
214.3125	54.0	1
153.3125	82.0	1
129.3125	172.0	1
430.3125	127.0	1
518.3125	117.0	1
593.3125	143.0	1
577.3125	279.0	1
469.3125	480.0	1
547.3125	366.0	1
373.3125	328.0	1
321.3125	343.0	1
378.3125	258.0	1
273.3125	174.0	1
135.3125	239.0	1
167.3125	157.0	1
231.3125	108.0	1
200.3125	122.0	1
371.3125	578.0	1
428.3125	585.0	1
289.3125	387.0	1
306.3125	251.0	1
550.3125	154.0	1
233.3125	262.0	1
273.3125	269.0	1
102.3125	103.0	1
437.3125	478.0	1
349.3125	302.0	1
496.3125	501.0	1
421.3125	450.0	1
470.3125	314.0	1
529.3125	481.0	1
447.3125	560.0	1
135.171875	242.0	1
212.171875	279.0	1
313.171875	286.0	1
544.989784908628	151.00095075774746	1
587.9161128811052	142.6541648092471	1
518.7570289254476	117.61380696374599	1
372.09207501948407	253.54717812503773	1
406.67161699731287	275.0103419926101	1
206.34875312575295	278.58753597053885	1
275.50783708141057	174.84891061060566	1
138.38206716933084	239.23840221332281	1
163.42242515327584	156.96294072096202	1
155.0756391586275	77.07227521388704	1
509.2178449315638	321.5138637056836	1
575.9921328887505	279.77993396318175	1
449.59794496979	552.8390742784081	1
424.55758698584503	585.0338200797668	1
499.67866093768	500.3735626021201	1
109.76451518767944	141.46176681660418	1
181.30839514180798	62.763499302172114	1
306.5101850615329	246.39279016918027	1
273.1230410829396	264.27876005882393	1
252.8522750959365	284.5495259337534	1
350.6289110332455	307.2050877939687	1
286.23941907452985	382.326161330472	1
187.27038513798536	272.6255460073243	1
150.3060471616856	306.0126898013258	1
498.4862629384445	352.5162115143993	1
469.8687109567931	315.55187374246907	1
372.09207501948407	571.9174421606947	1
608.1868788681082	246.39279016918027	1
