530.0230322006504	369.9246658566221	1
525.6060216721305	329.06731470230864	1
596.2781901284492	294.8354799513973	1
606.216463817619	378.758687727825	1
571.9846322215897	345.6311057108141	1
554.3165901075099	415.19902794653706	1
606.216463817619	542.188092345079	1
506.8337269259208	481.4541919805589	1
578.6101480143695	509.06051032806806	1
401.9297268735727	495.80947752126366	1
395.3042110807928	433.9713244228432	1
369.90640054180324	467.0989064398542	1
491.37419007610106	431.7628189550425	1
548.7953269468601	257.2908869987849	1
535.5442953613003	197.66123936816524	1
507.9379795580508	175.57618469015796	1
486.9571795475812	208.70376670716888	1
485.8529269154512	155.69963547995138	1
444.9955795266419	136.9273390036452	1
302.54698998187445	377.65443499392467	1
281.5661899714048	344.52685297691374	1
298.1299794533545	304.7737545565006	1
321.3192847280841	425.13730255164035	1
337.8830742100338	373.2374240583232	1
344.5085900028137	157.90814094775212	1
359.9681268526334	126.98906439854191	1
338.9873268421638	104.90400972053463	1
294.81722155696457	92.75722964763062	1
599.5909480248391	131.40607533414337	1
484.7486742833212	80.61044957472662	1
350.0298531634636	304.7737545565006	1
341.1958321064238	260.603645200486	1
273.83642154649493	163.42940461725394	1
256.16837943241524	142.44860267314704	1
210.89402151508608	150.17837181044956	1
210.89402151508608	111.52952612393682	1
185.4962109760965	96.06998784933171	1
200.95574782591623	57.42114216281895	1
230.77056889342572	43.06585662211422	1
414.07650582700245	62.94240583232078	1
404.13823213783263	39.753098420413124	1
437.265811101732	288.20996354799513	1
376.5319163345831	197.66123936816524	1
336.77882157790384	197.66123936816524	1
438.370063733862	12.14678007290401	1
256.171875	6.0	1
337.171875	106.0	1
441.171875	12.0	1
519.171875	26.0	1
584.171875	11.0	1
527.171875	146.0	1
484.171875	151.0	1
447.171875	141.0	1
421.171875	133.0	1
355.171875	131.0	1
352.171875	163.0	1
299.171875	316.0	1
278.171875	346.0	1
302.171875	377.0	1
338.171875	374.0	1
293.171875	96.0	1
196.171875	42.0	1
160.171875	67.0	1
183.171875	92.0	1
595.171875	293.0	1
554.171875	254.0	1
525.171875	330.0	1
533.171875	364.0	1
584.171875	343.0	1
611.171875	377.0	1
548.171875	412.0	1
486.171875	427.0	1
510.171875	472.0	1
576.171875	514.0	1
604.171875	543.0	1
529.171875	529.0	1
390.171875	432.0	1
372.171875	463.0	1
407.171875	502.0	1
336.171875	257.0	1
436.171875	290.0	1
530.171875	195.0	1
523.3327885626899	147.20062986151183	1
484.139358980505	77.85880296075946	1
414.7971374120241	55.24733766703587	1
551.9741409496711	55.24733766703587	1
517.3030301654306	23.591286255822837	1
586.6452517339116	11.531838099170253	1
530.8699865592639	192.42356044895905	1
336.4102782476544	255.73566327138508	1
435.90129180243133	285.88428366301656	1
594.1824497304856	290.40657672176127	1
556.4964597476155	258.75052531054826	1
487.1542381791346	201.46814656644847	1
349.9772346414876	156.24521597900127	1
342.44003664491356	101.97769927406463	1
291.1870902682103	91.42568213699363	1
357.51443263806163	126.0965955873698	1
258.02341908328464	8.516976060007106	1
197.72583511069254	56.754768686617446	1
155.51752632987808	76.35137194117789	1
143.45800953535965	25.09871727540441	1
452.48312739489415	139.66347476360397	1
481.1244797818754	153.23035393983815	1
417.8120166106537	133.63375068527768	1
384.64834542572805	195.43842248812217	1
289.6796506688955	236.13906001682463	1
265.5606170798587	246.6910771538956	1
330.38051985039516	198.45328452728532	1
524.8402281620047	329.59978323088217	1
530.8699865592639	364.27069668125836	1
577.6006141380228	347.68895546586106	1
609.2568457236337	380.85243789665566	1
550.4667013503563	420.04564440577656	1
487.1542381791346	424.56793746452126	1
503.73607377159743	474.31316111071317	1
604.7345269256892	546.6698500506287	1
390.6781038229873	432.10509256242915	1
331.88795944970997	371.8078517791662	1
345.4549158435432	306.98831793715857	1
282.1424526723215	335.62950730920846	1
368.06650983326523	355.2261105637689	1
487.1542381791346	261.7653873497114	1
399.72274141887607	17.561562177496544	1
447.96080859694973	13.039269118751825	1
255.00853988465505	135.14118170485924	1
280.6350130730067	166.79723311607228	1
603.2270873263744	133.63375068527768	1
405.7524998161353	496.9246264044368	1
536.8997449565231	531.595539854813	1
582.1229329359671	507.47664354150777	1
319.82844265519157	151.72292292025654	1
303.24660706272874	376.33014483791095	1
443.234375	292.0	1
340.234375	257.0	1
295.234375	322.0	1
346.234375	300.0	1
350.234375	162.0	1
359.234375	126.0	1
338.234375	106.0	1
337.234375	82.0	1
416.234375	70.0	1
489.234375	84.0	1
549.234375	64.0	1
523.234375	139.0	1
531.234375	192.0	1
554.234375	262.0	1
592.234375	300.0	1
521.234375	368.0	1
518.234375	320.0	1
545.234375	417.0	1
494.234375	430.0	1
513.234375	476.0	1
386.234375	430.0	1
319.234375	434.0	1
333.234375	362.0	1
300.234375	376.0	1
289.234375	345.0	1
282.234375	305.0	1
272.234375	254.0	1
257.234375	219.0	1
286.234375	178.0	1
282.234375	134.0	1
296.234375	95.0	1
413.234375	138.0	1
444.234375	140.0	1
483.234375	152.0	1
485.234375	200.0	1
487.234375	256.0	1
289.234375	236.0	1
324.234375	199.0	1
584.234375	343.0	1
609.234375	384.0	1
393.234375	507.0	1
365.234375	463.0	1
529.234375	544.0	1
572.234375	509.0	1
274.234375	200.0	1
374.234375	199.0	1
206.234375	106.0	1
219.234375	145.0	1
351.3125	158.0	1
342.3125	109.0	1
554.3125	63.0	1
520.3125	29.0	1
518.3125	146.0	1
530.3125	190.0	1
559.3125	255.0	1
594.3125	294.0	1
523.3125	332.0	1
530.3125	362.0	1
550.3125	418.0	1
491.3125	430.0	1
511.3125	478.0	1
408.3125	507.0	1
610.3125	542.0	1
534.3125	527.0	1
609.3125	374.0	1
581.3125	349.0	1
489.3125	253.0	1
488.3125	207.0	1
485.3125	153.0	1
487.3125	77.0	1
598.3125	136.0	1
587.3125	15.0	1
444.3125	13.0	1
415.3125	60.0	1
418.3125	133.0	1
455.3125	139.0	1
434.3125	285.0	1
338.3125	367.0	1
295.3125	374.0	1
327.3125	431.0	1
375.3125	461.0	1
387.3125	430.0	1
470.3125	563.0	1
284.3125	341.0	1
298.3125	304.0	1
273.3125	305.0	1
347.3125	307.0	1
338.3125	261.0	1
334.3125	205.0	1
299.3125	92.0	1
262.3125	10.0	1
260.3125	224.0	1
282.3125	238.0	1
262.3125	254.0	1
338.9873268421638	257.2908869987849	1
439.474316365992	291.52272174969625	1
549.89957957899	58.52539489671932	1
520.0847585114806	26.50206561360875	1
486.9571795475812	73.98493317132443	1
446.0998321587719	13.251032806804375	1
418.4935163555224	136.9273390036452	1
446.0998321587719	141.34434993924665	1
477.01890585841136	153.49113001215068	1
503.5209690295309	175.57618469015796	1
516.7720006150906	141.34434993924663	1
530.0230322006504	195.4527339003645	1
484.7486742833212	205.3910085054678	1
340.0915794742938	102.6955042527339	1
357.7596215883735	130.301822600243	1
344.5085900028137	160.11664641555285	1
316.9022741995642	152.3868772782503	1
297.0257268212245	91.65297691373026	1
280.4619373392748	167.8464155528554	1
295.92147418909457	319.12904009720535	1
281.5661899714048	342.318347509113	1
297.0257268212245	372.13317132442285	1
338.9873268421638	366.611907654921	1
345.61284263494366	303.66950182260024	1
324.632042624474	426.2415552855407	1
390.8872005522729	428.4500607533414	1
375.4276637024531	461.5776427703524	1
401.9297268735727	502.43499392466583	1
489.1656848118411	428.4500607533414	1
512.3549900865708	475.9329283110571	1
543.2740637862101	416.3032806804374	1
535.5442953613003	531.1455650060753	1
580.8186532786295	509.06051032806806	1
526.7102743042605	364.40340218712026	1
530.0230322006504	334.58857837181046	1
490.2699374439711	256.18663426488456	1
592.9654322320592	294.8354799513973	1
578.6101480143695	350.04811664641556	1
611.7377269782689	380.9671931956258	1
203.1642530901762	53.0041312272175	1
149.05587411580717	32.02332928311057	1
259.48113732880523	8.834021871202916	1
205.37275835443617	103.79975698663426	1
185.4962109760965	90.54872417982989	1
138.01334779450735	86.13171324422844	1
215.311032043606	147.96986634264886	1
259.48113732880523	216.43353584447144	1
266.1066531215851	249.5611178614824	1
484.8089916179832	72.38606903014212	1
517.8085223057864	27.67702639387787	1
551.8725539835185	56.41855380290489	1
582.7430826914634	15.967515227237232	1
524.1955282453611	145.8366390754334	1
481.6154886481958	147.9656411057317	1
447.5514569704636	138.38513196938936	1
423.06793420209357	130.9336248633453	1
530.5825341849359	193.7391847571451	1
506.0990114165659	174.5781664844604	1
480.5509876582667	199.06168983289083	1
492.26049854748715	256.5447446509449	1
556.1305579432351	260.8027487115415	1
595.5170945706129	296.99578322661256	1
525.2600292352903	325.7373106356396	1
528.4535322050776	365.12384819615806	1
605.0976034799752	372.5753553022021	1
544.4210470540146	413.02639387786974	1
601.9041005101877	543.9600187412151	1
508.22801339642416	476.8964547868187	1
492.26049854748715	434.31641418085275	1
436.9064470711723	293.8022801811651	1
389.0039025243613	436.44541621115104	1
380.48789460492833	465.1869436201779	1
401.7779144035109	503.5089801655474	1
326.19834411854254	430.05841012025616	1
299.58581937031425	375.76885834764954	1
342.1658589674795	371.51085428705295	1
347.4883639171252	315.09230048414804	1
294.26331442066856	312.96329845384975	1
286.81180749116464	340.64032484772764	1
338.97235599769215	262.9317507418398	1
327.26284510847165	206.51319693893487	1
348.5528649070543	161.80415430267064	1
357.0688728264874	127.74012181789786	1
342.1658589674795	103.25659846946743	1
302.7793223401016	88.35358425737935	1
331.52084906818817	80.90207715133532	1
415.61642727258965	58.54755583320319	1
398.5844114337235	34.06403248477277	1
443.29345301074704	6.387006090894893	1
401.7779144035109	13.838513196938935	1
286.81180749116464	233.12572231766362	1
262.3282847227946	13.838513196938935	1
158.00718770973967	4.258004060596596	1
150.55568078023572	30.870529439325317	1
199.52272631697582	53.225050757457446	1
228.2642530450624	35.128533499921915	1
169.7166985989601	61.741058878650634	1
210.16773621626712	100.06309542401999	1
191.00671839754276	87.2890832422302	1
216.55474215584192	152.22364516632828	1
277.23129858180243	167.12665937841638	1
260.19928274293636	142.64313602998595	1
261.2637837328655	249.09323754490083	1
230.39325502492065	254.41574262064657	1
262.3282847227946	216.09370607527723	1
224.00624908534584	302.31828830235827	1
242.1027659141411	336.38232078713105	1
253.81227680336156	296.99578322661256	1
536.4950241990844	196.8086216829905	1
558.6706444984598	260.56352729860714	1
496.30171240646655	203.7385027281662	1
489.3718310629118	249.47571762632597	1
445.0205904641611	292.44098010641545	1
519.8633089745529	328.4763615413292	1
530.9511191242406	361.7397905581726	1
492.1437836003337	428.26664859185956	1
393.73946852185566	436.58250584607043	1
371.5638482224803	464.3020300267733	1
324.44065508630774	433.81055342800016	1
298.10710598079953	379.7574812756295	1
278.7034382188461	346.49405225878604	1
303.6510110556433	310.4586708238723	1
336.91444150470636	374.2135764394889	1
404.8272786715433	498.95143525265195	1
508.7754988248652	474.00386349001934	1
548.968810617483	404.7050530382621	1
575.3023597229912	347.8800284678212	1
593.3200512162337	296.5989087335209	1
335.5284652359954	260.56352729860714	1
349.388227923105	307.686718405802	1
264.8436755317365	253.63364625343138	1
288.4052720998228	237.00193174500967	1
257.9137941881817	223.14216965465823	1
349.388227923105	158.00128783000645	1
356.31810926665975	135.82566848544414	1
341.07237031083923	102.56223946860067	1
302.2650347869324	90.08845358728438	1
202.47474343974338	56.82502457044092	1
219.10645866427487	144.141525739655	1
478.28402091322414	153.843359202901	1
493.52975986904465	73.45673907886264	1
548.968810617483	58.21100077947606	1
521.2492852432638	24.947571762632595	1
402.0553261341214	36.03538143491375	1
413.14313628380904	62.36892940658149	1
451.9504718077159	138.5976209035144	1
420.07301762736387	135.82566848544414	1
607.1798139033433	378.37150506659435	1
600.2499325597885	543.3026739417766	1
281.475390756268	170.47507371132275	1
554.5289689025119	65.14829528745794	1
515.1798349277411	22.221967552313174	1
580.7617248856923	12.682783611169894	1
485.36988494685426	77.07227521388704	1
437.6739649774352	19.837171567027355	1
519.949426924683	141.46176681660418	1
475.83070095297046	153.38574674303328	1
448.40554697055455	140.2693688239613	1
420.9803929881386	136.69217484603254	1
537.8353969132152	192.73488050024932	1
485.36988494685426	205.85125841932134	1
488.9470789445607	254.73957611768066	1
434.09677097972883	285.7419239263963	1
525.9114169208605	359.6705994702567	1
525.9114169208605	331.0530476468269	1
598.6476948742245	295.28110786753956	1
579.5693268864569	344.1694255658989	1
609.3792768673437	378.7489673525433	1
547.374580907099	415.7133051244735	1
502.06345693615094	475.333204756619	1
577.1845308879859	512.2975425285492	1
604.6096848704018	548.0694823078366	1
533.0658049162734	527.7987164329071	1
490.1394769437962	435.984070999403	1
388.78564700878076	432.40687702147426	1
369.7072790210131	459.8320308522612	1
404.2868209988419	497.9887666168343	1
326.780951048536	430.0220810361884	1
298.1633990668846	376.3641713672575	1
341.0897270393617	369.2097834114	1
298.1633990668846	321.5138637056836	1
282.6622250768234	344.1694255658989	1
344.66692103706816	306.0126898013258	1
337.5125330416553	259.5091680882523	1
330.35814504624244	199.88926845610678	1
349.43651303401003	158.15533871360492	1
353.0137070317165	130.73018488281798	1
337.5125330416553	108.07462302260271	1
335.1277370431843	87.80385714767323	1
296.9710010676491	90.18865313295905	1
285.04702107529437	131.9225828754609	1
277.8926330798815	171.27171663267694	1
254.044673095172	7.913191640598253	1
151.49844516092108	10.297987625884073	1
220.65752911657867	146.23135878717582	1
372.09207501948407	197.50447247082096	1
258.8142650921139	217.77523834575044	1
285.04702107529437	236.853606228037	1
261.19906109058485	252.35478013239484	1
314.85697105618124	153.38574674303328	1
277.8926330798815	307.2050877939687	1
351.680296097055	155.21895676257887	1
353.77784952397883	128.99953839052162	1
525.7772305317305	361.8279735343899	1
524.7284538182686	328.2671180181567	1
546.7527648009685	414.2668102785044	1
575.0697360644399	511.80304662255736	1
604.4354840413731	540.1200184643792	1
514.2406866836496	476.1446376365595	1
486.9724921336402	427.90090783197417	1
406.21668519707384	498.1689490690876	1
392.58258792206914	429.99846130173876	1
370.55827693936925	463.55931681797205	1
323.3633248335837	428.9496845668565	1
296.0951302835743	379.65717802738885	1
332.8023152547408	374.4132943529774	1
369.50950022590735	359.7304200646253	1
434.53365646054516	289.46237882751194	1
285.6073631489553	340.8524388367441	1
297.1439069970362	309.3891367902755	1
264.63182887971726	248.56008616710264	1
199.60767264507942	52.43883674411448	1
549.8990949413542	63.97538082781967	1
514.2406866836496	26.21941837205724	1
579.2648429182874	10.487767348822896	1
598.1428237606017	136.34097553469766	1
593.9477169067541	295.75503923680566	1
609.6793676086826	372.3157408832128	1
519.4845702509591	141.5848592091091	1
527.8747839586543	191.92614248345902	1
484.8749387067164	73.41437144176028	1
441.8750934547785	12.585320818587476	1
488.0212688471021	200.31635636251733	1
333.8510919682027	197.17002615787044	1
297.1439069970362	91.24357593475919	1
336.9974221085884	81.80458532081859	1
340.1437522489741	110.12155716264041	1
422.99711261246426	132.1458685951685	1
488.0212688471021	256.950300046161	1
330.704761827817	254.85274657639638	1
378.94849064706443	198.21880289275273	1
207.99788635277463	99.63378981381751	1
146.1200602585225	32.51207878135098	1
257.290391885484	135.29219879981537	1
215.33932334700793	143.68241267887367	1
