542.3125	25
568.3125	207
588.3125	245
545.3125	239
470.3125	244
391.3125	372
437.3125	404
165.3125	51
38.3125	255
347.3125	184
460.3125	332
182.3125	381
364.3125	417
114.3125	162
70.3125	182
79.3125	310
356.3125	51
314.3125	46
342.3125	233
383.3125	290
68.3125	10
111.3125	28
490.3125	305
278.3125	415
