390.9675159844337	372.8276002304538
469.96816330095834	243.93181279018538
381.26568210345704	293.82695631545056
564.2145495733035	209.28240756430677
593.3200512162337	243.93181279018538
343.84432284826113	185.72081201070932
341.07237031083923	230.07205069983394
440.86266165802823	406.0910292472973
544.8108818113501	27.719524180702884
464.42425822611455	92.86040600535466
360.4760380727926	42.96526248008947
230.19426881396254	99.79028705053038
220.49243493298582	131.6677398583387
367.40591941634744	461.53007760870304
321.6687025488858	414.4068865015081
293.9491771746666	428.26664859185956
278.70343821884603	411.63493408343777
547.582834348772	238.3879079540448
528.1791665868186	212.05435998237706
506.0035462874432	163.54519266614702
526.7931903181077	142.75554953061985
564.2145495733035	169.0890975022876
407.59923120896525	235.6159555359745
162.28143164712557	49.89514352526519
209.40462478329815	80.38662012403836
194.1588858274776	145.52750194869014
368.7918956850584	417.1788389195784
349.388227923105	415.79286271054326
521.2492852432638	372.8276002304538
364.6339668789255	322.9324567051886
113.77226224224202	162.15921645711188
142.87776388517216	141.3695733215847
124.86007239192969	131.6677398583387
105.45640462997626	27.719524180702884
245.44000776978308	31.877452807808318
414.52911255252	146.91347815772528
490.75780733162276	300.7568373606263
130.4039774667735	307.686718405802
48.63137761282697	94.24638221438981
313.35284493662004	48.50916731623005
518.477332705842	327.09038533229403
432.5468040457625	314.61659945097773
395.1254447905666	278.581218016064
264.8436755317365	349.26600467685637
