566.6795223567447	204.51146330204648
539.4113278067352	27.26819510693953
346.4364125297455	185.63348207416527
592.8989401932921	243.3162024926912
305.5341207047314	347.1450992460379
357.9729563778264	45.097399599938456
388.3874810682215	375.46207108785967
340.1437522489741	230.73088167410373
244.70507132394116	32.51207878135098
161.851710960451	49.29250653946761
472.28961814517356	247.51130943222034
39.14483548540863	248.56008616710264
275.11959601433625	410.0717033389752
