565.171875	206
550.171875	240
590.171875	244
542.171875	27
114.171875	156
139.171875	141
471.171875	239
72.171875	305
385.171875	382
436.171875	402
356.171875	413
278.171875	414
180.171875	379
264.171875	346
103.171875	27
597.171875	411
602.171875	490
240.171875	376
346.171875	184
161.171875	52
454.171875	332
