360.60845604884423	45.52792429824794
237.03267133868837	34.68794232247462
162.2368016456993	46.61192249582527
131.88485452390663	52.03191348371193
100.44890929062137	24.931958544278633
67.92896594584352	14.091976568505315
109.12089418256214	159.3477350438678
137.30484508136962	137.66777109232115
509.1161973233298	163.68372783417712
555.7281161175114	165.85172422933178
562.232104786467	208.12765393484773
587.1640613507966	243.89959445489967
549.2241274485558	239.56360166459035
467.92426908661116	246.06759085005433
521.0401765497484	320.86346648289026
485.26823887049267	396.74334031330346
387.7084088361591	384.81936013995283
405.05237862004066	231.975614281549
341.0964900419775	234.1436106767037
348.68447682242567	187.5316881808784
280.39259579839216	29.267951334587963
420.22835218093695	96.47583958438254
540.5521425566151	28.18395313701063
441.9083144107889	403.24732949876744
366.0284466063072	455.2792429824794
278.224599575407	420.5913006600048
306.40855047421445	349.0474196199009
384.4564145016813	288.3435205555703
357.35646171436645	321.9474646804676
519.9561784382557	373.9793781641795
535.132151999152	339.29143584170487
355.18846549138124	411.91931507938614
321.5845240351108	415.1713096721181
178.49677331808823	381.56736554722085
266.30062034898845	347.96342142232356
48.4169999389768	93.22384499165054
222.94069588928463	390.2393511278395
525.3761689957187	142.00376388263047
