442.234375	402
395.234375	378
399.234375	279
221.234375	290
86.234375	303
271.234375	409
530.234375	466
386.234375	406
345.234375	415
350.234375	257
292.234375	244
470.234375	243
565.234375	209
549.234375	241
526.234375	210
520.234375	373
264.234375	345
241.234375	361
365.234375	410
340.234375	226
279.234375	192
248.234375	161
247.234375	201
299.234375	174
394.234375	189
300.234375	427
264.234375	433
376.234375	56
113.234375	157
193.234375	359
