174.1388863163698	118.13924915872325	6
250.43153696091125	396.0308449164454	4
286.202000783332	91.15898760197273	5
471.1171875	221.0	2
321.61095706318156	209.80683427175407	5
557.685483483291	381.75671560206155	3
583.9069711652758	220.537431077265	5
338.91714605619205	395.12546641923814	4
261.8453886865152	141.65966482904335	6
179.10439254582917	59.68347509113001	3
288.2107083490787	410.4455042527339	3
418.39547675880334	140.74061956974907	5
244.21078597098213	243.20880837107606	3
397.0409609942957	279.5418590522479	3
325.458119373086	125.24726609963548	4
492.26411040246717	164.6436541128105	5
397.99609375	115.0	3
277.1171875	362.0	2
123.1171875	71.0	2
228.1171875	371.5	2
378.25829937803724	20.020636910496656	5
516.1171875	434.0	2
286.5712492197847	185.71860268405854	5
233.97347073483553	160.1608615835264	6
489.6171875	339.0	2
414.79505491763155	232.95573191598942	6
218.48003003140732	208.06780024988288	4
158.1171875	156.0	2
498.2753216215614	416.4259416767922	4
513.6171875	304.0	2
351.53257995714	100.96849439452458	6
208.1171875	343.5	2
366.1171875	442.5	2
321.1171875	421.0	2
368.58131467892696	213.88630329533032	3
203.85130263834617	326.3364048102452	2
301.5130168875223	135.61077112718084	4
237.15288619186705	127.71007650100984	4
333.13251877905867	67.87853349992191	3
150.38462192577362	60.81482381530984	2
348.09413875140683	263.1039489671932	3
376.5319163345831	263.91640340218714	1
299.921875	77.0	1
443.921875	231.0	1
447.921875	263.0	1
314.921875	55.0	1
490.921875	241.0	1
465.921875	245.0	1
545.921875	354.0	1
465.921875	377.0	1
447.921875	390.0	1
443.921875	343.0	1
528.921875	411.0	1
572.921875	397.0	1
576.921875	326.0	1
263.921875	368.0	1
311.921875	445.0	1
366.921875	371.0	1
278.921875	61.0	1
257.921875	40.0	1
243.921875	15.0	1
197.921875	82.0	1
279.921875	230.0	1
609.921875	340.0	1
370.921875	348.0	1
297.921875	367.0	1
273.921875	323.0	1
270.921875	301.0	1
237.921875	265.0	1
272.921875	259.0	1
585.921875	353.0	1
560.921875	339.0	1
461.921875	425.0	1
446.921875	449.0	1
420.921875	385.0	1
447.921875	329.0	1
477.921875	302.0	1
408.921875	371.0	1
501.921875	298.0	1
419.921875	413.0	1
301.921875	353.0	1
307.921875	327.0	1
199.921875	233.0	1
335.921875	37.0	1
186.921875	182.0	1
198.921875	210.0	1
172.921875	212.0	1
297.921875	48.0	1
331.3125	470.0	1
448.3125	503.0	1
498.3125	523.0	1
616.3125	489.0	1
38.3125	165.0	1
36.3125	187.0	1
63.3125	207.0	1
99.3125	104.0	1
148.3125	312.0	1
617.3125	440.0	1
