597.872179149922	417.2966066935805	5
451.20022084169705	197.3030416330057	5
610.0203221610723	585.6330973995999	2
428.57485593919375	40.54528363275629	5
339.570596009225	275.0868250200003	5
459.4363886201528	343.689258000156	5
472.84968271467346	462.9551333465266	5
596.203125	111.5	2
435.5378284334655	109.83025516403401	3
486.1930924199278	256.94772174969626	4
585.7281652937548	269.33335358444714	3
409.1447345156856	241.50464763061967	4
503.6308503163177	97.89249696233293	4
493.3409863350903	380.93967193195624	3
573.8180088750548	188.70510328068042	2
461.8968720042958	126.73390036452005	2
461.2734375	287.5	2
531.7720187324552	87.27436208991494	2
456.38380818823083	483.6441069258809	2
440.3125	265.0	1
480.3316637548013	135.82308626974483	1
278.25343207501487	215.32928311057108	1
219.7280425721259	13.251032806804375	1
599.234375	330.0	1
374.234375	368.0	1
606.234375	219.0	1
368.234375	344.0	1
462.234375	382.0	1
