499.09364337404065	334.7859578870771	2
461.62760162353516	147.99166870117188	2
188.4065593014943	56.32089105840152	3
229.12760162353516	84.99166870117188	2
439.62760162353516	135.49166870117188	2
503.7148751309179	440.08875254078305	3
542.4031488200877	310.78936007419736	3
555.8042118094202	458.72836371939786	2
548.9914539130302	240.25096396241125	2
312.5080751073612	415.73929932085593	3
464.2589353158811	300.2679395995641	3
339.92205090128573	332.5549598290527	4
289.3234743542046	44.760381679166244	4
506.6821089243289	576.2606425941551	4
492.1766328455207	531.66870393811	2
409.12760162353516	145.49166870117188	2
314.8364222751223	179.33188741320103	2
523.0382646076328	101.11341839740517	3
205.62760162353516	106.99166870117188	2
465.0819802081559	576.8580113500175	2
368.78635913017683	57.80649251648172	2
290.1269840853133	313.63664101395125	4
259.6258538397428	290.04452410821926	2
558.377601286135	278.1275131726178	2
222.67128699708363	204.0774205939151	3
335.13548216924323	180.19644773838465	3
530.4943351905113	617.0067371800541	2
482.16212675203	617.4479115489681	2
566.3525336081794	325.5603939067549	2
420.8007904026614	579.2177694783215	2
476.9014650697035	379.18225880904754	2
438.770969366931	8.96913730255164	2
532.2538325485202	423.5686512758202	2
96.05968507071907	6.2085054678007285	2
602.0899167766795	553.0631834750911	2
481.25176937740065	44.189307411907656	2
323.95408512830204	68.12758201701094	2
93.50755875465407	124.23390036452005	2
546.431474657365	534.0727825030376	2
492.32515885411556	313.6475091130012	2
301.2030535427423	183.8093560145808	2
89.45543243858909	86.1179829890644	2
482.85602200953065	95.32648845686512	2
582.8910115071848	421.96439854191976	2
529.171875	587.0	1
416.2850110912624	545.50085054678	1
305.8597478782644	506.8520048602673	1
342.3000847385537	523.4157958687728	1
354.44686369198354	565.3773997569866	1
525.6060216721305	511.26901579586877	1
586.3399164392794	451.6393681652491	1
557.6293480038998	356.67363304981774	1
583.0271585428894	129.19756986634266	1
510.14648482231075	78.40194410692588	1
479.2274111226713	20.980801944106926	1
446.0998321587719	57.42114216281895	1
393.0957058165328	56.31688942891859	1
153.47288464432708	282.6886998784933	1
118.13680041616772	263.91640340218714	1
114.82404251977778	216.43353584447144	1
131.38783200172747	142.44860267314704	1
135.8048425302474	9.938274605103281	1
108.1985267269979	186.6187120291616	1
262.7938952251952	315.81628189550423	1
287.0874531320547	411.88626974483594	1
367.6978952775433	482.5584447144593	1
379.84467423097306	510.1647630619684	1
531.1272848327803	450.53511543134874	1
533.3357900970403	556.5433778857837	1
407.45099003422257	334.58857837181046	1
504.6252216616609	257.2908869987849	1
372.1149058060632	92.75722964763062	1
179.97494781544663	241.83134872417983	1
514.5634953508306	477.0371810449575	1
506.8337269259208	502.43499392466583	1
286.171875	7.0	1
162.171875	18.0	1
112.171875	52.0	1
120.171875	85.0	1
269.171875	136.0	1
244.171875	168.0	1
534.171875	13.0	1
529.171875	151.0	1
493.171875	168.0	1
403.171875	273.0	1
427.171875	297.0	1
348.171875	268.0	1
373.171875	281.0	1
396.171875	306.0	1
456.171875	469.0	1
423.171875	517.0	1
602.171875	622.0	1
517.0833282470703	203.98333740234375	1
252.0833282470703	93.98333740234375	1
378.0833282470703	149.98333740234375	1
