435.83375799176474	528.8643983643058	3
116.76344571241619	75.95031218000264	3
258.84402242643955	211.41936119904045	3
252.45809945985678	346.90395403386674	3
489.1345591893306	285.76542064514274	3
546.0036132564458	32.454004887563784	3
420.5335913267494	498.8411609450337	3
128.1025982366038	267.6667071688943	2
259.35775616440264	11.46913730255164	2
103.45501724415418	199.34047624300365	3
54.662261376314426	222.42527339003647	2
359.4804203521053	477.57913829905976	3
559.2077890925777	235.28228694684685	3
147.09215751580325	89.75874133921342	3
523.5663347156726	142.48564330955114	2
141.04566527238705	189.38337925434644	2
354.43655583928694	34.91251035536451	3
422.52032462595616	365.91020656136084	2
397.95389969783747	344.99757493301615	3
566.2446193983399	586.8354799513972	2
223.08546141819295	418.59951397326853	2
171.91358734146849	278.2980706256893	3
312.90031859716476	452.91899816534067	3
290.61597592832527	392.09686105554704	2
285.32331564755384	444.26750269272196	2
574.234375	294.0	1
418.234375	390.0	1
463.234375	456.0	1
447.234375	566.0	1
262.234375	422.0	1
274.234375	239.0	1
75.234375	242.0	1
211.234375	71.0	1
205.234375	11.0	1
392.234375	84.0	1
400.234375	124.0	1
451.234375	109.0	1
398.234375	294.0	1
511.234375	408.0	1
103.78151619847797	11.042527339003644	1
39.73486353493911	282.6886998784933	1
135.8048425302474	347.8396111786148	1
489.1656848118412	493.6009720534629	1
