365.97265625	340.5	3
262.745792594925	210.89736167067622	4
233.99034979651705	224.63238153098422	4
342.203125	315.5	2
112.2421875	305.5	2
152.72265625	296.25	3
21.817772817655065	71.49246658566221	2
217.75803786453432	376.82855569403785	3
136.72265625	341.5	3
398.6110327797517	161.6104495747266	2
214.55845404336782	16.565760247215614	3
86.87153275482282	29.816961827193417	2
94.72416954581443	99.13924665856622	2
488.97648140379295	251.93140487272757	3
553.2734375	414.0	2
287.62687395501564	299.7622967450219	2
219.34420072906863	175.53105707080954	2
310.5622974592861	248.34222196458074	3
113.7734375	273.0	2
53.39974848353978	43.189307411907656	2
295.2734375	337.0	2
428.36309121236104	141.92182924382456	3
604.4256434647314	389.71318222660216	2
264.234375	259.0	1
220.234375	272.0	1
347.234375	405.0	1
296.4241035524024	106.68212515579259	1
608.172982795352	197.95461001130403	1
149.45272333025787	179.99319562575943	1
247.3125	303.0	1
247.3125	59.0	1
286.3125	18.0	1
52.3125	124.0	1
138.3125	16.0	1
163.3125	48.0	1
114.3125	222.0	1
170.3125	252.0	1
170.3125	143.0	1
222.3125	247.0	1
252.3125	411.0	1
506.3125	481.0	1
491.3125	417.0	1
