562.1091167662099	372.6187120291616	2
265.65745024472756	277.58371810449574	2
390.26256771007144	331.0857837181045	3
549.9783607478071	319.1182268531078	4
440.53615068818453	408.5974383805566	5
256.2327352615527	185.02184431776305	2
446.065064676161	116.5896179092512	4
306.85317285202893	298.76977521263666	4
593.0868397999647	138.51579586877278	2
521.1986292557403	472.25795868772786	2
587.486311864983	64.87851265836393	5
326.8477832595931	276.349530584853	5
279.74780978750744	60.61695018226003	3
415.8560238510337	48.94260827490611	4
582.564662143016	407.6273594012127	5
446.435523294242	21.80195482920356	3
295.0648607784823	219.2688942891859	2
578.4613240071848	513.1345078979343	2
399.3238404717677	82.47876040187134	5
332.20875347599065	345.2668036647193	5
529.5804835342602	370.3165856622114	3
495.14402676608756	564.6549792687051	4
416.82986762310395	382.23481166464154	4
417.2466292295662	165.26682867557716	2
456.03810584794167	62.94240583232078	2
579.4211097790621	22.07390643985419	4
267.33079925898755	107.35838396111785	3
373.25960335690536	371.30681196490275	3
173.58436093249776	106.31560814945453	3
347.94838808032455	49.77554110577252	4
251.92768181981768	70.33608748481166	2
529.0635134681952	548.8025516403402	2
509.47517861412206	333.1333977355522	5
304.30876232481774	327.50297691373027	4
313.5111691354132	261.2809234507898	3
564.7528895112035	432.2537399108228	5
287.6437148490411	245.5038274605103	3
559.418797685885	461.34094775212634	2
310.9573466373272	187.95510328068042	3
356.2509045441867	319.77302551640344	3
379.292547914908	8.281895504252734	2
412.2466292295662	292.46986634264886	2
377.69921523759365	411.013187074112	3
341.2020397371469	176.57958687727825	2
549.171875	365.0	1
429.2848624562811	451.1845686512758	3
368.08818711025174	188.6221142162819	2
487.9784608255956	480.6962332928311	2
338.3882515629455	392.5437216062963	4
469.72609902317436	385.847379641732	3
592.0686536160297	617.1386391251519	2
246.80262475086496	302.04769964609943	1
362.171875	287.0	1
611.7377269782689	486.9754556500607	1
407.45099003422257	270.5419198055893	1
597.3824427605792	167.8464155528554	1
537.7528006255602	69.56792223572296	1
496.895453236751	182.20170109356013	1
186.6004636082265	26.50206561360875	1
548.7953269468601	242.93560145808019	1
554.3165901075099	282.6886998784933	1
216.41528467573596	115.94653705953827	1
193.22597940100638	90.54872417982989	1
467.08063216924154	528.9370595382746	1
503.5209690295309	524.5200486026731	1
557.6293480038998	492.49671931956254	1
457.14235848007166	205.3910085054678	1
338.9873268421638	223.05905224787364	1
308.0682531425243	109.32102065613608	1
290.40021102844463	88.34021871202916	1
153.47288464432708	27.606318347509113	1
404.13823213783263	195.4527339003645	1
