215.82698480359517	376.9254313725585	4
530.9163120224598	322.41790113088075	2
387.05416921391793	212.67645022311126	3
228.78548702446824	271.3165871672565	2
340.73108151775614	338.5786659486075	3
482.81567995467566	445.0816597851864	4
333.29255000097606	438.96296544932466	4
212.87088496004208	242.70687798122788	2
362.176340260683	233.1212232573463	3
402.2941970511613	415.938864269756	4
437.1695469832789	97.62505785462632	4
373.8351835563352	466.80160434407367	3
451.49948543357766	189.92557557667308	3
546.5632497434834	282.04887972394374	3
584.1019166697223	52.62186490229266	2
269.0659144398586	416.5602400369288	2
467.0845192552773	147.5668179719957	3
410.36520916447796	234.35873963325395	2
447.0558119466924	423.65893764169084	2
365.82705738904	382.3711582058714	3
480.5728274526349	74.7283840789738	2
432.7539073746532	242.87950182225154	2
197.80838610932744	91.18311475880276	2
249.42846187798892	47.79816053031825	2
216.87067159577452	34.3641920394869	2
265.77601087121246	111.75578242029442	3
510.67626215603366	398.07588888570035	3
450.9897801373721	328.6494102792206	2
436.3671875	370.0	2
241.3671875	209.0	2
471.8671875	213.5	2
332.8671875	260.5	2
507.8671875	255.5	2
66.3671875	193.0	2
191.3671875	210.5	2
567.3671875	216.0	2
347.8671875	151.0	2
294.8671875	286.5	2
277.3671875	252.0	2
473.8671875	293.0	2
394.8671875	59.0	2
485.234375	380.0	1
209.5	139.0	1
237.5	134.0	1
232.5	170.0	1
252.5	238.0	1
362.5	281.0	1
410.5	161.0	1
365.5	123.0	1
403.5	109.0	1
379.5	24.0	1
441.5	44.0	1
486.5	101.0	1
508.5	32.0	1
545.5	162.0	1
579.5	151.0	1
524.5	125.0	1
555.5	41.0	1
580.5	178.0	1
528.5	238.0	1
515.5	191.0	1
507.5	278.0	1
424.5	346.0	1
303.5	360.0	1
313.5	383.0	1
337.5	394.0	1
194.5	188.0	1
135.5	124.0	1
121.5	168.0	1
161.5	32.0	1
127.5	65.0	1
101.5	71.0	1
123.5	243.0	1
146.5	271.0	1
587.5	285.0	1
555.5	366.0	1
545.5	405.0	1
575.5	410.0	1
533.5	438.0	1
499.5	490.0	1
587.5	531.0	1
576.5	476.0	1
536.5	499.0	1
493.5	531.0	1
414.7511801577716	279.3138003271444	1
297.39245253058186	157.2607111085603	1
69.55936017580375	272.6819510693953	1
