454.8840054630055	66.25540258132992	5
544.8584720252351	98.58712029161603	2
536.2253247060307	37.114798799777965	5
497.2734375	136.0	2
353.17635741609115	243.34124480689337	3
512.203125	13.5	2
239.703125	359.5	2
464.6053772685558	92.77436208991494	2
420.8639456777612	230.8422843256379	2
79.203125	202.5	2
177.5847968217317	65.53772782503037	3
138.80290208075684	67.01166464155529	3
390.07832972864867	162.26414302546218	4
159.61789139728037	219.70034634265633	4
377.1472789117661	80.39017541160179	3
489.7734375	193.5	2
268.2734375	65.5	2
321.95310114814185	167.80258459475118	5
273.0708769842438	251.19501077088785	4
331.39640334371563	62.43891367902754	2
200.25144036115307	235.60291616038882	2
515.5453818617469	96.15727363748081	5
108.92606421922942	169.94933276958022	4
366.00034114358067	116.94210522059942	5
12.139523420900064	71.92408313308133	3
81.73828125	250.0	3
335.0097021043135	105.55419198055893	3
541.226246369111	140.01213648253577	4
432.19292909135544	277.5383940178104	4
179.48828125	101.0	3
596.48828125	120.0	3
65.14211043094191	108.41026006524604	4
543.5423466139462	161.18264348361288	2
466.35957394465277	124.37714923008063	5
309.203125	371.5	2
467.4702614810107	421.2037667071689	2
127.35982839420441	259.66634264884567	3
70.703125	34.0	2
490.234375	418.0	1
249.23799508601104	289.56047084166795	2
300.234375	165.0	1
211.703125	171.5	2
302.92974499093725	131.20303766707167	2
478.21782924527065	382.58784933171324	2
98.71726651643232	278.59291478995647	3
577.0430307885616	252.63793049197028	3
214.55962728279258	81.54295366872967	3
11.122040657007316	121.81370702979447	4
364.9348851387716	400.869744835966	2
553.1624991747126	327.1823089102221	4
170.4221262916774	269.2990500361117	3
541.5216640074862	295.83135241200773	4
395.0231992903964	416.2867557715674	3
523.3975164078705	314.7120291616039	1
134.7005898981174	216.43353584447144	1
371.7421875	214.0	2
494.21851370720583	335.7798892137252	2
275.4805440386805	410.2679258347438	3
307.3125	79.0	1
598.3125	318.0	1
312.8755576989647	230.73088167410373	1
408.31423862399765	23.073088167410372	1
446.07020030862606	8.390213879058317	1
30.75462177771342	194.02369595322358	1
107.171875	70.0	1
445.171875	426.0	1
447.171875	462.0	1
544.171875	440.0	1
574.171875	391.0	1
398.61696897718275	245.14410692588092	1
430.64029530895215	88.34021871202916	1
171.14092675840678	34.2318347509113	1
60.71566354540874	139.13584447144592	1
43.04762143132905	255.0823815309842	1
62.9241688096687	281.58444714459296	1
101.573010934218	331.27582017010934	1
202.06000045804623	266.12490886998785	1
248.234375	158.0	1
459.234375	184.0	1
238.234375	192.0	1
155.234375	361.0	1
594.234375	217.0	1
492.234375	279.0	1
461.234375	331.0	1
547.234375	378.0	1
393.234375	340.0	1
