513.5998494323055	216.09087481317957	3
267.37318542375624	278.1909408159919	3
449.43792342881227	528.0652848429594	4
346.29245907443715	440.67777625260794	4
468.0313037950035	277.31177516657783	2
533.1974265956062	404.7716151340899	3
486.5933393784924	66.99987942705324	4
419.12376751073793	482.4532642999886	2
458.3573420780519	420.6929782941105	3
511.2280511799856	579.0024990259203	3
229.74572345714142	320.36295140530206	4
285.06854813607384	438.0174530473581	3
457.46763178245817	83.08693303858675	4
367.4242319415838	113.20302937454784	3
291.4246692134479	271.1042949901859	3
378.8481936585355	305.808030224402	2
486.35359575517873	479.4458695042577	3
234.58089326850978	212.83228953683027	4
608.5333340094533	440.46289290985555	2
584.0270677753604	408.7299719923624	3
261.6128045093484	252.94468575816765	3
418.012585515871	279.5437836089076	2
304.42096923224256	226.4247711424226	2
286.9957042596322	110.28580730619439	4
561.3319758721514	264.57300383432914	3
582.7970868060546	173.8898890755264	3
424.5707834832283	332.2524079301613	4
452.1449032672741	378.2829108139765	3
481.9089923134326	111.12422475503269	4
231.82540161526995	255.66269490141866	2
344.1783527051367	116.92103851779885	2
284.1650835220674	335.8910789803925	2
519.12537915494	439.2938295702314	4
474.2910559320731	328.2660365260042	4
516.1970239848492	90.31433020388752	3
438.00863728124534	45.68332809115014	4
466.37077398996524	570.1356177792803	3
443.0558119466924	149.8512620664544	2
336.4853618283439	526.3777044460239	3
499.80870021535384	544.6875320466536	2
595.4147104703378	358.0671604491821	3
435.88185022974073	120.37661677088036	3
343.80424658794897	383.7969768340449	3
357.83403161583703	241.3509932126352	2
504.1752364879772	617.7039705937707	2
356.8671875	344.2416687011719	2
602.3671875	337.2416687011719	2
532.3671875	276.7416687011719	2
478.8671875	405.2416687011719	2
562.3671875	193.74166870117188	2
330.8671875	355.2416687011719	2
322.5	39.48333740234375	1
425.5	176.48333740234375	1
408.5	196.48333740234375	1
424.5	217.48333740234375	1
407.5	231.48333740234375	1
390.5	215.48333740234375	1
363.5	193.48333740234375	1
337.5	205.48333740234375	1
275.5	162.48333740234375	1
284.5	193.48333740234375	1
179.5	242.48333740234375	1
281.5	369.48333740234375	1
338.5	316.48333740234375	1
453.5	238.48333740234375	1
486.5	235.48333740234375	1
513.5	292.48333740234375	1
514.5	255.48333740234375	1
437.5	314.48333740234375	1
500.5	452.48333740234375	1
426.5	391.48333740234375	1
436.5	544.4833374023438	1
579.2648429182874	613.5343899061395	1
609.6793676086826	521.2420372364979	1
505.8504729759544	22.024311432528084	1
302.0868016356695	485.8651820816713	1
422.9662910916749	427.1858122650444	1
