593.1137460522386	400.01702343967725	3
562.1148547617811	347.68661513797565	4
511.1022519590706	422.6366487493636	2
366.32933876959714	60.45744186237688	4
581.3634930560546	256.5759012032524	2
501.3227433030735	42.208995038231414	4
347.0841536886045	456.77126612956783	2
424.6463519077015	473.1327353640123	2
574.6031121416468	177.02110452061115	2
332.3764481330975	82.47005278014568	2
545.97404596452	406.1834447728643	2
566.394563115427	215.48063308022532	4
159.23493895501633	76.86964992905308	3
386.37057546391793	426.0945691473944	2
231.3671875	71.24166870117188	2
540.8671875	186.74166870117188	2
230.10072561896504	29.735552375583325	3
404.93150766872975	384.4116948590423	2
299.3671875	196.24166870117188	2
339.0949755355122	397.4863825203878	1
151.363943825832	39.853515925527006	1
506.8992496894163	386.9986151715649	1
348.234375	198.0	1
557.234375	469.0	1
471.5	53.48333740234375	1
529.5	47.48333740234375	1
568.5	36.48333740234375	1
552.5	66.48333740234375	1
550.5	98.48333740234375	1
570.5	116.48333740234375	1
552.5	131.48333740234375	1
537.5	152.48333740234375	1
521.5	132.48333740234375	1
494.5	124.48333740234375	1
469.5	118.48333740234375	1
467.5	88.48333740234375	1
496.5	90.48333740234375	1
431.5	86.48333740234375	1
406.5	75.48333740234375	1
294.5	54.48333740234375	1
255.5	64.48333740234375	1
202.5	56.48333740234375	1
199.5	88.48333740234375	1
513.5	170.48333740234375	1
514.5	207.48333740234375	1
496.5	227.48333740234375	1
524.5	235.48333740234375	1
596.5	222.48333740234375	1
599.5	296.48333740234375	1
587.5	326.48333740234375	1
548.5	308.48333740234375	1
496.5	282.48333740234375	1
467.5	262.48333740234375	1
408.5	215.48333740234375	1
427.5	182.48333740234375	1
471.5	190.48333740234375	1
416.5	162.48333740234375	1
431.5	135.48333740234375	1
382.5	113.48333740234375	1
377.5	137.48333740234375	1
530.5	527.4833374023438	1
505.5	537.4833374023438	1
482.5	518.4833374023438	1
470.5	552.4833374023438	1
442.5	536.4833374023438	1
448.5	498.48333740234375	1
424.5	367.48333740234375	1
325.5	187.48333740234375	1
342.5	137.48333740234375	1
243.5	250.48333740234375	1
399.5	512.4833374023438	1
291.5245161492224	110.3172152552587	1
317.3434362272041	422.4914626797142	1
239.8866759932589	285.1817373088071	1
357.24540362044866	333.2988205584412	1
594.310033427372	44.5963210606365	1
420.61911653913114	31.686859700978566	1
413.57759288149975	436.57451143570466	1
515.6796859171549	16.43022354865555	1
177.6865503508483	156.08712371222774	1
