521.5002577438007	312.9468714179226	5
219.95154884151032	251.28889811910497	5
532.9318063477469	348.1401245392085	5
567.4345106727047	421.2904997815348	5
371.0887879848423	409.5179258347438	3
229.2734375	322.0	2
546.3805360401132	197.50413396621258	4
483.37594916279784	30.70370595382746	3
447.4518999077977	471.1296476306197	4
298.49738967762454	269.8960993999077	3
324.76842621601054	73.73508505467801	4
445.191350154313	146.36559470687797	2
274.84654012346937	222.8675789545714	4
362.384623418385	255.95646014425623	5
542.5765808571507	389.91429933046993	4
468.20282041502276	311.9849077444759	4
305.4923451936636	412.9194410692588	3
397.4398447089179	352.4249146564655	5
558.9709240019499	486.03985419198057	2
511.45713136838094	378.7759916097009	5
501.50852651410605	345.74031689518733	4
289.56489650711114	350.5902187120291	3
200.7578125	287.25	3
293.1604011181672	189.1778206274187	3
540.6746802984674	88.17358596340739	4
478.76476602816285	167.45633664175273	4
527.4068789436816	147.05463428619825	4
443.87286958766106	354.27468888100736	5
506.67327548148023	433.4667679222357	3
476.17875254123646	495.5152794653706	4
593.3888289337109	235.7930289256577	5
314.44813129472504	370.03884935003555	5
497.2734375	70.5	2
341.7421875	449.5	2
282.61713160172457	152.16700232599575	3
419.203125	100.0	2
560.5569904501451	475.5185905224787	2
410.44863399490697	460.9292484384456	4
554.4006115019499	368.20170109356013	2
543.7542193931051	238.20716889428917	2
477.8839383562415	379.8042006462533	2
533.3372088645851	543.6982989064398	2
363.8618825066417	296.46986634264886	2
478.88393038158455	347.50837178988377	3
329.641714076497	317.0645200486027	2
420.5724509420212	288.76136087484815	2
245.3364930037527	185.10085054678007	2
530.4201983360653	468.810085054678	2
244.02160047898548	205.3910085054678	1
403.03397950570263	263.91640340218714	1
266.1066531215851	56.31688942891859	1
474.234375	206.0	1
418.234375	341.0	1
574.234375	165.0	1
550.234375	152.0	1
310.234375	226.0	1
463.234375	276.0	1
361.234375	66.0	1
279.234375	296.0	1
438.234375	413.0	1
467.234375	427.0	1
343.234375	157.0	1
263.234375	314.0	1
502.234375	550.0	1
274.234375	384.0	1
178.234375	233.0	1
183.234375	133.0	1
391.234375	146.0	1
402.234375	180.0	1
430.234375	209.0	1
157.171875	23.0	1
231.171875	50.0	1
581.171875	309.0	1
508.171875	500.0	1
441.171875	551.0	1
216.3125	8.0	1
509.3125	239.0	1
237.3125	96.0	1
