132.9945791649867	78.20735158432637	3
382.4937476334162	511.18136839025806	5
239.60654473504678	317.3896753346669	3
357.7380106226965	562.2296335103055	4
385.98971608891793	382.801142483459	4
266.5317915471181	416.85704107997174	5
146.71628012926124	205.30450838590554	2
93.40701906159423	277.2738336858816	5
555.2264347054838	63.458893330070225	2
497.55483149874675	591.9992939468957	3
542.6884811561708	498.0770404485072	4
517.5083965166186	369.1110337145055	4
420.10111821209887	491.48887746913863	4
181.28842109386426	367.66994348555727	5
445.30999371990856	553.2833582771964	3
102.8716732839662	311.41521344203437	5
553.13990004087	314.74334513002	2
575.218428123652	119.31903452012526	3
428.8011364466178	158.60947838128942	2
550.5374895072152	207.7801200184644	3
255.91873626581818	250.78004308355133	3
506.3420999509376	186.20931105019054	2
201.35662210907782	289.73118941375594	3
403.6597695159285	44.19258010906248	2
484.69357639759676	312.92160363207574	4
525.2227693593272	299.6721125710152	4
533.1276179382633	554.9624509294541	3
252.703125	462.0	2
542.168318828195	438.5562575941677	4
485.69386619344766	412.32168894289185	4
224.73157577516145	365.57478736330495	3
477.27445566623646	471.4003948967193	4
533.4159143001626	411.11731470230865	3
208.45994562541307	348.3155528554071	2
512.2734375	278.0	2
160.01364512070336	306.4847509113001	4
480.50216528066784	526.7342648845687	3
439.2734375	368.5	2
291.73828125	323.0	3
472.20962990068574	217.56038882138517	2
388.98828125	197.25	3
135.2421875	145.0	2
102.63550470765199	95.51749696233293	3
292.2421875	216.5	2
47.7421875	86.0	2
97.531252075522	196.11318347509112	3
123.2421875	361.0	2
166.5000219310084	132.85941676792226	2
230.2421875	199.0	2
441.58372726332095	478.46646415552857	2
266.7421875	87.0	2
469.4390114810107	20.042527339003644	2
326.7421875	165.5	2
250.40949563588268	9.708505467800729	2
284.2421875	47.5	2
458.77955555610083	302.7304981773998	2
268.2095765607926	495.8526123936816	2
530.2720187324552	181.44447144592954	2
306.3125	524.0	1
331.3125	273.0	1
371.3125	120.0	1
422.3125	92.0	1
498.3125	99.0	1
477.3125	170.0	1
609.5292217140089	460.473390036452	1
436.1615584696021	514.5817739975698	1
559.8378532681598	579.7326852976913	1
428.4317900446922	324.65030376670717	1
52.985895120498874	283.79295261239366	1
5.503031938909719	268.33341433778855	1
55.194400384758836	191.03572296476307	1
5.503031938909719	184.41020656136087	1
216.41528467573596	29.814823815309843	1
245.12585311111545	34.2318347509113	1
269.41941101797505	164.53365735115432	1
337.8830742100338	94.96573511543134	1
456.0381058479417	79.50619684082625	1
337.171875	13.0	1
119.171875	43.0	1
16.171875	40.0	1
123.171875	116.0	1
533.171875	10.0	1
593.234375	327.0	1
395.234375	318.0	1
385.234375	289.0	1
320.234375	352.0	1
270.234375	384.0	1
205.234375	419.0	1
216.234375	468.0	1
302.234375	401.0	1
300.234375	443.0	1
503.234375	246.0	1
246.234375	382.0	1
407.234375	459.0	1
439.234375	422.0	1
345.234375	363.0	1
348.234375	325.0	1
385.24115092783586	424.7545776273273	1
446.07020030862606	139.48730573934452	1
587.6550566259826	35.658408985997845	1
434.53365646054516	60.8290506231728	1
162.9004876739129	30.4145253115864	1
