192.71836956659223	234.51378410025507	2
269.5237286868092	226.09423727587216	3
540.1829672456747	468.47544183356	2
511.71130622722035	445.1111786148238	2
312.9328219676521	291.31348724179827	2
368.88275882270665	312.3560145808019	2
415.3326956777612	569.9493317132442	2
503.34642201476544	360.83681652490884	2
207.98082194147804	322.9294046172539	2
599.5899167766795	327.3772782503038	2
296.85943249093725	73.54459295261239	2
581.3080220357047	492.8004860267315	2
413.376139530426	103.95301686753565	2
224.171875	337.0	1
383.20651296391793	450.43822126480995	2
597.171875	580.0	1
610.171875	539.0	1
405.171875	4.0	1
300.171875	397.0	1
364.171875	418.0	1
462.171875	487.0	1
518.171875	563.0	1
537.7528006255602	123.67630619684083	1
555.42084273964	344.52685297691374	1
485.8529269154512	468.20315917375456	1
449.41259005516184	598.5049817739975	1
414.07650582700245	597.4007290400972	1
236.29183205407563	350.04811664641556	1
488.0614321797111	32.02332928311057	1
536.6485479934303	20.980801944106926	1
403.03397950570263	41.96160388821385	1
566.4633690609397	184.41020656136087	1
473.7061479620214	209.80801944106926	1
482.54016901906124	245.14410692588092	1
579.7144006464995	437.28408262454434	1
485.8529269154512	537.7710814094775	1
161.20265306923696	99.38274605103281	1
177.76644255118666	14.355285540704738	1
