293.03146264060445	254.77160834125425	3
170.78345084660847	226.75118374609005	2
583.9609687958013	130.55850407306838	2
357.48703332593846	80.51993558612335	5
106.04305959610275	131.99222414218713	3
297.20453608735045	145.02069255362775	4
243.88884867895797	200.35855754627968	4
411.1443884526493	405.69610812429926	4
533.9431462998778	295.19663234699414	3
558.0005899448945	68.77264872870896	2
284.17100627538264	39.88220443598432	4
162.10434433014294	95.02561723659124	4
291.77618073191206	171.3511667549628	4
584.546875	273.5	2
510.6599814046913	274.54477258300426	4
559.9235733086797	156.3435933383406	5
497.046875	401.5	2
318.3909985568099	178.27656630734094	5
408.1266244025855	227.17418713403842	5
309.9818391442765	110.05378814809816	4
461.98186038059566	51.90571641748214	2
366.68730986548394	300.31581649723455	5
343.29432690515233	280.1450154008205	5
151.17263712991908	41.63311014857442	5
541.1732389726674	360.28392150770196	4
338.37640966760165	210.5972427484334	3
587.546875	385.5	2
42.975186268238986	47.13951783738877	4
470.84481515049833	173.05089458154492	3
473.1810413991176	370.600962725253	3
542.0532684234604	325.803397598418	4
378.29346508083904	160.725491753352	4
147.5941326994541	205.8532851207878	2
396.1719070769841	72.5324142494778	3
115.48810584284664	195.20298663818485	3
157.6113851898284	148.92460613539185	3
306.63878331753244	65.94932962832192	3
376.60324370116973	45.65721523826507	4
221.70009714329044	154.71059161485795	3
90.58669120519438	45.30165391261417	3
363.8594543985773	243.4510163177743	3
230.03024724921008	312.7190490762394	3
475.57757635899713	213.72795283769145	4
445.78493736003077	168.83723364158828	3
290.046875	345.0	2
138.30367358095006	80.40354233522586	3
453.07255021123973	380.68563317699335	3
184.9116729384612	67.66137802162135	5
64.046875	82.0	2
424.0161483339971	187.4052085904715	2
389.3123730079392	345.6066403357196	2
538.2479610871198	94.22384536289069	4
494.046875	349.0	2
155.96440534946896	253.32137414507343	3
584.6435161521647	235.70427055048134	2
71.7056619647841	178.8198138186499	3
228.91633552342125	57.823213179522256	2
201.96831240414252	280.35220902217134	2
116.25189752259114	58.32831399654406	1
318.1575802861932	130.11700814613675	1
70.2622697819929	198.5406072574673	1
85.96604510805084	121.14342137743766	1
57.92358916866166	113.29153295482597	1
389.94626749102946	90.85756603307824	1
592.9736484922071	349.96988397926435	1
320.171875	377.0	1
605.921875	143.0	1
518.921875	211.0	1
574.921875	307.0	1
346.921875	327.0	1
525.921875	184.0	1
