481.69841273943143	441.0485419198056	4
264.8665935232805	80.31407354566372	4
475.11275639853784	160.5291616038882	3
476.1618099035984	199.2816765669342	5
299.19212837055164	275.08620731818354	4
319.0683245997821	334.7942891859052	2
578.4801378813456	240.21715494317567	4
363.61890186814196	170.21334051392523	4
347.4115372578866	63.09033496507641	4
72.3458390792133	210.17619594995173	4
103.20742632572794	169.1725643532971	5
392.54742842823066	372.55935601458077	3
445.23828125	320.75	3
463.06278115910646	410.5977521263669	4
203.9283633567892	52.34821114174589	5
242.93040219782444	152.03532806804373	4
135.21846534931342	45.06035844471446	4
562.5536821261958	306.6393681839453	3
334.2031198842783	382.62430555256935	5
161.65529747780846	97.65032647325685	4
155.203125	138.0	2
115.234375	53.0	1
118.88954755150317	11.144767855677207	3
593.9405768080148	309.8237545565006	3
256.84913230357233	119.71882975920961	3
165.51022465988495	284.2789251248486	3
418.85088186169617	430.77715674362094	2
472.9050713488807	272.4273390036452	2
75.74385019761422	79.64884568651276	2
43.12793439959954	167.81895504252734	2
539.9994084241389	418.4740619222286	3
584.8444571870391	130.14733086331444	2
542.3359965912665	147.34382861406664	2
362.171875	238.0	1
185.171875	311.0	1
223.04080046851584	319.12904009720535	1
414.07650582700245	320.2332928311057	1
607.320716449749	363.2991494532199	1
552.10808484325	331.27582017010934	1
216.41528467573596	101.59125151883353	1
125.86656884107758	270.5419198055893	1
191.01747413674642	248.456865127582	1
71.3125	51.0	1
446.234375	271.0	1
189.234375	144.0	1
267.234375	237.0	1
149.234375	193.0	1
222.234375	189.0	1
476.234375	383.0	1
209.234375	277.0	1
