521.2996155443255	125.83458032238627	4
88.87410566472323	100.48699878493316	2
400.77976838480254	374.74281766313425	4
497.6056415016203	486.00115095751715	5
201.533400978244	354.00120566497094	5
344.78382737484924	106.27774157983367	3
264.0531976125976	213.06038882138517	2
601.6686218748569	111.87108140947753	3
394.38115133797623	67.05446069420532	5
526.6228928177793	366.94794680067616	4
282.0098055694126	67.17213560708564	5
115.48701675927029	240.98814112349652	4
173.94762089200003	128.4710510328068	4
423.5933272580861	158.4019441069259	2
230.67165262218668	178.0776586971881	5
378.97071192049964	334.1763382655188	4
420.4845287379919	521.8016922198705	5
334.86328411023294	286.803219927096	4
571.8718947251273	589.4510935601459	4
168.29153230806264	335.4230655683639	5
563.1014417909415	232.45825825713536	4
397.71342855207524	242.55392984096815	5
581.7843133667053	163.35217051805523	4
231.44059986113427	361.088730255164	4
306.5861239391322	157.8498177399757	2
460.48806082036083	513.1866342648846	2
555.9173719776279	166.52491014133028	3
246.94785386349767	19.511363555417535	5
321.7269081733616	117.27326758561043	5
281.27019776217264	37.6628210583664	4
287.76065591007205	381.1414685234311	5
399.34297804895203	575.3149453219927	3
450.16402666838775	482.00376967986665	3
422.71580304241775	24.687295194680853	4
145.42355547757865	87.51373025516403	2
304.2033689300694	350.60024301336574	2
493.5518503023105	358.2846901579587	2
443.98746280677517	33.42743276514921	2
231.75003971097283	259.3539489671932	2
200.79050286115307	280.08371810449574	2
600.7953450642246	56.554191980558926	2
597.6117035437111	425.9581091127768	4
541.84540820917	554.9280680437424	2
409.8987150831763	437.4547995139733	3
313.687115062237	470.310085054678	3
501.26035556657047	212.508262454435	2
434.45025989617284	70.43083579359906	3
271.70306970663864	265.86100036513704	3
420.30414000526446	607.8979689369913	2
487.5124009577256	97.79562575941677	2
438.7287633143928	224.43822126480998	1
526.171875	623.0	1
534.4400427291703	45.274362089914945	1
486.9571795475812	43.06585662211422	1
567.5676216930698	26.50206561360875	1
515.6677479829607	162.32515188335358	1
551.00383221112	400.8437424058323	1
267.21090575371505	503.53924665856624	1
255.0641268002853	310.2950182260024	1
300.3384847176145	17.668043742405832	1
216.41528467573596	86.13171324422844	1
121.44955831255766	200.97399756986633	1
247.33435837537542	249.5611178614824	1
224.14505310064584	272.75042527339	1
365.4893900132833	193.2442284325638	1
580.8186532786295	447.2223572296476	1
542.1698111540802	485.87120291616037	1
