468.6114607531665	230.35467380999077	4
536.9652147893428	570.1073145938706	4
477.0523251368533	533.670457301871	3
512.7946825432854	225.18590522478735	2
580.8118690782206	303.2945494558748	3
281.5825311696374	171.02746051032807	3
305.5314364391322	41.37654921020656	3
349.65299039779677	387.2442284325638	2
454.1383915334628	430.3168965895678	4
301.87505749093725	201.684872417983	3
550.5571869198639	286.275584943716	4
444.0772831930806	467.01579715881144	3
439.4994966737783	503.54438306426056	4
527.2647911721233	120.5419122523196	2
501.22129306657047	455.3718104495747	2
392.5607877761364	318.40814094775214	2
376.8826942786943	62.91292175616512	3
521.0396891236103	504.8738760631835	3
590.5999036160297	359.5974483596598	2
212.168450889673	29.19890643985419	2
468.6640864030797	29.149111827092945	2
460.8719548849366	290.0992175822171	3
263.59213116440264	204.19550425273388	3
285.0825311696374	367.5559538274605	3
576.0786404553797	439.5377885783718	2
339.5587246050169	275.01032806804375	2
184.171875	160.0	1
249.171875	345.0	1
440.171875	557.0	1
603.234375	398.0	1
608.234375	445.0	1
603.234375	488.0	1
346.234375	337.0	1
298.234375	253.0	1
535.234375	189.0	1
505.234375	204.0	1
494.234375	141.0	1
395.234375	474.0	1
501.31246376527093	291.52272174969625	1
369.90640054180324	429.5543134872418	1
287.0874531320547	110.42527339003645	1
534.4400427291703	9.938274605103281	1
