586.7628057939751	262.7585637065016	4
552.139979921625	608.7737545565005	2
611.4026746730694	535.2812879708383	2
192.68531076361154	75.13665570943992	4
399.3119297293039	260.57534024769114	4
359.76889100174776	326.98447708189434	4
281.2966170321462	116.28989132229859	5
183.22979035591828	40.48080194410693	2
594.940799835252	466.89254369798743	4
506.567922552915	441.38493356124434	5
328.5671678955814	245.80385748346163	5
414.16007639135523	171.7855248152181	4
285.864929759422	159.03430561220534	5
509.1362352801908	216.33286356357388	5
494.88642217633344	575.9270371257593	5
294.71505820513744	235.92889757598	4
218.550478734999	57.80315917375456	3
279.1605272214424	46.89781287970838	2
317.27412018062324	21.26676599623322	4
398.4559393229706	143.18958002496683	4
216.272703521803	101.24349939246659	2
348.4085588350656	296.4262963532851	2
308.0470614391322	87.1179829890644	2
383.1402095369941	301.9750730881674	2
356.6742195255365	107.78767169650096	4
535.7329562324552	211.61251518833535	2
524.6373414957467	467.8539751679508	4
340.2257987603357	22.42732043772122	3
355.1888712807771	354.53130798513354	2
492.47844270823106	5.521263669501822	1
313.58951630317426	107.11251518833535	1
285.98320049992475	314.7120291616039	1
596.2781901284492	81.71470230862697	1
582.234375	365.0	1
215.234375	175.0	1
439.234375	337.0	1
415.234375	372.0	1
351.234375	440.0	1
560.234375	433.0	1
487.234375	112.0	1
469.234375	373.0	1
