382.1218433550693	61.89292660362553	5
546.7548970791867	305.19166410216957	4
372.23760861409073	280.8671603136626	4
135.51835227990372	119.79587403576623	4
607.0512208687426	297.5534884047027	5
496.048074614876	279.1187365983214	5
464.2734375	337.0	2
514.0918136506805	502.1282495091777	4
313.0462401887004	437.50844160153997	5
537.2367391954609	345.2752592323298	5
200.08017937617342	377.3655177719649	3
458.6140157378702	498.47675406226625	5
224.53232571315007	335.6399446068626	3
185.44164585536032	288.4121264146255	5
200.15711665129544	341.9018310509309	2
588.1734366240402	340.00252718102064	5
233.02548024550256	406.2615435929296	4
60.355645531405	37.390213879058315	3
509.5814864879772	226.7678873672873	2
402.1009135845493	404.3407447299585	3
406.48947199730105	222.88394368364365	3
313.8518667593975	306.21839188457255	4
575.8393716475138	476.5967071857209	2
405.1998861715915	492.0861022454712	5
391.7734375	249.5	2
271.2220234673825	362.6811953918698	4
34.98961121737592	166.08125970683966	4
77.7734375	203.5	2
180.7734375	115.5	2
557.7715614679691	225.9272686217545	4
572.1692129662717	314.63302046468687	2
558.0076488667423	408.5602400369288	2
340.8046473825804	230.787589529149	2
390.9766485795806	208.70657024157563	1
294.5257982784823	60.86695018226003	2
85.01754559400418	74.59671931956257	2
612.5381773051995	399.10911300121506	2
71.234375	224.0	1
283.234375	136.0	1
476.234375	409.0	1
135.234375	298.0	1
312.234375	88.0	1
15.441305628079542	27.606318347509113	1
50.3125	267.0	1
285.3125	107.0	1
411.3125	327.0	1
438.3125	366.0	1
140.3125	329.0	1
100.3125	314.0	1
366.3125	495.0	1
