115.95460741099765	303.38010759483143	5
60.873357692089044	156.72791616038882	4
510.41556558818706	310.9349052695648	5
25.72360084255969	237.655042527339	2
205.39224195689212	376.8658262454435	4
225.67611807168964	209.46877231276073	5
595.3754603201171	432.27450841581947	4
369.61649717414	255.98894899617233	4
31.171875	210.0	1
379.171875	227.0	1
12.1285477316896	28.710571081409476	1
467.08063216924154	470.41166464155526	1
