19.466434817650075	147.3237629697961	4
228.85559544959628	237.39064020878436	4
160.85977591634042	305.0289707342582	4
39.90997907345715	238.18583207585726	4
46.50203752722166	180.79784925318916	4
254.86759110145718	260.7116970233948	4
136.05260453097588	253.1156331743345	3
547.0428508922471	430.9840290318522	4
124.20659760936479	221.9041615057331	4
449.1864696838875	357.3838282812741	3
76.68833134880711	150.2424665856622	3
469.3815765377351	416.1032851207878	3
42.161952126581326	71.30104941838889	3
241.02373510736277	352.6804374240583	2
522.2638193878703	400.869744835966	2
109.82070349562892	366.75382746051037	2
19.921193755352874	47.669455156854674	3
419.31181936169617	328.5336573511543	2
128.5229905531824	167.97531901814224	3
200.1260520262849	266.5764235155722	3
290.0915875715943	281.5360824742268	2
271.2747666929225	370.96233292831107	2
120.45473768363316	275.36144371776425	3
272.6183860685733	326.1284523443835	3
526.2638193878703	345.4719319562576	2
351.28849302992677	321.48153098420414	2
149.2663903989082	269.53562086474847	1
593.3456227320705	392.650498057744	2
276.16837272779816	199.26757962763503	1
185.9735753700747	213.95045391598708	1
170.234375	105.0	1
442.234375	389.0	1
363.234375	339.0	1
311.234375	396.0	1
80.234375	263.0	1
53.234375	226.0	1
484.234375	446.0	1
427.234375	491.0	1
208.234375	374.0	1
246.234375	396.0	1
6.171875	189.0	1
