282.00904942676743	249.7805589307412	5
151.00779774896858	65.32545565006075	4
211.84935450754304	302.5326245443499	3
142.39291353651365	109.35838396111785	4
583.9166600285747	488.52948055893074	5
457.5053810489709	298.2512454434994	5
586.1145337125097	314.78314094775214	5
605.6363126659395	439.2359204131227	5
533.6685031074552	359.5346901579587	4
61.27102831737942	115.15039489671932	5
387.10546875	355.25	3
607.33984375	161.0	3
84.703125	29.0	2
503.234375	448.0	1
209.234375	106.0	1
599.171875	526.0	1
506.3125	201.0	1
533.3125	7.0	1
