152.67407865811913	358.2761182718642	4
293.47367196241726	175.1838396111786	2
373.03715798765967	328.80921981267517	3
260.2734375	382.0	2
147.40128284737557	147.63826105502352	4
223.48157577516145	155.82065613608748	3
541.3744195644226	288.0003645200486	3
205.31155394759884	120.00464574230226	5
557.7069021331049	387.6221142162819	3
288.48828125	122.75	3
582.2983856726056	371.5359286044007	2
54.60894263840011	128.0742259768163	5
83.72605085826413	167.21470230862695	2
179.48828125	416.0	3
121.88383018725753	274.53325416733895	3
359.7499958292989	423.75534697645793	2
46.2734375	189.0	2
184.70891403985328	295.15710814094774	2
391.1085708758777	378.3104037059071	5
460.36710885232355	210.70290440047137	3
166.1663877185535	192.27849331713244	2
154.30150350609856	263.5933171324423	2
78.3694283889696	274.33335358444714	3
318.9967642232758	383.95012861358055	5
317.234375	407.0	1
490.2734375	401.5	2
313.59402884948236	133.5973226650254	2
34.88108695573055	93.23465757980898	3
411.2888438465449	31.385526832149335	3
428.26789239021616	462.84094775212634	2
166.0703344310084	96.98286755771568	2
557.523050318015	303.9911300121507	2
123.43315547234383	7.7085054678007285	2
246.11492392342774	9.521263669501822	2
520.8562034798342	220.88592962334423	3
386.39876724757266	87.4022926604093	2
103.171875	103.0	1
205.171875	170.0	1
294.171875	466.0	1
86.11347408439829	58.52539489671932	1
8.81578983529966	101.59125151883353	1
9.92004246742964	183.3059538274605	1
435.0573058374721	491.3924665856622	1
446.0998321587719	526.7285540704738	1
514.5634953508306	329.06731470230864	1
513.4592427187007	271.64617253948967	1
534.4400427291703	372.13317132442285	1
324.4121015470456	449.92521926450223	1
240.3125	83.0	1
427.3125	247.0	1
113.3125	293.0	1
405.3125	412.0	1
266.3125	99.0	1
156.3125	65.0	1
132.3125	33.0	1
105.3125	241.0	1
137.234375	216.0	1
110.234375	149.0	1
212.234375	328.0	1
175.234375	381.0	1
342.234375	371.0	1
509.234375	370.0	1
427.234375	372.0	1
239.234375	305.0	1
