608.4715454476103	438.1943375903985	2
579.749306278847	356.9471278095357	4
62.840503754401894	181.52534830169586	5
187.7421875	356.5	2
272.80298140192	297.74638107084013	4
201.15334444636628	246.3656331743345	3
441.56940837065827	405.4139098322819	2
301.62663963264566	33.08206286003865	4
313.5082995128459	297.5455993342325	2
430.8927057296444	264.90138758729154	4
92.46395000010565	134.93563480606912	5
404.6126140318609	443.0672152552587	3
225.04368675893335	192.29864601457876	5
286.7371151911502	356.39233709124335	5
453.98805441868797	440.21851235400464	4
89.80494428221992	104.3660645105748	4
38.838745085307366	130.49419456099463	5
492.874519785782	507.40808390966225	2
465.976277394466	412.3167025696261	3
138.0115361034307	127.8500660028123	3
380.5710903742295	341.9218799322754	3
249.7394200265121	280.2458281918099	4
490.25077615102623	276.5484534959812	5
247.5449123678132	347.60531611324274	5
132.50115518902288	93.22174792665079	3
363.59372536448177	406.50492868826586	3
24.485565104840326	88.81565766492491	3
265.4967387870373	175.85129278759132	5
448.2974440320297	225.87976777834433	4
82.63654746315194	33.84104800987173	4
440.17142293532913	483.60932451146334	3
599.293022074816	258.40463508863553	4
302.25958385599	249.62782735805507	3
111.0339216343816	60.3255574001458	4
429.5973373958916	206.89448106439647	5
226.66427258651314	231.00207783544477	4
146.2421875	5.0	2
374.78041342572374	134.70473795698598	5
474.910011124227	154.1675737529224	4
215.06157887375457	341.8307494188883	4
521.7734375	394.5	2
94.26437265977971	202.2142580422992	3
539.8315766293381	367.53981691393807	3
177.45764504465166	199.10940144637635	2
166.03323860771633	327.45506069389046	2
183.47517175811356	228.2678873672873	2
170.02275043653202	27.322667661491664	2
30.171875	10.0	1
107.171875	22.0	1
316.171875	371.0	1
304.43397618821325	-89.192642121273	1
465.2704449410385	266.40433896748647	1
338.52301910367356	261.70998938215627	1
217.6435296476681	42.24914626797142	1
572.0668870817811	532.8086779349729	1
542.234375	401.0	1
394.234375	473.0	1
447.3125	57.0	1
277.3125	59.0	1
259.3125	46.0	1
134.3125	300.0	1
