511.14465315881057	189.29716414919054	5
581.2754872517962	212.52812879708384	4
466.40191348921616	384.5485009914602	5
343.6638556583842	259.7265188335358	4
488.703125	461.5	2
572.0788904620271	520.6697953531313	2
547.2052138463143	104.11871066901217	4
528.4520977750813	385.8631834750911	4
539.9852008834638	245.51708189240068	5
473.3366932405054	229.52539489671932	3
557.48828125	312.0	3
291.79298670600684	9.920831039152299	3
501.6379258091878	328.8971445929526	3
321.08750473382605	153.32065613608748	3
385.5956607304918	128.8008364778804	3
577.7528187429248	64.62758201701094	2
568.6718743251997	43.06585662211422	1
507.9379795580508	64.04665856622114	1
596.2781901284492	400.8437424058323	1
273.171875	37.0	1
546.234375	423.0	1
