23.237185918999256	167.74927717171929	4
587.0957839239313	52.87396898335794	4
31.75174987444298	213.41080811666137	4
238.45637418075268	328.66721636023266	2
125.81654532795633	383.67592057344274	4
358.08818711025174	202.53912515188335	2
377.4663656633917	344.32379819813383	4
425.34524413179406	205.72610807775456	4
428.42175880459	251.25928939062874	4
74.15656763154925	219.82102065613608	3
305.2575041798196	367.65043286405216	4
216.98155664350193	348.0167435797675	2
338.873270264294	241.91821025087137	3
557.9357677519499	271.2188335358445	3
542.9464494739168	304.2131227404459	4
259.34597555143955	112.16680272056061	4
188.7381974571274	203.27459334336322	3
606.2984220409395	464.9452004860267	2
397.47139660380606	267.5417678334287	4
7.77898866764983	213.41464155528553	3
102.34661297040128	45.13040484590863	2
136.74083783419812	121.42281404354759	4
506.405480390884	321.2178631837369	3
146.46415439337068	429.84444225179425	3
222.8188072916018	124.82584351233024	4
151.55540975609856	238.905042527339	3
95.4338532242059	116.01949310549134	4
433.9272978245383	530.5363212809448	3
160.64554851760124	306.7810843924582	4
54.87005838248275	63.322650489083564	3
217.2715931761804	440.0361330241104	4
347.5473824108027	19.327905545614364	4
483.52294336044736	289.63030521379403	3
164.1545734530967	63.65407720451245	3
194.18195713443822	314.75176184690156	3
467.3692871955508	489.45159653966766	4
115.46401862775892	277.53159173754557	2
233.21488346097283	375.8793438639125	3
263.3081218045604	386.61367877514385	4
158.09181555670676	179.791871045868	3
326.9554966035253	319.27675534996786	4
445.3432844807444	343.879274197152	4
566.177563803591	193.28776693750623	3
455.82155728734955	421.7100812967394	4
259.77495585180293	274.77495313794424	4
39.94703078172952	116.87964763061969	3
32.005095110029245	101.59125151883353	1
223.46814496999798	402.2346294046173	2
12.1285477316896	118.155042527339	1
124.7623162089476	99.38274605103281	1
197.42493007253972	462.5784351438683	3
430.0403685533488	67.68891367902754	3
180.72969180276522	452.0227727342668	1
440.8263167413166	91.24357593475919	1
180.7421875	402.0	2
269.7421875	193.0	2
479.2421875	325.0	2
129.3125	325.0	1
96.3125	313.0	1
535.3125	377.0	1
424.171875	569.0	1
244.171875	423.0	1
279.171875	436.0	1
335.171875	443.0	1
504.171875	562.0	1
557.171875	504.0	1
554.171875	562.0	1
57.171875	340.0	1
477.5335017124831	360.77919679950764	1
588.7038333394446	277.9258347438068	1
292.6087162927046	20.980801944106926	1
337.8830742100338	375.44592952612396	1
369.90640054180324	512.3732685297691	1
395.3042110807928	555.4391251518833	1
574.1931374858497	440.59684082624545	1
