577.0093621416468	279.15690016357223	2
213.09419302755043	279.5646691154836	5
305.82333779705334	251.74352885470773	3
447.35332497610716	558.7642653941348	4
592.0539145912312	142.7218330557823	3
134.81638335126502	237.7175761184607	4
264.7734375	219.5	2
470.89889246656975	315.54356185611385	3
154.60533859448856	80.90758888857003	3
494.7734375	502.0	2
376.7732256809864	256.87360399958754	4
371.8837501220638	575.4276623525698	3
234.2734375	259.5	2
545.9838556870224	368.6334820741653	2
275.3252109584899	171.8359399661377	3
274.75693693194955	266.26196337898136	3
518.7564738729852	113.65860762762935	2
427.2734375	588.5	2
549.2416677917996	150.44419718699712	3
100.7734375	97.5	2
327.2734375	351.0	2
294.7734375	376.5	2
182.98122450423983	268.37575688007576	2
326.89640334371563	234.4386059393753	2
310.203125	286.0	2
258.33916859894583	284.2184951531005	1
314.97311112588847	463.55931681797205	1
292.234375	214.0	1
340.234375	440.0	1
315.234375	401.0	1
266.234375	359.0	1
416.234375	364.0	1
288.234375	411.0	1
316.234375	575.0	1
405.234375	278.0	1
257.234375	428.0	1
478.234375	584.0	1
149.5204557203228	299.26478606479753	1
214.3125	54.0	1
129.3125	172.0	1
430.3125	127.0	1
469.3125	480.0	1
373.3125	328.0	1
167.3125	157.0	1
231.3125	108.0	1
200.3125	122.0	1
437.3125	478.0	1
349.3125	302.0	1
421.3125	450.0	1
529.3125	481.0	1
