443.010724631191	434.48566221142164	2
493.4085351701805	382.58784933171324	2
364.5559391679703	255.82584057702493	3
599.2884362679947	390.9831904786922	3
587.3913983517697	203.53912515188335	2
192.71752770753372	92.19974984468122	3
545.6516326061287	391.1999575595984	3
464.58948309625055	376.8710726035616	3
134.42434509747272	148.3886813879395	3
275.1282087937062	341.52377288813665	2
145.94382125356006	72.0216366028459	3
502.53430510035	449.89831659305656	3
568.2967457144049	363.91020656136084	2
250.62369532222604	129.14792241146736	3
42.14500517183074	63.48663132957926	2
379.3688444796847	38.78226843759681	2
194.92687483085217	30.170150562466198	2
427.234375	355.0	1
375.234375	295.0	1
392.234375	320.0	1
328.234375	331.0	1
338.234375	366.0	1
104.234375	216.0	1
401.234375	409.0	1
