349.45701182089914	131.9440777130494	3
468.82877052568574	275.28159173754557	4
337.9923744753761	17.196497750752194	2
358.1914092636433	269.3926709352612	4
550.8048148408985	433.84837482240937	3
292.38522696311804	90.59745025732532	3
333.8295126762762	329.07269885618445	5
342.33888743534186	44.032928311057105	3
352.869806791491	222.61804270476605	4
515.1528414254153	419.2037667071689	3
480.70862286601687	144.48361342440384	3
313.9640719676521	419.7037667071689	2
424.8320178776662	316.07859024764446	4
505.9034460468526	599.3229721574139	4
469.92204141494574	436.89204131227217	3
382.26756112974647	224.43590522478735	3
596.1389661160297	523.1557715674362	2
445.2387611454509	346.7740583232078	3
259.3879420331705	118.84786165812592	3
575.8049450589898	293.5741190765492	2
430.71576607415113	40.42867557715674	2
337.3282558550169	102.53499392466586	3
222.02523416504135	26.155228152681495	4
183.54548425811356	69.60963225111556	2
349.8061483014109	355.9688798276658	3
146.7421875	56.0	2
147.7421875	129.0	2
518.2421875	355.5	2
412.203125	272.5	2
199.7734375	172.0	2
271.7734375	353.5	2
212.7734375	119.5	2
268.2734375	213.0	2
476.2734375	489.5	2
272.7734375	444.0	2
611.3125	503.0	1
524.3125	519.0	1
495.3125	555.0	1
465.3125	571.0	1
298.3125	463.0	1
580.3125	345.0	1
429.3125	219.0	1
285.3125	172.0	1
156.3125	262.0	1
136.3125	245.0	1
240.234375	64.0	1
426.234375	454.0	1
300.234375	311.0	1
244.234375	233.0	1
345.234375	437.0	1
178.171875	37.0	1
237.171875	104.0	1
365.3143933720597	105.92645022311126	1
521.1890111436105	164.53365735115432	1
516.7720006150906	199.86974483596597	1
457.14235848007166	311.39927095990276	1
378.74042159884306	29.814823815309843	1
429.5360426768222	13.251032806804375	1
462.6636216407216	86.13171324422844	1
288.1917057641847	14.355285540704738	1
252.85562153602532	27.606318347509113	1
