334.6423341758097	354.4719828133418	2
163.71699347329846	92.60030649458906	5
445.9112866968434	393.91006900792615	3
586.7399168956647	188.54842316009535	5
140.75180156775235	199.39503341154818	4
176.72573370131124	207.72000275535223	5
381.977032969949	287.6604245352032	3
209.89255254440897	307.57845472362686	4
333.51508525704526	297.99733506996216	3
442.5868248931446	276.9559330093166	5
363.76087949996224	164.21786725124483	3
474.1541173863963	335.15771531916914	5
271.0171761136355	125.23636283606997	5
222.64392927694962	55.771908483109925	5
419.8892025097302	381.4571421441022	5
464.6395379655907	373.1390317946357	5
414.9276993068581	204.3950304379635	3
438.9289374862867	352.13775283956403	5
530.1444853663445	411.4214560334225	5
304.59594977847	343.67604578795743	5
119.51154528111002	257.0223723254725	3
588.6695125705545	314.2316492269249	3
376.37598268604194	209.69943724388023	4
476.9132427055166	266.2729965039613	2
356.7693397144057	321.47893564615003	4
348.40992216939	258.43372407189497	4
527.8957353475034	372.2231766359519	3
509.3279456831058	267.5626268936436	2
375.63538133771215	336.7556614087147	2
546.5500490338729	418.3488989536155	1
336.3854298042942	234.6886059393753	3
253.65511580235628	361.3895983997538	2
162.6405964071493	169.40213879058317	2
275.28921307736096	312.31651023234343	2
308.38424785236566	240.01177104169875	2
234.49537084466107	331.6091706416372	3
226.7734375	273.5	2
203.2734375	146.0	2
507.234375	227.0	1
141.234375	125.0	1
276.234375	257.0	1
561.3125	455.0	1
399.3125	426.0	1
153.3125	290.0	1
77.3125	210.0	1
83.90496882013832	86.13171324422844	1
128.07507410533754	43.06585662211422	1
