160.4202939685535	79.25309842041312	3
266.1744203107926	377.02509113001213	3
301.0729311748722	362.5974483596598	3
235.58793033597283	294.2927399756986	4
481.6554581934656	464.1952004860267	3
526.7418559021303	211.258262454435	3
430.40474008841113	411.193134872418	3
611.0042371730694	154.5998177399757	3
444.045880881191	339.12779465370596	4
566.5731129019049	340.74242102065614	5
192.4647917558732	26.251032806804375	5
307.7073466373272	416.09951397326853	3
120.94682734734383	65.37758201701094	4
301.78838298380725	196.45561968408262	4
604.2517865963096	493.0608596597813	5
298.58354441417725	28.626032806804375	5
339.3126308550169	362.7953219927096	3
170.6882589381384	239.66567436208993	4
180.68315491128828	267.38532806804375	5
523.2276865753703	620.6907654921021	5
495.7891549898105	253.27018529769137	5
373.9198865387266	175.5588396111786	5
512.3106760468504	181.76760328068042	5
488.7575181452256	361.2953219927096	5
580.9919659482498	146.4120595382746	4
507.25829183439544	489.7483596597813	5
361.3551571763167	391.35911300121506	3
482.5316743113357	123.03602673147023	3
482.5075181452256	431.1939094775213	5
250.43599177157765	67.8568347509113	5
133.78534437229877	129.2759113001215	5
566.294055582275	92.98286755771568	2
546.7805865806051	463.5702004860267	5
543.8742076324102	403.08862393681653	5
325.768667201497	156.75619684082625	4
568.7351116697298	544.1046780072904	4
491.1641549898105	559.1676944106925	5
335.261960212192	62.30470838396112	5
208.87656930934804	120.99453219927096	2
287.0874531320547	406.3650060753341	1
340.5065982889519	174.25722964763062	2
366.23828125	277.25	3
343.203125	225.5	2
389.537109375	99.75	4
239.037109375	158.875	4
421.98828125	303.75	3
169.2421875	184.0	2
254.2421875	413.0	2
428.3125	499.0	1
381.3125	210.0	1
611.3125	298.0	1
98.171875	144.0	1
576.171875	630.0	1
400.171875	509.0	1
169.171875	137.0	1
564.171875	208.0	1
194.171875	331.0	1
467.4375	280.0	1
494.234375	590.0	1
331.234375	291.0	1
323.234375	265.0	1
586.234375	246.0	1
415.18075845913245	153.49113001215068	1
176.6621899190567	104.90400972053463	1
294.81722155696457	446.1181044957473	1
