555.1166923762673	222.62353762435083	3
314.0031344676521	183.65297691373024	2
457.89893967512023	394.80352752652664	2
301.4102535841206	280.30211339878997	5
176.980090212297	102.54613176305094	3
585.9764477785031	317.3499426493692	2
583.7740819035747	210.40400972053465	2
206.95994562541307	316.9602673147023	2
567.9222389693932	427.2149075089036	4
359.07903070035456	226.61228516650004	5
234.21097721097283	324.2208991494532	2
243.75371380787385	165.58591253734335	5
266.2987227059898	286.10701165914486	4
402.53076240481505	247.12050322444225	4
169.39180564463533	76.92919650971632	2
151.5599686451672	20.894954322349246	2
576.8049450589898	163.05832320777643	2
381.24802987974647	204.53912515188335	2
439.1672629574505	506.0312952389909	4
401.04061692573305	305.46746659968437	5
235.10923765178654	249.2670065326435	5
420.70202161978233	308.0865127582017	1
548.3055542973152	139.07214549270782	5
326.0260004673692	359.81933155619606	4
365.2734375	182.5	2
161.4672031796998	128.47538082781966	3
420.8004428891285	56.67068010463149	3
404.2734375	460.5	2
369.2229327422351	286.6824126788737	3
220.1692721426454	27.585320818587476	2
415.7734375	208.5	2
366.11756890066187	370.9569933835975	3
598.5222456359804	429.4260655485459	2
482.7734375	27.5	2
385.1480350030678	71.61578704416064	3
435.04432645643794	422.13986767194956	3
512.3735305852903	327.3045853208186	3
211.21431533819367	209.1400600092322	3
519.9345014771177	239.30466225573167	3
522.7823629957707	461.15486997999693	4
497.9040353747117	158.37790429296814	3
477.7175846119211	498.4625326973381	2
474.7734375	285.0	2
524.5711770975043	101.86567164179104	2
337.77882631285706	150.84120633943684	2
271.03228702613455	325.5118864440683	3
364.3125	87.0	1
421.66975458448906	475.62024926911835	2
479.3839383562415	540.0600092321896	2
535.85585716414	321.1332897368826	3
290.56993230830744	166.4446837975073	3
334.71537545612614	101.81689490690876	2
507.715065960002	220.54839206031698	2
501.59312417634726	475.450376981074	2
418.234375	151.0	1
362.234375	144.0	1
302.234375	209.0	1
474.234375	123.0	1
442.234375	99.0	1
338.234375	425.0	1
447.61059110652326	289.46237882751194	1
309.17206492955233	16.780427758116634	1
460.19591166806606	12.585320818587476	1
400.4156390007377	428.9496845668565	1
291.34286080070007	415.3155870133867	1
371.0498910238045	463.55931681797205	1
335.39148276609984	462.5105400830897	1
497.95187335269446	513.900600092322	1
302.3125	319.0	1
266.3125	381.0	1
499.3125	423.0	1
615.3125	256.0	1
445.3125	197.0	1
234.08332678981566	54.10838396111786	1
598.4866953927092	351.1523693803159	1
559.8378532681598	90.54872417982989	1
588.5484217035394	43.06585662211422	1
564.2548637966798	67.35941676792224	1
598.4866953927092	65.1509113001215	1
