348.0173977476695	371.017938025065	4
292.8294158110443	256.1828949099533	5
343.51007504960694	139.9624707003428	4
276.0325996976575	331.92817282047577	4
448.27729175044675	196.0752604350684	4
319.0584368636021	337.4097913737194	3
451.5397052492362	418.31176284902574	3
528.5593418399369	255.50781989841306	3
397.84866275419125	180.21381845609375	4
607.7308404831814	391.5655077912015	3
314.1708619754661	100.37746434413293	2
308.1336190085145	303.80598042873135	2
539.6360217475683	417.81176284902574	3
526.757028882966	203.2435979022854	4
242.68638163476538	19.562286566992853	2
285.27410168943936	155.01131801004257	4
311.3890219555261	146.2195096242227	5
525.0096806837716	450.91050720598224	5
305.0300596401564	366.06082624036503	4
504.0909899641656	486.27819228718124	5
142.76305157401583	283.2099002011753	4
518.4570304585775	361.14566533704476	2
324.3876377715022	186.72076271069875	3
584.8577672730062	411.71458805636064	3
353.36146475768055	34.25663615232301	2
419.4005899906247	153.68872092336838	3
252.97562591730303	110.73739497607224	3
129.47397084332187	71.41201572152485	3
553.1775454051997	269.22293167274086	3
557.5223096345835	460.4629806941256	4
248.10178692716218	89.192642121273	1
350.9573355485275	336.8286659486075	2
546.7421875	312.0	2
90.2734375	195.5	2
254.3125	281.0	1
101.3125	241.0	1
363.3125	295.0	1
373.3125	407.0	1
379.234375	333.0	1
568.234375	379.0	1
484.234375	373.0	1
491.234375	337.0	1
195.234375	264.0	1
376.171875	12.0	1
493.171875	24.0	1
284.5585864354934	37.75596245576243	1
360.76616544926435	192.46833299853645	1
564.9703515205746	179.55887163887854	1
439.39651295948147	384.9366659970729	1
