572.6616299268599	240.86354799513973	2
488.203125	407.5	2
238.8152298431028	232.9465370595383	2
554.8701224651218	382.92957502032533	3
605.2601341980908	309.82301442605075	4
494.1111703219823	162.02159698830988	3
479.703125	263.5	2
440.703125	177.5	2
565.2293065926248	481.6036643454073	4
160.203125	294.5	2
373.72071623926905	104.13750743015652	2
561.9313443689688	129.29849415494354	2
456.02393534411544	200.3892466585662	3
415.77977687969616	260.3884863116617	3
575.5573772947298	415.62077764277035	2
444.5966492975821	479.14548392060317	2
454.9080285404117	13.127458199125066	3
502.74216938263544	468.1015795868773	2
594.6085726668389	509.32835820895525	2
526.0592181851441	62.81034062242982	3
506.2866240322695	130.72719522977366	2
328.24826650154455	53.71478472153021	2
364.10108141368164	76.2167401877997	2
519.0616367410569	18.231820883693285	1
279.00930837149474	41.52803645730137	1
410.7637479306125	55.212636695018226	1
427.3275374125622	27.606318347509113	1
605.1122111854891	337.9013365735115	1
597.3824427605792	430.65856622114217	1
404.13823213783263	325.7545565006075	1
440.57856899812197	214.2250303766707	1
447.20408479090185	91.65297691373026	1
365.4893900132833	49.691373025516405	1
143.53461095515726	91.65297691373026	1
89.42623198078823	147.96986634264886	1
85.0092214522683	242.93560145808019	1
596.0452703336779	68.17048776734883	1
344.171875	414.0	1
527.171875	535.0	1
448.234375	309.0	1
423.234375	143.0	1
389.234375	142.0	1
340.234375	351.0	1
305.234375	309.0	1
535.234375	338.0	1
490.234375	370.0	1
497.234375	305.0	1
453.234375	345.0	1
457.234375	387.0	1
356.234375	144.0	1
302.234375	190.0	1
332.234375	225.0	1
225.234375	188.0	1
259.234375	146.0	1
348.234375	179.0	1
537.234375	101.0	1
376.234375	206.0	1
310.234375	276.0	1
595.234375	210.0	1
