129.05362983886724	117.06158697281589	5
352.03295697882515	405.9716281895504	3
73.45770111491893	201.1002575309745	4
389.46746225617215	60.30042527339003	3
45.052238765740455	170.595834360067	5
366.6795926122637	449.2375624102932	5
146.8667945930309	262.2453149138563	5
188.90878849633236	443.6821992709599	3
158.34168430716505	551.2152362467392	5
64.46546914878023	425.52445850160706	5
141.87483058423797	154.14441069258808	3
75.81368406161283	456.513337856726	5
48.67148916444607	339.78594802509105	5
326.15355064719336	39.60212237530889	3
49.565399793081696	614.8276427703524	4
255.66925332431146	22.115917375455652	3
96.25028621773596	584.07238307015	5
301.06258719932856	366.4714264013325	4
174.83377384842964	339.77291643335354	4
304.0404938024708	45.35151883353584	3
415.8326956777612	140.12004860267314	2
169.22531480454512	117.41840826245443	3
92.43594369991101	292.6150561250941	4
187.7047162403565	511.26901579586877	2
248.94013948282134	265.40453097560385	4
307.02072680892866	325.57383099129004	4
269.6337657202764	293.3165708594854	4
389.13927278207467	102.42800729040097	3
338.6501824376311	274.0790334039614	3
398.27741322071597	516.1722582799448	4
241.55909459415756	297.4406423401525	3
402.12111343678635	259.24969623329287	2
355.43180816205677	298.5741190765492	2
393.7562292243314	164.26682867557716	2
259.39681866440264	161.05832320777643	2
309.29462920339216	234.60291616038882	2
210.71385187541307	206.54975698663426	3
432.68490291873604	282.2922235722965	2
345.0211361192769	578.0120899149454	3
256.58406076801265	519.4472660996355	2
278.92115880176743	597.8567436208991	2
229.57239760212795	432.5377885783718	2
177.3125	165.0	1
351.3125	119.0	1
45.171875	36.0	1
361.0723794847634	335.6928311057108	1
345.61284263494366	197.66123936816524	1
225.2493057327758	125.88481166464156	1
223.04080046851584	76.19343863912515	1
171.14092675840678	492.49671931956254	1
278.25343207501487	554.334872417983	1
271.627916282235	491.3924665856622	1
418.4935163555224	436.179829890644	1
352.23835842772354	612.8602673147024	1
207.5812636186961	103.79975698663426	1
329.04905315299396	181.09744835965978	1
371.01065317393324	171.1591737545565	1
396.77769477591676	355.5353131250962	1
105.99002146273793	558.7518833535844	1
