592.8520540895825	227.13674768051573	3
296.4868119467113	396.45260430262994	3
135.36945892961745	233.83068580764512	4
333.1229593198161	151.83838802073444	3
364.78635913017683	120.06918996484137	2
305.95594879129624	165.12508303896044	3
393.10855932766833	142.12988255293374	3
517.5875795048087	457.7162218944195	4
532.0010539077954	119.62131633179156	2
310.21340854273797	445.1881790905635	3
336.6610509149389	442.7737499476184	4
522.289875476625	80.70659689276019	4
132.33197981692874	101.29562575941677	2
449.79223252758095	111.76476306196841	2
229.3669693145829	137.4636695018226	2
41.639570872113104	148.50643944287532	3
595.7771588802896	460.236695018226	2
92.45543243858909	36.11591737545565	2
576.2867588750548	118.18177399756986	2
176.5212850916583	33.011664641555285	2
439.927348315126	91.9307411907655	2
406.77836169698014	481.36588064674686	2
263.03501142866253	307.38687727825027	2
566.9740009786649	502.2174969623329	2
139.0404850811887	22.146780072904008	2
88.9033061225241	133.91154313487243	2
245.7009903716227	439.589914945322	2
437.37522199906095	148.43280680437425	2
600.3814115124196	561.6886998784933	2
112.00750706623072	83.47149891459141	2
308.6804508451171	225.48699799969228	1
507.171875	169.0	1
269.171875	202.0	1
436.171875	433.0	1
278.171875	479.0	1
552.171875	36.0	1
417.171875	452.0	1
485.8529269154512	377.65443499392467	1
382.05317949523305	340.1098420413123	1
451.6210953194218	300.3567436208991	1
172.24517939053675	242.93560145808019	1
150.16012674793714	316.92053462940464	1
361.0723794847634	156.80388821385176	1
313.58951630317426	126.98906439854191	1
441.68282163025196	494.7052247873633	1
289.2959583963147	263.91640340218714	1
456.0381058479417	66.25516403402187	1
576.4016427501095	432.8670716889429	1
601.7994532890991	520.1030376670717	1
491.37419007610106	272.75042527339	1
493.58269534036106	246.24835965978127	1
394.1999584486628	215.32928311057108	1
385.365937391623	247.35261239368165	1
350.0298531634636	196.5569866342649	1
280.4619373392748	100.48699878493316	1
554.3165901075099	72.88068043742406	1
228.56206362916575	186.6187120291616	1
245.12585311111545	277.1674362089915	1
211.99827414721605	256.18663426488456	1
52.985895120498874	217.53778857837182	1
101.573010934218	282.6886998784933	1
510.14648482231075	512.3732685297691	1
471.4976426977614	200.97399756986633	1
60.71566354540874	78.40194410692588	1
19.858316156599464	78.40194410692588	1
12.1285477316896	104.90400972053463	1
46.360379327718995	40.857351154313484	1
357.7596215883735	13.251032806804375	1
608.424969081879	90.54872417982989	1
606.216463817619	49.691373025516405	1
