307.69212539281557	422.14216281895506	4
365.7421875	70.0	2
428.8018325223461	34.56379100850547	2
325.42072473343285	395.69654615758253	5
577.97265625	326.0	3
130.56314681649687	279.593985419198	3
331.37749909476076	251.56870830160432	5
522.2502621205526	273.42366133251267	4
323.5952987415784	8.481219019207927	3
483.203125	348.5	2
519.2114306933129	320.45714756191114	5
444.29500961181395	369.86558323207777	4
490.5871655624565	482.35063208387794	5
468.7446139276748	102.24545280309505	5
511.437651635816	45.225573165102325	3
523.8460230782276	451.35681494461153	5
502.2777086936288	401.6857978150485	4
519.2734375	515.5	2
370.05157159483946	147.28616117125785	4
521.3883126537727	118.28876063183475	3
458.2309021200179	319.2822600243013	3
455.0123668494438	460.202131111114	4
299.2734375	286.5	2
368.53770261517246	508.74995513376484	4
445.67778889990575	294.95431307592514	4
302.7734375	318.0	2
263.7734375	320.0	2
558.0415271768584	231.45792001461297	4
493.2734375	376.0	2
494.0127878023105	456.47606318347505	2
411.3348430478268	314.6826434836129	3
596.5820679670911	446.9290136233689	4
445.7734375	496.5	2
436.9815691571964	257.9263732881982	2
406.7250954425375	353.87163409755345	3
436.709638959368	428.44070473876064	3
554.7734375	382.5	2
548.7734375	187.5	2
430.234375	487.0	1
294.5566614338974	182.44447144592954	2
557.234375	308.0	1
440.234375	394.0	1
288.36240120442756	490.0488585401586	3
253.2764074233187	195.79661148915892	3
536.7430367700335	466.04018552625257	3
599.9980138037315	112.52960853684004	3
156.94481863822853	105.5041312272175	2
201.81551930896103	103.29278213098306	3
301.44273734974445	397.53098420413124	1
597.2276618803008	240.06054777658102	2
264.0453295100515	32.73165102323435	2
367.3125	440.0	1
572.3125	536.0	1
566.3125	618.0	1
316.3125	459.0	1
250.3125	456.0	1
269.3125	364.0	1
188.3125	284.0	1
206.3125	249.0	1
235.3125	114.0	1
264.3125	94.0	1
139.3125	63.0	1
166.3125	247.0	1
112.3125	49.0	1
334.3125	39.0	1
329.3125	181.0	1
212.3125	348.0	1
400.9728016297643	477.1934143714418	1
195.41256579123183	405.8765963994461	1
388.3874810682215	329.31589475303895	1
563.5331922163589	345.0475457762733	1
491.1675989874878	57.68272041852593	1
600.2403771875255	295.75503923680566	1
376.5319163345831	398.6352369380316	1
224.14505310064584	67.35941676792224	1
415.234375	173.0	1
493.234375	172.0	1
395.234375	549.0	1
469.234375	253.0	1
334.234375	296.0	1
323.234375	141.0	1
222.234375	222.0	1
383.234375	92.0	1
138.171875	18.0	1
61.171875	11.0	1
