286.36684124558235	322.771903795096	2
352.559288095639	208.63782708411097	6
511.28564081681776	111.9608241523329	6
157.5896983552879	16.434569011829776	4
242.82143948926762	246.39471732000624	4
162.5574093645405	181.95806664042846	6
203.48604551855215	44.774158597532406	5
395.34071296712546	187.76797985319382	5
73.1023241849792	10.593694822198511	3
352.41032730226357	11.318938298117017	6
404.5470415958423	218.60405278775573	3
146.08023071520068	121.43503045447446	3
90.58714409209537	96.47251752434545	6
339.7577948275643	422.3418033941031	6
344.11364859742883	495.6474635978085	4
603.08203125	285.25	3
238.6796875	282.0	2
314.04725329528213	396.1446754554223	6
527.7198921132193	462.5409562298885	6
498.9269986169986	198.83633377874398	6
116.22463852299882	159.32995449761646	6
409.8045517921281	357.8031846971793	4
401.6625976095139	313.52722845590495	6
108.44020814581094	292.55281357330034	6
210.9449396194162	13.222098475255276	4
559.3424270594569	98.26663540916897	4
95.36610185685119	336.46174438090895	5
109.1171875	19.0	2
232.65756501246034	68.12853349992191	2
217.10903435646495	348.33199459017254	4
366.6550662893216	349.04492507973464	3
276.2662609080392	241.1604326097142	3
400.5901771716623	145.10457988442917	4
147.6796875	215.5	2
136.6796875	187.0	2
420.7090749518768	64.72370074856694	5
305.1855173425786	263.9023114165235	3
370.3427432890669	134.24988286740592	5
299.8431500349419	72.43413330846776	6
347.6806384971938	321.2776628143058	4
579.820030441062	139.33079617049953	6
580.3389968186591	70.83961992679237	3
508.3249363718271	142.77105831504787	4
555.6688541139615	250.40535010358337	5
499.3019986169986	499.644725496516	6
535.9868774865399	183.1459487279941	6
182.8441587755933	90.77436208991494	2
67.92193809558728	118.802071453634	5
25.703035017611366	137.19400681997294	6
334.5308954951013	164.16068214626006	6
332.68540001452936	292.11994377635483	3
308.31834817508627	304.7236451663283	2
429.5627415064532	499.3043108922021	6
98.57439302473193	250.89010811684756	4
160.8046875	250.5	2
148.61748368498806	110.11252537872872	3
513.5048805323852	5.954134880198358	2
602.9162778895726	91.00815402257713	2
367.71388272577866	145.8366390754334	1
484.7486742833212	8.834021871202916	1
557.6293480038998	332.3800729040097	1
337.8830742100338	471.5159173754557	1
263.8981478573251	425.13730255164035	1
192.1217267688764	409.67776427703524	1
247.4375	198.0	1
279.4375	197.0	1
340.4375	392.0	1
91.4375	124.0	1
31.4375	298.0	1
263.171875	484.0	1
195.921875	181.0	1
592.921875	213.0	1
