327.1994897880827	505.62906916981524	2
61.60009915343895	360.5893857630588	4
413.5546549863392	222.76161169388243	3
41.76667656289716	243.9081012463456	3
499.35862355743103	382.9896034477311	2
279.45670784260915	412.67952102454495	4
185.32245046209397	101.79122252100848	4
85.45668287563166	150.9331926801712	4
511.3458610250056	258.0531876901522	4
266.45022650741527	461.8231659997416	4
208.56049231965636	394.67002615787044	2
114.24375028982472	110.79780364377957	2
212.801523316773	482.69426065548544	2
266.4552509113199	55.722417464169176	4
379.07095071680124	542.4075627019541	3
474.4079560961246	136.74790970271715	4
42.97138464833252	187.5462589627304	4
379.2676336318714	405.7884168155041	5
85.87492050905898	246.18248961378674	2
281.02031069519336	109.11368654341999	2
237.9600089485087	434.07239575319284	2
317.48828125	321.25	3
288.54536525711114	364.40297691373024	3
333.88928184075695	23.042527339003644	2
248.42768181981768	137.9636695018226	2
351.6360203317318	118.8275212636695	3
400.12111343678635	80.8052247873633	2
94.62999757071907	26.146780072904008	2
29.45029229075466	160.45407047387607	2
124.70012553840881	252.7805589307412	3
97.32031665104401	75.64884568651276	2
378.8700818512266	261.801822600243	2
455.1816414097109	540.687667071689	3
300.7421875	176.0	2
287.2421875	150.5	2
521.7421875	118.0	2
155.7421875	335.5	2
486.3125	59.0	1
501.3125	89.0	1
547.3125	122.0	1
263.3125	8.0	1
307.3125	45.0	1
335.3125	156.0	1
160.3125	64.0	1
342.3125	352.0	1
336.3125	203.0	1
168.3125	294.0	1
71.3125	310.0	1
437.3125	50.0	1
139.3125	37.0	1
437.171875	143.0	1
530.171875	416.0	1
423.171875	429.0	1
588.171875	463.0	1
501.171875	453.0	1
69.54968460244858	56.31688942891859	1
11.024295099559621	204.28675577156744	1
119.2410530482977	281.58444714459296	1
198.7472425616563	286.0014580801944	1
244.02160047898548	392.0097205346294	1
260.5853899609352	494.7052247873633	1
482.54016901906124	335.6928311057108	1
492.47844270823106	305.87800729040094	1
366.5936426454133	375.44592952612396	1
109.234375	310.0	1
341.234375	401.0	1
364.234375	229.0	1
392.58258792206914	452.0227727342668	1
419.85078247207855	108.02400369287584	1
