366.2282319307455	8.931049741879741	3
101.64118007433436	12.073390036452004	2
308.3888011784875	144.2764277035237	2
109.7734375	408.5	2
226.09419086408616	50.897178399886485	4
568.9420757704042	65.84750997937158	3
153.21993400057636	272.4532482355716	3
73.61910514789692	90.82109365928534	4
303.7401981052479	362.67053847920585	5
120.11287643374607	368.6807411907655	4
418.9093667595032	304.57509206858003	5
86.87892589077724	145.38821385176186	3
455.3737275311962	311.25176184690156	2
422.7056854171165	124.3902794653706	2
567.003470480103	31.676540074577584	4
211.7580910719891	485.23451330482504	5
239.21520354122907	180.9568043742406	3
473.341970628571	267.6926164008207	3
250.48139745471317	520.9862725292834	5
60.25177737345148	365.9332842184686	4
404.85986543044453	443.670960899913	5
212.7614982743517	371.2051032806804	3
478.5861418231632	391.5832633071583	5
56.399157465867376	119.68450789793438	3
441.5372972935963	178.6143061748646	4
505.2223100646868	27.826306196840825	4
448.3705841373678	396.2082633071583	5
277.9970982822039	393.9503037667072	3
559.7061228509721	129.34683930041228	4
314.71143512940625	395.08061968408265	3
184.11099222783466	403.07940461725394	4
219.56231694509336	163.26682867557716	2
556.2438848398775	207.16538643349588	5
453.67972339906663	282.025385706502	4
89.94667720684222	393.97636695018224	3
516.7406749147707	455.13244228432563	2
146.2734375	345.0	2
284.39840117325275	439.7984204131227	2
307.83111933924374	198.82168894289185	3
472.3622467093626	159.53832331554446	3
377.1240664252139	38.173552526679366	3
433.05231935494817	507.8433171324423	3
511.0842959665757	189.5699878493317	2
412.2365485725316	28.146780072904008	2
277.04009579640547	217.1472736821371	4
542.2783193680352	441.22739975698664	3
248.31334853065312	330.0336573511543	2
230.67030271901393	116.66061771573142	3
67.2427785176724	327.74076549210207	3
184.58385616550683	336.9232077764277	3
346.1912035543161	349.8817132442284	3
442.9537048834681	484.1396111786148	3
472.3125	472.0	1
574.4484099350715	243.55921105426603	3
266.9287869930458	295.965957508478	2
521.0143703111606	308.54325637910085	2
156.203125	442.0	2
505.4644825226844	372.08273673226864	2
318.7652121883807	538.6870090722008	2
104.62299389039936	335.84641555285543	2
209.50846793070087	13.481870950048712	2
22.369899133720054	43.13718104495747	2
20.161393869460092	255.7805589307412	2
21.713520185525084	105.52539489671932	2
365.7752075931422	287.1318512506884	2
463.96752123794226	58.15222747166749	2
602.4499312455616	267.29799136256923	1
463.7631674758845	363.3119040027825	1
429.38781577228923	460.51117358917134	1
67.171875	412.0	1
272.171875	39.0	1
34.61044958873991	195.4527339003645	1
109.69962857357858	77.29769137302551	1
145.03571280173796	26.50206561360875	1
36.81895485299987	378.758687727825	1
139.51444964108805	245.14410692588092	1
442.07967084470266	18.772296476306195	1
247.7312075898261	112.63377885783719	1
312.88211288549496	239.6228432563791	1
319.50762867827484	106.008262454435	1
381.34577607755375	113.73803159173754	1
418.8903655699731	256.18663426488456	1
350.4267023779143	383.1756986634265	1
364.78198659560405	447.2223572296476	1
537.045397207881	57.42114216281895	1
529.3156287829711	337.9013365735115	1
500.60506034759163	287.1057108140948	1
569.0687235396504	443.9095990279465	1
339.3841760566145	257.2908869987849	1
190.234375	454.0	1
255.234375	418.0	1
493.234375	545.0	1
580.234375	297.0	1
422.234375	222.0	1
408.234375	605.0	1
547.3125	368.0	1
391.3125	392.0	1
353.3125	419.0	1
219.3125	401.0	1
527.3125	499.0	1
473.3125	513.0	1
572.3125	491.0	1
372.3125	479.0	1
305.3125	481.0	1
345.3125	561.0	1
424.3125	555.0	1
