93.25634056126205	206.09775212636694	3
184.42578125	247.75	3
530.2491616680327	153.82065613608748	3
254.17578125	234.0	3
148.8616247789518	144.41427703523692	3
179.26320372976417	126.4712029161604	3
473.44270557534287	177.22223572296477	4
475.4480213655054	51.751032806804375	4
300.1650678079686	225.15545261239367	5
349.814453125	184.375	4
264.82421081342875	165.60735115431348	4
390.5922213550357	380.96573511543136	4
279.314453125	306.5	4
135.87375816559435	189.15999392466586	4
524.7891362564351	48.73002733900364	5
408.40144150499066	468.49866342648846	5
498.92247400025275	372.7832928311057	4
485.2208046734928	460.21728432563793	5
585.17578125	104.25	3
511.078125	496.5	2
434.7421695513355	300.43812272174966	4
571.578125	176.0	2
541.689453125	364.5	4
573.7729582205599	44.318590522478736	4
366.78957924619084	270.1822904009721	4
296.49983532317617	368.10085054678007	3
293.25185292227366	96.3196233292831	4
347.890625	126.75	3
285.9912213419487	143.6068347509113	4
452.578125	382.5	2
145.939453125	231.25	4
250.55294765277887	359.11628189550424	4
409.890625	100.0	3
508.578125	138.0	2
588.078125	428.5	2
226.80952569388893	316.4229495747266	5
308.7344037454686	296.01099635479954	3
239.90872043224635	73.74117557715674	5
541.3062167609751	445.4547995139733	3
91.5146342475241	174.50671324422842	4
415.9470640974362	24.042527339003644	2
265.3057587965326	98.24349939246659	2
493.69356247198556	276.1879708383961	3
298.546875	11.0	2
565.64453125	542.75	3
191.39453125	340.75	3
531.046875	531.5	2
440.046875	138.0	2
105.046875	19.5	2
570.546875	415.5	2
327.1171875	447.5	2
462.6171875	406.0	2
369.921875	405.0	1
255.921875	403.0	1
188.921875	370.0	1
577.921875	391.0	1
469.921875	493.0	1
605.921875	530.0	1
304.921875	269.0	1
251.921875	257.0	1
157.921875	258.0	1
554.921875	224.0	1
469.921875	132.0	1
467.921875	83.0	1
583.921875	81.0	1
418.921875	71.0	1
382.921875	105.0	1
612.921875	94.0	1
373.921875	22.0	1
298.921875	73.0	1
272.921875	57.0	1
284.921875	30.0	1
247.921875	25.0	1
53.921875	92.0	1
88.921875	103.0	1
586.921875	361.0	1
576.921875	507.0	1
494.921875	527.0	1
450.921875	29.0	1
91.921875	31.0	1
221.921875	55.0	1
183.921875	61.0	1
170.921875	48.0	1
319.921875	21.0	1
184.921875	35.0	1
338.921875	420.0	1
595.921875	52.0	1
312.921875	55.0	1
472.921875	220.0	1
12.171875	157.0	1
369.90640054180324	331.27582017010934	1
451.234375	337.0	1
178.234375	289.0	1
