465.09231345249077	468.1537059538275	2
362.884213974609	366.73147417810054	5
476.4957810542057	219.831652490887	4
210.37023082360804	525.3227825030376	3
173.8932317723303	546.6753190742309	2
505.82554569870047	270.03159173754557	2
519.1788846979275	400.5271359440849	4
336.9218769068219	291.3241190765492	3
534.2584758056502	371.6293438639125	4
197.54254825230822	584.8876063183475	2
511.703125	217.5	2
278.7421875	627.0	2
578.93149651611	550.8775580858594	3
425.2734375	268.5	2
158.3125	342.0	1
309.3125	257.0	1
197.3125	300.0	1
257.3125	289.0	1
558.234375	334.0	1
443.171875	422.0	1
542.171875	264.0	1
288.171875	421.0	1
246.23010574324545	568.6901579586877	1
372.1149058060632	495.80947752126366	1
560.9421059002899	520.1030376670718	1
44.15187406345903	445.0138517618469	1
13.232800363819582	458.26488456865127	1
66.23692670605864	557.647630619684	1
291.50446366057463	461.57764277035244	1
177.76644255118666	442.80534629404616	1
