25.275727158624683	318.0123936816525	2
451.8964851597109	361.0453219927096	2
7.210441752126826	27.148736300603893	2
95.11181138678405	335.84641555285543	2
505.911625228139	517.8684377357979	4
396.2636635328515	255.6978276297848	4
512.3155588593504	468.5494532199271	2
233.1621433371564	345.64228688578396	4
347.7087444898736	323.284642688276	2
598.4335378284845	372.61871202916166	2
334.4532116007195	455.5240239010112	3
391.861653720034	455.91977116711087	3
543.0622502334439	411.72076223118245	4
30.932106106819653	225.18590522478735	2
563.8469804427323	515.8303575725361	3
373.7145045970384	202.13843696053976	3
313.83868473402424	291.0036484944584	4
188.38616930411325	133.41154313487243	2
15.30659031403977	118.97326852976914	2
269.1469427024806	354.6793858403479	4
361.77850619057665	484.2792223572296	2
80.38204296187419	77.49246658566221	2
455.4492221519689	451.6979038402196	4
278.76477985357246	164.9753341433779	2
87.8511798064591	247.51992709599028	2
438.40862884748867	494.0040143758914	3
253.9307587965326	108.81688942891859	2
257.91107691466533	274.6307313800045	2
564.4058136586384	362.4544322032491	2
312.8755576989647	480.33974457608866	1
94.171875	22.0	1
248.171875	414.0	1
448.30833742303184	124.7805589307412	1
411.8680005627425	155.69963547995138	1
415.18075845913245	186.6187120291616	1
465.97637953711154	333.4843256379101	1
600.6952006569692	356.67363304981774	1
602.9037059212291	417.40753341433776	1
473.7061479620214	469.3074119076549	1
412.97225319487245	495.80947752126366	1
388.67869528801293	352.25662211421627	1
325.736295256604	194.34848116646415	1
340.0915794742938	114.8422843256379	1
311.38101103891427	166.74216281895505	1
211.99827414721605	436.179829890644	1
245.12585311111545	464.89040097205344	1
151.26437938006714	415.19902794653706	1
122.55381094468764	390.905467800729	1
150.16012674793714	353.3608748481166	1
192.1217267688764	347.8396111786148	1
191.01747413674642	308.0865127582017	1
140.22185305876732	207.59951397326853	1
86.11347408439829	102.6955042527339	1
134.7005898981174	183.3059538274605	1
347.9728074284703	252.68441064638782	1
242.78290977401412	227.5303064191456	1
250.7864889433749	184.08230820845446	1
131.87616985572885	373.88145828673674	1
262.2201734710332	393.3187206441512	1
142.1664859306213	16.00715723551778	1
265.0024004894551	142.44860267314704	1
168.9324214941468	107.11251518833535	1
225.2493057327758	133.6145808019441	1
