590.0481519813454	331.74863981784654	4
314.6378594081397	126.41636305576127	5
587.7233121098511	575.6212348352686	4
482.6492280798125	308.6548053331693	5
232.910712709719	189.66447676687153	5
454.0282434109763	280.4695050103044	4
573.1837414393224	185.1404886035369	5
406.4706411892877	126.82561685113909	5
554.5086858052837	448.13357363419027	4
603.0044731880337	384.84628221614435	4
512.5422402673721	135.32748259990274	3
521.7715003116562	181.27072978747827	5
375.89703673589963	276.1127958652205	5
213.28782228659884	132.52239860670218	5
357.4727019386097	130.60128802879666	3
391.70717580909024	196.79388306678456	4
514.591016980834	325.271746583314	3
481.397261892253	43.773119752323794	5
409.4634336922577	323.6497468836686	5
459.7173092772717	151.00929033946153	4
598.7625558082837	39.423424727273684	4
365.1754016876903	221.4812251422174	4
279.4194076656665	387.2679243857874	2
573.7228361763712	524.5961856899379	5
306.42129621231754	359.07642963858166	3
208.09297385701103	218.36576549210207	4
190.57942648521492	189.46126974483596	4
370.25399494022497	457.88842648845684	4
430.6281423198733	184.97670109356014	4
306.51256334943037	252.4787667071689	4
576.4604581362098	10.180042527339003	4
501.74216938263544	243.07205346294046	2
454.67358896198544	336.50139732685295	3
488.7054837029603	470.655042527339	3
569.3301423460474	65.29116038882138	4
327.94480052086396	236.310085054678	2
528.9187795685204	19.32442284325638	2
497.99970586888094	5.521263669501822	2
502.89066229805064	394.7157958687728	3
592.5000728579795	496.5289185905225	3
602.1602292766795	523.1557715674362	2
287.3676516910085	284.34471445929523	3
548.7953269468601	517.3424058323208	2
465.5401871364258	103.45200486026732	2
483.00931492232843	424.60297691373023	3
262.15745024472756	132.75516403402187	2
446.09983215877185	38.096719319562574	2
158.74554637963524	115.43383961117861	3
335.99353447288695	278.7400972053463	2
524.3125	476.0	1
498.3125	198.0	1
568.6718743251997	110.42527339003645	1
386.47019002375293	12.14678007290401	1
246.23010574324545	13.251032806804375	1
464.87212690498154	394.21822600243013	1
394.1999584486628	422.9287970838396	1
363.28088474902336	400.8437424058323	1
482.54016901906124	363.2991494532199	1
444.9955795266419	411.88626974483594	1
410.7637479306125	496.913730255164	1
425.11903214830227	525.6243013365735	1
401.9297268735727	511.26901579586877	1
465.97637953711154	518.9987849331714	1
555.42084273964	595.1922235722965	1
558.7336006360299	369.9246658566221	1
541.0655585219502	394.21822600243013	1
456.0381058479417	198.76549210206562	1
283.77469523566475	435.07557715674363	1
151.26437938006714	100.48699878493316	1
478.1231584905413	556.5433778857837	1
271.627916282235	7.729769137302552	1
411.8680005627425	3.3127582017010937	1
527.8145269363904	50.795625759416765	1
504.6252216616609	69.56792223572296	1
586.3399164392794	162.32515188335358	1
533.3357900970403	556.5433778857837	1
