158.6598211112769	285.7365783819064	3
480.4717775697035	530.8405139252193	2
220.77448553005672	311.19377450255456	5
252.8593200354601	60.57193721924132	4
362.1095704834629	470.73376914048094	5
434.82345090660806	302.06287564663194	4
42.32813399030002	182.4902000251651	4
507.36869004672087	363.1518857630588	5
359.53710365207155	280.0829659745765	3
271.42376955939847	379.81871249656695	5
609.0244303859467	237.68785230441097	2
210.12393162829443	400.0222675158736	5
108.09340398849895	175.16309234507898	4
97.67956270284904	280.1879708383961	3
83.33920316006916	185.20510328068042	3
28.819561863949634	199.63274605103283	4
194.7301772005032	27.69890643985419	2
117.11466714914886	212.11251518833535	4
519.7734375	330.0	2
270.2734375	452.0	2
548.2421875	395.5	2
474.171875	423.0	1
346.234375	314.0	1
426.234375	339.0	1
105.234375	242.0	1
130.234375	147.0	1
173.234375	400.0	1
121.44955831255766	75.08918590522478	1
454.4604140163213	438.38867518079707	1
