264.1125363062988	55.579222357229646	3
142.46952576469184	32.479769137302554	3
575.9623468714624	348.7620291616039	3
265.4045646991332	126.81379100850546	4
535.22265625	309.5	3
170.82825943094707	131.69410692588093	4
237.22265625	288.75	3
348.5933363167684	276.91154313487243	3
344.5412100007034	426.7843256379101	3
257.97743838306815	98.1989064398542	4
549.7421875	551.5	2
406.97265625	42.0	3
119.21045942702096	112.5922539489672	4
160.7421875	52.0	2
203.97265625	209.5	3
289.7421875	422.0	2
317.1073870997821	447.6111786148238	2
466.2089386342779	426.5343256379101	3
246.97024386974635	79.15261239368165	3
562.1794292662099	605.6695018226003	2
216.259639705738	68.7318347509113	2
343.25416605321186	358.3889428918591	2
521.2734375	128.0	2
567.7734375	103.5	2
348.0919912507034	454.618347509113	3
574.2734375	263.5	2
482.2734375	336.0	2
464.7734375	490.0	2
578.2734375	419.0	2
489.234375	201.0	1
573.234375	75.0	1
509.234375	263.0	1
454.234375	244.0	1
496.234375	156.0	1
467.234375	359.0	1
508.234375	498.0	1
370.3125	373.0	1
249.3125	253.0	1
222.3125	186.0	1
599.3125	320.0	1
521.3125	396.0	1
141.3125	143.0	1
143.3125	185.0	1
192.3125	174.0	1
448.3125	406.0	1
386.3125	436.0	1
409.3125	350.0	1
500.3125	522.0	1
525.3125	549.0	1
593.3125	598.0	1
425.3125	548.0	1
390.3125	530.0	1
438.3125	512.0	1
482.3125	558.0	1
449.3125	586.0	1
512.3125	591.0	1
512.3125	634.0	1
376.3125	155.0	1
357.3125	168.0	1
344.3125	248.0	1
401.3125	234.0	1
398.3125	172.0	1
450.3125	174.0	1
439.3125	125.0	1
462.3125	100.0	1
514.3125	91.0	1
168.171875	8.0	1
239.171875	33.0	1
594.171875	192.0	1
477.171875	626.0	1
