504.3174792670349	259.7144603681315
529.3167304785183	263.8810025130748
437.6528093697461	322.2125925422808
552.9271344004746	304.1575765808599
445.9858931069072	216.66019153705088
425.15318376400444	166.66168579773145
419.59779460589704	222.21558106364193
344.60004097144713	280.5471710928479
382.09891778867205	354.15608232017934
364.043903024823	177.77246485091354
264.0468981788898	169.43938056102698
244.6030361255139	179.1613122325613
282.10191294273886	162.49514365278816
301.54577499611474	144.44012769136725
247.3807307045676	83.33084289886573
418.2089473163702	268.04754465801807
459.8743660021757	419.4319092576241
458.48551871264885	440.26461998234055
557.0936762690552	254.15907084154045
550.149439821421	104.16355362358216
523.7613413204108	55.553895265910484
532.0944250575719	33.33233715954629
519.5947994518302	93.05277457040006
429.319725632585	95.83046933369558
418.2089473163702	454.1530937988182
359.8773611562425	306.9352713441552
362.6550557352962	288.8802553827345
319.60078975996385	294.43564490932556
389.0431542363062	419.43190925762434
589.0371639281727	505.5404469197854
572.3709964538506	476.37465190518236
290.43499667989994	80.5531481355702
308.49001144374904	76.38660599062692
