594.171875	23
607.171875	65
559.171875	42
532.171875	25
345.171875	68
167.171875	116
442.171875	204
421.171875	166
413.171875	219
472.171875	250
341.171875	281
266.171875	239
266.171875	205
230.171875	247
309.171875	395
388.171875	416
411.171875	457
461.171875	423
508.171875	418
579.171875	474
596.171875	510
498.171875	494
537.171875	512
297.171875	143
543.171875	99
282.171875	315
