583.6303725352819	202.97557758603003
518.8104697647454	145.69319884193024
478.1096005832458	114.03714743071721
405.7524998161353	22.083855236241263
318.32100305587676	58.26219970619901
258.02341908328464	41.68045849080171
312.29124465861753	14.546700138333398
562.5262181448747	269.30254244761926
310.7838050593027	213.52759472310103
232.396945894933	219.55731880142733
248.97878148739582	186.39383637063273
395.20042262093165	121.57430252862508
387.66322462435767	296.43630080008757
374.09626823052446	389.8970240141451
298.7242882647843	275.33226652594556
398.21530181956126	205.99043962519318
268.5754962784883	148.7080608810934
193.20351631274815	68.81421684327003
598.70476852843	445.6719717386633
467.55752338804217	427.5827995036844
523.3327885626899	427.5827995036844
600.2122081277448	578.3259014618417
524.8402281620047	543.6549880114655
383.14090582641325	448.68683377782645
300.2317278640991	373.3152827987478
343.94747624422837	343.16666240711635
493.18399657639384	382.35986891623725
375.60370782983927	147.20062986151183
556.4964597476155	115.54457845029879
607.7494061243189	94.44054417615676
286.6647714702659	43.187889510383286
233.9043854942478	132.1263196656961
405.7524998161353	338.6443693483716
487.1542381791346	501.4469194631815
340.93259704559875	109.5148543719725
