471.24084143171166	114.31666410216957
502.7041428355687	122.70687798122789
405.16790848361194	26.21941837205724
381.04604407398824	298.9013694414526
483.8261619932545	384.9010617018003
563.5331922163589	266.38929066010155
365.3143933720597	352.38898292044934
373.7046070797549	390.14494537621175
375.8021605066787	443.6325588552085
467.0457345778641	423.70580089244504
519.4845702509591	422.6570241575627
