289.171875	47
322.171875	61
381.171875	149
319.171875	78
248.171875	40
198.171875	30
226.171875	71
198.171875	71
394.171875	126
363.171875	167
410.171875	163
477.171875	110
522.171875	146
502.171875	121
607.171875	94
578.171875	206
188.171875	186
230.171875	220
182.171875	233
290.171875	270
386.171875	299
342.171875	340
371.171875	386
296.171875	374
381.171875	444
484.171875	383
516.171875	392
520.171875	422
487.171875	425
542.171875	494
603.171875	566
522.171875	598
515.171875	544
427.171875	579
245.171875	344
