483.64442165119124	388.6969623329283
460.45511637646166	426.2415552855407
380.94892686310305	442.80534629404616
371.01065317393324	384.27995139732684
378.74042159884306	293.73122721749695
518.9805058793506	546.6051032806804
495.791200604621	512.3732685297691
520.0847585114806	432.8670716889429
515.6677479829607	400.8437424058323
493.58269534036106	447.2223572296476
490.26993744397123	427.345808019441
559.8378532681598	273.8546780072904
575.2973901179796	212.01652490887
551.00383221112	184.41020656136087
515.6677479829607	149.0741190765492
504.6252216616609	125.88481166464156
473.7061479620214	114.8422843256379
554.3165901075099	117.05078979343864
602.9037059212291	98.27849331713244
322.4235373602141	56.31688942891859
320.21503209595414	82.81895504252734
288.1917057641847	45.274362089914945
309.1725057746543	12.14678007290401
411.8680005627425	23.189307411907656
253.9598741681553	35.336087484811664
199.85149519378626	66.25516403402187
209.78976888295608	104.90400972053463
267.21090575371505	146.86561360874848
252.85562153602532	188.82721749696233
230.77056889342572	220.8505467800729
203.1642530901762	182.20170109356013
187.70471624035648	241.83134872417983
298.1299794533545	270.5419198055893
401.9297268735727	209.80801944106926
386.47019002375293	140.2400972053463
359.9681268526334	174.4719319562576
345.61284263494366	340.1098420413123
246.23010574324545	342.318347509113
295.92147418909457	377.65443499392467
397.51271634505275	541.0838396111786
428.4317900446922	574.2114216281896
426.22328478043227	542.188092345079
477.01890585841136	542.188092345079
323.5277899923441	373.2374240583232
602.9037059212291	567.5859052247873
530.0230322006504	592.9837181044958
597.3824427605792	443.9095990279465
