515.7955905661158	234.63162899724307
570.0634161414488	101.97769927406463
595.6898893298004	83.88852703908576
378.6185870284688	144.18576782234868
399.72274141887607	175.84181923356172
138.93569073741526	50.72504460829115
342.44003664491356	70.3216478628516
600.2122081277448	204.4830086056116
530.8699865592639	121.57430252862508
212.80023110384056	175.84181923356172
147.98032833330407	187.9012673902143
81.65298596345276	141.17090578318553
160.03984512782247	95.94797519573834
27.385160388119868	136.64861272444082
315.30612385724714	204.4830086056116
285.1573318709511	213.52759472310106
440.42361060037575	255.73566327138508
478.1096005832458	245.18364613431407
491.67655697707903	328.0923522113006
577.6006141380228	255.73566327138508
378.6185870284688	317.5403350742296
405.75249981613524	306.98831793715857
475.0947213846162	389.8970240141451
203.75559350795174	218.04988778184577
545.9443825524119	328.0923522113006
604.7345269256892	347.68895546586106
453.99056699420896	215.03502574268262
280.6350130730067	44.69532052996486
164.5621639257669	237.64649103640622
426.85665420654254	343.16666240711635
542.9295033537824	400.4490411512161
205.26303310726655	28.113579314567556
101.24970075454519	38.665596451638564
215.81511030247017	257.24309429096667
244.4564626894514	267.79511142803767
108.7868987511192	121.57430252862508
172.0993619223409	56.754768686617446
544.4369429530971	175.84181923356172
349.9772346414876	356.7335415833505
603.2270873263744	394.4193170728898
