449.3125	60
474.3125	106
476.3125	153
599.3125	255
584.3125	355
534.3125	371
539.3125	398
521.3125	395
464.3125	380
467.3125	410
442.3125	401
452.3125	440
360.3125	407
381.3125	338
464.3125	263
431.3125	260
444.3125	228
430.3125	203
303.3125	32
217.3125	48
171.3125	29
112.3125	56
129.3125	93
135.3125	127
86.3125	105
89.3125	184
62.3125	179
38.3125	138
23.3125	87
40.3125	61
108.3125	22
85.3125	38
264.3125	171
224.3125	193
184.3125	223
199.3125	243
338.3125	261
313.3125	291
214.3125	339
249.3125	345
299.3125	249
249.3125	281
265.3125	296
289.3125	356
90.3125	132
387.3125	119
372.3125	137
355.3125	117
484.3125	275
404.3125	445
