385.4236109095899	266.1074321347477
350.77420419181595	293.82695631545056
406.2132549402543	322.9324567051886
465.81023449482547	303.5287897786966
323.05467881759677	324.31843291422376
232.96622135138446	218.9842410275528
296.72112971208855	243.93181279018538
474.12609210709127	102.56223946860067
540.6529530052172	131.6677398583387
565.6005258420145	202.35252651913106
481.05597345064604	284.1251228522046
497.6876886751775	277.1952418070288
384.03763464087893	440.74043447317587
350.77420419181595	458.7581251906327
298.10710598079953	393.617243365981
572.5304071855693	600.1276985122174
558.6706444984598	580.7240315857255
553.1267394236158	528.0569356423899
464.42425822611455	530.8288880604603
512.933427630998	519.7410783881791
407.59923120896525	504.4953400887925
432.5468040457625	128.8957874402684
457.4943768825597	432.424577218965
528.1791665868186	492.0215542074762
269.00160433786937	156.61531162097128
396.5114210592775	239.77388416308008
429.77485150834053	203.73850272816628
