229.3820666963034	129.11145762653294
80.14554636413796	71.82907888243318
470.5724025866718	169.81209515523543
592.6750101311708	83.88852703908576
354.499553439432	228.60190491891677
328.87308025108035	169.81209515523543
49.9967543778419	7.009545040425533
262.54573788122906	210.51273268393788
580.6154933366523	260.2579563301298
279.1275734736919	291.91400774134286
463.0352045900978	306.98831793715857
119.33897594632282	100.47026825448306
126.87617394289683	35.65073441247542
375.60370782983927	386.88216197498195
306.2614862613583	198.45328452728532
144.96544913467446	190.91612942937743
346.962355442858	117.05200946988036
383.14090582641325	340.1518003679532
523.3327885626899	367.2855587204215
