289.3125	308
250.3125	291
587.3125	247
525.3125	162
596.3125	64
212.3125	97
148.3125	117
169.3125	30
239.3125	23
276.3125	93
261.3125	152
209.3125	161
257.3125	228
461.3125	238
450.3125	281
539.3125	297
599.3125	585
574.3125	544
572.3125	503
480.3125	475
470.3125	570
449.3125	429
363.3125	263
384.3125	199
409.3125	180
428.3125	304
407.3125	327
305.3125	340
161.3125	185
501.3125	133
