140.31901406218634	5.243883674411448
155.00188805065295	94.38990613940607
215.8309374314432	96.48745960917064
155.00188805065295	117.46299430681644
235.7576949872193	23.073088167410372
545.14682545848	106.97522695799354
595.4881077046513	61.877827358055086
566.122359727718	42.99984613017388
394.1229787199663	197.17002615787044
459.14713495460416	246.46253269733808
438.1716006853661	532.7785813202031
440.2691541122899	439.43745191567933
593.3905542777275	250.65763963686723
595.4881077046513	200.31635636251733
448.65936781998516	161.51161717187262
411.9521828488186	182.48715186951839
340.63536633340937	457.2666564086783
218.9772675718289	316.73057393445146
188.5627428814338	238.07231881827974
213.7333840045194	153.12140329281428
204.29439358336228	196.12124942298817
244.14790869491452	289.46237882751194
202.1968401564385	173.04816125557778
365.80600745649497	266.38929066010155
500.0494267796183	101.73134328358209
519.9761843353944	22.024311432528084
289.24530737377626	125.85320818587476
