453.8296005836817	288.20996354799513
399.7212216093127	202.0782503037667
371.01065317393324	198.76549210206562
417.3892637233924	182.20170109356013
449.41259005516184	430.65856622114217
284.87894786779475	351.1523693803159
459.35086374433166	248.456865127582
410.7637479306125	104.90400972053463
493.58269534036106	131.40607533414337
478.1231584905413	157.90814094775212
591.8611795999293	249.5611178614824
548.7953269468601	102.6955042527339
517.8762532472206	120.36354799513973
439.474316365992	526.7285540704738
