245.19668540837642	22.024311432528084
278.7575402391572	65.02415756270196
278.7575402391572	33.56085551623327
311.26961835647614	6.292660409293738
292.39163751416197	22.024311432528084
417.19606641612813	26.21941837205724
392.02542529304253	61.877827358055086
430.83016369113284	72.36559470687799
439.220377398828	35.658408985997845
531.5127281834752	46.146176334820744
600.7319912719607	54.53639021387906
601.7807679854226	113.26788736728729
581.8540104296466	163.60917064163718
523.1225144757801	128.99953839052162
556.6833693065608	166.75550084628406
483.26899936422785	96.48745960917064
559.8296994469466	229.68210493922143
514.7323007680849	161.51161717187262
496.90309663923256	213.95045391598708
460.19591166806606	147.87751961840283
390.9766485795806	241.21864902292663
342.7329197603332	108.02400369287584
318.6110553507095	115.36544083705186
231.56258813337172	180.38959839975382
261.97711282376684	213.95045391598708
271.41610324492393	266.38929066010155
335.39148276609984	283.1697184182182
244.14790869491452	226.53577473457457
143.46534420257206	84.95091552546546
172.83109217950528	127.95076165563934
118.29470307948644	208.70657024157563
115.14837293910074	243.3162024926912
233.6601415602955	263.2429604554547
202.1968401564385	285.26727188798276
257.7820059699192	310.43791352515774
220.0260442852908	275.8282812740422
166.53843189873388	333.51100169256813
201.1480634429766	352.38898292044934
229.4650347064479	366.0230804739191
284.00142380646673	378.6084012925066
373.1474444507283	338.7548853669796
304.9769580757048	354.48653639021387
399.3668622872758	376.510847822742
402.5131924276615	439.43745191567933
322.80616220455704	472.9983074319126
419.29361984305194	519.1444837667334
298.68429779493334	464.6080935528543
452.8544746738327	482.43729804585325
415.0985129892043	425.8033543622096
496.90309663923256	488.72995845514697
396.2205321468901	569.4857670410832
420.34239655651385	608.290506231728
567.1711364411799	587.3149715340822
538.8541651777086	555.8516694876135
536.7566117507848	485.5836282505001
576.610126862337	458.3154331435606
594.4393309911893	427.90090783197417
550.3907090257895	397.4863825203878
528.3663980430896	369.16941067856595
494.80554321230875	356.58408985997846
467.53734866229934	350.29142945068475
491.6592130719231	255.90152331127868
444.46426096613754	188.77981227881213
479.07389251038023	239.12109555316204
437.1228239719042	218.14556085551624
418.24484312959004	157.31651023234343
359.5133471757236	192.97491921834128
492.70798978538494	281.07216494845363
613.3173118335035	139.48730573934452
191.70907302181948	99.63378981381751
224.2211511391384	89.14602246499462
407.757075994971	326.1695645483921
306.0257347891667	158.36528696722573
86.83140167562942	98.58501307893522
167.58720861219578	79.70703185105401
484.31777607768976	45.097399599938456
272.46487995838584	412.1692568087398
551.4394857392514	468.8032004923835
