394.1999584486628	68.4636695018226
446.0998321587719	36.44034021871203
421.8062742519123	27.606318347509113
534.4400427291703	45.274362089914945
486.9571795475812	43.06585662211422
596.2781901284492	54.10838396111786
567.5676216930698	26.50206561360875
602.9037059212291	111.52952612393682
521.1890111436105	125.88481166464156
581.9229059107595	161.22089914945323
556.5250953717699	168.95066828675576
515.6677479829607	162.32515188335358
564.2548637966798	234.10157958687728
601.7994532890991	422.9287970838396
551.00383221112	400.8437424058323
526.7102743042605	365.5076549210207
495.791200604621	355.5693803159174
496.895453236751	485.87120291616037
571.9846322215897	587.4624544349939
462.6636216407216	512.3732685297691
419.59776898765233	520.1030376670717
401.9297268735727	574.2114216281896
324.632042624474	472.620170109356
267.21090575371505	503.53924665856624
400.8254742414427	375.44592952612396
290.40021102844463	382.07144592952613
301.44273734974445	348.9438639125152
255.0641268002853	310.2950182260024
229.66631626129575	176.6804374240583
333.4660636815139	288.20996354799513
305.8597478782644	155.69963547995138
345.61284263494366	106.008262454435
323.5277899923441	119.25929526123937
174.45368465479672	126.98906439854191
89.42623198078823	100.48699878493316
282.6704426035348	68.4636695018226
283.77469523566475	38.64884568651276
246.23010574324545	22.08505467800729
300.3384847176145	17.668043742405832
216.41528467573596	86.13171324422844
143.53461095515726	85.02746051032807
121.44955831255766	200.97399756986633
114.82404251977778	239.6228432563791
204.26850572230617	277.1674362089915
247.33435837537542	249.5611178614824
224.14505310064584	272.75042527339
167.82816886201684	333.4843256379101
235.18757942194563	261.7078979343864
231.8748215255557	358.88213851761844
202.06000045804623	353.3608748481166
379.84467423097306	335.6928311057108
399.7212216093127	242.93560145808019
424.01477951617227	156.80388821385176
365.4893900132833	193.2442284325638
262.7938952251952	213.12077764277035
447.20408479090185	481.4541919805589
580.8186532786295	447.2223572296476
542.1698111540802	485.87120291616037
544.3783164183401	559.8561360874849
408.55524266635257	443.9095990279465
