395.3042110807928	244.03985419198057
336.77882157790384	283.79295261239366
284.87894786779475	378.758687727825
230.77056889342572	361.0906439854192
199.85149519378626	356.67363304981774
231.8748215255557	178.88894289185905
170.0366741262768	336.79708383961116
319.11077946382414	115.94653705953827
346.71709526707366	108.21676792223572
395.3042110807928	64.04665856622114
282.6704426035348	66.25516403402187
88.32197934865825	100.48699878493316
523.3975164078705	128.09331713244228
583.0271585428894	165.63791008505467
556.5250953717699	165.63791008505467
600.6952006569692	110.42527339003645
562.0463585324198	230.7888213851762
524.5017690400005	367.7161603888214
499.10395850101094	488.07970838396113
454.9338532158117	484.76695018226
421.8062742519123	523.4157958687728
394.1999584486628	580.8369380315918
569.7761269573297	591.8794653705954
377.6361689667131	334.58857837181046
400.8254742414427	375.44592952612396
306.9640005103944	352.25662211421627
273.83642154649493	266.12490886998785
171.14092675840678	131.40607533414337
246.23010574324545	17.668043742405832
433.9530532053421	71.7764277035237
485.8529269154512	101.59125151883353
500.20821113314094	212.01652490887
421.8062742519123	610.6517618469015
