278.3125	38
280.3125	66
395.3125	71
518.3125	119
563.3125	232
594.3125	431
491.3125	361
530.3125	370
400.3125	374
419.3125	525
399.3125	572
305.3125	472
203.3125	351
233.3125	366
284.3125	382
167.3125	338
197.3125	283
228.3125	257
270.3125	269
177.3125	129
147.3125	90
253.3125	16
322.3125	113
230.3125	181
115.3125	240
265.3125	213
398.3125	236
336.3125	287
427.3125	20
434.3125	70
582.3125	166
499.3125	481
458.3125	514
579.3125	593
539.3125	550
410.3125	431
381.3125	329
502.3125	213
605.3125	59
307.3125	160
