426.8677707408685	200.15811459567303
491.8872825407514	230.75553338736827
531.4089465759744	263.90273707837144
584.9544268817604	277.9265540245651
317.22702535283054	112.19053556954921
243.28326683531662	63.74462248269842
345.27465789395654	79.04333187854604
503.3613140348484	340.39628405760953
484.2379282113534	312.34865016522224
466.3894347760915	323.82268221210796
457.46518805846046	247.32913523286987
407.74438491737345	290.67547852110476
428.14266312910144	247.32913523286987
387.3461067056455	246.0542427832159
365.6729361056845	216.73171644117463
327.42616445869453	211.63214664255875
303.20320908226756	275.37676912525717
277.7053613176076	322.547789762454
295.5538547528696	353.14520855414924
270.0560069882096	290.67547852110476
248.38283638824853	290.67547852110476
254.75729832941363	226.93085603840638
29.101345612172814	133.8637072136667
588.7791040464593	331.47203691003176
560.7314715053334	331.47203691003176
494.4370673172174	444.937464929235
386.0712143174125	65.0195149323524
361.84825894098554	39.52166593927302
