342.7329197603332	30.4145253115864
335.39148276609984	65.02415756270196
424.5375034103614	140.53608247422682
463.3422418084517	109.07278042775812
359.5133471757236	63.97538082781967
250.44056897568592	49.29250653946761
218.9772675718289	12.585320818587476
267.2209963910763	25.170641637174953
244.14790869491452	6.292660409293738
127.73369350064354	41.95106939529158
103.61182909101983	5.243883674411448
242.0503552679907	82.85336205570088
309.17206492955233	167.80427758116633
251.48934568914783	175.14571472534237
166.53843189873388	140.53608247422682
139.27023734872446	94.38990613940607
152.90433462372917	199.26757962763503
84.73384824870561	251.70641637174953
393.0742020065044	276.87705800892445
361.6109006026474	232.8284351438683
366.8547841699569	340.8524388367441
496.90309663923256	135.29219879981537
548.2931555988657	188.77981227881213
525.2200679027039	218.14556085551624
589.1954474238798	252.7551931066318
516.8298541950087	277.9258347438068
545.14682545848	364.97430373903677
407.757075994971	321.9744576088629
467.53734866229934	304.145253115864
510.53719391423726	390.14494537621175
256.7332292564573	277.9258347438068
333.2939293391761	401.6814894599169
324.90371563148085	431.047238036621
372.0986677372664	364.97430373903677
329.09882248532847	310.43791352515774
290.29408408723816	285.26727188798276
302.87940464878096	314.63302046468687
286.09897723339054	378.6084012925066
275.61121009877155	403.7790429296815
196.95295658912897	391.193722111094
191.70907302181948	213.95045391598708
533.610281610399	440.48622865056166
591.2930008508037	147.87751961840283
471.73245551614696	377.55962455762426
438.1716006853661	401.6814894599169
381.5376581584235	429.99846130173876
415.0985129892043	492.92506539467615
586.0491172834941	541.1687951992615
583.9515638565704	500.26650253885214
558.7809227334847	536.9736882597323
532.5615048969372	565.2906601015541
363.7084540295712	467.7544237575012
378.39132801803777	512.8518233574397
277.70876352569536	482.43729804585325
293.4404142276238	425.8033543622096
226.3187045660622	445.7301123249731
166.53843189873388	392.24249884597634
148.70922776988155	335.60855516233266
155.00188805065295	310.43791352515774
171.78231546604337	267.4380673949839
132.97757706795304	218.14556085551624
212.6846072910575	248.56008616710264
249.39179226222402	252.7551931066318
252.53812240260973	225.48699799969228
186.46518945450998	372.3157408832128
226.3187045660622	368.1206339436837
93.12406195640082	84.95091552546546
496.90309663923256	353.4377596553316
433.97649383151855	453.07154946914915
445.51303767959945	486.6324049853824
450.7569212469089	548.5102323434375
452.8544746738327	506.5591629481459
511.58597062769917	512.8518233574397
487.4641062180755	493.9738421295584
475.9275623699946	446.7788890598554
420.34239655651385	343.99876904139103
297.63552108147144	246.46253269733808
331.1963759122523	246.46253269733808
229.4650347064479	241.21864902292663
211.63583057759558	212.9016771811048
268.2697731045382	368.1206339436837
160.24577161796248	160.46284043699032
521.0249610488563	340.8524388367441
350.07435675456645	353.4377596553316
273.51365667184774	343.99876904139103
169.68476203911956	347.1450992460379
398.3180855738139	166.75550084628406
312.31839506993805	141.5848592091091
268.2697731045382	74.46314817664256
119.34347979294834	71.31681797199569
44.88033313715339	68.17048776734883
55.3681002717724	115.36544083705186
56.4168769852343	87.04846899523004
43.831556423691495	194.02369595322358
59.563207125619996	293.65748576704124
37.53889614292009	147.87751961840283
17.612138587143978	9.438990613940607
35.44134271599629	36.70718572088014
64.8070906929295	52.43883674411448
58.514430412158106	142.63363594399138
