420.171875	140
310.171875	139
311.171875	170
238.171875	80
262.171875	24
221.171875	8
338.171875	34
332.171875	65
458.171875	102
516.171875	136
549.171875	188
521.171875	215
519.171875	275
509.171875	333
502.171875	359
552.171875	364
508.171875	394
555.171875	474
536.171875	440
132.171875	45
40.171875	34
49.171875	67
55.171875	95
45.171875	143
190.171875	210
226.171875	240
154.171875	307
253.171875	271
87.171875	255
38.171875	230
193.171875	307
391.171875	275
475.171875	300
411.171875	321
324.171875	309
333.171875	403
385.171875	426
330.171875	434
273.171875	408
271.171875	342
472.171875	521
458.171875	471
416.171875	489
72.171875	153
157.171875	200
167.171875	150
252.171875	171
93.171875	81
364.171875	357
440.171875	394
441.171875	445
268.171875	371
222.171875	361
200.171875	386
589.171875	478
584.171875	538
