396.70786222024645	199.96071554686688
591.167570531856	237.64649103640622
460.0203253914682	270.8099734672008
517.3030301654306	233.12419797766148
597.1973289291152	166.79723311607228
518.8104697647454	67.30678582368846
604.7345269256892	325.07749017213746
395.20042262093165	246.69107715389563
440.42361060037575	252.72080123222193
362.036751436006	189.40869840979587
380.12602662778363	132.1263196656961
173.6068015216557	41.68045849080171
300.2317278640991	233.12419797766148
491.67655697707903	317.5403350742296
567.0485369428192	383.8672999358188
420.8268958092833	276.8396975455271
503.73607377159743	376.33014483791095
291.1870902682103	196.94585350770373
481.1244797818754	349.1963864854426
419.3194562099685	326.584921191719
