105.71816463333771	100.23785329486557
435.6677762442362	18.794597492787293
87.96771084414381	243.28562310107998
106.76230897387853	208.82886103096993
166.27853638470515	271.4775193402609
145.3956495738888	216.13787116705387
115.11546369820508	259.99193198355755
221.61818643336852	188.9901192330278
281.13441384419514	187.94597492787295
242.50107324418488	246.41805601654454
214.3091760495828	379.0243827712104
449.2416526712669	172.2838103505502
421.04975547666476	187.94597492787295
413.7407450928791	288.1838282227385
290.5317129090625	314.28743585160976
338.56235257394013	410.3487119258559
359.4452393847565	552.3523374269155
411.6524564117974	486.57124620215995
