219.7280425721259	36.44034021871203
97.1560004056981	101.59125151883353
200.95574782591623	129.19756986634266
277.1491794428849	62.94240583232078
301.44273734974445	102.6955042527339
274.94067417862493	191.03572296476307
220.8322952042559	188.82721749696233
245.12585311111545	236.310085054678
269.41941101797505	265.0206561360875
238.50033731833557	274.9589307411908
197.6429899295263	261.7078979343864
164.5154109656269	273.8546780072904
109.30277935912787	206.49526123936818
92.73898987717817	249.5611178614824
71.75818986670853	223.05905224787364
150.16012674793714	220.8505467800729
162.30690570136693	335.6928311057108
298.1299794533545	316.92053462940464
361.0723794847634	322.44179829890646
415.18075845913245	278.27168894289184
427.3275374125622	219.74629404617255
443.8913268945119	172.26342648845687
372.1149058060632	136.9273390036452
363.28088474902336	38.64884568651276
480.3316637548013	81.71470230862697
513.4592427187007	129.19756986634266
497.99970586888094	181.09744835965978
500.20821113314094	238.51859052247875
533.3357900970403	337.9013365735115
536.6485479934303	300.3567436208991
511.25073745444075	297.04398541919807
534.4400427291703	231.89307411907654
533.3357900970403	265.0206561360875
558.7336006360299	278.27168894289184
570.8803795894597	311.39927095990276
594.0696848641893	368.82041312272173
598.4866953927092	287.1057108140948
604.0079585533591	198.76549210206562
598.4866953927092	506.8520048602673
571.9846322215897	564.2731470230863
610.633474346139	591.8794653705954
469.2891374335015	553.2306196840826
453.8296005836817	531.1455650060753
410.7637479306125	451.6393681652491
338.9873268421638	405.26075334143377
291.50446366057463	393.1139732685298
332.3618110493839	471.5159173754557
359.9681268526334	547.7093560145807
398.61696897718275	584.1496962332928
426.22328478043227	20.980801944106926
215.311032043606	372.13317132442285
225.2493057327758	400.8437424058323
