580.6140807116051	20.22551928783383
515.679520325928	79.83757613618617
381.5523955948575	8.51600812119319
415.61642727258965	47.9025456817117
430.5194411315975	96.86959237857255
466.712474789188	92.61158831797596
551.8725539835185	109.64360456036233
494.38950052734543	103.25659846946743
585.9365856612508	102.19209745431829
460.3254688496132	129.86912384819615
485.87349260791234	133.0626268936436
472.0349797388336	156.48164922692487
336.84335401783386	8.516008121193192
316.6178352091803	55.35405278775574
346.42386292719607	62.80555989379978
383.6813975747157	65.99906293924722
385.81039955457396	114.96610963610807
299.58581937031425	9.58050913634234
254.87677779329067	19.16101827268468
399.64891242365263	331.0598157113853
410.29392232294396	294.86678119631426
453.93846291003837	291.6732781508668
461.38996983954235	252.28674059034827
575.2915757619595	145.8366390754334
516.7440213158571	185.22317663595192
428.3904391517392	343.8338278931751
508.22801339642416	305.51179134780574
459.26096785968406	191.6101827268468
367.71388272577866	138.38513196938936
300.65032036024337	96.86959237857255
287.87630848109376	111.77260659066063
448.6159579603928	387.4783695142902
447.5514569704636	400.25238169607996
450.744959940251	324.6728096204904
482.67998963812494	277.83476495392784
376.22989064521175	293.8022801811651
589.1300886310381	328.930813681087
591.2590906108965	253.35124160549742
589.1300886310381	292.73777916601597
617.8716153591247	258.6737466812432
547.614550023802	242.70623145400594
569.9690708123138	236.31922536311106
389.0039025243613	153.28814618147737
338.97235599769215	150.09464313603
343.23035995740867	251.22223957519913
376.22989064521175	225.67421521161955
196.32922334718842	51.09604872715914
197.39372433711753	15.967515227237232
197.39372433711753	117.09511166640638
271.9087936321568	150.09464313603
274.03779561201503	183.09417460565362
249.554272843645	196.93268780259254
387.9394015344322	192.67468374199595
366.64938173584954	188.41667968139936
403.9069163833692	391.7363735748868
381.5523955948574	377.89786037794784
359.1978748063456	362.99484616585977
345.3593619372669	319.3503045447447
324.06934213868425	250.15773856004998
392.1974054941487	267.18975480243637
230.39325502492065	232.06122130251447
