466.32134567955654	94.03315144651498
469.1283055612271	148.7688664676207
464.9178657387213	131.92710799958817
525.2675031946378	182.4523834036858
481.7596250287445	276.48553485020074
455.0935061528744	287.71337382888913
463.514385797886	248.41593740347986
407.37518816447533	293.3272933182333
394.7438686969579	336.83516936065064
432.6378270995101	345.25604859466694
505.618784022944	307.3620920415937
547.723182248002	98.2435910635231
572.9858211830368	151.5758262122928
421.40998757282796	44.91135591475342
431.23434715867484	89.82271182950684
376.49862946609943	60.34963451044991
351.2359905310646	64.56007412745804
387.7264689927816	110.87490991454752
252.9923946725959	19.648718212704622
300.710712660995	98.24359106352311
387.7264689927816	151.5758262122928
344.21859082688826	251.22289714815196
271.23763390345437	145.9619067229486
272.64111384428963	183.8558632760218
250.18543479092537	192.27674251003808
455.0935061528744	319.99341089261816
318.9559518918535	63.156594255122
355.4464303535704	357.8873674456913
373.6916695844289	376.1326057860599
396.1473486377932	390.16740450942035
