454.4604140163213	230.73088167410373
279.3147028681839	103.82889675334667
556.1917552221256	378.6084012925066
562.484415502897	437.3398984459148
219.53443020085552	77.60947838128943
543.6064346605829	54.53639021387906
514.2406866836496	326.1695645483921
332.8023152547408	121.6581012463456
