86.92356650360298	38.63333929072944
18.01004002790899	123.20902800827227
28.45148343331717	227.62345852375722
77.52626743873562	83.53154441238797
167.322680725246	107.54686343094951
195.51457791984808	139.91533689074987
91.10014386576626	252.68292184747364
273.8254034604094	168.1072331299308
400.1668686658484	258.94778767840273
375.1074044928688	199.4315622845763
232.05962983877671	349.78834222687465
267.56053741716454	353.964919447494
303.06144499555234	291.31626113820306
345.87136295772586	326.81716751346795
328.12090916853197	456.2910613526693
362.57767240637895	466.7325044042178
356.3128063631341	492.8361120330891
440.88849794694033	492.8361120330891
390.7695696009811	450.0261955217402
457.5948073955934	350.8324865320295
598.5542933686039	363.3622181938877
455.5065187145118	448.9820512165854
477.43354986586894	466.7325044042178
553.6560867253487	521.02800827227
604.8191594118488	405.12799040008167
