161.84375	112
536.84375	411
376.84375	199
394.84375	260
313.84375	295
271.84375	355
232.84375	350
449.84375	368
459.84375	331
1.84375	32
507.84375	519
561.84375	518
446.84375	449
468.84375	471
513.84375	480
394.84375	455
32.84375	225
184.84375	140
275.84375	167
85.84375	252
