279.08503107911696	167.6945226547482
242.12069310281723	185.58049254439186
331.5505430454779	117.61380696374599
412.6336069934903	161.73253269153366
453.1751389674964	125.96059291224636
375.6692690171905	205.85125841932134
392.36284100648714	252.35478013239484
338.70493104089076	257.12437210296645
308.8949810600039	290.5115158969679
227.81191711199153	342.977027573256
268.3534490859977	352.5162115143993
536.6429989139797	415.7133051244735
560.4909588986892	368.0173854187571
598.6476948742245	326.28345567625524
560.4909588986892	518.2595324917638
505.6406509338574	523.0291244623354
515.1798349277411	480.10279672719065
467.48391495832215	472.94840877133316
386.4008510103098	458.63963285961825
449.59794496979	453.8700408890466
83.53175920449897	251.1623821397519
23.911859242725185	226.1220242942508
190.84757913569177	345.3618235585418
94.26334119761825	337.0150376100414
19.14226724578328	122.38339893431763
