38.09605877194672	90.19479919987691
391.53381120860723	273.7307278042776
455.5091907297832	311.48669026004
524.7284538182686	248.56008616710264
597.0940470471397	521.2420372364979
522.6309003913448	446.7788890598554
209.04666306623653	326.1695645483921
344.3388591028217	189.82858901369443
269.8757124470268	98.58501307893522
381.04604407398824	534.8761347899678
171.2907013816081	367.07185720880136
457.60674415670695	423.705800892445
284.5585864354934	165.70672411140177
