71.3125	228
29.3125	227
131.3125	96
178.3125	153
151.3125	193
82.3125	205
220.3125	253
280.3125	270
281.3125	308
320.3125	338
372.3125	280
365.3125	344
418.3125	361
471.3125	311
536.3125	407
475.3125	385
477.3125	416
430.3125	453
465.3125	496
502.3125	452
532.3125	506
183.3125	300
410.3125	162
448.3125	147
493.3125	147
524.3125	265
597.3125	308
595.3125	342
592.3125	235
331.3125	48
338.3125	118
279.3125	56
224.3125	91
