534.921875	407
503.921875	459
475.921875	426
472.921875	384
478.921875	343
475.921875	314
539.921875	511
595.921875	398
591.921875	344
599.921875	312
592.921875	281
594.921875	243
534.921875	294
521.921875	266
601.921875	372
427.921875	458
423.921875	366
401.921875	416
440.921875	329
447.921875	293
496.921875	153
576.921875	46
459.921875	151
409.921875	168
428.921875	32
340.921875	40
272.921875	55
181.921875	151
169.921875	102
147.921875	111
130.921875	86
70.921875	23
150.921875	196
88.921875	210
79.921875	231
55.921875	225
270.921875	274
318.921875	330
366.921875	354
370.921875	278
221.921875	231
176.921875	259
233.921875	376
216.921875	349
188.921875	300
167.921875	292
341.921875	119
132.921875	302
218.921875	97
151.921875	309
248.921875	365
431.921875	314
460.921875	276
279.921875	317
208.921875	319
165.921875	331
254.921875	348
211.921875	280
218.921875	254
