401.84375	164
454.84375	149
496.84375	148
280.84375	268
216.84375	96
282.84375	50
344.84375	41
337.84375	111
177.84375	153
148.84375	198
82.84375	203
73.84375	232
50.84375	221
21.84375	219
371.84375	277
365.84375	349
585.84375	236
582.84375	285
597.84375	309
587.84375	344
531.84375	412
466.84375	423
476.84375	386
422.84375	361
425.84375	456
501.84375	445
283.84375	320
322.84375	327
168.84375	260
