539.234375	507
503.234375	456
533.234375	419
478.234375	419
476.234375	382
475.234375	342
485.234375	305
536.234375	288
525.234375	263
592.234375	240
595.234375	281
592.234375	319
592.234375	342
604.234375	369
428.234375	456
418.234375	371
466.234375	495
359.234375	347
325.234375	334
371.234375	297
421.234375	317
438.234375	290
488.234375	162
457.234375	149
411.234375	163
337.234375	117
334.234375	50
422.234375	44
561.234375	46
291.234375	59
220.234375	95
182.234375	145
274.234375	271
280.234375	321
232.234375	379
215.234375	348
213.234375	271
147.234375	199
89.234375	212
152.234375	109
53.234375	219
74.234375	236
67.234375	154
188.234375	298
159.234375	291
215.234375	235
155.234375	328
171.234375	264
362.234375	272
456.234375	275
444.234375	325
433.234375	359
130.234375	311
130.234375	97
