340.0915794742938	117.05078979343864
334.57031631364384	40.857351154313484
279.35768470714487	56.31688942891859
430.64029530895215	35.336087484811664
573.0888848537196	40.857351154313484
496.895453236751	152.3868772782503
451.6210953194218	146.86561360874848
409.6594952984825	160.11664641555285
521.1890111436105	260.603645200486
533.3357900970403	283.79295261239366
590.7569269677994	237.41433778857837
586.3399164392794	280.4801944106926
589.6526743356693	311.39927095990276
588.5484217035394	343.42260024301333
534.4400427291703	410.7820170109356
474.81040059415136	382.07144592952613
475.91465322628136	337.9013365735115
365.4893900132833	353.3608748481166
426.22328478043227	365.5076549210207
473.7061479620214	418.5117861482382
502.4167163974009	452.74362089914945
532.2315374649104	509.06051032806806
430.64029530895215	454.95212636695015
371.01065317393324	277.1674362089915
279.35768470714487	272.75042527339
174.45368465479672	151.28262454434994
156.78564254071702	193.2442284325638
82.80071618800835	207.59951397326853
68.4454319703186	237.41433778857837
55.194400384758836	217.53778857837182
67.34117933818862	149.0741190765492
217.51953730786596	94.96573511543134
147.9516214836772	2.208505467800729
9.92004246742964	156.80388821385176
22.066821420859423	216.43353584447144
175.5579372869267	265.0206561360875
