409.3125	31
382.3125	93
314.3125	134
249.3125	8
36.3125	94
57.3125	123
124.3125	11
202.3125	114
240.3125	83
227.3125	154
427.3125	247
556.3125	301
560.3125	384
258.3125	380
48.3125	183
151.3125	357
83.3125	267
113.3125	293
430.3125	463
391.3125	370
405.3125	412
323.3125	390
289.3125	121
266.3125	99
156.3125	65
164.3125	99
132.3125	33
105.3125	241
181.3125	413
518.3125	226
501.3125	402
