557.0936762690552	301.37988181756435
520.9836467413571	224.99327582693746
562.6490654271627	380.54418257148683
529.3167304785183	373.599945663248
509.8728684251423	363.87801399171366
518.2059521623034	327.76798206887185
458.48551871264885	199.99402295727774
209.88185388734263	115.27433267676425
179.32721351775194	174.994770087618
184.88260267585932	290.2691027643823
208.4930065978158	318.0460503973375
320.9896370494907	393.0438090063167
389.04315423630635	370.82225089995245
426.5420310535313	459.70848332540925
439.041656659273	491.65197310330774
370.9881394724573	327.76798206887185
293.21269125895367	174.994770087618
250.15842528362128	411.0988249677376
154.32796230626863	351.3783875568838
127.93986380525847	274.99178156625686
150.16142043768807	230.5486653535285
143.21718399005383	147.21782245466278
166.82758791201027	97.21931671534334
107.10715446235571	98.6081640969911
133.49525296336586	90.27507980710453
55.71980474986225	124.99626434829858
