297.5134715021129	33.0974025974026	3
578.0174085248054	329.9758958763157	6
472.13192183756746	380.8428659354187	3
433.7856615384726	91.68110137128971	4
231.68585329638853	42.438311688311686	2
489.15406085684066	309.4388034096718	5
457.18796450654713	270.1467012288546	4
566.941540100842	382.55339455767694	5
289.0974162945041	199.0588412706884	5
515.3120206533534	233.5006914299213	8
170.15945753373217	42.12932688692055	8
514.4741003615293	64.55609025069921	5
433.55648545986696	458.03439357934144	7
235.10954718948545	273.8503581303146	5
170.48869385799276	170.545339892451	4
101.70916284143118	102.18418008125725	4
563.6598818250106	486.8116883116883	2
397.0396959952691	248.0409874831575	6
591.189907193005	240.16382600105698	8
374.8949038796987	366.9096487352259	4
382.0148081267518	128.3553766393009	7
362.99183942286436	191.6261175287117	7
453.895905493299	339.5177202505878	3
298.3431922243245	271.2155010396706	3
396.68375354059265	201.6198055805624	6
564.012356244713	428.2438303798267	5
160.1881079418944	120.80355281861651	3
170.83134794727192	90.52597402597402	2
439.5547996312059	250.67086176532555	5
598.7978773588402	169.8779505349524	8
306.99305411736526	238.94952798116603	6
199.92875080013408	171.4025974025974	2
168.81894589454376	149.37662337662337	1
152.22154304168157	98.2012987012987	1
536.0221292130689	198.42787338682416	6
396.06869088768883	331.9244985629157	2
143.83403481204607	267.36135249894505	2
437.19796673480107	430.7250303766707	2
517.1595667557403	112.26476306196841	2
356.78849302992677	348.8155528554071	2
600.4402292615364	319.53215622578983	6
229.078125	149.0	2
171.7421875	319.0	2
468.2421875	496.0	2
542.7194273194294	521.3815712206704	2
541.17578125	356.25	3
419.31597810498425	316.7924605958595	2
416.3475026011604	279.9799621931909	4
501.16448719289934	374.0825362094777	3
477.26158869546884	351.04909662136066	3
429.0390625	340.5	2
200.234375	257.0	1
167.234375	243.0	1
230.234375	189.0	1
389.234375	54.0	1
399.234375	138.0	1
368.234375	114.0	1
349.234375	130.0	1
335.234375	75.0	1
457.234375	161.0	1
386.234375	482.0	1
377.234375	433.0	1
144.171875	209.0	1
269.3125	279.0	1
174.3125	264.0	1
48.3125	116.0	1
96.3125	147.0	1
437.3125	395.0	1
123.3125	294.0	1
181.3125	63.0	1
207.3125	58.0	1
38.3125	171.0	1
250.3125	181.0	1
583.7540172160989	457.81168831168833	1
600.3514200689611	441.2142857142857	1
