586.3504121606445	496.09538607504896	8
117.09025201792016	140.3846817712181	4
321.529328914848	218.4378009404257	8
110.62643937508133	269.4006285018172	5
334.2507688023011	312.36299957785604	9
438.5222428804904	440.52264952024126	9
77.45514554848792	103.00764115724525	6
454.9143251491813	491.38847924821107	2
166.51755457992462	391.79395775371233	6
484.56495964985334	472.42289778999145	8
391.6496159594051	457.7193943653217	5
142.86211007250367	209.28874187107422	5
510.273216321291	253.2586231791788	3
40.32919118693202	134.26518773328507	3
571.1953976700393	237.32324551820312	2
384.06144977728695	362.96517257535527	2
375.17444383771215	217.91785100734032	2
218.1302096426454	229.3410524696107	2
294.8373946138119	157.7558085859363	2
614.9823582551151	420.5725582002035	2
323.00484114875513	370.44635327190383	1
221.87724710548758	370.44635327190383	1
