433.90483271604035	9.846349267076853	10
260.7144592676783	266.96466858751796	11
349.12474503728066	63.18831848912915	11
519.1955637554452	451.158222023328	11
460.5187184488009	28.17176058334597	11
494.17467449300455	507.45120315601366	10
505.85782031165854	200.46716229523292	8
309.7885642393175	154.34892680560174	10
385.8495128882622	125.5380539051574	11
207.04890570937317	209.73966939931682	10
450.8576893980428	384.70865124447704	10
260.35636969900963	318.21426084052507	9
572.7526156961003	571.8582274885991	10
346.23393365844527	21.76945698085373	6
501.1574014698027	546.124803886036	7
369.13476042683135	323.2748808180237	5
609.903017469861	346.7854610814583	10
193.62107481279372	159.24808792159718	9
370.87693993521657	189.65755338038045	11
555.1713085374196	552.8339543389379	9
530.9733463958596	412.66945551878086	3
246.03077363550005	317.22822733190566	6
476.0432917827428	308.4335788642513	3
361.71269444120696	201.38533730486944	3
152.4869057439447	42.2708222470899	2
163.8835536700813	246.52437281302815	7
337.8830742100338	8.834021871202916	1
399.605563732081	286.66861436648105	2
123.25628705266877	88.01373025516403	2
503.27958142379987	612.5162138252026	3
458.1260644372652	292.42927544882775	3
366.59817641942914	252.19079923746716	4
487.12121627462045	495.83663356485494	2
404.9714173732983	260.8027487115415	1
385.81039955457396	277.83476495392784	1
499.171875	398.0	1
168.7325051956428	193.6110047697956	1
607.320716449749	528.9370595382746	1
271.59037547711785	190.91612942937743	1
