570.3157497933169	227.1808171324423	5
236.67351294087973	298.9402490886999	5
295.03839715333464	391.84954434993926	5
24.659449776303713	166.2273693803159	5
194.1693971500629	362.7426336573511	5
548.0734655821707	368.6567284325638	5
208.875	81.5	2
362.2734375	143.5	2
456.5782655795532	442.06336573511544	5
603.3740094571211	129.88666464155529	4
480.3635024221751	409.7037970838396	5
58.76250240908804	149.36660085054677	5
384.8152734239529	279.93502430133657	4
163.5078125	351.5	3
396.2734375	339.5	2
294.541015625	436.625	4
159.52990767531105	54.11222660996355	5
36.19202872384433	221.62217496962333	5
271.3195182051397	370.7882442284326	5
187.73841293957102	297.3972964763062	5
456.7882152780504	351.2620291616039	3
283.5399205187537	128.82545565006075	3
246.73196261974635	120.89301336573511	3
337.1344943092867	443.2517314702309	4
137.203125	298.5	2
364.6770994774183	432.9667679222357	3
193.07379825230822	98.29562575941677	2
524.4696345200002	397.81761846901577	2
475.78032924527065	499.0611178614824	2
23.3046875	16.5	2
337.171875	507.0	1
437.234375	418.0	1
