605.0791170564839	373.29997283162396	2
196.9391059812654	25.825081183143155	8
379.57010266011946	38.97736735008801	7
147.32349156601524	70.33242858250415	9
589.9986103966952	203.37009601481282	8
191.4733716116359	93.02127523497141	9
493.2269932334633	380.93257064153363	4
543.9566542285452	390.02787652315203	9
368.2159463534378	254.75104554008004	9
464.21556745343236	374.55268123208174	9
44.59220975083602	64.97625143601309	8
507.58285907597485	447.3652065606372	9
136.31655559770945	149.70142054354537	9
567.0803246638643	368.66865544805006	6
448.427780012241	433.4663660874229	8
594.3666747617366	395.0628318663699	9
244.48763856854157	127.81254622176697	8
520.7293846679995	405.3841949086366	2
427.18615343206375	353.04501538928133	4
278.0627771675145	340.69477925187135	6
399.3384559132416	405.1937465490819	4
270.7979194552421	153.30595402375047	4
200.97783740217585	201.95945675224237	2
194.20022136733016	7.451507106044042	1
551.8725539835185	276.7702639387787	1
36.654074857818586	154.35264719662658	1
212.2967381961254	189.4811806965485	1
222.94174809541673	153.28814618147743	1
79.23411445498388	238.44822739340935	1
93.0726273240626	254.41574262064657	1
78.16961346505474	263.9962517569889	1
375.234375	295.0	1
392.234375	320.0	1
328.234375	331.0	1
338.234375	366.0	1
104.234375	216.0	1
