218.89753112450416	251.8293954643637	6
151.66031081533103	192.15468112814813	9
533.2977517477163	411.0800018949127	10
475.98292483425894	312.2220739471459	6
318.9317035006132	329.3106200978784	8
522.3309210539354	262.9719856604663	6
341.6618797856902	116.02299090881121	10
151.36432809840267	309.1945683951377	2
218.3509844024317	96.06580810010664	10
220.04149732605725	234.1729845056403	4
406.06750874076505	165.0759638552174	10
150.5169577521341	7.630192831271904	3
8.047945544785241	154.23931406348385	4
400.305981093603	411.35805577481733	3
130.08591040920118	91.34192047809537	6
25.160346761214644	219.69329534488986	7
67.71370528013362	153.184720263449	4
278.94502108690335	314.65118995747844	8
132.82624591010608	306.19497256196365	4
214.19237828619887	277.9427645127232	4
536.5144442916064	509.9715005535382	7
185.29037757137905	298.8202686299583	5
465.60661636768776	496.8344745345438	3
164.95658484759218	293.47078036885586	4
504.0087749776913	450.61621032280334	8
83.79304751320939	208.69795486363546	9
337.9022553976523	45.576719786101975	9
218.79149732605725	350.320411129748	4
278.1782803587385	270.11824313391116	10
250.72999870130485	364.98715186951836	2
456.76507655037824	275.6641406370211	3
53.52694946103561	223.15996429416145	7
370.68964807049906	278.6530243248628	9
181.15118178060433	151.1126802487824	9
594.1789370428087	308.1977717949796	9
207.65691100514306	317.3408985997846	2
428.66348912737186	456.3044607703977	10
172.51340307358734	261.9942200181397	8
428.7250189547151	38.01958233568841	7
423.3419681869117	366.5359286044007	4
590.7130061903837	277.6552027386373	9
573.6784662657792	40.55724056525408	8
163.4794075913885	328.7145332851544	4
475.55893429875925	339.74938789848295	6
470.13414568713847	383.93461970850365	9
602.4317890273248	370.89943752094496	6
588.7268215711606	340.0792994906258	10
451.70917430194675	151.0430749811577	10
492.5781786714478	153.03728304300745	10
442.1571882917227	290.83561098199226	5
531.9533153506262	283.65438189638496	8
280.5275473363746	59.94119896939631	9
230.747191496493	375.43225880904754	3
590.663238396839	235.9715564496591	10
429.0873740307866	361.51395233473056	6
167.18137673590502	103.96322511155563	2
363.20178977200374	346.1023851708328	9
70.42227779473612	236.324707874821	9
473.6279540500759	425.8290408586612	10
251.10805691765012	343.3774426834898	2
65.83707177685325	18.335409151245386	4
595.7049913523256	389.8773657485767	2
146.5652493885368	106.82690422850743	4
371.234375	297.0	1
440.5689212324329	327.18825259031087	3
426.578125	315.5	2
88.92895510255322	58.73149715340822	1
98.36794552371033	239.12109555316204	1
165.48965518527197	145.77996614863827	1
184.36763602758617	335.60855516233266	1
173.87986889296718	359.7304200646253	1
370.0011143103426	415.3155870133867	1
612.2685351200416	265.3405139252193	1
86.83140167562942	11.536544083705186	1
