609.0772788980532	547.9160081156554	3
545.6484025375339	227.78722999922104	4
298.0997017468989	333.59364369976095	3
455.7768275604684	258.9569220542165	2
557.4020982909854	459.4412992603407	2
586.8773554694992	302.64857689327397	6
458.56635224504333	414.60239701382835	8
459.1605102063109	160.28040821450546	7
400.5144143937107	169.01282284184913	7
539.708018779529	350.6041251978511	8
314.6577503869863	464.640958550504	5
552.9340754687726	273.12869288944546	3
524.7357597680855	391.0563467926525	8
199.91885612566762	133.30149085844585	7
546.984032764343	438.5630307637681	5
465.5148760293262	312.11353501159397	8
479.9024033747186	539.8619298365132	7
446.2265085128958	486.49100909733846	8
604.6210738368409	612.5146755054034	4
512.5955572135873	198.26086746551698	8
183.5808034845835	182.44312027163062	5
232.0393062103359	152.239276527727	6
278.0152595151074	135.89013786327052	5
309.17070163288946	50.49225414676411	6
221.90114854252803	25.774111027952756	7
416.3378081754638	526.9399338033197	8
505.5970520377009	601.4036046701106	7
552.4132848484421	60.9405741611495	7
384.50253302810506	484.159490601671	8
393.943802608194	304.82828514079984	8
357.87372936951647	156.86431028141214	7
376.38352471539577	258.8735936603025	8
345.31465588740986	196.25872139990895	3
240.33215637831583	283.8592475765503	3
412.4127990837497	251.030260774137	4
181.6144215274669	67.61388240305466	6
483.3958666359637	372.47438521409845	7
557.9659061871475	9.482016774403887	4
278.22071224177137	308.85466291743955	7
439.7411740692401	443.4401435987836	6
412.03513124957936	407.63849571088457	3
266.9331019398586	274.8165871672565	2
241.29097002382656	65.81758082176614	7
315.75814276102045	291.8805777811971	4
380.49166921391793	364.0359286044007	3
520.5301911225962	463.2308816741037	2
553.3644316010891	139.79899361680222	4
205.9721268593882	90.65142594760425	5
362.72605565387335	95.87179553176156	4
333.31430312052066	271.3392875527643	2
314.7569535642562	401.2941418717183	2
267.9690552937782	59.305158163868484	4
538.9720318969129	293.1921265314527	4
358.84910252887335	370.96108308452585	2
264.1617961701485	383.41925209639123	3
526.5325042442088	476.5854201183562	5
569.0048781802655	120.54267476577783	2
305.73828125	98.25	3
416.203125	115.0	2
502.7734375	301.0	2
595.7415127133439	209.87044643611605	3
459.9720589226211	49.11060027794726	4
454.2701739992362	561.2270066289782	2
351.703125	122.5	2
411.0926963315672	555.7072864951157	3
402.234375	292.0	1
153.88324115939204	11.490385618526982	1
550.8873042053118	564.4955376359515	1
265.171875	11.0	1
240.234375	203.0	1
179.234375	218.0	1
356.234375	534.0	1
351.234375	501.0	1
419.234375	214.0	1
233.234375	355.0	1
227.234375	381.0	1
299.30723272015973	380.34304540306806	1
597.6068655380492	418.19099008132594	1
