464.6478203527962	301.43552118515197	5
202.07500396161112	379.0952506198247	4
281.0853051565185	153.41216711144597	8
541.7038269300456	209.4858772134677	8
489.6732532495623	461.26314200234697	8
270.9605542880714	204.54025468955268	8
287.44002391333163	306.9993971203758	8
223.00860260417522	201.8242430980295	3
579.2381873800553	163.95574578038526	5
499.6740589317852	365.3557585631711	2
431.97439963822234	509.82931483186525	4
418.07861395874295	261.85721826458496	2
177.83576359038534	130.9211448091486	8
193.89662127989797	238.40440878731803	2
443.5879808717623	359.052534495435	5
546.0395428713948	247.4434413694156	3
293.2264852942926	426.37612775740615	6
514.640678374533	508.44556391571354	6
606.5463324862701	300.1666265959534	3
403.90915376872056	63.03390744487139	5
412.0360565662477	121.61715221123413	7
232.9641397263083	159.8464163152351	8
321.23630005063603	261.31880119215776	9
594.7749707237328	326.7066363623977	2
139.25307405097556	352.4253417543269	3
371.86462841465317	509.8982181805525	4
279.6616463106477	128.37150909196689	7
333.0049851000426	33.658581906796385	4
121.08742963360446	200.4208622602178	5
573.3435309602612	508.36494515926813	5
65.28488067634242	163.7376262692752	3
37.228197468783414	247.80858040017552	5
46.47356372311711	203.40525585179972	3
591.2131019192566	273.5670573061569	6
210.88008704567227	124.64383053434693	5
337.1240788849156	154.84479519245787	7
154.469801670925	70.81532417995899	2
571.3729412400728	470.32978462732854	3
363.1374981757799	74.0974286855876	6
338.1873792614688	445.95729691858156	5
82.96915379891931	252.6961328927082	6
102.55590167749128	57.27353402202053	3
254.40425469242336	18.540130386091754	4
230.91692787510067	419.20040529483447	4
424.64872850480447	460.42337523086826	3
348.41069451704413	478.82266259237724	7
180.30680569134122	332.0338554394101	3
346.2536268529062	258.02135325057617	8
473.3257310214727	533.0661990252781	4
485.6030325683363	154.63351840760026	6
269.54105764187705	401.7475943900795	5
520.2644690631494	406.7484153820386	4
217.4399796943386	308.78968935543924	8
394.18832741263446	202.5189877879435	3
182.69228800566796	173.00125937575092	3
412.9721008867308	418.01233681274425	4
442.98686146745973	319.43774592698475	2
313.29165447834373	379.4054475058024	3
68.48470858612265	16.40673534727383	2
13.116408470768349	56.538457626928036	5
310.8193853114318	79.27091330808152	6
458.88737000154913	191.59896365919468	6
384.0287271773798	23.585320818587476	2
211.34193428221442	222.40791906517717	2
115.56575400282102	314.38483286399	2
35.195299064729994	140.37611045185974	2
358.71875	160.0	1
95.171875	156.0	1
12.171875	110.0	1
405.171875	339.0	1
588.171875	361.0	1
535.171875	360.0	1
129.73348446577654	3.132432915464549	1
76.96341765005558	301.51410564478635	1
557.4998113419523	544.76329614394	1
561.0770053396587	376.6351791812897	1
381.02490745510187	365.9035972475035	1
192.14543769819505	9.24586893634951	1
491.2344697596424	304.3821903556979	1
60.388154851742485	63.2663563389981	1
584.7821405806237	90.935386472062	1
236.94291386598894	249.04413008957007	1
39.306989596310075	79.07723070074891	1
218.49689426748557	363.6729692122634	1
170.0366741262768	205.3910085054678	1
133.59633726598744	26.50206561360875	1
161.20265306923696	345.6311057108141	1
513.4592427187007	302.5652490886999	1
