495.44531174864755	591.0564060070554	6
162.24124659300426	307.7317408854405	8
386.4985901587921	383.44657162989165	8
255.17822029523938	250.6007579218356	6
269.0329790351376	91.29053876358068	5
103.2391907344952	311.14229496101194	9
132.1935524307051	77.8035733429424	7
383.6514780574721	509.99706629738125	9
390.2316182967952	182.12873984610678	4
429.0817529218763	160.8416834440365	5
225.25855555719178	364.02905441672345	6
418.29228931521925	490.01561362961945	9
134.88834024083232	145.39976047467658	5
498.44917066723593	97.3863057535207	3
575.6923420614214	119.97931136574954	7
102.31320327060399	95.31686623033241	8
371.0980491291414	121.64222552616513	4
543.8857026564029	498.09342362770417	9
525.8385845864597	300.91940039595397	8
265.22733577977226	421.1643128524748	9
515.9929329166932	372.0442599870589	9
551.4821583256946	208.7168680690983	5
420.9487258683228	93.41727095034982	4
47.91733745044226	83.60177265201503	4
487.5802141266096	410.98778329057393	9
229.76577088427257	197.81664307602418	6
290.23144488206896	320.21067336862234	6
147.22714524802998	206.4549352286582	5
123.64103062458916	360.98290921391566	4
530.0291583074904	182.01296114141414	6
97.26421216789485	194.76201857056307	7
359.56907267296964	560.2354041865104	8
456.4731086930671	303.4222803592912	5
269.330748439807	494.24282083418416	4
475.26246859329336	468.8158535979345	8
539.2812320129744	435.13465032121394	9
96.28374803800206	278.45535807751463	9
479.52169653066784	528.9842648845687	3
484.83598863254304	312.2593645626508	9
184.08156791113697	369.607112504908	9
305.87644334610553	520.3340739688099	3
295.0229114910917	218.90987863458218	4
475.0468661148044	166.28019695337744	2
439.2734375	368.5	2
328.63865563095527	276.8187512629343	4
285.1799738597175	49.878184602361216	5
445.45432016247446	556.6625807582411	6
335.4739331667047	159.13386674873058	2
513.6381316772532	274.6490982108137	4
447.5882246065641	138.83572296886558	4
199.28174021038657	289.550595679449	8
402.6661970026213	41.88030647498074	4
238.56579552193443	317.3266099944765	5
433.0129646385318	62.989485163194274	3
535.1257314922498	554.197363644936	6
162.85827153718657	27.646148331608813	2
588.74040848613	33.0350602062865	3
554.4810447785301	62.295180797696496	6
552.6911777256828	315.21257116479455	3
507.80841919331453	186.89121672345533	6
383.3894045431297	429.99846130173876	2
213.91127668605256	252.6904905265294	2
367.3556033452953	79.02451146264339	3
129.18415026542414	301.8418022816842	3
472.2469344537431	21.509272550571552	6
117.49406529058146	41.593982142362634	3
302.03250146765953	400.29196799507616	2
260.16431472441934	206.36564150258232	2
253.1450120580358	462.77965840898605	3
433.8768484831572	513.7378811311987	3
337.16166684479776	95.72659736230099	2
166.37790871908987	132.81891203158577	5
440.2519305632779	421.2288014777332	4
560.7592302048807	579.1912346265881	5
128.67432001022934	118.0512718372886	5
221.32558044628354	466.7972700398061	3
494.88027126971673	120.22272698266184	2
385.817757577274	290.24279168770295	3
55.50597851340672	156.67903038734738	2
459.5779733365108	189.5792467389893	3
531.8179132350067	10.243883674411448	2
319.0067345456704	173.9837855112944	4
207.9369352210066	346.45780248465303	4
469.00442361814044	216.45957218929578	4
444.9780841055997	477.6026150820577	4
190.5225634885037	267.1145049976826	2
59.24850765341016	27.337191850808598	2
244.5825687822481	32.77876194726492	5
500.6692597608279	238.08794818915248	5
4.209418642969354	145.98471686488602	2
392.1959107233357	206.31178921067902	4
456.0732150859194	82.38335753501903	4
608.176143232502	355.31292632913966	3
337.3150917623042	11.79832041743092	4
10.229906545615032	215.71110752236365	2
529.7043669462323	409.0274922251545	7
429.6309768679125	322.2636039529027	2
55.840391662900686	192.16628794469497	5
270.1881679534712	171.40643511561052	3
50.08998705298582	288.49898508061244	4
606.1819929776636	243.582170358668	2
297.29950247693955	450.5229374121835	3
251.59261933718756	7.452389142212176	2
203.2679945335678	175.05176048067523	3
7.362478409179246	271.0320710710331	2
607.5269539031658	455.75320035105767	4
5.789313338986395	188.69256288985108	2
384.99026849805284	190.45448898815764	3
324.56183971938003	26.547668945385006	2
214.021420378002	414.6152747523554	3
342.41048230997376	358.7432681951069	2
362.5632647800091	328.7305206444746	3
18.98956022049579	34.15848592091091	2
493.45883067416725	73.8034164099692	1
320.234375	352.0	1
397.2651135583253	312.3329599551946	2
391.2476706376272	595.938654281843	1
415.8379969983765	383.0142817138057	1
593.234375	327.0	1
270.234375	384.0	1
246.234375	382.0	1
407.234375	459.0	1
216.41528467573596	29.814823815309843	1
559.8296994469466	30.4145253115864	1
610.1709816931178	109.07278042775812	1
592.3417775642655	102.78012001846439	1
394.1229787199663	106.97522695799354	1
45.9291098506153	103.82889675334667	1
32.295012575610585	167.80427758116633	1
40.685226283305795	223.3894445299277	1
288.19653066031435	5.243883674411448	1
478.0251157969183	125.85320818587476	1
570.3174665815656	197.17002615787044	1
495.85431992577065	275.8282812740422	1
341.68414304687127	311.48669026004	1
318.6110553507095	380.7059547622711	1
542.0004953180943	450.97399599938456	1
537.8053884642467	598.8515156177874	1
78.44118796793421	380.7059547622711	1
251.48934568914783	333.51100169256813	1
349.0255800411046	441.5350053854439	1
554.5858158796372	617.7294968456686	1
