271.27115539822273	156.22766016454653	8
602.2099800922238	470.4134001552451	8
450.23311545525246	423.8801749274802	7
206.56560708748822	150.83257921339646	7
542.549024776185	290.2530971502514	7
475.37390865530494	417.58081418714346	7
471.11867278791215	78.99074834860807	7
591.3308380172839	255.1173698436615	8
418.2109025434636	427.10918670599904	7
366.9583265091933	124.57835543440949	7
477.03943147513263	125.99112324511516	7
498.5728894038971	262.4230254545355	7
331.77430595474965	269.8564288225815	8
530.0401102631313	255.7781395580364	8
575.65205553222	315.7921218649023	2
461.7380559061985	319.8294969845257	8
315.27911426938545	173.0813476422863	7
396.9053118228364	158.96318813502597	7
382.399072277718	191.36106505723797	8
579.6833324743692	100.83480785458418	7
339.1002676100883	329.48677238396783	6
565.1060208295471	483.7117402926002	6
535.5995730734601	429.70762066141475	7
312.80458106569245	348.82907821974186	7
603.7179714208163	66.12768906620103	5
537.4584844522551	546.3844593999297	4
568.5952734622956	598.4174297929083	6
560.1087254720693	24.380851912768517	5
215.61903789868273	238.49934695437645	2
604.0038700716236	26.785172243507454	5
445.2104317683081	23.34263051672034	3
576.5046705893299	177.85377665863302	3
432.8029795170294	529.7387081086526	2
345.34003963356645	209.12868524245238	2
396.86680175796954	386.18918472146765	3
157.1018826125379	96.04285847735576	2
502.13169866383686	13.72814050204223	3
416.86420471954943	171.79764360874066	2
315.421177738958	388.98590704958644	2
592.234375	530.0	1
347.234375	428.0	1
583.234375	372.0	1
189.9422174076136	110.70810557551148	1
191.00671839754276	78.77307512103701	1
287.99780276540247	388.19843498481663	1
268.1202531704425	360.99804151389975	1
476.3114305071282	214.53438436280865	1
361.23088022051803	165.36444231922806	1
477.3576173279156	22.039292107088922	1
