485.10186678932007	309.7765044562818	7
137.45915201490067	100.42584538745861	9
250.77783478797363	377.0920363167943	8
186.18747013288618	322.06333343970635	10
608.3817983570045	172.13171324422842	2
436.3006741835668	219.76204522794973	9
441.3500288829972	460.22455319324763	4
302.14413163706877	382.7708305533381	9
68.98366952550606	103.40835843490697	10
19.45528911765981	83.10923450789792	5
321.83296868935594	272.1469359670909	9
68.01755371308988	62.59551942128374	10
305.4402129017134	197.39214814948195	4
279.6203561118929	267.03105869188244	10
514.2152405843796	419.8473082274894	5
161.38791749567054	107.96988467498156	8
392.29304168143324	432.02400369287585	3
355.3876269905654	458.29227573472843	4
204.58652416621175	47.15429395406015	7
130.8893480443779	245.83271676190682	9
88.69290507965073	131.68820376515538	4
408.1772145122298	284.44034762060386	10
429.9555493838001	132.86381829575205	7
361.92139642487194	199.918324749565	10
435.121584063994	337.24176205117425	9
216.89996288829215	349.8116843196102	9
242.1318348212206	13.177570107530396	8
460.36183620970723	366.66288170751966	9
487.1154403648097	272.29996558892606	9
81.92241821500772	165.33826686535173	9
364.48292368668916	323.80397272465586	10
295.6300509106122	442.50692588092346	2
181.29090017002198	291.48080834246673	8
219.16159096451008	285.2516132307111	4
189.18233449871263	224.9585898910779	7
347.5918570819107	338.6521387905832	3
435.1863788613003	267.7624250866671	7
159.3662554364156	181.36762101469932	8
327.30052338286987	140.11446868852488	10
382.7016087621489	232.98597160444066	9
202.30975518081766	85.06915526745237	7
546.2099233276415	360.74354154738063	6
519.5626392557002	388.2979025665531	6
484.42578125	536.25	3
565.0629191028424	287.969847205057	10
200.7076022288393	175.0700763551948	10
330.078125	408.5	2
382.4346817647429	401.9591207304353	9
572.2283209757129	250.18792946490066	4
207.73366639196306	255.7338951900188	10
98.52621822857051	6.878399013802444	7
47.781625148849784	17.580520922231905	9
201.7706183025591	73.26620785920377	4
558.2174209087563	424.76019870427774	5
368.5056844311357	269.110799890591	3
121.60707826858561	158.5999052008562	4
546.0979249735519	222.74273333684755	3
483.2267532332787	432.89165168164266	4
566.1799003877293	346.17520615173123	6
438.093843050866	383.4835965978129	2
572.2968746625999	392.60911300121506	2
18.68159031403977	100.08712029161603	2
385.8786926125508	323.2479584404442	3
305.60870023213573	351.8192388705661	3
587.583152391747	447.6394445299277	3
389.97365014652127	465.3040467764272	2
589.509884498478	497.06008616710267	2
546.3277477040871	254.01439108457532	3
510.6171875	572.0	2
451.1151062115159	433.98566221142164	2
463.1171875	582.5	2
57.3125	419.0	1
422.3125	572.0	1
554.921875	404.0	1
351.921875	477.0	1
464.921875	541.0	1
174.921875	413.0	1
148.921875	415.0	1
136.921875	302.0	1
119.921875	291.0	1
419.921875	424.0	1
236.921875	465.0	1
330.921875	498.0	1
448.921875	561.0	1
494.80554321230875	511.80304662255736	1
137.17268392180065	190.87736574857672	1
5.503031938909719	11.042527339003644	1
528.9187795685204	290.4184690157959	1
364.234375	511.0	1
262.234375	442.0	1
70.234375	196.0	1
438.234375	512.0	1
