563.5388137120897	304.05510502639095	6
41.86425539433648	167.28067640588407	5
77.70877324768998	207.5685205857416	7
552.6731432473024	329.93028413484114	3
474.6918732056429	195.15542932969464	9
462.68814467831527	409.24906610335665	7
227.30870080439436	182.55681606121425	3
186.3928016274318	312.75117602084026	3
165.71242490283947	95.46787556601632	8
265.66953161407326	80.79926550238503	8
270.9778335040702	233.12113613083093	4
77.84192129782681	80.12080524271457	4
396.0932647795978	375.41186313136944	6
240.84276490604043	152.39321423553676	7
139.73322076969743	47.552071537507075	5
412.41461018940197	323.0691238938082	3
259.7401096434876	123.02203834666915	6
218.7318033110122	105.23516103938798	3
106.18372921317884	167.83426150271634	8
167.2667562293839	282.8241975590487	6
205.81856769345097	55.161257076474335	9
508.4305030074727	348.0262404917909	2
183.3887800879195	141.37022740004147	3
446.11013405345363	275.0791618556001	2
300.7973967612594	282.54018878714413	7
371.7884840518335	198.35135459455688	2
304.3234695751685	268.04754465801807	1
225.159174072138	120.8297222033553	1
149.62282230645334	146.6635424782113	4
444.4341801693241	317.79359402282915	5
475.7513665882963	159.51103874016354	6
483.6169634860392	438.57082224265025	5
127.0515502291293	270.52683882083	2
593.7899107880071	309.94341922053786	6
584.9897706726856	130.10671625943712	4
328.72739996323054	380.5953394512194	7
539.6127342598722	417.1783938107468	5
420.80485964501986	431.13132179324225	3
190.2028025016401	247.276401075445	3
364.5993432595021	170.56729992590806	6
583.2815928055206	238.66826366291474	6
347.7610354143545	61.598702737534666	7
541.0080207490424	144.08991062836384	5
118.51010830705009	14.472631424299081	5
28.20269243487946	21.534699791502547	2
115.42122706964689	51.01996529347632	5
606.1460571994137	362.6449383559557	3
480.7206770406647	273.203479728244	4
318.71684151358	334.5748082583119	3
368.1340716152622	237.82324551820312	2
71.20670438412458	53.12366883351794	2
478.6794273909377	381.9262189483278	2
149.234375	193.0	1
209.234375	277.0	1
30.40003958674947	112.52971641113565	1
352.9921138401172	216.54245676226418	1
12.310764394971844	52.232475627872724	1
441.93105019969056	371.8078517791662	1
473.5872817853014	337.13693832879005	1
223.04080046851584	319.12904009720535	1
451.37638940999494	445.7942627545785	1
565.8465973366006	433.8702828281494	1
273.76882920557773	199.99402295727774	1
464.04090787075626	304.1575765808599	1
189.04914454443988	204.16056510222103	1
173.77182435964454	183.3278543775046	1
