442.8904472559313	428.9378467310792	7
379.6820085210058	280.7051890893557	5
610.5578343715266	316.9951375745169	4
336.5857271354117	405.9417537364924	3
348.80942141664156	357.2479263341434	7
498.2322495740979	302.88509147459183	3
423.0237955555588	395.7163439012963	3
596.9913614201193	228.78972747149774	5
592.0904828054482	51.015773856005	2
604.9769879006644	573.1023392012629	6
366.22516458355364	326.52574752896425	6
345.1754152298621	225.57219851147823	5
334.28586302402323	265.4981258784944	2
527.7433215934532	215.63410098805278	4
398.9852795351286	114.37841636732782	4
509.8468503283767	338.2986849008207	3
608.4048664673281	352.14266749960956	3
506.65261227599746	434.0371844804657	5
480.0157377916229	148.10031493075593	2
348.4434039742458	192.6525456817117	3
588.6953555781076	109.32180228018117	3
422.49490460104676	506.78674059034824	2
566.1171875	36.5	2
322.3402186262958	377.22860514217797	7
244.84055071906135	124.6290592465199	9
543.6164440012457	538.3823177272218	7
543.5747095421136	331.4976573481181	2
535.4779580572199	422.7712009995315	2
609.2594586290797	455.8217703109498	4
542.2339714869686	52.437038585384286	5
592.2364111722865	496.17822280339	7
325.6072073066779	36.02392054377327	5
455.09699904124557	471.58577804253594	4
435.59864652296767	350.11902558726604	6
604.174323732197	245.52972993514783	4
415.27420277200156	316.3191184410657	4
486.98399544424404	335.57400799803685	3
380.2375579083493	90.54811808011978	3
298.82244135411196	230.93586090518318	5
459.7108471954636	78.61428620362771	7
448.96328738855647	271.2068686204676	7
339.4958148710649	161.09082456395151	3
431.8559204490006	103.72124016616957	5
446.75449219513035	300.49182896185135	6
415.26694330228923	220.93691299912462	4
426.99490460104676	473.81922536311106	2
462.91880545485014	364.96646103389037	3
387.29801971621	138.54147641208255	5
558.6964142876645	304.0432179380705	4
526.0820965376254	406.53053037853255	5
485.7488688484046	95.14742137347687	7
385.45538718782717	41.584352445540915	8
607.5033161384849	68.88510342068938	3
427.85786038376295	66.6582665059091	5
576.3012939725674	156.61065804112164	6
376.5642846663384	377.4583398406997	3
335.00464056051226	137.40357019213332	3
517.4031539383109	377.44403852772473	7
471.4827263062832	490.3310253274289	6
489.30746574981265	203.2670435681007	2
450.921875	441.0	1
549.1714610270074	230.3048570982352	2
395.921875	368.0	1
537.921875	307.0	1
550.921875	207.0	1
132.94824732431226	47.426581365926396	3
258.21782936643274	286.20763704513513	2
207.67701291116254	57.87789404434054	3
530.973261887925	460.6060964719977	4
518.340772800751	201.7229423707637	2
457.8224258359896	29.04912437251401	2
491.19599755755803	467.84819615805094	2
476.8476654170912	237.293643705117	2
610.7642853229485	150.21549190067498	1
261.03829828191425	252.72080123222193	1
259.53085868259944	80.87366499992261	1
612.5491104094791	47.9025456817117	1
423.06793420209357	422.6069030142121	1
469.9059777589754	441.7679212868968	1
361.3268767862039	395.9943776354834	1
410.29392232294396	246.96423551460254	1
453.93846291003837	12.774012181789786	1
545.4855480439437	162.8686553178198	1
293.19881343073945	317.2213025144464	1
580.921875	582.0	1
466.921875	47.0	1
459.921875	162.0	1
319.921875	178.0	1
552.921875	405.0	1
399.921875	175.0	1
392.921875	402.0	1
504.921875	117.0	1
391.921875	329.0	1
