489.57582962868844	276.1478015037822	9
478.5155766018802	154.2606547301395	8
114.10395534685065	57.65959496397066	8
448.34703698530313	225.80622804456496	8
226.16306933924682	225.6966784524961	6
182.6826180524596	227.14442897876012	4
378.8190537759016	341.62356980649287	7
440.99995615972904	403.46482525506644	4
269.2595416340989	297.07232043115744	8
88.41450111404292	103.62128267603563	8
432.33189805933296	266.3875708185285	8
172.52747434314895	26.486553786112346	5
539.1226051332312	366.7584746894802	7
299.56570184364705	250.33677764866428	7
595.8917187670949	257.3124355101742	8
324.6822936775561	229.54795115159806	3
378.42167295455954	136.31056999826677	9
248.49277092403514	277.55789579241025	8
133.17277940397418	93.03367194057229	7
404.50971884064313	442.13559531499675	7
83.36729478685174	34.832186328954236	8
248.29761030825205	345.2761581133337	9
40.109239021110255	132.1662940070591	9
140.18690408761114	127.68806389109082	7
454.99462368180264	438.9972403178332	8
224.00574790594362	193.01201184812442	9
180.97456281059556	198.22983323268235	5
303.0682525080691	31.419058347041634	7
289.6246080449081	357.1536567207702	9
204.51028639763422	245.19862004294913	6
581.2380555164335	355.66993097371926	8
95.88164196503932	135.4993179940857	9
541.5359231915252	399.4218787771287	5
25.720911009834346	87.1064109529506	6
321.3199012827927	368.71225138636765	3
61.28819238820708	182.31539954842012	9
342.2469161716697	261.17677867768566	5
432.36608567116207	209.61649845772357	7
317.1234147860172	294.6575757780378	6
266.9038921152083	179.5632740029642	9
472.5367478708333	412.6389290351897	6
609.4613516781761	438.9817572603782	3
438.81004614604785	482.00965191666114	4
94.05881085698161	200.83680276397837	5
213.0648051410021	341.48913908027566	7
166.03323860771633	327.45506069389046	2
520.5234375	393.5	3
363.2137943021375	410.7986757575561	6
259.578125	46.5	2
187.7421875	356.5	2
492.874519785782	507.40808390966225	2
278.97375653650334	59.38481536289029	2
447.97457714923746	58.819265436340544	3
146.2421875	5.0	2
465.76462304428145	264.86312953480024	4
217.47801482383403	45.124573133985706	2
30.285957293374736	10.012203539794339	2
107.7421875	22.0	2
166.0696035250817	260.2579563301298	1
474.3125	106.0	1
464.3125	380.0	1
40.3125	61.0	1
387.3125	119.0	1
355.3125	117.0	1
304.43397618821325	-89.192642121273	1
572.0668870817811	532.8086779349729	1
134.3125	300.0	1
394.234375	473.0	1
