485.3288087008272	155.53764377759438	7
265.9442273765359	285.239618349588	8
551.2354473297385	367.8523019782907	8
576.5269331276037	433.1864669168568	7
476.0382681348601	279.62656718963103	7
373.42293494330704	177.69228560140738	8
477.631733730282	464.2795340343576	8
383.05402456314516	480.30312367727936	8
468.8962606626312	213.10549492859036	6
528.6856350724404	144.56159632454165	4
332.09939862924284	205.17981587400934	6
385.520745044847	227.56312173802297	3
212.0098634526055	206.487788793015	2
125.87189921063447	105.85094910794096	2
105.87743994967482	8.032253508671397	2
111.3259965134225	36.17516884448982	3
529.8595517178187	332.7309772509842	4
153.34248346334337	5.291056515212025	2
606.6326887024863	627.0640684109621	2
367.54457958497846	324.53600553931375	2
397.269308860352	124.80443145099247	1
304.9769580757048	68.17048776734883	1
425.234375	234.0	1
575.234375	500.0	1
464.234375	530.0	1
434.234375	556.0	1
419.234375	515.0	1
470.234375	365.0	1
425.234375	402.0	1
170.234375	199.0	1
176.234375	250.0	1
545.234375	534.0	1
503.234375	462.0	1
383.234375	384.0	1
592.3235916008256	556.7340309230049	1
522.0665262655028	625.9265969076995	1
612.2717249222633	365.7781277008399	1
