607.3270075467015	564.9665029058165	3
595.4911734044638	600.4409332829443	3
573.1790302063002	573.7125824392191	6
498.45482131424626	462.12749545288136	2
558.2309319957737	419.2361484949241	4
139.24367709656784	96.94946027792624	5
551.1087091422628	584.3442275196169	3
92.9444965644079	83.6366905506031	4
568.44021739403	135.30729600200192	4
157.90896562012435	281.16773131650586	2
385.5917053235189	243.14430688450284	5
323.7467510177096	363.71918400152333	4
554.9385242027772	154.74681144330006	3
566.2337168277243	264.66642564751453	3
460.22429907732845	488.5521148138318	4
430.4950663808239	173.4218152512131	3
535.4928021563597	573.7603978004838	2
110.31551624604094	62.62787579328015	4
232.160750684935	119.63095555790915	3
331.816398024543	116.26479919998701	5
220.1492167065636	311.26137323344994	2
453.8667318274295	190.73103685691217	3
532.7224809271512	215.26545368015223	3
425.5938427307034	296.13475761221366	2
263.4338126639925	187.67915536610764	2
439.09233539261544	264.67854294145144	3
269.1127347062676	390.5012948544724	4
124.0980845901868	205.7021458695341	3
570.7251967711575	372.64050104023005	2
603.0359554111997	221.905209055407	2
514.7769846951846	254.83619406294173	3
496.32814023482524	328.7836120940309	4
460.0056742772267	212.70483667830382	2
471.99259238810214	428.9322415326038	2
362.2660936954221	218.4217988192364	5
209.47562768152534	145.3203366035561	4
549.7002109439221	310.731698807671	2
246.90820759943628	343.6081757410793	3
293.4190547258212	97.25911406267474	3
530.6305741855208	40.46171135786204	3
583.6792866995789	332.3249943359641	3
135.22415292872358	129.57763981556297	3
407.8208448314583	485.034004991467	3
413.8470881595389	101.65092582659742	3
339.0180429605831	177.77349973919425	2
258.70457178335624	334.704329953783	1
473.7874565064803	268.32162230371887	3
488.07133651109143	69.73408688456826	3
487.7624215875421	535.8242216328865	4
423.91229385814347	362.30597107730273	2
606.2644027124618	292.89419736855496	2
379.18334312823447	282.17438736314364	3
285.55489087901526	228.45264241592312	2
194.29362691315137	188.46316632349578	2
301.3021992408017	136.26518327276216	3
446.64205018996756	121.67684740334019	2
543.02536554213	514.1311892956599	2
398.76508526299426	379.15533518983904	1
496.234375	424.0	1
279.234375	274.0	1
574.234375	504.0	1
242.13393227492912	401.27751086707843	1
353.36888158610736	344.1006634637383	1
564.4034115876885	465.7314115762983	1
590.3928857258143	389.8421413864104	1
541.5326743461378	366.97140242507436	1
462.5246729662355	246.3802333562114	1
521.7806740011623	117.47243193777167	1
466.6829888283357	389.8421413864104	1
141.29477261900118	228.7073896133608	1
147.53224641215135	159.05559368565545	1
267.08382744752987	291.08213223518646	1
494.7516208975115	403.35666895447264	1
518.6619371045872	403.35666895447264	1
560.2450957255884	56.1372683596431	1
189.11540503315257	244.3010752688172	1
316.9836177927313	87.32463967055594	1
374.52611175127134	43.228159188203584	1
379.9296315035827	320.96908197241163	1
363.71907224664864	382.5692088156017	1
470.7087633424135	466.8641192325987	1
309.6838747235351	172.91263675281434	1
68.171875	98.0	1
513.9741560554734	144.30157565736454	1
348.67663837106966	304.3654295439141	1
421.9097158261852	33.40766381439556	1
312.0600996435119	59.56188830566183	1
269.1664399912299	75.25442300042158	1
396.8012321272885	507.3222115961403	1
425.0482762885473	468.61395934906625	1
493.05041963972604	111.87033728819436	1
507.69703513074916	99.31630953238655	1
608.1309699263362	171.50196912828144	1
228.36515398052262	48.054029529504675	1
511.88178241389863	306.4577675032154	1
131.38783200172747	46.37861482381531	1
