382.8404118639977	455.5249456700611	7
226.50309554465912	27.457653185690326	6
292.02291426741414	69.35435702187775	7
435.2494803381343	449.8141028196252	7
488.1302678545089	475.69539931798937	7
325.2253429596156	309.73687748958037	4
303.72283998318335	246.83921521533065	6
388.6872768020593	192.88088419141928	7
230.10926412091197	167.4578585953454	7
462.60472180478837	345.6237594653869	7
525.1631831420884	510.01952410113734	5
387.59377473393295	325.44393418802787	7
517.0828735807909	298.8835114105026	7
545.4650088702601	427.49049181877155	6
300.61890947905164	144.9087657753479	6
465.8959491940211	291.95700387067143	2
279.2107796692079	302.5334516469918	5
524.82460112327	398.31082890404787	5
303.400913492339	351.4704197848309	5
426.0455146032713	239.82324551820312	2
420.82597371051315	137.15572517798253	4
373.8229040670081	410.5391323766444	3
130.03553094227996	194.13291054565752	6
327.3938393169593	176.12290860902363	6
451.23845172514245	419.3843663130541	6
378.71815223603426	282.6946439155505	5
176.0181631217996	285.3643045540368	4
244.14310197507086	82.845893587253	4
314.8739554184015	215.25306463721503	3
255.8977142173797	49.18852909270814	4
526.0373015810023	142.10031493075593	2
57.684240864722675	47.36201851589267	5
362.8045689780447	107.03715830745242	3
329.86619332101725	231.53881995912428	5
236.06194064780908	258.36783163569254	2
392.37354567252635	115.0775212636695	2
346.234375	232.0	1
125.08689737213362	6.004772520212766	2
360.43439839129144	243.4578537834613	4
188.07746202255376	24.202579436514196	3
91.66487052665735	78.71067668571024	3
591.7762679441955	401.2418561154586	5
552.9437720449981	371.0152068991631	2
297.0257268212245	205.3910085054678	1
451.6210953194218	507.95625759416765	1
444.9459293983202	88.41082009783048	1
125.36873434358203	65.79935480410688	1
48.3125	9.0	1
356.234375	378.0	1
