394.0483601422319	304.30866586057914	7
343.7881087494562	379.5538686214759	5
588.1636802692801	475.598660236098	5
266.4330071705777	347.8529411395599	7
259.1225993760213	141.93364148958477	7
329.2282037912179	216.33808904924	8
304.4753907672406	303.41836398344174	8
385.26677470564874	276.7249912397339	7
601.0531589403186	435.85852562716906	4
303.0584186856636	113.03489293822321	8
457.9158871356299	516.1948414190475	4
571.8105150588883	263.5141481007024	7
317.34570395485935	71.30382208377978	2
310.0212765254042	390.63567170529177	5
506.47889370724215	479.0856914453532	6
269.8584188090217	38.6427749985224	5
311.9513107352016	247.28394538174211	9
299.50122770853056	366.21670175915233	2
346.6737215748868	294.8248301746073	9
536.834001959768	168.18065935875535	9
267.5540253206836	258.8193732314455	9
352.81403338343637	188.38553450963084	7
258.01335485098804	305.2262895045638	5
414.72047259508344	513.7220990279466	5
528.1042253903241	344.28006753205585	5
483.5255468131433	517.5515188335359	3
398.6570639807369	397.91628640459373	7
553.5633539056466	116.4342348073735	8
571.4616045128903	203.67868193629832	8
324.74332956454805	428.9803085603441	8
593.3325414922298	526.533930678107	3
562.5650959770453	240.91567436208993	2
390.6516016295853	45.66958075370677	3
603.183244092929	144.45573639091336	3
521.5164608537422	456.1081436578776	4
157.52131651642443	14.043486693176453	5
492.3842503583676	347.9492760212763	3
585.2945673573015	42.97884828098152	5
490.2324767777243	150.85502681228795	4
511.30613824954264	13.73426854242728	4
208.96610826624504	61.42958858328235	5
342.99758312831307	469.38338597990094	2
120.90617560979578	21.01145498537519	4
229.1554047109326	30.04953661427613	3
431.94297254830747	20.428675577156746	2
287.2797580195129	194.54331038751394	5
392.0811720785897	490.19266255970444	5
541.4624077364009	341.21409477521263	1
237.7929339006563	14.355285540704738	1
599.1013295431545	194.3785962339029	3
545.2361769795491	66.89412765338281	2
590.0524318944819	316.24034612701104	1
332.234375	150.0	1
518.234375	214.0	1
218.234375	83.0	1
465.234375	543.0	1
548.234375	531.0	1
231.16741810787641	173.36767922235722	1
167.12076544433756	156.80388821385176	1
163.80800754794762	46.37861482381531	1
482.93701823351194	488.07970838396113	1
