264.9504542914166	325.67897638017536	7
262.3836204087553	133.23248164715773	8
509.3006227502476	439.0993502819133	7
301.2879546727804	166.58808820974843	8
496.7071687047679	572.4071081409477	3
388.11291917922097	444.64451156241506	5
295.14655960349046	138.6298403496931	7
303.3135503796028	227.68168740125014	9
575.0893164426828	210.93669730591049	3
367.95890730788705	370.2429767583453	7
400.7295139961458	191.54065528817011	6
513.211312752129	527.6218904975226	9
546.1090229485254	405.2346294046173	2
446.85743241142535	378.767489060496	8
312.56556937524334	350.5525063376257	3
289.79056804795766	90.48374300943176	9
354.66839540993976	200.36258751856414	8
311.4365269398213	200.47522561087712	7
264.9050189417245	221.53641743985915	8
455.8931809901033	102.14458285530311	9
388.8594247311925	401.8367110118327	9
461.2538312730764	508.468749997712	3
309.1233541627637	385.2079275146889	8
571.336512421995	488.7130968847709	9
467.61655977217106	401.369744835966	2
609.9374826192452	149.4715169902898	5
317.4330940201569	10.08053360532135	4
574.6226507532514	628.6952177103594	3
398.33850384720756	140.6859559593122	7
497.4469061369355	247.8115742314971	6
266.5007836876805	33.01651183251612	7
463.7645178357499	610.8898771952879	5
183.3380773118879	197.92987960266342	5
345.5969390850167	270.27409905552446	5
584.6463064725357	451.50047144433836	7
519.8580395103957	289.7389732823524	6
447.9162906018795	342.2444569719687	4
391.41238726055997	514.7241073357137	8
217.33152715312602	20.048872251823976	5
531.1586248842974	430.13472730164005	5
496.8108695936585	546.8440237903509	4
428.66435345849743	550.3605413505242	2
407.930950309358	75.21350907255743	2
383.05390928918064	286.62760060533117	2
366.3125	300.0	1
145.03571280173796	30.919076549210207	1
370.30324975625393	456.05637910085056	1
501.70931297972163	408.5735115431349	1
381.87592499708677	7.928296072870275	1
555.234375	590.0	1
408.234375	537.0	1
