248.09075333448465	324.06283315815796	4
258.6518862943109	291.91235212615084	5
453.5297461005643	104.09674468943254	6
390.5086693244459	365.01741132078814	4
299.3685681905425	234.00806394379663	6
207.0709019466455	285.5117910242998	7
413.29776230968844	411.2798874016769	7
440.1344478639211	293.3030117010893	3
527.3993304393027	276.3977839011202	7
215.80838448926787	323.4834979716243	7
495.6159045850153	383.8185464061411	6
608.4699207563433	255.6567893296032	3
492.5562439637853	325.3757606724429	6
266.4594953420479	369.8018285989167	5
424.8396824736161	274.82961201757723	5
37.76415645538282	10.135614271183147	2
593.8213022573796	465.9926527158025	3
585.6701285046558	153.88613101894168	2
575.9466392878994	240.06054777658102	2
288.3922366730297	63.42345870461736	6
86.70109548038204	63.356151734302124	5
334.28728374348395	193.5039908974895	6
592.2388871333073	353.4976184537254	7
39.450086428191	135.5973226650254	2
131.67548468382898	129.75532611933022	4
432.66781526157433	452.8982510390837	6
517.3777074209593	427.78827672139926	6
569.923355896924	276.629308356068	6
515.0270911272817	243.54268716561697	6
242.71898990905845	97.81299129325757	7
566.6204865380414	317.1839473560215	5
250.4712979788062	129.831169145782	7
211.29416711874796	103.65608107444996	6
283.7508721717715	311.5685096717173	7
468.8751640827941	422.88387645206467	3
193.5071403111977	247.13835736935738	6
287.6865928694358	337.46906506069894	5
536.855022049337	306.193363189878	5
554.5467113667423	443.93822126480995	2
509.95614080821326	460.35997432636145	2
20.298534879211548	68.47476195467766	2
336.70237811850956	141.6037054929531	5
341.68414304687127	162.56039390675488	1
274.97801740129967	202.19797811165773	4
64.21847923552951	31.47692358310631	4
240.90442616723976	15.884138545276205	3
311.43723809694427	274.21527711990063	5
191.1649870683732	342.71130012150667	2
290.62928583388816	383.9300620894976	5
456.7734375	477.0	2
159.3241272301768	285.5884277639782	4
131.2734375	189.0	2
395.68207664086606	313.1201730635055	2
338.7734375	398.5	2
370.50689175790336	368.39669319899	3
405.7734375	475.0	2
146.3125	205.0	1
187.2899313123467	83.24443236122528	2
607.8664132464926	300.55594945089047	2
222.52442104797507	176.97123843562687	2
516.7513642502342	348.9546881300374	2
477.19383975210496	293.420803723932	2
392.234375	291.0	1
169.234375	302.0	1
147.234375	262.0	1
142.07767021654308	50.09062770420576	1
352.8893227708672	237.18597431825697	1
608.4984514929852	184.48305977908763	1
182.9224278989434	133.0977181033975	1
175.01699092815622	169.98975828081603	1
309.1725057746543	15.459538274605103	1
557.3125	509.0	1
547.3125	488.0	1
426.3125	225.0	1
340.3125	262.0	1
181.3125	223.0	1
72.3125	109.0	1
171.3125	33.0	1
93.3125	225.0	1
606.5330374682968	487.6811817202647	1
239.46118775663166	386.9986151715649	1
129.83124692756735	69.21926450223111	1
66.9046441198533	149.97507308816742	1
