291.41936692094987	269.7264842117646	6
404.28699898795196	405.6695114675415	9
610.5911865238195	123.93941780688112	5
194.94862854374946	242.13993814658173	4
530.3444940991156	187.57917294175707	5
432.77300580176393	230.7157093461845	7
281.9351871887096	346.22653010550374	4
226.00415645681733	256.1161572896898	6
287.9226423636135	293.1802604323695	7
113.75865855515413	70.97833793057612	10
145.5140312413606	68.81692100633774	10
31.289462875499787	74.9427339872586	5
612.0082304494924	169.29486966600066	5
505.0906137390849	348.8271932214859	5
252.88300525648717	272.61325986029044	6
246.36330065339803	35.85790036273981	8
375.53254682885176	274.3167503483851	5
24.57349318395769	128.27415756270196	3
428.89177285308557	449.056381805483	6
251.68027317042433	191.1375422370803	3
23.73045716243007	14.47656839477408	4
363.55771328561957	54.47381482838716	6
390.0292444988624	376.6637784446124	10
537.9338085153811	234.93731004235423	4
201.43711239640476	189.0718465996708	9
457.055875340837	18.99516074709279	4
583.1654231052303	217.13214935887476	8
546.2670269361895	123.40783265827244	3
346.23502251714683	160.53586530469414	10
267.6931733585885	168.00290292506247	9
164.55577422067125	177.7660325932302	8
567.7383071518985	81.22309105112136	10
393.74772018256755	208.17142580862486	7
465.9848566130291	449.3051338577518	7
301.23156565810234	74.63588377524766	9
594.7300546473755	445.4976791474754	9
196.69927074756475	150.79801628249356	8
337.90569702009446	119.57060002585112	7
578.3852018809578	130.57653309627545	8
338.3104697509708	388.36755136190675	7
128.3730555308186	163.88902682809402	3
485.2675877996931	434.7095990279465	3
552.9318615019499	260.3539489671932	2
379.234375	156.0	1
333.234375	286.0	1
224.234375	207.0	1
575.234375	418.0	1
317.234375	342.0	1
310.234375	103.0	1
34.39256600253439	149.97507308816742	1
147.66045105641965	219.19433759039853	1
591.2930008508037	484.5348515156178	1
273.51365667184774	386.9986151715649	1
506.34208706038964	128.99953839052162	1
