328.28669344125194	444.29048637317965	7
176.68638670053866	323.31796673831315	7
263.6475916591262	261.35346062298066	7
467.86147347441874	456.13332820433914	2
402.8981720705617	377.2310355439298	2
364.82900713038845	338.7114290535342	7
77.52812525359542	175.9093466976992	7
112.30594850875049	326.4433845991668	3
490.8313659668225	329.59232192710596	7
156.16502800598246	291.19696617587465	7
173.14133045375837	76.39902699567774	5
186.0647784337897	244.49555293097757	5
420.78838577825695	545.6087859670719	2
58.85516137467239	271.65915667646186	7
234.62242713598368	389.51457082217905	7
178.24984431792666	176.94347775009638	7
237.81566044746648	73.67568597058894	2
344.9456958137813	489.3586169914932	3
72.74068628877966	339.01927104550083	4
53.841363074128935	35.086751732060776	5
604.0113672552134	137.01918249701038	2
12.310764394971844	10.024407079588679	1
268.3534490859977	506.3355525653347	1
48.0266632775391	50.341283274349905	1
599.6832145584988	209.75534697645793	1
105.70938251794364	140.53608247422682	1
330.1475991987904	525.4371441760271	1
299.73307450839525	45.097399599938456	1
513.6835240546229	283.1697184182182	1
242.234375	329.0	1
169.234375	364.0	1
286.234375	383.0	1
290.234375	476.0	1
255.234375	172.0	1
