456.3896461224401	298.55154605207065	9
584.9520533378065	315.2774997325006	8
584.6391748167114	488.4020135174424	7
150.26155745325045	66.21525267082002	7
607.5117521654341	439.07617518571817	7
140.6183769379296	107.62133068120443	8
211.02928275756324	300.20754424666376	5
280.2549982693097	249.50703368267733	9
532.2179541256329	358.1955028345227	6
58.63885469029793	114.08180566355867	8
388.7006385241506	354.9444383038631	6
82.5078125	27.5	3
502.7734375	445.0	2
205.7734375	104.0	2
505.078125	201.5	2
607.5417970604784	161.56253501525381	4
599.171875	526.0	1
533.3125	7.0	1
514.84375	360.0	1
