489.07957026278484	284.89725119321844	7
136.12714444257017	347.66978256869265	4
54.49032842775371	221.04897101587267	6
546.7935665140806	33.574576223597084	6
252.4632239906573	346.56272048864514	6
127.46302180554358	267.6115219952443	7
117.15542393418505	75.10570621349852	8
259.8837581512114	8.909156103149321	4
150.35774392820178	89.55947496056805	7
524.5587439149272	141.55414294913834	5
259.18974712152703	212.02211017246123	8
354.1672187373334	36.40097490589943	6
420.0886090525081	500.49278448833405	8
422.67270059652134	367.5500716355077	7
396.2882970324314	344.66459503249916	8
437.50573537035905	530.0915162582703	6
104.90981716695981	199.06575134669328	7
360.34630746824604	477.7492336561961	8
139.88894351767738	188.38764576372043	7
560.679185426993	233.92633967041144	6
106.76298133399632	10.145586547698466	3
221.28692660679036	418.399888174388	4
40.67896340262375	279.50166592231164	4
173.14431592401155	280.0377265171293	7
565.5908720709515	585.5984417734257	4
313.1096602209451	452.26796249265686	6
285.6161162424544	440.7971603591352	6
446.7201587667152	564.6851347768423	3
419.20137471567995	392.3322836277041	5
97.21809722722365	242.37595342075875	2
69.63139822089934	245.7805589307412	2
400.16878859893916	124.56052074560144	2
572.9787135597862	292.74809972155145	3
353.3913393084075	112.72863487046024	2
206.50050232693025	63.740756815862724	3
445.50486567516435	110.38172533879887	3
215.6968328179179	26.693266878411976	2
53.17460316356308	60.10684931057578	2
296.05997919453796	386.44913874652025	3
463.234375	456.0	1
262.234375	422.0	1
274.234375	239.0	1
205.234375	11.0	1
392.234375	84.0	1
398.234375	294.0	1
511.234375	408.0	1
602.8109171183509	584.112429901156	1
10.18911149831939	60.649711130918526	1
38.80666347997081	244.27900199792668	1
478.05874147499713	69.85422065639428	1
359.4771869131898	370.2608335296596	1
196.2284529435083	242.98612951114367	1
495.66949091086417	348.10904585325306	1
410.7637479306125	425.13730255164035	1
489.1656848118412	493.6009720534629	1
