361.6566453288546	249.76720717257757	9
293.7956712801627	255.4282985727125	6
403.2120502454959	424.39801722954735	9
264.3849498164256	323.73655671366623	9
461.34474568823083	68.78396111786148	2
348.8785418019929	215.0215212065849	9
277.4471809061167	305.1214032928143	2
297.62040503821225	333.2361069248915	7
411.52681768206924	121.41800257685219	6
418.44213032381185	465.7071985735692	9
324.0321036921716	254.529176687245	9
270.1323256183458	138.03026044804966	8
480.3665894826396	297.95068472072626	3
591.2895342028495	77.703038144949	9
375.8677338434101	439.19090173039035	9
394.34127995126164	203.7460120558785	6
358.6200598521931	279.4049498235139	8
601.7988253537269	35.587333035814275	4
502.2377797667249	84.85312985341983	4
571.4464148160139	593.4648031739689	8
342.70830133448993	309.5769842905994	9
489.3225490087239	573.0632597322665	5
473.4406083634035	501.9811610989999	7
203.41836136574804	242.47315355475214	7
401.8737837138308	148.86559470687797	2
506.47540520947734	441.8872571424089	9
470.4496350759962	16.861422102605935	7
494.71569553212845	473.34476715041825	9
531.4778135977358	558.1195140158721	7
373.1102445536007	53.63673830903059	9
467.59053308319267	396.5486400235049	7
340.92272176155234	415.99606764412823	9
314.96831688068227	451.7831556657609	8
537.9876405232583	518.5283720943983	6
133.68565251176705	124.13604336175095	4
384.5431048403569	159.15267438147026	8
450.8395681354486	101.1242458943118	6
442.1342097406572	434.09422044684146	6
351.5005547642445	143.75548337467376	3
109.13429397284264	28.316971841821818	2
532.5897676164976	400.9379519926142	3
538.9324999370376	110.75243351767176	6
310.8564022596323	505.1046808023741	2
425.76439498582465	287.3280893752561	7
521.14719473789	607.5476996460994	2
344.0602777883084	508.6567164179105	2
238.50033731833557	26.50206561360875	1
270.523663650105	244.03985419198057	1
112.00204279871504	89.14602246499462	1
229.4650347064479	295.75503923680566	1
595.4881077046513	329.31589475303895	1
223.234375	438.0	1
597.234375	366.0	1
241.234375	409.0	1
227.234375	345.0	1
