480.74968349512625	335.53423458219754	3
514.5421990372371	410.4800752091833	6
420.936918985529	496.0574387261029	4
422.4795584629203	277.6384949269469	7
491.3243841882023	463.6444074221056	8
138.53899309152706	101.18719039290387	3
296.47522134163194	312.3562855823973	4
371.63494594609807	494.8038881919721	7
271.755773565912	361.39246153361955	3
453.13226405037824	455.6821049392214	2
260.87112620911546	309.2202590617074	4
598.1144786374608	482.72533247587467	3
96.44275546710901	89.22223572296477	2
529.4435800963935	518.4389882703123	7
273.89788597859126	230.37964763061967	3
507.95630458632917	489.749027692042	5
280.3775326970429	101.75045069489059	6
180.9085504693552	45.455225748012026	6
158.77374569867527	47.54165649410682	5
569.6570611821023	371.37934680631804	7
323.5527955379472	290.7672247253129	4
522.1024688841794	443.6384331210171	5
421.3911732699757	260.09663025080783	1
214.45919487751496	296.5080111829135	3
538.407184555838	389.8970240141451	1
169.0844827237113	100.47026825448306	1
209.78535190521097	52.232475627872724	1
574.5857349393932	588.8779185989127	1
473.33839485863547	315.6817971995692	1
493.2651524144116	619.8270503154332	1
298.1299794533545	204.28675577156744	1
535.5442953613003	576.4199270959903	1
433.234375	458.0	1
310.3125	240.0	1
116.3125	63.0	1
