349.673741013684	281.2868267348193	11
269.3897330513642	192.97932874630374	8
182.08291851269354	62.723756673946205	5
407.230112660264	411.20230357052304	3
547.9072765368061	35.0584164107749	7
429.6826921377626	181.27033039289975	7
431.77562309986064	315.41945783672696	9
301.03676286863845	192.48030223003423	9
476.4521335456949	104.08809130682587	10
300.3156166528686	11.656826578191199	10
453.11253923623275	289.1841759428202	9
151.0596440850603	54.72556286348942	4
528.2823762280925	141.12034865398365	9
523.9827724117805	419.06515304641874	4
456.4988400904969	9.770194578916154	5
225.8644063216122	194.10783704925814	7
327.23225774674995	245.8021429693665	4
391.274292062825	91.91286987332604	6
211.99891930809872	239.5971168187389	4
566.3343066355335	185.21417031818123	3
181.39591053836895	183.36125866209693	7
470.18846519227634	197.23885077989368	8
442.9476338604507	115.501308570262	7
556.5241890562102	318.3156994047065	2
413.2896978127093	213.52759472310103	1
302.0173006550115	345.61176500625527	1
138.22146063526256	5.243883674411448	1
607.0246515527322	280.0233882135713	1
501.0982034930802	5.243883674411448	1
399.3668622872758	280.0233882135713	1
167.234375	107.0	1
426.234375	264.0	1
