415.4516126192471	143.09292342190594	10
379.5277557103278	383.4598123636757	5
563.3112040502704	121.93443606195129	10
249.3832984738737	91.48386806161815	9
454.68939745213845	117.44741841371545	3
463.09868433448855	89.76203543815419	9
587.2419440567901	528.8064719954707	5
534.2416979455442	117.12807229519734	8
509.5365522716372	321.3196261370592	6
568.5122857767072	357.08790861116813	7
497.2155265982424	51.75245014639469	10
561.7039500890398	552.7096360394739	4
488.55186670933006	420.50717872431346	10
511.2802534227329	280.2500304329478	9
400.69154109042427	214.27520851847845	9
302.83699803262977	144.23356199765172	10
222.55597157245222	127.87012448395672	4
503.76564245236403	16.418954702912746	6
387.2458886279826	447.99333037361066	2
508.3837823063491	504.3410113567518	8
606.7431216654229	14.378252348361492	4
252.51345677087903	27.55033564174722	9
544.6121914967348	533.3745973507885	7
478.85536475960396	206.30270988180226	8
319.03322210407	51.444378562604435	4
329.8983969679259	223.1448426746387	10
547.8345109490746	338.3916125424314	9
379.4490640223077	332.65120570522646	7
548.476037506076	37.13607911932998	10
354.5290081210603	52.48472989603556	6
397.0686945024926	297.12091428742053	4
602.3982019148068	172.12221978589156	10
400.6973932970202	24.278445888533803	8
470.9937283484154	282.7213293913246	10
338.60272361045867	284.27040648887987	5
576.0256791562554	196.28696082411943	8
421.14197504224694	366.9793297067035	2
419.6612274405129	302.82772720166076	9
578.7917772364452	84.39779785793732	7
366.4514013608616	160.4964251086791	8
351.2484121535505	309.8951435214225	6
224.0743690222218	47.69946246416797	4
402.7751476457032	118.38234269167523	7
273.4676479214504	220.86231463083328	9
504.058517312189	540.6130351931391	5
274.4001143990323	146.50570784185277	5
465.2102266042823	343.6240176936441	2
436.67051636230985	475.26350929636124	3
432.71833830794054	46.30473774004906	9
402.56804796735776	103.44353827046524	2
308.0129905193015	312.3751511314185	6
356.89312147818305	4.540045036148635	2
346.44534728272356	34.4169552927745	1
467.9153017473511	271.5430119867817	2
595.3519627822269	494.2194937711506	7
407.33109829964144	375.81614186656157	3
402.77693601325285	269.48769811324826	6
420.21530162042177	418.4220937068066	3
468.33365871436877	135.33240883506573	4
552.7832965494329	481.14548392060317	3
538.968977074319	65.17947742115363	4
494.0199591061544	339.52377288813665	2
586.2261501427986	445.5457668823445	6
549.952721147263	390.2805502363456	3
549.680886015778	433.4992306508694	2
603.3900540037957	240.06934645434734	2
600.6116622749237	555.4913221074701	2
592.8699538422057	604.5441427803826	1
288.3125	318.0	1
607.3125	216.0	1
402.234375	425.0	1
583.234375	275.0	1
226.8389081360726	185.85768631756324	1
463.85967343883834	2.0882886103096996	1
420.374023235323	495.8749784455807	1
