264.98904741682884	252.5993466949682	8
234.31347196394455	100.16003426068367	4
597.2577737740166	506.2706813318356	6
348.11299366501476	255.3002363777814	8
434.37858601157143	152.8943489462928	9
609.0385409547894	273.22425253686936	7
530.9161536460762	305.61120943220914	9
608.3411685492558	167.6148034340829	9
289.11630893238265	32.50399921218591	9
401.19654650665905	72.59854546800027	6
312.4520634996795	229.56412765819678	7
297.8422068766208	139.79736854817034	9
371.85475336287584	289.3915348309795	8
421.6150006495608	183.13290721811342	3
499.0428116445993	273.74997576707335	6
300.29102489753785	274.67277408763533	6
206.06118494427994	29.83908984607136	4
278.1081768983755	142.8454529181002	2
484.1414801939121	305.2458478534989	6
589.0876991829036	468.0276569288279	4
503.80859375	374.0	3
445.13068797326537	298.21314817664256	4
367.65209548768206	203.85347745807047	4
388.0356017867225	231.65833205108478	3
569.7759207907827	413.60901677181107	2
447.44201430326166	497.81008616710267	3
80.41874187501047	137.49967240582546	4
258.06434168674366	34.704407130021465	4
118.82845659435404	126.30499567239613	3
270.7716053022691	419.80412371134025	3
393.70816687848935	157.97930502505017	2
184.619313477255	58.29258347438068	3
208.82783514841208	112.20710878596708	2
572.8020378809797	242.48211775730127	2
388.2734375	326.0	2
116.7734375	317.5	2
221.44266197396902	134.18421602524	2
257.7734375	205.0	2
451.3125	543.0	1
416.3125	544.0	1
275.8670268709966	220.68732907493867	1
329.234375	330.0	1
157.234375	226.0	1
257.234375	461.0	1
83.234375	282.0	1
167.234375	184.0	1
397.234375	379.0	1
249.234375	403.0	1
96.234375	237.0	1
188.234375	119.0	1
193.234375	239.0	1
348.234375	361.0	1
263.234375	286.0	1
299.234375	363.0	1
600.234375	346.0	1
564.6465658626681	218.22270810557552	1
376.293774591114	59.78027388829051	1
48.0266632775391	97.53623634405294	1
156.05066476411486	141.5848592091091	1
370.0011143103426	504.4616094783813	1
9.221924879448775	227.58455146945684	1
58.514430412158106	337.70610863209725	1
567.1711364411799	478.24219110632407	1
273.51365667184774	372.3157408832128	1
