267.2941015118013	372.2860161889017	9
423.7769512511818	405.19256139663	9
293.09350509635647	341.4386388289611	7
357.1565109530173	290.07191474120367	9
591.4240620602583	477.7506248170803	6
412.136904541205	453.7350924265586	9
573.6365910390119	246.75573922099028	9
447.5325265565776	222.54878437975995	8
453.6486634286984	502.4063627603601	8
518.8651109885946	392.83722892876847	9
202.64581051536746	340.04263526384784	8
118.88661882324654	345.68194106066426	9
89.67726869418547	69.84427844277444	9
276.0561437021295	135.6944523614623	9
359.14134564627926	372.33338033697135	9
297.00569645241103	408.9741592892473	9
423.81067626004375	350.6731461302479	8
153.44124825573186	17.140158709946252	8
76.70268313128207	176.26864696189025	6
585.8416682287184	273.8545209087054	3
106.29627287355439	88.88709097128131	4
23.607007051048583	76.32113321086187	5
535.6928775943693	535.0933806301593	4
211.26492604634083	126.86231066112236	2
582.6343440753952	521.8481803615068	3
7.392541930574692	226.91698115998963	2
223.72095283783824	111.76200184643793	4
81.171875	336.0	1
166.234375	126.0	1
225.2699278526003	144.73118941375597	1
352.17191018149026	446.7788890598554	1
452.8544746738327	343.99876904139103	1
555.634592593099	348.19387598092015	1
532.5615048969372	489.77873519002924	1
