340.1489049071763	389.23089401571764	8
259.59795535424894	399.01977452706245	7
200.92022512008964	55.811957807367335	4
182.39091184917066	256.58680061331677	8
388.0205082115327	142.94892180788455	10
350.299340258283	448.2702332700055	4
218.84386035354038	124.37086039401811	10
188.42635885873852	88.9242140777055	10
512.9174047147055	217.74202920731744	9
425.7885498536041	261.83172987898354	10
271.8538749342471	23.899957899636163	7
590.195712245577	450.5453552398203	8
95.7222854821722	234.75888109504683	8
232.30304617609517	334.5351380870102	6
442.37788570732664	305.03662376065154	8
196.18968750206943	358.1609365000704	5
573.8904193564142	252.78547852934716	10
256.6641784696432	231.96307808138286	5
297.9009815612182	10.330250462503585	6
502.90539154424476	450.92124001956125	7
587.988074702166	298.1508346361954	10
171.7055411530789	278.4444436280828	9
222.19004694930663	279.0763146144604	10
341.30159093449316	275.6306190408211	9
533.8093448952666	246.2765844103123	7
373.43531264079445	400.4439888476236	8
110.81727195821719	294.2358433115551	6
478.3178958936587	368.29133464171946	10
306.7813861865314	228.04693121224	6
34.78836593110381	208.8060572545861	4
388.2695472459703	371.10811561260107	9
141.88152765860758	196.3238823047445	9
307.770714166925	352.6082231033186	7
569.1651488431744	473.12432160664343	6
316.1201020245877	190.20084456181488	10
600.1716720930558	165.21291982650828	6
425.08404338393564	440.6135319866901	7
471.93557230863735	276.0713428458308	6
356.76348429623016	364.8926254744759	4
471.184624644831	252.83156922541673	6
425.204490559627	225.44667040189427	5
361.0762878863726	338.3814131917493	8
256.05348656106054	38.831950541098095	2
9.745513070434423	153.92308669975773	3
504.79404692269964	114.40803681884239	4
149.17485584776966	61.61184854429676	4
551.2873930968032	358.35996641743463	2
546.9156002840019	427.6788339247257	2
569.5850431930168	58.26154958306584	5
566.7318299248001	408.02043667994906	4
38.04229381992523	144.006375219652	5
167.68765087920337	248.38481166464157	2
297.0257268212245	358.88213851761844	1
472.9108283926507	413.76910669309746	2
277.68841383616075	298.46443489025296	2
486.88830310903774	488.34059086013235	2
612.4994614640789	373.7006955162548	2
138.22146063526256	308.34036005539315	1
525.2200679027039	490.82751192491156	1
609.122204979656	420.5594706877981	1
540.9517186046324	506.5591629481459	1
593.3905542777275	524.3883674411449	1
427.6838335507471	457.2666564086783	1
424.234375	86.0	1
531.234375	107.0	1
75.234375	104.0	1
123.234375	151.0	1
359.234375	192.0	1
168.234375	58.0	1
112.234375	273.0	1
596.2781901284492	346.73535844471445	1
