327.94480052086396	236.310085054678	2
555.6433684806045	448.4093424813606	8
572.0333261411598	188.52021263338537	8
285.6673569495578	282.68904170374026	7
586.0893994472999	162.05846405017218	4
603.6368330341406	522.7357877115402	4
430.223151623891	182.87130534600254	7
599.9753902848295	384.9806045851381	7
527.9519114367178	19.591856174914774	5
498.34176726877956	5.892350764071242	4
481.24123319286366	47.503828015372264	8
271.88835012936113	6.645361704923877	3
591.8883690480948	495.8521686940045	6
549.8175424768626	516.8132030605118	5
376.7038052348127	277.5264239020096	9
232.01308480943572	192.299857402003	9
516.8732130972378	325.3834274439581	7
454.0685716285739	283.23980078596446	8
482.3045018167818	425.90625171842464	7
523.0510826645534	183.1421360412683	9
393.68350100767793	197.26037458181304	8
601.1468906484524	40.07285743294834	6
502.4421643870484	394.59453941734614	7
410.6519659251759	4.766929979657316	3
485.685908781844	310.611137929673	9
574.9711333081538	11.34861717732454	6
446.20554180334557	37.27285500891291	4
207.7427634233337	217.9231484557323	7
588.5045240353986	331.2545625815069	8
262.7414226738663	132.91435418405933	5
505.9937578206169	67.58986503166366	4
588.3128455433789	576.2868801310775	7
409.36045749120296	128.12468185278706	8
318.0096262788045	125.3954448571167	9
412.5752297024511	322.8391820082419	9
527.5810593066315	53.770580618682054	3
513.1662391560396	134.1778780838576	6
158.28749764849022	114.34401044775126	7
371.27721683228594	458.36742855264436	7
466.78883755809187	103.59511971637039	5
211.4586993303035	128.4741310914903	9
575.2575307427956	526.9442220176188	8
458.7005389762338	153.13925563022258	7
366.50378062244727	229.11541091122479	8
190.618071526594	189.53986225628057	7
537.3785131019326	555.7007429523798	3
307.8637431985431	254.6312338734982	8
570.9701105539336	70.05132998095334	7
393.86528707686665	423.269375766078	4
517.1434468043955	421.52198085040663	2
486.5056689498227	474.02799385579	6
354.9951831903251	167.06929425706795	4
420.7233888455787	443.04807989292703	2
458.0253640322925	200.156962903018	5
359.8523012973041	135.33157535393156	7
550.2139940766374	373.13822321193277	4
383.6335718074996	163.96657816648445	2
147.55406469003356	96.24349939246659	2
540.5551312523601	394.40641829942064	4
411.5933361167074	497.0178521649083	2
281.81414110902585	387.12566878774817	3
555.2434498464729	594.0596445051863	2
482.6100793285931	362.0824967943907	2
454.69379579488566	338.8057537046425	5
479.6661089494229	557.4573656969707	3
467.40892815307893	520.3021411781272	2
442.9434800218726	411.84902848265585	4
503.51163261700515	245.13923454894206	4
385.5081419629492	14.229989438417466	3
566.659220093934	108.96993796005025	2
303.4660490166044	367.1427928490385	3
466.3245513420493	391.38054826593475	2
332.1343692651111	279.74716420519013	3
420.89998020541054	524.1471498874027	2
360.17487878775535	396.2900579903595	2
401.9297268735727	511.26901579586877	1
523.0116534156474	474.28422699452074	3
363.63780400004623	7.6899563028435	2
525.6265272344756	262.1352107049712	2
311.8267809855028	349.2426527158025	1
541.9986191573415	480.37380454122285	1
476.4167291993904	21.30057737370249	1
358.36932727507826	59.457313138275616	1
498.3125	198.0	1
465.64797379925886	178.836170545057	1
376.22989064521175	399.18788068093085	1
327.26284510847165	403.44588474152744	1
461.38996983954235	499.25097610495084	1
246.23010574324545	13.251032806804375	1
283.77469523566475	435.07557715674363	1
284.84375	207.0	1
