341.0468311883711	199.21387037860018	4
272.80158867945124	139.92096959281076	7
310.94944281832375	332.2505910766408	4
480.75475567804574	331.4684361274662	10
164.89204422332807	37.55076764256192	6
198.07934612558995	176.3779316468846	7
208.07193785574293	17.1042794009523	7
370.0088784448714	148.30193483794062	9
286.2293522094415	345.59244127140215	8
360.36867696085375	27.73249736336668	3
504.4051216509232	472.6070186672366	3
589.3903141324992	55.16467620532809	6
491.5986470215624	396.82883983466405	9
599.9979967271923	280.8814631209423	7
311.1152908672216	269.95333498910213	5
332.0270424003988	419.20814362955207	7
405.8377328467594	148.80621558955642	7
207.81524045033748	276.5353737858579	3
298.62238650479907	251.89607491226877	5
535.7344384035326	294.010679965991	10
554.1875076696657	102.74209897186937	4
460.8711333271969	45.683324156609196	3
281.16076556542305	235.42317468880623	5
418.8199741391285	316.6338667487306	3
189.64992345970813	51.077171355544344	3
417.20550649460216	32.75603939067549	2
388.5387681752185	84.13492827047584	10
417.8349850654485	83.22151128285405	3
221.82976603613093	285.11399761954755	3
245.90393647548083	18.58068679207517	7
572.0399108340612	307.30678949649774	9
589.4607102606899	491.64884769774545	7
273.0717818697982	119.02738882905062	4
583.5861741076867	102.7105224289948	11
565.1198764369352	291.8043545160794	2
281.5750987352712	72.7578969691697	6
454.74423562774564	63.57474384055695	7
299.64920816679586	58.225808479706394	9
321.0867087036334	73.97846725461268	3
540.4039966876962	327.60336205570087	3
408.4454329904419	303.26452470920685	7
454.1494120230824	251.7322729769719	6
594.8893109883196	166.73007147506775	7
354.97589377054055	268.72212770926217	5
607.3125	167.0	1
495.3125	461.0	1
198.3125	159.0	1
493.3125	345.0	1
386.0937002722515	296.0301421208809	2
253.33021453670955	335.1774068630365	3
283.0935110465024	297.3043545160794	2
556.8654173738078	509.99203728054465	2
420.6921351518587	324.34058323207773	3
579.1080537373376	469.79086805196846	1
419.3194562099685	486.37260926736576	1
612.2717249222633	361.2558346420952	1
471.4976426977614	151.28262454434994	1
136.90909516237738	86.13171324422844	1
514.234375	402.0	1
310.22084164301424	302.04769964609943	1
230.5138114199098	212.9016771811048	1
355.3125	399.0	1
543.3125	543.0	1
178.3125	72.0	1
