400.75264649356245	158.96478300899764	10
457.93381256692237	355.53550027289333	11
169.7871674849187	334.75809352901103	10
262.9892331066254	119.90525335193323	9
73.67969614803522	194.32122526745172	10
594.9973415928098	278.9116018672353	9
208.621068963846	131.13155280116786	11
225.74552365640125	268.77266009288405	9
81.77224738189406	136.83043503676012	11
308.8251048185229	418.26768070861306	5
413.3787953965493	370.27617728238965	7
461.58259085747187	479.4364585595896	8
549.8674722829423	425.7208993008593	9
73.81298876294949	11.419804499497937	6
305.57003614215705	364.2143685474442	9
282.86592182630943	171.79064377216008	8
19.974108342300013	126.11696478118029	4
529.3221859502171	144.63332413395807	10
607.8854082550819	352.70694588639253	6
73.02020739460264	235.28557894735158	10
549.9729692578944	174.98852785679486	2
487.75135948516674	372.74977775823845	2
230.08857581077763	213.31860491074013	8
35.49858379986805	98.80197046282109	4
390.62158817342106	397.08590166811314	7
143.84033305119618	368.64226257137017	3
240.48767124440582	352.3772716075422	2
496.3584950019766	386.28226107375895	6
437.6940388119931	414.7032409532028	3
249.84989215278438	266.53028133577266	4
241.95883634766113	326.6523823677435	4
438.83850974559255	155.27276926373906	3
431.97365955069245	191.3050913634234	2
100.28010229065964	213.31733276668052	4
175.8553379584805	377.49039975989524	7
131.4866151259808	151.2213352635484	5
203.09078656066396	348.14063844193026	3
466.58141880513335	409.09981391195186	3
451.3332211092868	394.26784365109904	4
395.8057203054131	488.69154862470344	2
544.8677061084893	186.72694918020642	4
376.77049669842654	430.05202213139773	2
178.23270651839317	367.25285022645636	1
383.6813975747157	416.2198969233172	1
295.3278154105977	421.542401999063	1
319.81133817896773	432.18741215055445	1
424.13243519202274	142.64313602998595	1
221.49400034019283	165.79169881677063	2
603.4037480755665	34.2058883589299	2
42.7827797102296	137.38975226957993	1
29.148682435224885	283.1697184182182	1
487.4641062180755	208.70657024157563	1
549.3419323123276	205.56024003692877	1
411.234375	445.0	1
167.59261587929294	199.53715078264315	1
614.6781123893373	294.86678119631426	1
244.23176789399935	201.19069186318913	1
