146.2203548725949	33.87486943766878	6
399.65770369592246	464.30946464854924	3
407.9392292025965	326.71531016129256	7
160.1950287984268	218.96068895480772	4
482.13248714324146	329.99342419487203	8
312.971837362266	412.3798921614644	4
574.6328551850647	425.5639289104396	6
594.0659970985041	458.6213130351684	8
352.9001712387196	46.072228125925264	8
361.7776074324385	78.26278268097218	8
258.20241094005405	275.3835065033535	6
438.06120229075015	305.58805362452335	6
481.24437302941203	289.36346273774814	7
175.8376446237005	173.37950802165795	5
115.92976799126366	200.9599402259999	7
564.9878583096759	342.5114189453806	8
545.1944305258074	30.984309591775606	4
450.3167208952153	254.70040844589334	6
275.03310125060324	163.62602204465642	6
182.1225041667683	244.17943145099247	4
422.28599285482846	83.04213040398423	5
407.5612846426333	265.8595832880755	5
365.1163908289124	299.17958036165464	3
462.937651002661	359.614277872901	4
535.2293382200946	82.53490745939874	5
427.9056481916713	143.08013824851344	6
357.18808803405597	181.0815223626746	6
602.98525152712	323.4852571256711	6
440.44715358138296	386.41985510308007	6
223.03304116838723	120.36647214765179	3
363.92992554559135	132.91983835311447	2
490.8200543143578	132.49492908960028	7
397.3083555403964	148.08918590522478	2
395.51449323030147	84.32205493194144	6
360.06572367800686	211.9056571189247	7
536.4935878127801	220.2167679222357	2
487.0827134577256	421.0686512758202	2
454.7652187411292	421.35423071193816	5
479.0614502970757	375.4314702308627	2
322.2403782452284	116.400232837604	4
518.6889135811517	206.46912993275828	2
312.72265625	351.0	3
493.0317112930335	209.2254082629191	4
568.3488115987755	87.76041920778115	5
326.99730808841207	147.9243501081612	4
550.9843066033933	174.32226279257006	6
514.7421875	459.0	2
487.7488336365945	51.96589598851453	2
247.54810359720278	220.92728772797446	3
479.7356627733078	220.98118299388494	2
162.14402106421917	152.6137650382329	4
221.7130429836817	321.32286325359576	4
459.9236990645443	176.67820026471614	4
408.22737492151293	213.23182336257852	2
572.9571524989053	301.88270037489553	4
286.2868000098665	138.45485155177101	4
254.63962877367337	310.3760609328324	5
447.77391806036917	46.18782719062878	4
471.75447696663366	30.91155255053726	3
344.4380589477248	273.30365996045964	3
579.2167550909205	207.60582606621253	3
513.3415643608652	117.74647375058541	3
374.67845627799556	357.58094102685857	4
166.12661062566934	6.00249915932139	2
381.95651815597205	165.17270681595429	2
265.8934948417331	352.64970710631644	2
235.93873785639568	200.27469567311422	4
578.7762910621891	273.49977469716646	2
191.20156660501448	288.00376388263044	2
491.8025640929416	185.27638728520003	3
188.76401722905393	51.9972092994083	3
567.234375	363.0	1
521.7846447550877	410.59348552355533	3
336.266957234286	36.11003192284181	1
272.3799819160509	90.27507980710453	1
297.0257268212245	61.83815309842041	1
113.3125	42.0	1
81.3125	63.0	1
151.3125	260.0	1
438.3125	195.0	1
295.234375	298.0	1
346.234375	399.0	1
538.234375	426.0	1
505.234375	262.0	1
292.234375	376.0	1
403.234375	399.0	1
210.234375	103.0	1
143.234375	81.0	1
320.234375	221.0	1
389.234375	122.0	1
11.56106414822856	59.619900866753255	1
557.8961123404965	532.24311501047	1
516.704184103778	41.19193150793861	1
112.37288851703993	239.56360166459035	1
355.18846549138124	439.01927001881944	1
164.40479786868448	310.0234845071169	1
152.48081864226594	285.09152596283826	1
359.52445793735166	339.29143584170487	1
395.3042110807928	189.9314702308627	1
411.86800056274234	162.32515188335364	1
260.5853899609352	28.710571081409476	1
69.55936017580375	199.26757962763503	1
