377.8817756124737	172.0867806183087	6
457.122041273215	270.50547710273713	9
277.5763615700031	259.84894525908584	5
434.0061947172571	190.97769533189202	8
437.31881839146877	303.31826542000493	8
376.73938524437494	267.2577386852521	9
276.727049846242	165.28716132079762	10
198.6776728786968	329.6845255573466	4
598.9634661051685	374.62274741959556	3
312.8458401445796	121.4810239429302	3
269.4761732410381	466.389829204493	3
426.02932035651247	478.4010531426628	3
497.2588428586804	352.0205359166151	6
481.4393983255956	318.5645200486027	2
512.6187337315696	312.17100514307106	7
196.23244640148775	178.20859986004442	6
521.6735211816795	454.57052435153946	2
115.71237459390426	381.4910820789435	5
156.43359033429778	358.46918756731804	3
552.4061958722344	163.51568431220676	6
232.7734375	366.0	2
316.1454275831075	321.9660832373107	6
470.194413212417	93.96667798547628	8
358.08781741779995	403.73478516951377	4
427.73859298409036	231.95441860465937	7
150.04387331241435	324.56749282422356	7
65.18788997929383	79.47936507982737	3
495.226269622589	206.28144741121224	10
529.8402363510729	207.47242051626864	6
565.8804697041087	376.8189848609916	5
583.5979610635579	315.71608534204216	6
243.37435827227563	22.361691697886883	2
528.759341594171	152.40515097706182	9
164.59747730101458	56.22363829835915	4
130.7734375	284.5	2
180.69257090490848	110.00757401956074	6
170.12142329712265	217.04212809828405	2
324.87925118494525	350.38094322203415	4
566.4804863749861	259.4839668463743	7
419.0656778361496	257.29235371253776	4
262.36315601545755	301.55265942573345	4
364.60992039461104	312.99800789697406	7
103.78151619847797	87.78809234507898	2
451.69086621403915	538.4103928553543	4
462.4710717961698	21.77996871136596	6
324.368515274294	55.81188922398066	7
504.32074110745407	155.83050031878622	6
317.2116397319121	166.71470230862695	2
464.9312738499159	323.8064078520267	4
446.0998321587719	248.456865127582	1
229.64579330312054	46.92859943997077	5
86.91860148266392	144.76754181761123	4
614.5092100685013	384.8652411241135	3
250.4985308668249	48.21825521533806	3
97.45817944607711	228.64301401075443	3
562.8703290896128	32.95387739950484	3
609.0334373771179	226.49423440174505	3
584.740035265928	171.4060475776177	2
233.48632078014776	402.3651330973996	2
73.43538531226051	111.47476872716287	2
98.34022276185516	194.4630712417295	2
342.5227098801666	192.38990613940607	2
189.44486890545733	233.44740279261615	3
285.05020051992864	476.1446376365595	1
592.3417775642655	338.7548853669796	1
433.1187936232609	382.0071408569029	2
321.8575228788251	373.32595911509384	2
534.3125	242.0	1
480.3125	384.0	1
446.3125	414.0	1
481.3125	541.0	1
251.3125	234.0	1
35.3125	76.0	1
207.3125	50.0	1
282.3125	65.0	1
153.3125	135.0	1
48.3125	205.0	1
213.3125	211.0	1
408.3125	217.0	1
285.3125	349.0	1
271.3125	364.0	1
344.3125	245.0	1
230.3125	438.0	1
194.3125	372.0	1
301.3125	440.0	1
300.3125	404.0	1
543.3125	430.0	1
567.3125	498.0	1
599.3125	555.0	1
496.687513380943	454.14104870307887	1
402.4880714413404	523.3001322763677	1
208.42494963519803	77.62083450014002	1
307.0745115026285	84.95091552546546	1
214.7821607179813	157.31651023234343	1
420.34239655651385	329.31589475303895	1
292.39163751416197	311.48669026004	1
296.58674436800953	238.07231881827974	1
317.5622786372476	476.1446376365595	1
122.48980993333404	199.26757962763503	1
212.6846072910575	17.829204492998922	1
100.46875830208803	119.25929526123937	1
399.234375	425.0	1
385.234375	447.0	1
283.234375	117.0	1
