158.23600938413932	155.31123941057086	8
543.5465448346384	355.37657132815406	9
148.90656084815657	356.0072465244774	6
531.7787325750348	508.33127102029687	8
99.9982466682419	300.6278871537143	7
64.72168559234305	224.3492844805363	8
126.693071040571	199.80127523209524	8
511.16526259255943	383.704960857812	9
229.04462917537572	423.5874202393667	2
324.38644568074716	360.9543282538983	9
157.68651264246162	305.9070761079322	7
156.68455635697256	240.11805062032698	9
137.8009805347628	322.08666874104546	7
225.78302144480546	271.22264703581084	8
38.34631140163067	238.2234286843516	8
79.60358989822785	186.6087332799778	6
558.3118932202117	426.4948557505518	6
595.7313477171482	131.22458912073154	9
608.4068362493517	58.35958961220375	3
19.634334375888933	192.40057140866827	5
69.43521432754827	329.307393664717	8
192.36574046209006	322.9070197393569	4
123.85298656635106	405.6246304419668	5
400.86740202548367	298.7904823874784	8
119.27691142102054	346.4743050914588	5
284.1874284781444	417.77996213598453	4
226.01026080519392	439.011500050166	2
72.54074175770454	291.30438856785884	2
84.81543634863966	272.12806496954556	3
50.88258386709249	319.06918104413137	4
11.61729941560451	233.08140044469587	2
598.171875	453.0	1
89.234375	236.0	1
175.234375	188.0	1
218.234375	240.0	1
212.80023110384056	121.57430252862508	1
606.241966525004	418.53821338619497	1
95.21994235728599	212.02016370351947	1
