245.9884302499329	306.15937966697624	9
466.40504029307033	139.26258400798028	10
503.7938658792949	75.27904022353421	11
456.0754294863217	90.3784820287209	11
271.18878770508246	256.73502968111734	11
524.2625401425751	183.3129853436762	10
164.57330555376092	19.38685803505799	9
397.328189487127	292.54891513742	10
375.70395189184967	142.04787868907687	8
530.454123554791	37.17093463938521	10
549.2349027589023	477.5542592708389	8
211.9741465250941	7.404334265243465	2
549.5642563732856	74.16812237749481	10
606.9894823197617	209.16014534102712	10
473.87891629316243	338.1315312880745	8
471.2865908866872	209.48554786128994	5
294.0280937204052	40.75776979540841	2
194.17929658232447	244.07943509524458	7
409.55454011786776	237.27731511194483	9
315.64481962693816	306.84563248947074	11
562.5920726408001	158.67903112970006	9
428.9280991684947	122.7405793520645	11
230.5048205063934	18.1864940244905	7
229.5272666373204	281.51201586649137	6
595.3952990345954	47.27144127085008	11
553.2465170382243	511.590127103	5
464.89351293623986	69.5329421168101	8
551.7240070420339	137.63756638822645	9
193.96960488176302	110.23382620663328	10
495.766245675205	131.6931394578001	8
603.6184070069127	244.9004737020581	7
319.82641547237347	149.99830318962668	9
331.3181135189878	32.80626268936436	2
383.8615253994046	93.14617633482075	3
268.7520740522691	71.18279735343899	2
546.136999814565	407.7713439183185	4
413.6615024314389	335.674110603864	3
123.61583564976019	55.06567267269797	5
362.33384498302917	183.60819570407264	5
421.06868492152597	12.195106939529158	2
298.94941653785236	66.03646714879213	2
158.14821819103867	81.80458532081859	1
479.07389251038023	242.2674257578089	1
591.2930008508037	264.291737190337	1
486.41532950461357	475.0958609016772	1
225.3125	149.0	1
