372.0612696578024	214.88561419056606	3
468.64220403675984	117.70603786081263	9
80.43463764069189	200.86332113182132	3
495.2455363084531	335.81799935114026	3
512.2295208624115	95.24218957396494	9
456.57915048661175	66.64390999938115	9
379.6702338111939	80.04688545629463	6
368.3872838270233	111.28828178049204	9
80.7615147477158	245.97976344467077	5
160.11233389600994	215.5949894113446	8
273.6099616933768	409.9932394178811	5
512.203125	13.5	2
364.9206694122876	400.86179486356815	4
324.18496333822816	164.62866486192593	9
216.26229205441825	158.00587112677923	2
524.9862059241401	311.26530656614534	4
173.57205825982317	98.04581527415493	6
238.38480345428832	358.9384026128901	4
534.014870309938	37.749976732293376	7
445.57888405345363	429.6601915370509	2
558.1895122909997	327.9656630333901	7
274.9528975590343	247.41665773024988	8
9.62224565665877	121.19409819765757	7
601.8580361830698	125.320394979106	5
174.18183416766476	264.6101527408252	4
547.8444463251792	136.67196599100262	7
309.203125	371.5	2
71.30405794120578	32.52096380906032	3
138.5713929389986	66.62988659596533	6
69.04708194457464	101.9705218383084	8
498.862997601189	133.80516057561974	5
545.905304613879	98.51034206944738	4
201.47792888364341	232.95454262552556	5
329.3759702716544	61.241166018006325	4
242.68100077705208	230.56771612671486	2
465.71198985918284	91.52472094850974	3
467.95313113310414	422.6017358703172	4
432.96036668631706	273.61907661193027	8
387.97133748376075	162.62585409659647	8
395.4534494674051	412.77606144212416	3
124.59060639841238	260.7715934731306	6
471.8099343891581	381.98275129242506	5
99.0417492373681	280.5113598593497	7
114.38736727501451	169.01217895414698	8
329.0655231452902	106.69449566562142	7
248.77838899090577	135.65098445728836	2
496.80692149315433	290.2638903259269	3
237.16889275988612	292.94012769136725	2
190.43799183396672	105.55240100522991	1
302.3867474954686	131.10151883353583	3
546.6602680712328	160.4162879463814	4
14.278419510424888	66.70371559291425	6
174.85979132072555	65.23435130677095	5
579.4434367280104	252.69601723870525	6
407.7870890197239	22.57847170182582	2
546.6618615240914	292.55718380260885	4
254.87135772868118	280.9877506340131	2
354.7471902621113	243.7670165031283	4
212.30987119577904	82.6057306147542	4
460.3810699953915	182.18205614615323	2
236.5495250578516	193.55983778195986	2
420.8639456777612	230.8422843256379	2
544.3282193772338	378.67250343853703	2
595.7158519645576	213.75636634196894	2
269.3429063692795	65.8304119657129	3
211.87754016591083	181.5138494977072	2
468.1645481923081	330.2998916154411	2
298.98547029113683	172.47185039891855	2
494.2636304420429	192.35217460244897	3
490.234375	418.0	1
301.6941420019179	38.091050272420475	2
599.2623540638724	314.75530549795167	2
199.8929177843694	262.43771709026805	2
134.37672032250464	214.99059038360292	2
398.61696897718275	245.14410692588092	1
430.64029530895215	88.34021871202916	1
171.14092675840678	34.2318347509113	1
60.71566354540874	139.13584447144592	1
43.04762143132905	255.0823815309842	1
62.9241688096687	281.58444714459296	1
101.573010934218	331.27582017010934	1
307.3125	79.0	1
271.72061090645144	195.11967556391974	1
298.8205636937663	202.70766294696105	1
272.804609017944	156.09574045113578	1
46.249003715991606	16.25997296365998	1
131.39849274084125	126.0965955873698	1
535.3923053572083	2.487251981680814	1
28.89259998743467	221.06474982100892	1
408.7673790147649	290.40657672176127	1
444.9459293983202	222.57218084059048	1
359.0218722373764	11.531838099170253	1
613.7791645215781	23.591286255822837	1
248.234375	158.0	1
155.234375	361.0	1
393.234375	340.0	1
312.8755576989647	230.73088167410373	1
446.07020030862606	8.390213879058317	1
30.75462177771342	194.02369595322358	1
519.5947994518302	337.48991374040617	1
107.171875	70.0	1
392.171875	436.0	1
447.171875	462.0	1
544.171875	440.0	1
574.171875	391.0	1
