523.8539325224456	424.2423674175462	7
399.60437249149936	70.94057582741905	9
60.56620808876936	60.86695018226003	2
519.9444705751444	223.7023504809218	9
592.8713159393617	243.6802498268093	5
499.8557541584073	178.9492979546335	6
392.6473913626505	218.04585689473208	6
232.8520599617084	284.86559470687797	3
523.5945764007918	381.41436544598616	6
466.78490889101704	433.905163617558	7
225.43584190790966	257.6805316896488	5
498.46732937506533	78.31335651147654	8
356.9282572553549	150.78394818814107	10
264.12041805515247	275.88975226957996	2
436.54968360334647	331.02407970077365	6
451.8229834637633	274.5487794001973	6
339.767767887871	261.05220895659363	4
426.6287150947867	265.13680142711837	8
255.1258536342292	64.92057856206785	9
435.71665440945543	118.80665077943517	6
379.5950902728266	337.0331599980199	5
112.01447543174947	241.8014580801944	3
243.42562057714966	106.12826279081192	8
398.0019142298518	253.90812152147163	8
227.37588514470673	173.02078010302057	4
344.057425300046	10.863469071132013	4
410.813672789723	199.04011783569632	5
317.50602098335423	24.56073113807433	6
423.9299559445118	108.39469533289582	4
220.62919145670347	209.36458455141724	3
449.05985016834256	336.7739440805193	2
325.5991505525834	307.9228956547547	4
290.0077748668058	283.9858012058897	2
353.0769058017802	228.52793764675857	2
517.8435766071284	50.7108038606211	2
320.89022031675677	156.7704043092491	3
446.6324696965307	431.22484228342825	3
341.9407252836426	143.17849863469667	2
145.9224250867739	137.85599355895096	2
427.5530134594608	484.88746868564	3
353.22068689495217	247.51130943222034	1
534.0697070672908	312.4816492269249	2
551.8725539835185	329.99531469623616	1
601.9041005101877	374.7043573325004	1
412.234375	422.0	1
156.234375	244.0	1
354.234375	200.0	1
316.234375	343.0	1
351.1341057955936	371.0289185905225	1
219.7280425721259	27.606318347509113	1
497.95187335269446	249.60886290198493	1
425.5862801238233	405.8765963994461	1
341.68414304687127	282.1209416833359	1
515.7810774815467	281.07216494845363	1
593.3905542777275	521.2420372364979	1
461.24468838152796	514.9493768272042	1
427.6838335507471	456.217879673796	1
405.65952256804724	355.5353131250962	1
129.83124692756735	292.6087090321588	1
38.3125	93.0	1
113.3125	87.0	1
125.3125	180.0	1
79.3125	217.0	1
176.3125	186.0	1
295.3125	191.0	1
495.3125	501.0	1
267.3125	398.0	1
192.3125	280.0	1
