145.14803009802623	145.48583409970206	8
53.941589548454	122.59125734301479	9
205.38430055270157	169.00986031224323	2
326.3323273049692	389.71239335539457	9
102.71624087758946	101.97269891377152	5
179.9735339129862	410.3343793975098	5
290.1471182702334	117.46741816191212	6
388.6514971973033	372.55979008688826	9
542.746550930561	282.81990236475843	6
295.9113484669209	466.1798018981966	3
203.93226909350477	117.4899321755854	9
35.31785306174001	94.09725818122618	6
153.1250583846517	356.26960804410066	7
313.59402884948236	133.5973226650254	2
369.4113699501247	325.8728896237859	7
411.9432404393415	31.107457821331018	6
123.75093703472942	270.75521029033376	7
460.4611850527626	202.98721760223447	6
579.8137581907044	369.30470399517026	4
532.8400862114505	211.85290044622252	2
387.35438451334295	84.75378606743928	5
360.5575446948643	422.15740883212806	3
559.9474245275767	383.61980635596683	7
165.0767430457886	98.93076571535711	6
555.6536095638023	301.47588655975926	6
241.2222009699523	82.84729195443089	4
47.62008240903318	183.73691961832617	5
267.28861389292877	99.28187196572162	3
226.21702152655178	154.0344150962386	6
132.73263016924895	31.74610877127364	4
259.66400167000825	380.84984228801653	3
123.1170651625392	9.507265394694372	5
428.6070565262022	461.78715141206357	6
156.93132212193998	67.50059786747265	3
518.689408889688	223.31141945440663	5
247.06474654877837	9.619505679240984	5
498.4255224644337	402.05181604491816	5
107.45426414548542	243.92998025698643	4
80.38142444459892	269.3144424383005	5
111.08410632916467	288.6092475765503	2
432.289155550866	246.07205346294046	2
152.76421126476185	260.7424164243502	5
436.1070978887275	491.64176628338987	4
447.16232983501754	528.2392665437374	3
295.0131786680942	172.70575537013292	6
508.9966310999423	368.0542088372114	3
83.89375033654859	59.96845998380206	3
514.803122386912	329.07975526397735	5
81.72817392210071	26.53288868971741	3
286.8114339142597	258.88918416727444	3
368.7332999218784	99.30086604912299	3
525.8850336052045	405.3187077278202	3
209.95638892830482	318.437395914347	5
130.41238327881032	54.33272146966888	3
515.1445484568546	273.21283853932476	2
36.732293761523096	51.728390363810675	3
601.5536237908422	458.3881138966909	2
211.26492604634083	444.76437967744175	2
318.22000576540825	371.31754661947247	3
389.55229873133993	186.55225390862137	3
252.02714511014722	405.2057446342483	4
86.44469992067982	237.10798793795178	2
83.38051692432973	159.48658614114993	5
283.75256417360697	295.87849505040367	2
178.14378180347467	173.89830594967367	4
109.09155767958222	141.86082798606088	3
157.65524872701678	199.70334102717084	3
7.711537203169679	101.59125151883353	2
10.7405533078291	184.33482280659211	2
183.31454019035036	291.46462477357113	4
531.8783866038443	372.86655849383544	2
131.60605563214364	90.6654642018002	2
217.5302485801625	276.2616164649784	2
341.66543252098876	367.0696980942031	2
145.37936290182353	227.08297438036794	3
239.97160879129777	304.33475091130015	2
175.234375	381.0	1
427.234375	372.0	1
591.8611795999293	298.1482381530984	1
244.02160047898548	375.44592952612396	1
263.04862601451066	188.61568637845576	1
562.232104786467	467.2032231558301	1
31.246235862148687	209.75534697645793	1
136.12390720833875	206.60901677181107	1
163.39210175834816	294.7062625019234	1
114.09959622563883	195.07247268810588	1
134.02635378141494	339.80366210186185	1
592.3417775642655	531.7298045853208	1
573.4637967219513	254.85274657639638	1
448.65936781998516	388.04739190644716	1
474.87878565653267	393.2912755808586	1
458.09835824114225	414.2668102785044	1
605.9758748392702	386.9986151715649	1
590.2442241373417	413.21803354362214	1
611.2197584065798	98.58501307893522	1
267.2209963910763	325.12078781350976	1
340.63536633340937	334.5597784274504	1
108.85571265832934	313.5842437298046	1
261.97711282376684	457.2666564086783	1
405.3125	412.0	1
324.4121015470456	449.92521926450223	1
