152.76164882670713	73.93437149635915	3
517.7564069328164	295.36100100036526	7
358.60438754758434	467.10741132381065	7
285.65834605560644	243.31136592419014	5
582.6231463539489	447.74896548045115	4
510.7533285536411	325.41980755013714	7
220.31068804627475	101.5252754040976	2
236.27788481911503	78.48902914092741	3
139.53968158390092	11.245192396925702	2
52.5001303048757	198.0017670691371	6
385.23414251252143	102.98884963703232	2
406.89225787503506	463.51156484058885	3
89.05917849345819	186.39692717090497	4
63.986741559643555	160.35191710240483	5
226.89260546936828	239.35916601522317	7
423.27888369862495	288.7620634586073	7
35.213310454339755	53.265058979245616	4
85.58384882196661	264.10913432316596	4
223.87637098717136	150.95020571433713	8
315.2486413825403	369.84331196752584	5
583.1020902934325	320.1264186458144	6
189.33924230775378	215.6095468977806	4
257.6295685390321	424.214624913736	5
392.73706225854914	369.57299231735465	4
100.77072398601439	211.42875527643363	3
355.9549203585988	410.69337600486676	4
172.96912600505013	103.31136111089597	3
378.36459729018213	234.46777572512838	4
95.04094381261065	127.96317896396937	8
296.2421875	434.0	2
259.3989993696658	115.23149715340821	2
608.0282984094747	292.0063343076951	3
178.98257816802436	271.954311522686	4
416.4617545260361	162.06460768532975	4
444.96737680302033	222.5877475131655	8
535.8449630792893	169.1597630874085	2
229.2522213353103	410.92950838590554	4
227.0342645825867	370.1048810393802	4
587.2633473357527	354.427499534281	3
462.2734375	347.5	2
254.92911894061453	173.42090961678088	2
406.8525439343258	184.93663131885103	2
284.1575357479379	470.00507308777003	4
386.24409779545294	442.64781881998573	5
570.7507666115749	557.6939444418874	2
492.54198488274596	275.3429716746858	4
297.06529235490456	128.55697062166763	4
352.6599960855908	234.211242178132	3
398.0060348879584	205.30450838590554	2
86.5000398093189	215.69799273468752	3
338.77387754855215	391.9780567014172	4
569.1694231178548	193.7716180549093	2
289.20254723342	383.91507241895545	3
180.60674700818896	384.5180833462982	2
196.95353300283728	163.52887103418618	2
535.3922218397784	432.7755213935908	3
437.9541699887176	122.3069030695352	2
325.8382382980149	422.7237207865747	3
206.2542258420984	311.988005765469	2
353.8404026767852	278.9445073612684	2
253.71860474755084	353.13672397817356	2
-138.765625	253.0	1
264.234375	296.0	1
463.234375	392.0	1
400.234375	513.0	1
230.234375	300.0	1
411.234375	124.0	1
503.234375	365.0	1
564.5649415380252	357.8873674456913	1
595.4415002364011	249.8194172758159	1
354.04295041273514	254.02985689282403	1
544.9162223663315	506.65623391331206	1
529.4779430171436	494.0249150622876	1
46.0457471035337	26.12437090708058	1
610.0500007419137	114.36182236265593	1
582.6248467594978	150.13376214194324	1
576.6628567633204	116.74661834794175	1
329.8364709215769	131.05539425965668	1
546.1821829078635	130.7301840581424	1
321.3358822545064	209.00530166435632	1
114.81665714837841	77.85880296075946	1
318.1194412662742	231.77965840898602	1
311.3125	164.0	1
389.3125	284.0	1
552.3125	37.0	1
168.3125	303.0	1
25.3125	83.0	1
375.3125	313.0	1
