208.6855162508261	13.251032806804375
269.41941101797505	9.938274605103281
308.0682531425243	28.710571081409476
383.157432127363	28.710571081409476
462.6636216407216	12.14678007290401
521.1890111436105	43.06585662211422
331.2575584172539	36.44034021871203
220.8322952042559	85.02746051032807
224.14505310064584	178.88894289185905
351.1341057955936	88.34021871202916
332.3618110493839	128.09331713244228
398.61696897718275	88.34021871202916
459.35086374433166	89.44447144592952
376.5319163345831	103.79975698663426
452.7253479515518	136.9273390036452
511.25073745444075	96.06998784933171
344.5085900028137	418.5117861482382
371.01065317393324	385.3842041312272
306.9640005103944	326.8588092345079
337.8830742100338	247.35261239368165
329.04905315299396	191.03572296476307
372.1149058060632	411.88626974483594
428.4317900446922	361.0906439854192
598.4866953927092	373.2374240583232
604.0079585533591	207.59951397326853
528.9187795685204	188.82721749696233
460.45511637646166	373.2374240583232
429.5360426768222	380.9671931956258
537.7528006255602	392.0097205346294
585.2356638071494	490.28821385176184
568.6718743251997	523.4157958687728
523.3975164078705	412.99052247873635
610.633474346139	351.1523693803159
501.31246376527093	580.8369380315918
440.57856899812197	485.87120291616037
509.04223219018075	60.733900364520046
