461.69036603513587	4.070410551804214
389.48472567421317	18.936277509274223
331.0831047940551	38.04953502602138
271.61963626153056	7.255953471262074
310.9079993990914	29.55475390746709
221.71279660030456	85.83267881788927
262.0630073902319	41.23507794547924
220.65094894793805	176.08972820252862
272.68148391389707	143.17245136813074
332.1449524464216	126.18288913102216
350.1963625366523	87.95637409752784
376.74255384581505	103.88408869481715
403.2887451549778	82.64713589843142
454.2574324685703	131.4921273301186
457.44297542566983	85.83267881788927
523.2775298723934	38.04953502602138
511.59720569636187	63.53387838168426
509.47351039162885	94.32745993644356
588.0502366667506	222.81102435457723
522.2156822200269	199.45037627855294
444.7008035972717	231.30580547313153
307.7224564419919	282.2744921844573
308.7843040943584	328.9957883365059
347.01081957955273	413.9435995220488
365.06222966978345	378.90262740801234
373.5570108887155	408.6343613229524
538.1433970055245	384.2118656071088
523.2775298723934	413.9435995220488
576.369912490719	410.75805660259095
580.617303100185	487.2110866695796
566.8132836194204	513.7572776650617
