155.00188805065295	16.780427758116634
89.97773181601512	73.41437144176028
17.612138587143978	79.70703185105401
104.66060580448173	84.95091552546546
223.1723744256765	108.02400369287584
278.7575402391572	133.19464533005078
211.63583057759558	130.04831512540392
354.26946360841407	286.3160486228651
225.2699278526003	144.73118941375597
195.9041798756671	342.9499923065087
270.367326531462	375.46207108785967
114.09959622563883	346.09632251115556
76.34363454101042	184.58470533928298
423.4887266968995	402.73026619479924
404.61074585458533	446.7788890598554
354.26946360841407	371.26696414833054
297.63552108147144	411.12048007385755
292.39163751416197	347.1450992460379
352.17191018149026	446.7788890598554
443.41548425267564	225.48699799969228
424.5375034103614	351.340206185567
570.3174665815656	245.41375596245578
517.8786309084705	391.193722111094
452.8544746738327	343.99876904139103
555.634592593099	348.19387598092015
588.1466707104179	275.8282812740422
590.2442241373417	476.1446376365595
581.8540104296466	522.2908139713802
531.5127281834752	535.92491152485
532.5615048969372	489.77873519002924
445.51303767959945	501.31527927373446
8.173148165986873	228.63332820433914
