448.4375	221
584.4375	242
514.4375	385
588.4375	475
408.4375	452
451.4375	504
429.4375	409
428.4375	350
533.4375	535
584.4375	520
361.4375	375
355.4375	286
299.4375	407
274.4375	373
293.4375	343
281.4375	134
219.4375	116
107.4375	90
90.4375	70
153.4375	18
19.4375	81
122.4375	346
