84.11780564546844	65.41930310149017
152.08449160189053	21.30057737370249
121.08214362176818	345.63283137257406
208.1271975659579	340.8632394020024
272.5166895246736	370.67318921807515
296.3646495093831	408.82992498264827
354.7921514719214	369.48079122543226
354.7921514719214	290.7825237110002
450.18399141075946	222.8158381303543
414.4120514336952	351.5948213357886
421.5664394291081	405.2527310047195
409.6424594367533	451.756252717793
451.37638940999494	499.45217242350947
594.464149318252	477.98900855593706
533.6518513572428	531.646918224868
507.4190953740623	390.9439550930046
277.2862815216155	131.0011926968502
577.7705773289554	239.50941002735505
582.5401693258973	274.0889518139994
19.728313686752745	68.9964970794189
81.73300964699747	176.3123164172808
6.6119356951625115	225.20063411564013
