323.8882979283075	358.6381456771442
546.1032920715134	355.82529747575484
155.11741630055627	355.82529747575484
101.6733037851017	305.1940298507463
162.14953636837924	240.49852121879084
74.95124752737442	336.1353600660293
224.03219296522136	267.22057913198984
162.14953636837924	308.0068780521356
139.64675215134574	326.2903913611665
125.58251201569979	341.761056468808
72.13839950024523	219.4021597083706
509.53626771883387	379.7345071875645
595.3281325462741	126.5781690625215
