596.0452703336779	131.0970918602862
538.3625510932733	353.4377596553316
517.3870168240353	379.65717802738885
533.1186675259638	509.70549315279277
326.5096549739694	361.8279735343899
400.9728016297643	306.24280658562856
156.6078273931415	156.26773349746117
126.19330270274638	199.26757962763503
159.7541575335272	242.2674257578089
158.7053808200653	303.0964763809817
72.70569031618945	225.48699799969228
18.169301216170613	194.02369595322358
78.99835059696085	185.63348207416527
35.99850534502293	231.77965840898602
68.51058346234184	329.31589475303895
98.92510815273697	300.9989229112171
49.63260262002763	316.73057393445146
132.4859629835178	319.8769041390983
120.94941913543687	411.12048007385755
