44.18262522972827	72.3026832433154
19.14226724578328	46.06992740517138
110.9569131869149	44.87752941252847
181.30839514180798	102.11263305938814
135.9972711708599	168.88692064739112
126.4580871769761	226.1220242942508
186.07798713874988	217.77523834575044
196.80956913186915	266.6635560441097
227.81191711199153	234.46881024275118
255.23707109440747	258.3167700956094
274.3154390821751	321.5138637056836
244.5054891012882	351.32381352175634
356.5909010294229	334.6302416247556
415.0184029919612	331.0530476468269
522.334222923154	350.13141552911344
518.7570289254476	403.7893251980444
596.2628988757535	397.82733523482983
546.1821829078635	430.0220810361884
440.0587609759062	385.90335530840076
271.9306430837041	372.78697738932874
19.14226724578328	151.00095075774746
42.99022723049279	180.81090057382022
157.46043515709846	306.01268980132573
275.50783708141057	201.0816664487497
37.02823723431542	236.853606228037
465.0991189598512	419.29049910240224
