89.42623198078823	7.729769137302552
192.1217267688764	8.834021871202916
228.56206362916575	5.521263669501822
165.61966359775687	47.48286755771567
112.61553725551782	51.89987849331713
149.05587411580717	58.52539489671932
226.35355836490578	60.733900364520046
221.93654783638587	29.814823815309843
280.4619373392748	18.772296476306195
255.0641268002853	29.814823815309843
342.3000847385537	45.274362089914945
379.84467423097306	51.89987849331713
350.0298531634636	132.51032806804375
340.0915794742938	97.17424058323208
288.1917057641847	93.86148238153099
252.85562153602532	103.79975698663426
217.51953730786596	122.57205346294046
577.5058953822396	289.3142162818955
562.0463585324198	261.7078979343864
491.37419007610106	259.4993924665857
584.1314111750195	245.14410692588092
409.6594952984825	213.12077764277035
481.43591638693124	147.96986634264886
467.08063216924154	276.06318347509114
359.9681268526334	262.81215066828673
411.8680005627425	270.5419198055893
441.68282163025196	251.76962332928312
421.8062742519123	228.58031591737546
319.11077946382414	185.51445929526125
287.0874531320547	172.26342648845687
276.04492681075493	210.91227217496962
202.06000045804623	175.57618469015796
183.28770571183657	68.4636695018226
91.63473724504819	106.008262454435
261.6896425930652	186.6187120291616
341.1958321064238	221.95479951397326
378.74042159884306	220.8505467800729
501.31246376527093	225.26755771567437
573.0888848537196	343.42260024301333
514.5634953508306	359.98639125151885
426.22328478043227	320.2332928311057
330.15330578512396	330.171567436209
515.6677479829607	416.3032806804374
547.69107431473	430.65856622114217
589.6526743356693	451.6393681652491
606.216463817619	506.8520048602673
165.61966359775687	197.66123936816524
147.9516214836772	172.26342648845687
149.05587411580717	131.40607533414337
117.03254778403773	138.03159173754557
214.20677941147602	286.0014580801944
249.54286363963539	290.4184690157959
288.1917057641847	303.66950182260024
271.627916282235	353.3608748481166
186.6004636082265	249.5611178614824
231.8748215255557	232.99732685297693
152.3686320121971	263.91640340218714
129.17932673746753	241.83134872417983
112.61553725551782	182.20170109356013
359.9681268526334	358.88213851761844
481.43591638693124	355.5693803159174
510.14648482231075	599.6092345078979
553.21233747538	600.7134872417982
527.8145269363904	556.5433778857837
527.8145269363904	520.1030376670717
512.3549900865708	490.28821385176184
473.7061479620214	506.8520048602673
485.8529269154512	558.7518833535844
463.7678742728516	580.8369380315918
431.74454794108215	457.1606318347509
398.61696897718275	470.41166464155526
404.13823213783263	427.34580801944105
341.1958321064238	430.65856622114217
356.6553689562435	484.76695018226
257.27263206454523	406.3650060753341
367.6978952775433	505.74775212636695
