434.8751147906924	43.05426883108063
384.8766123677258	52.776200502614955
344.60004097144713	43.05426883108063
372.37698676198414	104.16355362358216
333.4892626552323	91.6639271887523
380.7100704991452	218.04903891869864
401.542779842048	269.43639203966586
316.8230951809101	184.71670175915236
291.82384396942683	170.82822794267474
223.77032678261114	30.554642396250767
184.88260267585932	68.05352170074035
162.66104604342974	44.44311621272839
150.16142043768807	58.331590029206005
202.9376174397084	177.77246485091354
218.21493762450373	145.82897507301502
201.54877015018153	116.66318005841201
359.8773611562425	268.04754465801807
457.096671423122	270.8252394213136
225.159174072138	54.16504788426272
229.32571594071854	9.721931671534334
333.4892626552323	327.76798206887185
427.93087834305817	313.8795082523942
452.93012955454145	311.1018134890987
476.5405334764979	330.5456768321674
486.26246450318587	429.1538409291585
469.59629702886366	438.8757726006928
483.48476992413214	486.09658357671674
511.26171571466915	499.9850573931943
315.4342478913833	419.4319092576241
408.48701628968223	213.88249677375535
593.2037057967533	522.2066154995586
570.9821491643237	349.989540175236
482.0959226346053	148.6066698363105
