180.171875	63
78.171875	166
47.171875	148
70.171875	198
127.171875	128
151.171875	177
175.171875	250
206.171875	238
362.171875	234
381.171875	287
339.171875	294
297.171875	288
371.171875	314
582.171875	179
604.171875	401
455.171875	436
419.171875	508
268.171875	417
333.171875	395
604.171875	453
