475.234375	211
366.234375	234
329.234375	75
247.234375	92
247.234375	136
185.234375	181
249.234375	203
150.234375	182
127.234375	131
122.234375	93
129.234375	38
410.234375	285
379.234375	283
324.234375	302
365.234375	319
260.234375	373
164.234375	252
174.234375	218
279.234375	123
318.234375	159
342.234375	189
365.234375	82
580.234375	186
547.234375	237
264.234375	423
285.234375	438
412.234375	501
448.234375	432
488.234375	440
156.234375	213
75.234375	161
437.234375	203
606.234375	459
524.234375	489
211.234375	366
