266.1722196776144	14.682874288352055
301.83062793531906	36.70718572088014
358.4645704622617	75.51192491152486
273.51365667184774	115.36544083705186
300.78185122185715	168.85305431604863
372.0986677372664	195.07247268810588
503.195756920004	117.46299430681644
500.0494267796183	208.70657024157563
478.0251157969183	243.3162024926912
473.83000894307077	307.2915833205109
613.3173118335035	189.82858901369443
330.1475991987904	245.41375596245578
375.2449978776521	290.5111555623942
354.26946360841407	304.145253115864
258.83078268338113	254.85274657639638
279.8063169526191	274.77950453915986
303.92818136224287	289.46237882751194
335.39148276609984	367.07185720880136
364.75723074303306	404.8278196645638
351.12313346802836	378.6084012925066
422.4399499834376	367.07185720880136
573.4637967219513	481.38852131097093
597.5856611315751	616.6807201107863
575.5613501488751	633.4611478689029
521.0249610488563	484.5348515156178
483.26899936422785	543.266348669026
556.6833693065608	618.778273580551
