508.4375	482
479.4375	434
480.4375	462
604.4375	489
441.4375	339
487.4375	361
547.4375	402
571.4375	339
544.4375	465
486.4375	558
565.4375	539
238.4375	158
296.4375	31
332.4375	63
389.4375	97
197.4375	29
251.4375	71
134.4375	126
120.4375	63
467.4375	280
500.4375	254
512.4375	176
584.4375	148
478.4375	123
569.4375	91
609.4375	153
371.4375	171
172.4375	235
182.4375	271
523.4375	625
