125.63614007371974	88.09724573011233
135.07513049487684	60.8290506231728
167.58720861219578	7.3414371441760276
159.19699490450057	33.56085551623327
265.1234429641525	40.902292660409294
284.00142380646673	9.438990613940607
245.19668540837642	14.682874288352055
196.95295658912897	52.43883674411448
211.63583057759558	95.43868287428836
177.02619903335287	134.24342206493307
178.07497574681477	200.31635636251733
170.73353875258147	155.21895676257887
237.85524841414312	110.12155716264041
202.1968401564385	135.29219879981537
209.5382771506718	288.4136020926297
204.29439358336228	214.99923065086938
201.1480634429766	171.99938452069551
235.7576949872193	230.73088167410373
214.7821607179813	187.73103554392983
296.58674436800953	174.09693799046008
280.855093666081	250.65763963686723
347.9768033276427	106.97522695799354
293.4404142276238	234.92598861363288
329.09882248532847	214.99923065086938
331.1963759122523	179.34082166487153
307.0745115026285	209.75534697645793
308.12328821609043	89.14602246499462
281.9038703795429	56.63394368364364
340.63536633340937	22.024311432528084
366.8547841699569	1.0487767348822896
395.1717554334282	18.877981227881214
398.3180855738139	46.146176334820744
440.2691541122899	24.12186490229266
436.0740472584423	60.8290506231728
476.9763390834565	79.70703185105401
387.8303184391949	109.07278042775812
400.4156390007377	134.24342206493307
457.04958152768035	75.51192491152486
497.95187335269446	10.487767348822896
574.5125734354132	44.04862286505617
605.9758748392702	32.51207878135098
599.6832145584988	4.1951069395291585
583.9515638565704	62.92660409293738
582.9027871431084	144.73118941375597
465.4397952353755	231.77965840898602
448.65936781998516	285.26727188798276
397.269308860352	287.36482535774735
354.26946360841407	272.6819510693953
303.92818136224287	307.2915833205109
306.0257347891667	346.09632251115556
284.00142380646673	299.95014617633484
281.9038703795429	349.2426527158025
296.58674436800953	373.36451761809514
355.318240321876	422.6570241575627
276.65998681223346	389.0961686413295
331.1963759122523	405.8765963994461
470.68367880268505	306.24280658562856
468.58612537576124	337.70610863209725
444.46426096613754	321.9744576088629
351.12313346802836	325.12078781350976
428.73261026420903	333.51100169256813
378.39132801803777	313.5842437298046
393.0742020065044	338.7548853669796
433.97649383151855	378.6084012925066
415.0985129892043	409.02292660409296
423.4887266968995	360.77919679950764
409.8546294218948	331.41344822280354
397.269308860352	422.6570241575627
440.2691541122899	407.9741498692107
453.90325138729463	364.97430373903677
487.4641062180755	369.16941067856595
509.48841720077536	399.5839359901523
550.3907090257895	407.9741498692107
602.8295446988845	418.4619172180336
547.2443788854038	481.38852131097093
502.1469802065421	458.3154331435606
533.610281610399	461.46176334820746
543.0492720315561	514.9493768272042
463.3422418084517	484.5348515156178
458.09835824114225	436.2911217110325
518.9274076219325	337.70610863209725
609.122204979656	568.436990306201
558.7809227334847	499.21772580396987
468.58612537576124	454.1203262040314
514.7323007680849	262.1941837205724
529.4151747565514	175.14571472534237
493.75676649884684	269.53562086474847
231.56258813337172	268.48684412986614
167.58720861219578	234.92598861363288
400.4156390007377	178.29204492998923
342.7329197603332	196.12124942298817
393.0742020065044	202.4139098322819
