583.4375	220
494.4375	165
354.4375	105
404.4375	117
299.4375	134
327.4375	126
284.4375	89
263.4375	143
278.4375	188
238.4375	126
235.4375	166
177.4375	119
382.4375	18
413.4375	234
352.4375	268
320.4375	207
331.4375	63
