320.2125912995431	208.5070622186394
258.2078953392983	144.11757061592223
235.55233335382428	128.6163967115644
234.35993535458883	159.61874452028007
283.2482533232433	188.2362963437099
352.4073372789009	102.38364087342038
422.758819233794	142.9251726232793
491.9179031894516	167.96553046878043
588.5021411275251	218.04624615978267
378.6400932620814	23.68537335898831
285.6330493217143	91.65205893963419
299.94182531254	136.96318266006477
177.124831391286	119.07721277042113
158.04646340351837	157.23394853499425
149.69967740887003	55.88011916034689
119.88972742798315	68.9964970794189
323.78978529724947	129.80879470420732
220.0511593637631	212.0842561965681
223.62835336146955	367.0959952401464
251.05350734388549	393.32875107829045
289.2102433194207	407.63752699000537
133.00610541957337	269.3193598434278
407.2576452437328	234.7398180567834
345.2529492834881	262.16497188757035
335.7137652896042	392.13635308564756
488.34070919174513	337.2860454240737
540.806221158106	350.4024233431457
490.7255051902161	415.98431293850575
527.6898431665159	410.02232297529116
563.4617831435801	377.82757717393264
606.3881111160572	334.90124943878783
606.3881111160572	307.4760956080009
609.9653051137636	487.52819249708034
614.7348971107056	443.4094667692927
582.5401511313477	487.52819249708034
604.0033151175862	519.7229382984389
186.66401538516982	313.43808557121554
297.557029314069	355.1720153137173
202.16518937523097	324.16966750500166
205.74238337293738	342.0556373946453
475.2243312001549	530.4545202322251
