204.171875	22
163.171875	46
215.171875	65
275.171875	40
456.171875	12
553.171875	12
584.171875	44
542.171875	101
516.171875	69
180.171875	205
436.171875	274
477.171875	77
444.171875	507
495.171875	589
594.171875	365
381.171875	309
428.171875	74
607.171875	143
398.171875	226
467.171875	229
456.171875	114
391.171875	169
331.171875	183
320.171875	228
