362.17663211689336	114.8422843256379
314.6937689353042	110.42527339003645
379.84467423097306	306.98226002430135
433.9530532053421	280.4801944106926
535.5442953613003	290.4184690157959
468.1848848013715	228.58031591737546
586.3399164392794	38.64884568651276
557.6293480038998	13.251032806804375
520.0847585114806	39.753098420413124
414.07650582700245	45.274362089914945
427.3275374125622	72.88068043742406
437.265811101732	102.6955042527339
472.6018953298914	75.08918590522478
485.8529269154512	101.59125151883353
316.9022741995642	432.8670716889429
378.74042159884306	474.82867557715673
448.30833742303184	507.95625759416765
493.58269534036106	451.6393681652491
459.35086374433166	401.94799513973265
590.7569269677994	470.41166464155526
597.3824427605792	605.1304981773998
584.1314111750195	303.66950182260024
202.06000045804623	28.710571081409476
527.8145269363904	521.207290400972
493.58269534036106	595.1922235722965
506.83372692592076	566.4816524908871
558.7336006360299	548.8136087484812
596.2781901284492	532.2498177399757
440.57856899812197	480.34993924665855
544.3783164183401	432.8670716889429
411.8680005627425	460.473390036452
479.2274111226713	294.8354799513973
507.9379795580508	320.2332928311057
