267.84375	138
381.84375	53
352.84375	143
381.84375	166
451.84375	103
410.84375	127
508.84375	81
536.84375	110
579.84375	79
474.84375	20
199.84375	234
269.84375	323
320.84375	252
295.84375	250
355.84375	212
357.84375	251
351.84375	279
389.84375	202
430.84375	286
297.84375	335
339.84375	311
344.84375	410
375.84375	441
406.84375	423
419.84375	472
440.84375	432
471.84375	395
518.84375	442
491.84375	475
314.84375	459
