484.2630515810653	86.39239503564826
553.1069853425433	209.23158172696066
392.4711398990947	261.8769474518088
400.57042622397444	220.03063110641668
412.7193557112941	176.83443358859256
389.7713777908014	106.64061262212833
388.42149673665483	74.24346448376023
329.0267303542032	75.59334565619224
297.9794661088308	302.37338262476896
360.07399459957566	387.4158964879852
585.5041306420624	450.8603115922894
495.06210001423835	379.3166094533932
466.7145978771592	338.82017428043304
200.78803021027366	178.18431476102455
585.5041306420624	367.16767890150516
222.3861270766197	86.39239503564826
553.1069853425433	616.895695801426
576.0549632630359	568.2999735938738
401.9203072781211	526.4536572484816
361.4238756537223	484.6073409030895
374.92268619518853	164.68550303670452
512.6105537181445	425.21256931608133
593.6034169669421	502.15579614470556
551.7571042883967	313.17243200422496
573.3552011547426	265.92659096910484
504.51126739326475	284.8249273831529
523.4096021513175	612.8460522841299
