396.2205321468901	76.56070164640714
493.75676649884684	84.95091552546546
423.4887266968995	109.07278042775812
346.9280266141808	11.536544083705186
320.7086087776333	23.073088167410372
253.5868991160716	62.92660409293738
236.80647170068121	112.21911063240499
591.2930008508037	245.41375596245578
517.8786309084705	51.390060009232194
519.9761843353944	226.53577473457457
502.1469802065421	179.34082166487153
410.9034061353567	202.4139098322819
339.58658961994746	141.5848592091091
451.8056979603708	269.53562086474847
389.9278718661187	218.14556085551624
358.4645704622617	157.31651023234343
425.5862801238233	265.3405139252193
497.95187335269446	249.60886290198493
522.0737377623182	383.85228496691803
525.2200679027039	424.7545776273273
467.53734866229934	437.3398984459148
427.6838335507471	329.31589475303895
425.5862801238233	405.8765963994461
446.56181439306135	428.9496845668565
377.3425513045759	336.657331897215
397.269308860352	251.70641637174953
328.05004577186656	307.2915833205109
319.6598320641714	156.26773349746117
353.22068689495217	222.3406677950454
341.68414304687127	282.1209416833359
353.22068689495217	247.51130943222034
334.342706052638	263.2429604554547
515.7810774815467	281.07216494845363
593.3905542777275	521.2420372364979
461.24468838152796	514.9493768272042
419.29361984305194	488.72995845514697
427.6838335507471	456.217879673796
405.65952256804724	355.5353131250962
232.6113648468336	289.46237882751194
129.83124692756735	292.6087090321588
221.0748209987527	210.80412371134022
223.1723744256765	173.04816125557778
146.61167434295777	141.5848592091091
220.0260442852908	263.2429604554547
260.92833611030494	274.77950453915986
