401.7779144035109	72.38606903014212
343.23035995740867	14.903014212088085
316.6178352091803	28.741527409027018
420.9389322222353	108.57910354521319
439.0354490510305	128.804622833047
493.32499953741626	85.16008121193191
517.8085223057864	50.031547712009996
425.1969361819518	270.38325784788384
403.9069163833692	259.7382476963923
393.2619064840779	220.35171013587382
419.87443123230616	191.6101827268468
338.97235599769215	262.9317507418398
535.9050391345816	312.96329845384975
551.8725539835185	329.99531469623616
243.16726690407023	111.77260659066063
255.94127878321981	67.06356395439639
344.2948609473378	144.77213806028425
363.45587876606214	154.35264719662658
519.9375242856446	224.6097141964704
500.7765064669202	172.44916445416212
592.3235916008256	248.02873652975168
601.9041005101877	374.7043573325004
524.1955282453611	381.0913634233953
527.3890312151485	422.6069030142121
433.7129441013849	326.8018116507887
450.744959940251	337.44682180228017
229.3287540349915	256.5447446509449
468.84147676904627	432.18741215055445
428.3904391517392	480.0899578322661
451.80946093018014	275.70576292362955
230.39325502492065	176.7071685147587
145.23317583059006	134.12712790879277
324.06934213868425	157.54615024207402
