478.1096005832458	291.91400774134286
542.9295033537824	252.72080123222193
352.9921138401172	100.47026825448306
300.2317278640991	58.26219970619901
105.7720195524896	86.9033890782489
59.04139197373072	13.039269118751825
16.833083192916252	190.91612942937743
40.95211678195309	133.63375068527768
319.82844265519157	314.52547303506645
351.4846742408024	266.2876804084561
398.21530181956126	279.85455958469026
426.85665420654254	350.7038175050242
339.425157446284	394.4193170728898
268.5754962784883	347.68895546586106
230.8895062956182	368.79298974000307
194.71095591206293	353.71867954418735
144.96544913467446	349.1963864854426
469.064962987357	115.54457845029879
497.70631537433826	264.7802493888745
524.8402281620047	475.82059213029476
310.7838050593027	254.22823225180352
51.50419397715671	210.51273268393788
