353.84375	102
296.84375	54
463.84375	110
308.84375	258
345.84375	266
400.84375	275
472.84375	291
496.84375	255
317.84375	322
431.84375	348
341.84375	400
264.84375	351
226.84375	369
285.84375	413
187.84375	356
42.84375	204
35.84375	136
103.84375	87
10.84375	181
