459.234375	115
530.234375	243
573.234375	249
352.234375	106
295.234375	49
302.234375	252
225.234375	371
267.234375	351
190.234375	351
335.234375	402
316.234375	319
350.234375	267
393.234375	284
419.234375	358
480.234375	300
496.234375	259
107.234375	88
169.234375	47
513.234375	479
457.234375	322
