138.21912422225793	57.73409946502873
310.4085580738425	359.57202298395083
368.14266236525623	429.4606697047751
554.5124025340302	245.11670299187637
461.3275324496432	311.9667128987517
471.456322676207	282.5932236972459
499.8169353105856	240.05230830196155
296.2282517566532	303.86368139488803
357.00099311603606	298.79928670497327
381.3100896597892	348.43035466613827
458.2888953816741	488.2076481077868
427.90252470198266	491.2462849217357
536.2805801262153	476.0531008519913
513.997241627775	489.22052704576976
488.67526606136545	411.22884882108184
523.1131528316824	388.9455121854567
547.4222493754355	422.3705171388944
596.0404424629418	386.91975430949077
224.31384114805024	225.87200317020012
299.26688882462236	244.1038240538934
167.59261587929294	134.7128987517337
219.24944603476834	302.8508024569051
601.1048375762236	204.60154547255794
612.2465068254438	444.6538537745195
483.6108709480836	121.54547255795522
415.74797643010606	83.05607291460274
451.1987422230794	49.63106796116505
329.6532595043138	30.386368139488805
176.70852708320038	271.45155537943333
296.2282517566532	112.42956211610858
