596.234375	308
561.234375	248
433.234375	271
348.234375	248
303.234375	249
231.234375	234
211.234375	154
172.234375	142
327.234375	305
386.234375	363
368.234375	429
452.234375	460
501.234375	246
488.234375	127
461.234375	126
515.234375	115
300.234375	116
215.234375	303
233.234375	363
482.234375	417
508.234375	449
585.234375	273
136.234375	146
169.234375	103
367.234375	189
442.234375	208
602.234375	203
540.234375	428
426.234375	493
303.234375	370
295.234375	301
172.234375	283
332.234375	129
526.234375	393
406.234375	118
516.234375	485
594.234375	386
460.234375	493
364.234375	516
