592.921875	426
543.921875	450
478.921875	462
408.921875	471
466.921875	411
452.921875	378
394.921875	376
369.921875	405
329.921875	446
255.921875	403
298.921875	364
251.921875	357
188.921875	370
187.921875	347
286.921875	303
433.921875	300
550.921875	362
502.921875	378
577.921875	391
570.921875	420
529.921875	534
469.921875	493
566.921875	549
605.921875	530
496.921875	276
364.921875	266
304.921875	269
301.921875	222
252.921875	228
251.921875	257
186.921875	245
157.921875	258
145.921875	227
94.921875	207
92.921875	175
572.921875	179
554.921875	224
474.921875	174
534.921875	158
513.921875	137
469.921875	132
437.921875	140
467.921875	83
533.921875	48
580.921875	44
583.921875	81
480.921875	56
418.921875	71
407.921875	94
382.921875	105
351.921875	122
355.921875	181
266.921875	166
299.921875	100
268.921875	96
244.921875	78
179.921875	130
612.921875	94
582.921875	106
418.921875	26
373.921875	22
298.921875	73
272.921875	57
284.921875	30
247.921875	25
105.921875	16
53.921875	92
88.921875	103
298.921875	10
586.921875	361
576.921875	507
494.921875	527
509.921875	494
230.921875	323
450.921875	29
285.921875	143
149.921875	147
134.921875	191
91.921875	31
221.921875	55
301.921875	299
183.921875	61
170.921875	48
319.921875	21
184.921875	35
338.921875	420
595.921875	52
312.921875	55
472.921875	220
