133.9100618279398	187.94597492787295
151.6605156171337	145.1360584165241
181.94070149281742	125.29731661858196
81.70284480089889	168.1072331299308
369.8866827901647	9.397298746393647
416.8731781145015	22.971174713406693
285.31099120635844	140.95948119590471
161.05781468200107	247.46220032169938
471.1686838226241	174.3720989608599
351.09208466043	186.90183062271808
293.664145930685	363.3622181938877
238.3244958820216	357.0973523629586
361.53352806583814	266.2567978144867
475.3452611847873	57.427936783516735
404.34344602801167	465.68836009906295
503.53715837938944	375.8919498557459
614.2164584767162	90.84055454847193
433.5794875631546	293.40454974851275
