372.5739257692473	351.2024642957155
455.28465017787676	344.8401008120975
488.3689399413285	320.66311957434897
523.9981750711997	262.12937552506304
372.5739257692473	295.2136656398768
373.846398452457	267.2192663119574
339.4896360057955	276.1265751890227
306.4053462423437	277.3990478857463
288.59072867740815	288.8513021562588
258.0513842803757	274.8541024922991
184.24796865421402	274.8541024922991
405.65821553269905	486.08457014841787
451.4672321282477	578.9750770092412
573.6246097163773	422.4609353122375
590.1667545981032	347.3850462055447
551.9925741018127	353.74740968916274
555.8099921514417	374.10697283674045
576.1695550827967	243.04228507420893
434.9250872465218	166.6939232707925
456.55712286108644	139.97199663959677
424.7453057808443	127.24726967236069
319.13007307444053	351.2024642957155
606.7088994798291	437.73060767292077
515.090866288732	181.96359563147578
445.1048687121993	94.16297955754692
391.6610160173925	124.70232427891348
406.93068821590873	78.89330719686363
223.69462183371422	223.95519462335483
330.5823272233277	235.40744889386727
364.9390896699892	243.04228507420893
418.3829423647959	405.9187902548307
492.18635799095756	586.6099131895829
454.01217749466707	608.2419490338841
