583.234375	345
497.234375	330
459.234375	344
522.234375	260
420.234375	404
338.234375	397
405.234375	485
476.234375	440
526.234375	390
315.234375	330
278.234375	285
258.234375	276
372.234375	361
562.234375	335
