567.234375	83
586.234375	129
579.234375	222
536.234375	234
433.234375	231
395.234375	204
379.234375	156
348.234375	167
345.234375	123
266.234375	170
193.234375	153
150.234375	63
117.234375	78
247.234375	40
301.234375	73
363.234375	54
333.234375	286
373.234375	279
387.234375	371
347.234375	392
258.234375	277
226.234375	255
224.234375	207
198.234375	188
158.234375	184
548.234375	259
610.234375	171
575.234375	418
501.234375	354
485.234375	436
405.234375	409
317.234375	342
279.234375	349
283.234375	296
289.234375	264
310.234375	103
530.234375	191
594.234375	455
458.234375	447
