433.234375	488
475.234375	164
506.234375	74
371.234375	134
348.234375	150
315.234375	182
277.234375	237
559.234375	122
479.234375	300
470.234375	359
351.234375	406
278.234375	318
498.234375	541
534.234375	382
588.234375	265
533.234375	160
446.234375	52
458.234375	201
443.234375	260
436.234375	355
427.234375	399
532.234375	300
540.234375	264
402.234375	353
311.234375	331
265.234375	206
285.234375	139
340.234375	125
400.234375	126
446.234375	148
415.234375	222
382.234375	238
394.234375	327
329.234375	360
296.234375	380
315.234375	474
268.234375	488
410.234375	468
447.234375	522
569.234375	383
558.234375	336
585.234375	215
488.234375	184
549.234375	143
