309.1725057746543	177.7846901579587
323.5277899923441	200.97399756986633
277.1491794428849	226.37181044957472
202.06000045804623	242.93560145808019
199.85149519378626	287.1057108140948
239.60458995046557	263.91640340218714
292.6087162927046	448.326609963548
311.38101103891427	484.76695018226
268.31515838584505	484.76695018226
414.07650582700245	471.5159173754557
433.9530532053421	485.87120291616037
332.3618110493839	518.9987849331714
534.4400427291703	379.8629404617254
596.2781901284492	401.94799513973265
441.68282163025196	319.12904009720535
536.6485479934303	258.3951397326853
