286.171875	7
291.171875	45
162.171875	18
97.171875	8
112.171875	52
120.171875	85
86.171875	85
93.171875	127
192.171875	55
228.171875	84
269.171875	136
222.171875	203
244.171875	168
303.171875	181
336.171875	182
322.171875	70
439.171875	8
534.171875	13
482.171875	42
408.171875	143
440.171875	134
462.171875	148
483.171875	99
524.171875	100
529.171875	151
493.171875	168
403.171875	273
427.171875	297
348.171875	268
373.171875	281
396.171875	306
474.171875	385
569.171875	326
538.171875	314
492.171875	317
531.171875	422
501.171875	440
456.171875	469
423.171875	517
545.171875	537
502.171875	579
600.171875	554
602.171875	622
529.171875	587
207.171875	104
284.171875	311
338.171875	332
307.171875	416
587.171875	421
