351.5717499424027	293.841607447864
392.416507624803	293.841607447864
355.52446842779625	188.4357783695253
297.55126397535713	119.92198946860516
261.97679760681496	32.96218047897572
551.8428198690106	118.60441660512592
534.7143730989718	173.94247687125375
492.55204258810693	151.54373819210676
567.6536938105849	205.56422559475536
537.3495187559008	339.9566576696372
492.55204258810693	343.9093762600749
597.957868865269	191.0709240964838
504.41019804428765	475.6666626079983
595.32272320834	516.5114213758545
312.0445650884669	312.2876275365733
310.72699226000236	246.40898436261162
264.61194326374397	258.2671401339247
284.37553569071184	192.38849695996302
229.0374768952018	32.96218047897572
205.3211659828403	56.67849202160193
603.2281601791271	144.9558738747106
570.288839467514	263.53743158784164
395.05165328173206	395.29471793576505
344.98388580008003	378.166270710535
263.29437043527946	303.0646174922187
583.4645677521593	40.86761765985112
330.4905846869703	217.42238136606846
259.3416519498859	139.68558242079368
155.25339850118834	15.83373325374568
325.22029337311216	424.2813209323082
271.1998074060666	345.22694912355416
590.0524318944819	316.24034612701104
