344.60004097144713	291.65795014603003
311.2677060228027	244.43713917000613
270.99113462652406	261.1033077497793
305.7123168646953	304.1575765808599
394.59854339441375	304.1575765808599
386.2654596572526	277.7694763295524
327.9338734971249	216.66019153705088
258.4915090207824	143.0512803097195
302.93462228564164	111.10779053182097
319.6007897599638	70.83121646403586
272.3799819160509	38.887726686137334
540.4275087947331	169.43938056102698
569.5933018747969	263.8810025130748
587.648316638646	474.9858045235346
600.1479422443875	437.486925219045
343.2111936819203	379.15533518983904
508.4840211356155	480.54119405012574
308.49001144374904	388.87726686137336
298.76808041706107	369.4334035183047
266.8245927579435	348.6006927935883
459.8743660021757	516.6512259729675
