347.171875	191
312.171875	249
259.171875	255
269.171875	343
310.171875	391
395.171875	403
345.171875	298
388.171875	274
548.171875	120
490.171875	151
392.171875	494
412.171875	511
326.171875	428
532.171875	172
572.171875	206
573.171875	258
522.171875	456
502.171875	481
532.171875	340
253.171875	143
302.171875	112
329.171875	219
