211.0784027710626	64.00927509347555
301.16553137358795	111.42355294049447
314.2044578818482	245.36888785832295
260.8633948935108	259.5931712124286
286.94124791003134	190.84246833425118
391.2526599761133	45.04356395466798
512.1590694163448	9.482855569403785
588.0219145553134	41.487493116141565
551.2758489411254	122.09176545607373
527.5687098351978	168.3206863569172
570.2415602258676	214.54960725776064
348.5798095854434	297.5245934900438
305.9069591947735	307.00744905944754
386.51123215492777	277.3735254050607
391.2526599761133	305.8220921132721
604.6169119294628	435.02599924639867
585.6512006447207	468.2159937393119
393.6233738867061	493.1084896089969
395.99408779729885	398.279933914959
317.76052874773734	430.28457146169677
598.690127152981	194.39853917277762
263.2341088041036	343.75351439088723
353.32123740662894	183.73032665719833
120.99127416853723	20.151068084983045
157.7373397827252	10.668212515579258
