442.171875	305
391.171875	224
364.171875	206
433.171875	155
294.171875	135
259.171875	212
313.171875	227
352.171875	253
420.171875	177
578.171875	231
493.171875	288
537.171875	306
607.171875	169
284.171875	36
366.171875	288
608.171875	267
