367.3125	440
435.3125	432
521.3125	316
520.3125	267
575.3125	320
549.3125	383
503.3125	400
516.3125	447
488.3125	481
519.3125	515
572.3125	536
535.3125	460
591.3125	448
454.3125	457
444.3125	499
371.3125	503
566.3125	618
316.3125	459
288.3125	491
310.3125	418
328.3125	393
302.3125	316
299.3125	288
334.3125	249
413.3125	316
457.3125	318
444.3125	300
441.3125	373
402.3125	351
250.3125	456
269.3125	364
188.3125	284
206.3125	249
371.3125	147
469.3125	97
524.3125	119
518.3125	44
541.3125	184
555.3125	230
596.3125	241
597.3125	116
235.3125	114
203.3125	105
260.3125	34
264.3125	94
365.3125	69
252.3125	195
139.3125	63
159.3125	105
166.3125	247
132.3125	279
112.3125	49
334.3125	39
329.3125	181
212.3125	348
263.3125	322
494.3125	374
