508.171875	48
429.171875	36
138.171875	18
366.171875	71
472.171875	100
332.171875	254
579.171875	328
521.171875	276
521.171875	323
485.171875	351
445.171875	373
502.171875	396
526.171875	455
489.171875	479
322.171875	11
61.171875	11
307.171875	423
326.171875	394
128.171875	280
