526.234375	275
516.234375	320
459.234375	320
446.234375	293
435.234375	261
328.234375	248
556.234375	191
560.234375	231
557.234375	308
560.234375	382
501.234375	416
481.234375	346
444.234375	362
456.234375	460
438.234375	425
440.234375	394
430.234375	487
494.234375	487
492.234375	458
523.234375	450
599.234375	446
519.234375	516
367.234375	510
323.234375	400
304.234375	186
415.234375	173
409.234375	313
492.234375	378
493.234375	172
522.234375	118
466.234375	109
370.234375	148
303.234375	320
307.234375	421
395.234375	549
410.234375	355
469.234375	253
578.234375	328
447.234375	494
334.234375	296
323.234375	141
222.234375	222
264.234375	318
299.234375	285
383.234375	92
