336.72624003247955	30.819280600562305
404.29158648437357	17.7803541926321
417.3305129926338	68.75070287817745
260.8633948935108	78.23355844758123
313.0191009265518	132.759977971653
67.65021118019985	86.53105707080954
104.39627679438783	164.76461551839077
227.673400145212	119.7210515637228
193.2980484416168	152.91104605663605
241.89768360876863	154.0964030028115
239.52696969817586	184.91568360337382
213.44911668165537	247.7396017506739
323.6873135242193	269.0760267818324
386.51123215492777	199.1399669574795
375.8430195572603	413.68957421524016
366.3601639148892	379.31422277615144
507.4176415951592	310.563519897974
529.9394237457905	490.7377757166459
167.2201954250963	85.34570012463406
