198.00196713110464	25.799161530241904
140.7668631678018	71.11028525067249
195.61717113263367	87.80385714767323
135.9972711708599	146.23135878717582
40.60543123202184	66.34069328010085
376.861667016426	36.5307434640281
246.89028509975913	121.19100094167472
467.48391495832215	372.78697738932874
443.6359549736126	427.6372850509026
499.67866093768	449.10044891847497
589.1085108803406	204.65886042667842
425.7499849850805	348.93901753647054
394.7476370049581	402.59692720540147
364.93768702407124	257.12437210296645
598.6476948742245	388.28815129368655
550.9517749048055	379.9413653451862
271.9306430837041	345.3618235585418
