510.4375	110
558.4375	93
582.4375	130
533.4375	177
506.4375	140
422.4375	62
348.4375	11
376.4375	134
401.4375	139
396.4375	188
404.4375	219
501.4375	197
563.4375	247
406.4375	308
405.4375	356
294.4375	73
354.4375	209
336.4375	168
236.4375	245
247.4375	198
279.4375	197
238.4375	284
340.4375	426
340.4375	392
315.4375	395
432.4375	494
491.4375	495
531.4375	464
342.4375	493
162.4375	182
96.4375	332
106.4375	296
97.4375	251
145.4375	213
133.4375	186
121.4375	159
91.4375	124
156.4375	15
31.4375	298
158.4375	252
207.4375	43
148.4375	118
89.4375	94
66.4375	113
28.4375	134
