211.70439156366433	17.723383395773762
355.98454947115687	9.376597447273392
419.1816434306371	60.649711130918526
513.3810853702397	109.53802882927783
512.1886873710042	138.15558065270767
495.49511538170754	197.7754802848532
400.10327544286946	146.50236660120805
298.74944550785403	74.95848704263345
229.59036155219647	63.034507116204345
148.50729760418412	122.65440674834986
62.65464165922987	115.50001879249238
113.92775562635532	156.04155054235133
161.62367559577436	183.46670437313827
107.96576563017794	18.915781388416672
156.85408359883246	18.915781388416672
582.5401693258973	139.3479786453506
558.6922093411878	97.61404890284874
558.6922093411878	252.62578794642704
581.3477713266618	70.18889507206181
355.98454947115687	210.8918582039252
332.13658948644735	169.15792846142335
396.5260814451631	189.4286943363528
402.4880714413404	224.0082361229972
404.8728674398114	314.6304835638584
342.8681714795666	319.40007553443
364.33133546580524	344.4404333799311
407.25766343828235	356.36441330636023
525.3050653625944	462.48783465157925
427.5284294252854	498.2597744308665
313.05822149867976	399.290741041505
93.65698963935223	336.0936474314308
93.65698963935223	250.24099196114122
164.0084715942453	251.43338995378414
240.32194354531575	244.27900199792668
23.305507684459172	136.96318266006477
30.459895679872027	294.3597176889289
135.39091961259388	189.4286943363528
341.6757734803312	494.6825804529378
214.0891875621353	351.5948213357886
88.88739764241033	95.22925291756292
229.59036155219647	281.2433397698569
175.93245158660005	88.07486496170546
490.72552338476567	542.3785001586542
74.57862165158463	5.799403469344662
