365.06521821787805	41.63064426939654	4
104.05329269280267	210.99081469417933	6
199.10646398976485	263.64311820784627	7
533.4087344438744	232.508636048369	2
215.92068480974325	375.1224982373585	6
242.0245506939196	110.86698250218875	2
413.5934999217329	264.2168185391097	4
502.4852243857987	482.9251581043105	2
531.2708938038518	335.6475110941771	6
276.84440831507294	193.32962811986857	9
394.439971925386	582.5853365008611	5
413.003299036171	456.99697065396884	7
324.5921579872647	52.19877412365692	4
361.8806315895248	557.0312596829655	7
200.37638807341952	130.61051971482425	5
293.71073263410517	471.649149535775	2
386.0723751907722	434.7306017890276	6
442.83864568122726	176.21375429184917	9
361.9169503158299	324.21069242459726	7
596.3872266963097	367.2992704117808	2
531.9707355899284	299.1789607123571	8
432.11085882080874	17.232751612154082	5
434.83144339233036	220.73383379357074	7
304.2620876538282	108.84454316463678	5
448.82371993471776	534.4862387268921	4
337.62395996178554	407.44685977472216	8
371.30201093256835	137.00434398528415	4
572.1671515329233	305.5998178578356	7
219.38625434392395	63.926258697711454	3
513.8887999393198	127.33967761534433	4
226.54856546422383	191.9718260520715	8
149.76736204675746	218.74466825508296	6
559.8833750402312	122.07485617218462	2
605.4122218511843	194.64943774020514	3
277.97475262199896	62.39285061641133	7
603.2893456603367	282.7111385154504	3
477.92696518066583	87.14151664565355	3
94.63330060328727	106.22095835264665	8
603.5574414004071	586.643963602942	3
166.66812229884133	333.1439265232365	4
597.7744664617071	510.96990053477464	3
333.60223824995694	468.3405394770071	6
600.0191032231878	123.2531211662238	3
513.862190886484	436.2737875997544	2
166.5243136497091	269.62141498067626	6
460.5159882579628	487.46317676315095	4
311.7521394779843	330.299262623544	3
223.97390272655602	403.5255457917589	3
420.91138371592456	491.39121461076627	6
268.77691434847594	262.5999206208986	5
296.1537339442129	318.38749879021543	8
495.11704043444047	181.5487241798299	2
273.31093658571126	294.6430325352977	2
426.637021653736	404.54281483957095	5
233.8685323848776	278.0476782620884	7
237.7678139252285	241.09058882543073	8
291.53627216514366	400.0284933171324	3
90.88521722017767	246.03306749059323	4
500.91140697664156	237.9358643766292	3
577.1912449146308	563.9350761971466	3
218.22602194409546	35.72017010935602	3
447.6879798954509	365.0453219927096	2
421.6250579455449	187.4997306731216	2
415.44640870122294	286.261191344269	4
115.11546369820508	259.99193198355755	1
533.7568733169587	268.0286702691079	2
511.25073745444075	297.04398541919807	1
283.9747906133389	28.447726392907413	2
275.8660018453113	78.89330719686363	1
412.5093454778453	424.7545776273273	1
71.75818986670853	223.05905224787364	1
558.7336006360299	278.27168894289184	1
469.2891374335015	553.2306196840826	1
188.171875	400.0	1
406.234375	337.0	1
210.234375	305.0	1
463.234375	438.0	1
616.7940437202076	465.26857499322375	1
