324.69630509653456	177.4736148666178	6
228.03440035138163	169.44600829174237	7
229.15353041954376	26.008857998192134	6
389.8655302258057	321.93689040872573	7
174.6901080786492	288.0546447727488	4
302.0021762674621	248.25419909341736	6
590.0463172472678	400.3279739594399	5
360.9865247073564	243.4578537834613	4
125.08689737213362	6.004772520212766	2
448.71166225518067	417.5900695329812	6
390.7285957034933	191.97275383012786	7
131.95518617468628	192.51572494419943	6
59.99038314354435	43.18057949866254	5
516.2923899787015	301.85386828807543	7
188.07746202255376	24.202579436514196	3
244.8990679889603	80.21129455930647	4
488.28375400807397	478.0631527700092	7
91.66487052665735	78.71067668571024	3
302.8761946143419	147.6581354594305	6
383.7400758351257	457.65908695695776	7
325.1930201626749	307.9117863595682	4
375.8636882751224	280.761275142768	5
466.4705678592852	343.4528817098058	7
527.7992892616373	509.44110672568166	5
437.2575396531668	448.2114411911223	7
330.6243819876549	227.95241351927007	5
294.11730718298844	64.85222321878403	7
279.9056946466757	302.5496727891546	5
305.42451412657965	351.0995813887191	5
373.8190999265564	409.7085734459032	3
315.7909302182926	217.16357496528306	3
546.9948108687801	429.7366366358302	6
422.20453066702896	137.62076162998738	4
522.1341439095428	400.9586873487623	5
552.9437720449981	371.0152068991631	2
364.92044904743057	109.44560302191172	3
392.37354567252635	115.0775212636695	2
297.0257268212245	205.3910085054678	1
256.0911427240062	45.35171424172296	4
465.8959491940211	291.95700387067143	2
426.0455146032713	239.82324551820312	2
526.0373015810023	142.10031493075593	2
236.06194064780908	258.36783163569254	2
346.234375	232.0	1
444.9459293983202	88.41082009783048	1
125.36873434358203	65.79935480410688	1
356.234375	378.0	1
451.6210953194218	507.95625759416765	1
48.3125	9.0	1
