180.00630097627356	188.1374712846831	8
60.73168107950099	231.25161957402042	4
374.8618736011558	284.9712285411672	9
86.96864525158679	46.55004738056802	8
479.80271243293447	413.2405724206602	2
232.43682513580836	298.02117315037515	5
328.9784521043135	425.9821992709599	3
67.47421265163402	105.25893014620323	8
434.097066419598	151.292242789292	9
589.7150521685943	253.84602420788553	7
505.7164393306568	186.69745840335509	8
584.4859913980672	47.79706588032014	5
328.06972764470936	245.74670539300269	10
292.8205483808184	80.87684852807837	6
332.6939094046584	25.74300114371381	7
530.8100966673737	69.07640901904684	6
171.4658808817274	167.20674992888644	8
262.1661906535515	198.43626990378948	5
281.7311421432967	263.8610788863416	5
219.23050989763107	273.6909563231859	6
440.08695875982323	347.1521039791907	6
377.89821699716845	257.46792754531486	7
423.7589197522202	278.576989778402	8
299.96497628165434	280.03404158407227	4
374.51019294400623	10.644858741614215	6
130.42995790815445	201.49589311182046	5
376.86272772239704	191.30587253735314	6
150.1890812198407	222.98371533295074	2
156.72287588587807	43.41722941890934	7
123.45961775519103	99.38138890167198	6
177.13791225803232	29.440056318618737	2
301.594721182918	168.9135723267019	6
141.53764552439625	269.5838220189834	6
405.92619089717334	263.2922440921833	8
73.90881524204661	186.8000969094419	8
390.6210971739973	328.09148324168257	7
422.36284798514157	100.60612654031482	7
312.4293536115491	290.7122733966269	1
152.08959681911426	334.6992709599028	3
553.5189986389013	341.01498925837404	8
458.07628311424514	363.03035008829306	3
192.08774200627767	276.26397468104585	2
548.6042579748355	247.50106339974752	2
272.1237121200164	28.92270869107498	6
11.863874006281002	95.79775969031152	4
547.3160632321345	193.19623178419715	2
409.86691197796245	10.983072754597451	4
371.89271404211604	46.107797354066605	3
385.54254902255457	381.9865480709839	3
356.63896197486883	145.25011429394783	2
481.14487932936413	383.5728913077014	3
13.767056418519758	158.5815246793325	2
102.90308361217461	285.29600132084033	2
190.4141173835218	130.16498187371707	2
494.3396374052063	11.393252596819835	3
255.31009714854827	102.96544129231917	2
3.3920192603375354	122.16488370311741	1
283.49142061151485	326.20257442686943	2
34.240905348398	243.01429164587432	2
241.3125	418.0	1
544.5940506633136	380.54418257148683	1
526.3476677613195	231.39066150577145	1
579.1080537373376	293.19533330861594	1
607.7494061243189	362.5371602093683	1
4.436163600878354	186.90183062271808	1
437.75606492531784	38.63333929072944	1
592.2894273253589	459.4234942681339	1
586.0245612821141	491.7919677279342	1
575.5831178767058	470.9090816248372	1
515.0227461253384	411.3928562310108	1
436.1615584696021	404.1565006075334	1
378.74042159884306	422.9287970838396	1
56.234375	142.0	1
462.234375	317.0	1
312.234375	313.0	1
306.234375	363.0	1
154.171875	378.0	1
