72.45692215586763	338.9027472025172	4
59.33045333000864	271.2237743830518	7
232.40996217483735	391.1980220900036	7
490.06501448362224	326.00989682718483	7
174.5282480255308	174.34871637706925	7
75.48715130543815	177.5116876996935	7
362.88907074535643	339.7109847942685	7
157.32584557361173	293.1253471581049	7
185.99335821997659	246.44791098606296	5
178.60131622263128	322.1900182560944	7
55.21405603925675	33.92217342662342	5
263.65072283486006	262.5788728856994	7
328.29711531176906	442.7250482709069	7
344.9456958137813	489.3586169914932	3
173.6449620608854	78.27222565581374	5
111.73567128006377	325.9979699199854	3
467.86147347441874	456.13332820433914	2
402.8981720705617	377.2310355439298	2
604.0113672552134	137.01918249701038	2
420.78838577825695	545.6087859670719	2
48.0266632775391	50.341283274349905	1
237.81566044746648	73.67568597058894	2
242.234375	329.0	1
169.234375	364.0	1
286.234375	383.0	1
290.234375	476.0	1
255.234375	172.0	1
12.310764394971844	10.024407079588679	1
268.3534490859977	506.3355525653347	1
599.6832145584988	209.75534697645793	1
105.70938251794364	140.53608247422682	1
330.1475991987904	525.4371441760271	1
299.73307450839525	45.097399599938456	1
513.6835240546229	283.1697184182182	1
