552.4325230661411	431.41995487755423	9
483.1008456452568	298.8949790775464	10
178.49481649789442	156.7979537901151	10
577.8074270900595	469.794123493263	2
59.79648295260084	208.9150131750102	3
61.02973631309432	126.87006090894893	2
227.5241426640763	363.5585910206773	10
345.25848728295557	378.81298507078907	4
6.803942104631005	49.99032600556136	4
69.75548977784628	160.36982664376075	2
66.69098878791715	42.75776979540841	2
223.17257961894663	324.4499873840347	10
380.1504373936642	385.1247180586279	10
453.07394421967365	417.32333983367226	8
239.18811611850288	255.90094265339093	7
259.11737628040356	347.8631166958944	9
288.9110911193361	203.77249616935185	5
594.6770452928818	298.51615960781385	8
203.37112514541155	277.95058319808516	10
450.17888567547067	364.3245077780274	6
234.11344316606755	284.5806637258121	10
32.98128643898016	205.25659846946743	2
123.51157462353427	261.25948099332606	7
431.8894279823232	476.7211625116824	6
148.67427690018872	82.41878806809308	2
97.93171767743138	271.411498597931	10
587.7912715121504	410.3749801977802	9
532.7926839657823	272.8765772741289	10
346.787042200011	280.5360216579551	9
44.925789903732124	31.717515227237232	3
545.4368519838745	507.3423412631365	6
113.193290336928	225.98090904320802	10
151.0036276939996	323.26191052789613	9
539.5737983738918	393.3754024280428	9
429.4901061234688	421.50293575139426	9
483.0815062730529	461.3462789278701	5
51.07822938359039	177.48258628767763	2
493.32499953741626	441.7679212868968	1
49.63392663791516	203.8829936313429	7
105.78015662622101	91.12391674260152	5
77.26447887060652	54.46572167889553	4
107.921875	104.0	1
330.921875	339.0	1
309.921875	296.0	1
334.921875	309.0	1
464.921875	355.0	1
432.921875	231.0	1
366.921875	187.0	1
256.84375	309.0	1
458.84375	448.0	1
