546.3023433113772	169.10886349671742	4
326.3714918356817	337.8007767617137	6
592.5746705485583	432.0128436208108	7
485.85155115988323	175.87156262363078	4
447.55501239285394	118.5597242271685	9
256.66645983570555	333.0241887259575	6
411.03591623371824	322.59953848409316	8
500.767412941549	396.35279782125383	7
310.8558469078899	145.14189983825446	4
428.4572619478254	270.98134445378014	4
383.5841536619715	112.2149732389739	7
97.13674679834698	38.096658754046324	4
34.00721909892092	68.81040471767545	8
143.16887951581194	246.911483281951	6
555.7421875	534.5	2
363.3455921174348	359.23142134925536	7
363.8727105599291	316.68701032799794	9
201.53096928492874	309.03160756005246	7
108.08505939009912	269.595823421437	5
107.0795696016061	234.12736217398094	2
397.1836178171775	210.29743526790622	8
236.6106385945944	105.41898353409628	7
123.09557752103915	90.17679212868967	2
117.08775602562588	142.59628299234734	3
530.4379001545858	377.8960967386947	5
581.9632903558025	537.3187568327346	2
299.2799015090284	22.63400944521654	8
247.76261577212526	293.1798279806591	8
141.2083369253659	282.54638450726225	2
346.600947697321	167.93242616232854	8
565.0435543717508	454.49886038963234	6
356.79989569947253	112.95693310355546	5
166.83449013441748	34.05208153867348	8
521.4091449909713	451.09247815270436	6
478.2734375	543.0	2
479.3508952524141	386.020858767204	4
217.97901027797027	12.36935698629308	9
272.4076882516764	267.22960115583714	9
141.89508958853986	10.872689192272858	8
402.9496168035965	490.953785191261	4
213.84297038977454	67.10652815872527	9
420.22900780242446	242.9493779187676	9
188.5306072189131	279.9173824769639	2
565.5434800301892	330.60378482974926	3
273.5604257489855	95.26861528136196	9
319.897455498039	103.50982755250114	8
282.8412472780683	163.53422515463853	5
150.36958940018872	74.69303451507106	2
292.5128475578421	243.91926974029604	7
516.4560253804708	561.3820177528572	4
44.305792378554955	154.64407309073871	2
591.767711252776	371.5823522797797	5
500.9417211091769	525.7965016398564	3
90.56429574834054	299.021287454989	3
495.6477395499238	361.14007850951265	7
435.2178273856712	181.80699900655583	8
437.80099761106317	303.72522960392234	8
399.8862265071144	30.27175566786631	7
472.35294503281574	491.90473876063186	2
200.12016989484545	372.4487659363378	6
441.8904985511672	77.74569241805241	9
36.515537923873865	108.12829923473372	2
271.2095765607926	456.58031591737546	2
82.43455970231477	147.32156801499298	2
167.07910028940915	302.59464313602996	2
396.97333862642563	465.368347509113	3
369.3437091521924	255.41581955469255	4
180.5306072189131	168.03107918163363	2
458.966234320735	518.5570336937991	3
347.8062923692769	407.52612393681653	2
605.1490762030649	492.3892419998296	3
384.48121831461606	384.3358563088941	6
218.95986290430494	165.61849929758398	4
82.30555772245651	215.75659846946743	2
293.5870090982488	338.3795371706692	3
392.7147313088057	160.26614347784846	4
604.5416025961049	141.11754878709675	6
113.40707696519056	42.79103477636576	4
303.9383239114976	448.41806727286314	4
302.35329999000675	199.0331059892495	3
471.89461061953455	472.1673116169658	7
503.873468128146	472.30150494959594	3
53.66110050827374	37.17018617611094	5
418.0896816623908	84.63050082310781	3
149.6088430816203	371.296692510861	4
341.6137353268027	252.11817666772188	3
578.6916444584014	390.09037521252066	4
209.5061295179483	394.02192494443204	2
579.1215110383465	308.0351808222945	4
430.0674935464107	395.757807482785	2
191.66334901310364	229.41349397894805	4
186.08012227790792	346.31631279675804	2
202.06000045804623	419.6160388821385	1
296.0989891656861	416.65185054705046	2
495.09237904128463	205.83967214659947	2
573.171875	575.0	1
354.3219719981351	484.70773619506895	1
535.5442953613003	235.20583232077763	1
171.14092675840678	389.80121506682866	1
415.18075845913245	525.6243013365735	1
271.234375	42.0	1
447.234375	432.0	1
349.6173658969834	29.80602842417617	1
336.84335401783386	73.45057004529127	1
69.65360554562169	5.322505075745744	1
23.880062978669002	6.387006090894893	1
544.4210470540146	317.2213025144464	1
439.0354490510305	271.44775886303296	1
72.84710851540908	248.02873652975168	1
189.9422174076136	107.51460253006404	1
178.23270651839317	135.19162892394192	1
37.71857584774772	126.67562080274871	1
138.84616989101528	206.51319693893487	1
197.39372433711753	262.9317507418398	1
99.45963326363739	129.86912384819615	1
114.36264712264524	199.06168983289083	1
478.3125	421.0	1
540.3125	487.0	1
384.3125	530.0	1
434.3125	543.0	1
