492.4455173141089	253.15532586112624	7
460.16587631777065	179.43948308082216	2
165.22031843728706	161.3642213035534	4
586.7895241746377	309.28673251891973	4
418.6685737306768	102.3738327718317	2
357.7659013537261	492.33922903112	4
235.65572390096767	372.42041228602835	5
354.82668381245446	460.48103052781164	3
188.20570380093574	95.49420593984003	3
422.85258760076346	414.05050723977547	6
211.83893283876358	333.0179995150047	2
483.16670742850715	486.58883577865936	5
540.0798613125473	229.59327926277115	6
249.39363826025937	349.32596307382227	5
256.5383997009853	225.28777656440155	6
266.0570805494242	87.60004892374072	5
446.72179402071095	490.8090892442784	7
352.4279025744347	403.77355794883647	7
342.65847526140715	157.45685731948674	6
386.7565301470524	509.97557403192025	6
558.775569518732	511.8342280154028	6
128.67123424950645	139.78659150970205	4
472.9312599185387	457.0189729199315	4
325.33890284252345	499.64974497528897	4
276.17784326365717	452.7621423483787	6
517.2188719741853	430.66983483446575	7
366.064339706046	173.07038738522348	6
261.2757998724754	406.864034109504	3
292.39029564635234	181.10085054678007	2
473.245840774553	628.2382750732272	3
220.01112429769466	292.0904346520447	4
549.5357272894951	587.6269744835965	2
606.2462957248745	558.7716889428918	2
169.70852719526837	18.334021871202914	2
206.55073148114806	360.6799832087173	3
472.8347192400341	58.1741338442471	6
141.25218334887435	202.69641395139627	3
307.24175870709917	268.3564786458343	6
585.1528126608965	34.872279753912096	4
217.03181945267607	19.07603364386911	3
463.06824776857195	272.9209151583391	5
557.7332886380041	346.51414060470233	3
367.68060907181183	54.677860814076865	2
363.3997780323843	104.77953407753691	4
285.9955704283215	19.162524167181033	3
329.51319301810213	64.37088031821384	2
581.9719960835157	563.9760644586986	2
129.88572277196954	80.54046814448401	2
311.0824080491085	98.21748699033574	2
398.27900541618646	212.25633191977238	3
573.5367782712808	208.9798159073925	5
210.68633810167674	211.3932932293573	3
321.7044238170139	336.8250282467708	5
208.07852731117632	244.81333930598794	2
94.47893829858481	108.4626328614229	2
502.8762530236355	546.5404994148034	3
180.06000148548543	48.75341885889384	2
281.62747179940186	380.21255284260735	3
472.43211844356927	355.34043090567866	2
602.6081680319995	54.19555151886547	2
179.97494781544663	70.67217496962333	1
86.11347408439829	73.98493317132443	1
144.63886358728723	99.38274605103281	1
94.94749514143813	139.13584447144592	1
205.37275835443617	399.73948967193195	1
409.6594952984825	608.4432563791008	1
526.7102743042605	77.29769137302551	1
175.5579372869267	219.74629404617255	1
567.5676216930698	485.87120291616037	1
360.5293118366912	353.71867954418735	1
401.2301810181909	344.6740934266979	1
295.171875	428.0	1
545.171875	379.0	1
610.171875	595.0	1
