335.4440254500937	285.7446542261405	5
513.2339332922522	181.44816021256605	9
235.95237340590617	294.88287861972185	8
523.1213044991116	622.1993909615305	8
421.5545239413983	307.00802844400664	6
488.032619159424	559.2436678754727	9
301.07173053781196	194.6853695281531	8
171.3689923918471	182.9818481939456	4
294.9820871859262	448.32204886821927	4
523.2478963828448	205.69031835808386	7
135.3748086506762	126.799807646237	9
168.53953113331764	236.24647102698765	7
342.55091779898714	363.4926539671737	7
362.6998367051438	393.0071775340986	7
433.27788602083376	409.5091385847914	7
498.0523152427628	254.42238261603887	9
565.1195514887795	545.1495569291624	8
546.4136241765032	467.170017773006	9
290.49944131992993	407.41646404447374	3
342.6533726554196	162.57960822855594	2
310.26959312774636	421.4849250627452	7
194.51916542762086	29.351805069797656	9
338.4020204942835	186.8238715810081	4
443.897569429811	339.54322595788216	8
482.782572084513	432.6575215991975	9
567.5894736545433	341.9044708965108	9
347.8448432758248	239.83170377692568	2
368.8314170107152	278.7276473661135	7
485.2056758078049	466.88929804006705	6
251.03094223894067	70.439993099563	9
548.4454169635544	400.58894559044984	9
285.6849029902743	163.27527748053916	4
372.865025343509	171.90362585229482	9
492.5518814144818	360.0589729112303	9
509.90336094999327	486.7780259151244	9
322.50215828930936	157.4435682670292	8
387.63880083336335	96.38943901240103	7
177.56310858678225	103.15211238506174	3
421.5099483823218	473.1161097391262	3
297.1945314357158	29.576238854141792	8
569.7207888336875	92.12873774948974	4
604.955627664289	494.63008957390457	8
609.8140492700654	299.6853451429085	4
162.5533845644574	79.17140543442986	5
566.7651513061847	198.98753785219583	4
265.9018366247617	380.0751168075151	5
331.53436655853284	62.25852607200949	8
584.7532011784962	147.4249529951502	5
210.05869422220803	121.760441260759	4
163.5411760202342	155.0692018919952	2
480.60882500524457	125.31576725272711	6
241.66711047499712	154.62327251671547	7
117.70470115103484	65.56843667650023	7
592.8184286302753	242.1496093065672	3
576.7962263709089	632.7535530220209	2
181.29405859033403	267.81693913574895	7
427.2869685859405	501.78674059034824	2
298.64039859156514	365.20105476381724	6
342.2920611940092	221.92977094962444	5
612.7687312343783	149.44273293065646	6
396.8180323577278	382.41660552900305	2
564.4268424324652	10.325047316415628	2
173.73173036766235	133.6595085985281	3
330.03886450891696	263.4336248633453	2
260.19928274293636	293.8022801811651	1
449.2236563623883	371.47030803775965	2
400.22975535987507	509.09893068681345	3
413.0216428412194	153.83500696560796	2
196.3642205154045	335.68451757086973	3
253.96259558597137	411.90938174750136	3
142.5452894134572	160.81114251292297	1
494.234375	590.0	1
98.171875	144.0	1
381.3125	210.0	1
467.4375	280.0	1
314.4888332293221	226.7387162267687	1
459.26096785968406	572.701546150242	1
