149.19996600766976	426.65130275440083	5
464.783741130745	488.587731800826	8
345.66261739350057	20.459012325278078	7
127.94751992350787	384.47283842967767	8
480.1162127339096	284.52446177982426	7
200.42991459345387	465.260694408636	5
429.01119157872233	61.877827358055086	2
258.04123524548487	114.7531252496158	9
182.29255031590532	451.52669581655425	3
306.1578493318719	368.9888092970367	9
186.48158272758678	201.92871982411606	8
220.69848713266956	126.57327231533378	9
262.4465102049086	385.47607841514184	8
239.62373612733202	329.7476049245489	6
94.82894598732777	114.87891378552274	9
586.75022998947	277.5927009616886	4
378.2128077672845	344.83883581661973	9
587.1484331141836	53.47159299793121	6
544.122472852036	305.1684446225129	9
217.88705606836442	348.9522453077884	5
424.8935902995837	203.95304510584788	9
163.3873314316948	61.45548088171694	7
506.9875689476133	320.34778439857683	8
327.10595451227084	324.3651697172162	9
22.76874712496582	170.60897024354404	9
160.63066620398598	308.85156523897297	8
159.91796807819833	179.9680881884171	8
135.3926469087436	122.91404801336154	9
565.1453445536824	192.61012103048154	8
429.382008228254	254.97524424502032	9
53.11913327926999	63.04671044683995	8
397.190895463891	267.5363390824353	9
100.35366588597617	49.498514057918925	6
334.74640047623393	244.3244422762386	8
217.58221096124004	439.02073814979167	7
264.22425884956044	275.82189003226074	9
477.456952275198	364.94209797574734	4
448.31158358492735	342.693256821487	9
458.2557139251412	424.6563698284318	8
435.16287878900016	530.6416510452375	7
33.46850728153597	217.6787051537125	8
437.1598985122382	86.93280261642272	6
382.3198071835592	488.68089660302917	2
394.409793783013	559.0129731146599	3
219.00759520093493	234.15493202335267	4
367.7346129760648	512.367325574019	3
557.5666072193383	273.7369184169199	7
245.17109993066555	425.6261607777026	3
334.373607495796	373.3091337807591	6
532.6155633887555	381.4269926743192	4
37.53203858981138	120.08862337359314	6
64.52970012865492	29.304266582936755	3
354.5158688920652	205.98161122915315	6
603.1155352370331	465.187698998029	4
132.79586212587242	326.9602297259678	3
502.1962495958903	565.9525515001187	3
98.55430471895346	85.54614340165682	5
7.904174953438441	215.80280579771625	7
98.68308845474371	314.0787479314979	3
261.96954774759035	195.6156409613069	4
179.2445096616031	403.29061502498655	4
221.57269252201326	405.63619474686243	6
12.083338761903928	112.95314993782574	4
555.3544570830876	505.8039698415141	2
194.1448065664008	316.6204561991653	7
485.1292361175614	330.33113322936214	6
373.2387773631288	432.2609560457661	2
71.90592503891824	224.2699234479971	6
58.01037522723492	342.34985756929353	4
337.1894048041318	510.8187936568239	2
30.356301533262652	99.70177552318077	3
499.62456746627595	420.0667859278516	3
230.92522316596796	379.0137285969272	7
409.2326740034577	441.45293828735595	2
432.2806566109013	467.26155391323874	2
276.57841420603046	436.9964323229468	4
281.79050609414196	180.8808965656367	2
492.48226440947184	446.2833855923624	2
113.82864971798863	279.79709707584954	5
579.07235067121	437.39520453375667	2
148.90165823882427	238.9752664418756	7
235.0037247665196	251.79217903791914	2
374.1962211641902	195.07247268810588	1
400.4156390007377	478.24219110632407	1
543.8910783051995	565.2184951531005	2
332.662590392562	443.17873633049817	2
125.86172517464514	99.35909347515363	4
517.8762532472207	546.0529769137303	1
158.994147804977	406.9171324422844	1
180.3524245716685	25.89958076512095	2
292.6087162927046	20.980801944106926	1
592.6857048780471	10.297987625884073	1
564.0681528963956	230.89161626482243	1
71.60777921214421	7.913191640598253	1
424.171875	569.0	1
71.75818986670853	381.51931956257596	1
304.7554952461344	466.5467800729041	1
499.10395850101094	499.67436208991495	1
194.33023203313638	274.4068043742406	1
346.71709526707366	470.9637910085055	1
612.2685351200416	281.07216494845363	1
611.2197584065798	316.73057393445146	1
585.0003405700322	348.19387598092015	1
590.2442241373417	397.4863825203878	1
557.7321460200228	417.41314048315127	1
33.34378928907249	299.95014617633484	1
12.368255019834477	284.2184951531005	1
266.1722196776144	499.21772580396987	1
566.122359727718	478.24219110632407	1
527.3176213296276	457.2666564086783	1
588.1466707104179	512.8518233574397	1
