174.10155974858884	128.35904969325466	7
334.9334562266756	286.6496239678976	7
116.29351962242882	243.51355705345452	5
280.5035306546138	65.48501994577134	8
279.9370227605239	34.73774774857969	7
167.78917092480924	337.0439143385364	6
286.2785974619925	381.9273615804285	7
393.3897743690043	63.77554603909545	8
496.48637449604064	486.8972413035819	7
422.01355553377016	521.5573012412696	6
601.1611825971578	112.81183200955135	6
422.15084316144055	158.5300996115488	3
569.340852037036	590.5100508096084	7
319.21350752155604	115.93440593581796	8
593.875637062966	426.1780400011826	6
421.1084893268376	24.189705048196284	7
230.35939221600495	363.2734919783198	6
232.1463895064701	178.94758000027295	8
301.08513694873335	466.1520233882136	3
245.83309819144569	17.169314424055507	7
413.63519399460216	428.4016771811048	2
394.2442781931976	244.7914029017095	8
200.29488029756544	353.83521941900136	7
486.86641906991974	96.51967778200104	3
527.1864961568609	368.04337994195873	7
520.7988074142801	128.86003506779156	7
450.93160412189883	481.43395131169825	4
342.5401766783049	105.58647601036316	6
561.6554273561749	230.63805133200407	6
579.8374135969002	163.68542768829246	6
401.5921416226765	373.0607617834184	7
376.6238807402244	334.3413713713787	7
439.5047100999238	222.39854605643166	3
270.69717344193	263.47863984209516	6
434.0319516604545	69.89869602333437	4
419.93817058141485	607.307655033198	3
555.1144741063499	164.83904012186343	5
442.26759911678926	33.23194995697067	3
495.5101518035697	355.7193097564542	5
202.47460266998556	281.29327727549355	4
235.4990189628761	262.97832582259434	5
142.1155073406137	84.63253545484557	5
579.7092351307474	451.37772342023953	3
262.8735055536929	213.55238051821726	4
515.0889869252019	162.4860730038722	3
551.4699884992539	400.2825848757125	3
323.71910241451553	472.80923877063435	2
88.50146124646604	100.01150235843369	3
256.4230663851023	310.36646587558005	2
532.9763854563228	45.71026921236785	2
485.63747781263544	44.08162811102633	2
306.26443263642386	157.44113948178213	3
222.0855486929683	274.2893532737161	2
598.6358214983542	55.157635619855874	4
539.4632114524325	485.72741558333024	2
399.2090537795917	573.5817698283146	4
460.16129736857044	513.8169416796338	3
362.50136859450345	193.10957382545254	2
303.9956539400962	351.15204988366384	4
407.667764216766	440.64444345043523	4
119.87213069602205	204.84028390572098	2
220.3182179074372	87.63886785461153	2
541.6176600730769	556.5400033043175	4
296.36506111588824	19.846177587466958	2
247.33435837537542	249.5611178614824	1
191.70257486762642	97.79088250477793	2
500.45437545381566	213.48419125237757	4
553.9679727434334	475.32675835050225	2
435.66045758634004	185.3256777953501	2
311.26961835647614	6.292660409293738	1
460.19591166806606	147.87751961840283	1
244.14790869491452	226.53577473457457	1
467.53734866229934	350.29142945068475	1
491.6592130719231	255.90152331127868	1
479.07389251038023	239.12109555316204	1
492.70798978538494	281.07216494845363	1
613.3173118335035	139.48730573934452	1
407.757075994971	326.1695645483921	1
167.58720861219578	79.70703185105401	1
272.46487995838584	412.1692568087398	1
567.5676216930698	26.50206561360875	1
267.21090575371505	503.53924665856624	1
526.171875	623.0	1
