345.19044273692845	261.1495091369256	8
342.9864061193207	217.2489549610296	5
174.73479895981245	79.87292016036996	10
416.4550422283394	185.36864782280264	10
353.4774483887745	121.17038046951723	8
496.0751361894486	265.1848663723458	9
374.5632508897079	84.10528306631518	7
504.68529283512635	328.1198527311226	10
389.0923048091345	344.60262326689934	5
362.5801756263778	365.35275215156355	9
352.07907343468696	171.59203424792298	10
543.749759834111	589.2366618831045	5
368.719581816086	142.84992635476368	6
438.97076473961704	367.4473689712613	6
337.03029821383745	384.177912071908	5
464.6869991499764	479.7131258269937	10
560.3944496782226	359.09939922245593	9
388.91661531087107	310.25659297258494	10
325.76467489652265	247.1544732534643	2
449.87144600577193	296.36452983871357	10
504.6970690169278	445.3521003769821	10
410.5173583895022	274.83582274315535	10
396.3276946001248	150.35168385550128	8
554.3381513049536	487.400263957435	4
412.6046060149657	514.9421860325676	6
387.2093791959176	485.4673469099564	8
572.1097564690057	87.95970074448302	8
544.7561629041186	44.34133582922631	9
304.21953137327046	349.0172888919618	6
539.2189864066095	426.8031410537643	3
517.5446832193759	367.69907258876896	7
317.78472617867425	105.51667788816547	9
291.4157369246247	8.422689938391912	6
498.8301419623218	196.2692364609205	9
546.3967496996388	203.82151086142528	6
324.45513287850076	363.5885208011159	5
494.0416013784796	80.1500541721312	8
426.51285541382197	464.5583642155177	7
536.7620214917504	95.96208026915727	4
506.03785048433605	485.342985909656	4
546.9263690898313	304.0384731235862	6
354.21314064569094	87.8518155273693	8
595.9584021965877	366.2342977918072	8
403.0390625	432.5	2
262.1251183065284	204.40772655229182	4
198.98828125	165.25	3
443.676897881692	138.84279121039685	2
238.906217261459	177.60638416258536	2
498.40089597549127	542.5569332296202	3
458.81566427444375	211.13746070760712	5
357.47100010852637	424.32272597095033	4
317.203125	430.5	2
242.75915427074656	127.3081983557822	2
264.03595087004203	313.54078011310094	5
374.10802211434884	402.96698375485846	3
397.9346942266412	454.1546984707929	6
425.0272710794368	29.57178338677185	4
566.1028208195247	439.02245694224837	2
560.234375	459.0	1
411.8173975631298	224.39952750021519	3
602.7501951451263	433.42359238216494	5
539.6485822064149	140.81915050561568	2
613.6421839034217	139.84279121039685	2
610.8246110749571	385.218281082226	2
613.515625	412.0	1
276.09216045624066	251.77001862116117	3
438.5315566210614	64.58392920247734	1
474.10602298960356	7.928296072870275	1
590.0524318944819	22.42159757114185	1
582.5401693258973	162.0035405055659	1
613.515625	339.0	1
425.234375	557.0	1
426.234375	112.0	1
449.234375	245.0	1
301.33901385088376	226.53577473457457	1
