481.8638474227822	396.7450454803178	6
424.80068835498355	405.842883982505	6
427.15963365925575	453.4697274969457	6
252.83952221564638	249.08414116519003	4
290.5064805337624	98.01354636110676	7
123.16656632462139	177.23083171300095	5
84.28762776729451	204.19550425273388	3
274.81427588007523	149.0636852406427	5
516.3245112832053	66.12434869449322	3
359.1034207431803	490.14376381296177	6
263.6813391081748	62.36054811669988	5
339.90407847246547	205.84648785705292	7
332.18267666422673	105.22615749284243	3
355.2402022130213	358.7746572164461	5
79.66897434690097	161.6263105311026	4
231.55651083720068	93.29114491695326	4
326.31003212323833	283.7297111578308	5
398.2219608613856	376.78902366152283	7
202.17837477161476	217.5118833815851	5
309.6838057237854	362.3320447129555	3
373.2063609214169	229.44869069156516	7
566.510138564443	326.7907041559595	7
580.6266849929575	135.91879331048284	7
323.33762858772656	421.0192822784678	3
342.91673946533933	251.75331789069253	7
331.3490006687586	537.402929013472	5
464.6159335714657	592.4766787168404	4
466.0059777240971	66.6764750614434	3
415.3046294849756	158.7361577742809	4
155.81684776056852	157.04879012651975	7
188.0359251014576	177.30015355464167	4
238.92830943631077	217.5692470448133	6
301.091343600923	272.9041292821154	3
100.10342789864498	105.61666017403168	4
227.4967761722196	363.7229361674398	7
494.49598053992617	428.835537977375	6
175.14113726058696	253.13194527641835	7
566.8387913734352	219.92527339003647	2
246.76126739411927	157.63341947123445	4
513.476742350614	206.85901283856424	3
378.4047527390976	420.18564074158337	2
59.88194914418968	32.66804374240583	2
284.7607018567123	324.6294515377433	3
208.39136404809776	396.0339291589074	7
485.75729181709517	513.3700029655947	5
486.2497761299019	536.6668286755771	1
533.7326393114911	202.0782503037667	1
338.27992342448454	85.02746051032807	1
401.2223234558934	437.28408262454434	1
567.4440344052924	519.914497119667	2
488.4245367327945	466.7933402774317	3
111.73828125	209.5	3
564.48828125	604.0	3
552.3325295056666	206.41725852433615	2
502.234375	404.0	1
545.234375	584.0	1
553.234375	305.0	1
529.4440817851137	245.0914114991324	1
437.234375	594.0	1
45.652975910039714	92.75722964763062	1
408.95209188080327	605.1304981773998	1
272.0247654966857	358.88213851761844	1
