483.11447328137353	423.1495260932416	7
504.0454919870758	393.8170177501363	7
161.30754604788817	115.36303594278988	7
460.87031099233644	153.29286619305927	7
259.457635663299	132.35091442081682	5
572.6434427298761	185.59719853992152	8
412.6271604893562	324.3595459639625	9
319.15295119465384	128.04413979494885	9
392.54181955384513	196.41031674387273	8
455.44725585936123	337.63967330784516	5
192.44874755023224	190.74895348035935	7
466.57679149225976	101.03279417219248	5
406.8348077095046	127.89032923299129	8
488.1002877904351	473.6196951842409	6
522.7964457275099	181.78108847888285	9
601.534038157878	523.44772576573	4
523.0408963543072	475.3907395667525	3
208.9528200407089	216.49680967061818	7
583.839217906216	577.5164350825917	7
511.6778844598964	135.5152200466137	6
380.7306084490624	275.58664504216364	9
575.264284090699	525.5998299363843	8
575.9550977799736	10.568525302084161	6
568.8706589671034	65.3015848481378	7
455.5305658356404	281.6168427352987	8
369.4941545151313	455.5750933986489	7
288.08634700873927	284.6084538576089	7
598.9657344430461	42.07899138204307	6
365.40669180711114	228.23128647679175	8
431.1127888959729	184.85489311845987	7
483.77711957240393	312.35744509590813	9
310.5229493026424	254.02057787055963	8
482.69715034165836	44.810323418292626	8
555.4554039107328	446.83753200425565	8
234.04567611451307	193.5491692027336	9
603.2135602911083	386.45267980332795	7
212.15582374435536	131.01115446712612	9
515.2924139785856	324.62883972505716	7
592.4212071007229	499.1363383069499	6
590.0174516048388	330.10375237526296	8
332.2938520286677	278.877115602517	3
327.94480052086396	236.310085054678	2
456.12165710622696	198.37535066859022	5
393.6934293457413	422.4467634015922	4
497.6366327882919	4.789811033122778	4
411.5933361167074	497.0178521649083	2
540.3144760672055	394.69422976121496	4
529.1753791373189	20.248489313411728	5
281.81414110902585	387.12566878774817	3
555.2434498464729	594.0596445051863	2
482.6100793285931	362.0824967943907	2
503.0100439527157	244.96982731696772	4
479.6661089494229	557.4573656969707	3
360.0292263277091	133.26811822106617	7
467.40892815307893	520.3021411781272	2
445.4297025408264	38.83637890044445	4
385.5081419629492	14.229989438417466	3
442.6217643697311	412.4156097781431	4
566.659220093934	108.96993796005025	2
548.7841850783157	516.1666332921044	5
303.4660490166044	367.1427928490385	3
466.3245513420493	391.38054826593475	2
420.89998020541054	524.1471498874027	2
360.17487878775535	396.2900579903595	2
147.55406469003356	96.24349939246659	2
552.7459507740407	371.63596539934576	4
401.9297268735727	511.26901579586877	1
506.211319783343	64.54892230727066	4
352.85781906715386	167.57042956854616	4
517.1434468043955	421.52198085040663	2
420.7233888455787	443.04807989292703	2
525.6265272344756	262.1352107049712	2
271.8124393915245	6.162770287934405	3
410.0955760950412	5.984790292889663	3
538.6499218675813	554.5443195058832	3
585.5587859562522	160.14926279453744	4
526.6555898647363	55.33980346707531	3
363.63780400004623	7.6899563028435	2
541.9986191573415	480.37380454122285	1
476.4167291993904	21.30057737370249	1
383.6335718074996	163.96657816648445	2
311.8267809855028	349.2426527158025	1
465.64797379925886	178.836170545057	1
376.22989064521175	399.18788068093085	1
327.26284510847165	403.44588474152744	1
461.38996983954235	499.25097610495084	1
284.84375	207.0	1
358.36932727507826	59.457313138275616	1
246.23010574324545	13.251032806804375	1
283.77469523566475	435.07557715674363	1
498.3125	198.0	1
