79.49911613906733	82.7440387599222	5
189.75949535878902	133.15295058464602	7
17.887023808794005	120.81698573138587	6
279.69710041427436	166.507206246728	8
389.9825999677993	457.1651328136669	9
461.83335048894344	334.1005334278852	5
599.8808550764026	370.9045635305496	4
449.44673525414134	453.1676016351713	9
389.34016544481796	351.90897267817945	3
376.1800922852332	203.675890576193	9
230.7881174724928	344.58799853678437	10
267.0111685719746	354.23045121520033	10
413.5243795109375	494.15309842041313	2
257.5918544896053	272.5863255927969	3
358.98104704809873	484.2815705828813	5
312.8368575205235	292.7032385570142	10
333.09032162987376	457.42943201607613	7
28.007214726909957	228.24324746256752	7
396.0315105688237	255.25431188794016	10
97.5781672971446	336.61390521052977	4
453.1653984647485	364.81296754228174	6
353.50395552031364	325.1141333159285	6
507.17791681129756	519.689282725235	9
470.9337814838649	470.22771327603834	7
558.4483373255869	520.2189976374939	9
243.5812168028458	187.38143530364295	3
346.1852520529812	251.19570888438062	4
353.47892724753706	462.39671834694775	3
255.31868390805266	113.8498159271865	4
439.32925809514796	495.47695725925905	7
544.1725739362626	412.9826495685842	9
192.3792769608403	345.53272160276805	3
85.14123138216726	250.87636457234186	5
450.74173819526413	125.37057592149378	2
412.2508037781164	158.71608408574252	2
562.4483862786637	365.2359088110031	3
335.8210612598858	116.22804564469195	2
513.2521401092462	475.16844072553556	6
25.275727158624683	318.0123936816525	2
6.669643712288566	29.823009923374435	4
248.65797524895396	416.95799495939514	2
93.75239441470833	28.063587406219643	3
135.31070071845153	182.58874856967427	2
165.472043937717	111.29467185697871	5
599.6247470127865	360.0179256218527	2
603.8614326665389	411.2677619072097	2
312.8755576989647	480.33974457608866	1
415.18075845913245	186.6187120291616	1
325.736295256604	194.34848116646415	1
311.38101103891427	166.74216281895505	1
211.99827414721605	436.179829890644	1
245.12585311111545	464.89040097205344	1
151.26437938006714	415.19902794653706	1
122.55381094468764	390.905467800729	1
150.16012674793714	353.3608748481166	1
191.01747413674642	308.0865127582017	1
140.22185305876732	207.59951397326853	1
86.11347408439829	102.6955042527339	1
242.78290977401412	227.5303064191456	1
131.87616985572885	373.88145828673674	1
262.2201734710332	393.3187206441512	1
142.1664859306213	16.00715723551778	1
265.0024004894551	142.44860267314704	1
225.2493057327758	133.6145808019441	1
598.6476948742245	326.28345567625524	1
