377.6274465638302	169.25397023254635	6
553.1089571525339	308.4505197180191	6
502.11941823636784	431.9006748774692	6
451.27528393055013	373.0946197553554	3
405.5834196744004	362.5705225425803	6
385.0066265673782	107.07662474446983	6
268.34562442410606	269.880005451118	3
231.5402692220428	273.3087127906238	3
380.751154771035	304.52867093497537	4
395.3762709975847	260.3358344136257	7
297.72505613971015	302.52293590288866	7
415.88067522805943	190.60363532040174	7
411.84437420793	224.65875712691366	7
293.04862027061887	188.95122285106552	4
321.4819396484323	80.0756348816513	6
413.77821648817746	312.14564352982336	6
551.0146814975938	218.3751515250436	7
278.1076514877931	331.2164640832127	6
555.1199097178784	409.1492827197891	6
338.34349605254096	273.159971416001	4
209.0587064200581	177.31153730840174	6
505.0567256909367	318.3153549332849	4
314.3671875	254.74166870117188	2
480.3058657931641	152.8810015749957	3
467.0702332068648	426.95430892812766	4
270.1673408366926	74.01673434143039	4
462.50504982566855	333.1431682555788	6
440.00858724980986	517.6906116838911	3
569.7289381178025	268.5516320350164	3
228.31328473988492	80.36914503507339	6
319.99713556523017	219.84875247387998	2
279.5229801423687	35.75746412179719	2
351.373020153315	220.85084584432698	4
590.0897265044334	365.99649700313313	5
488.64875082665213	371.7793126951806	5
562.8361777837451	346.570428152306	2
503.82599416720814	284.2762812516901	5
502.9890546409739	468.370591288313	4
536.3951691872855	113.34986202405628	3
365.29681803935665	374.05481660562646	4
389.27766822890845	71.3953741279829	4
600.5143390118678	226.67982779663964	2
164.42173017821986	49.05488628728221	2
350.7782132799706	335.3184658798792	3
415.95380354680515	29.845219204899884	2
594.9482676811308	173.12818972311447	3
595.7364580803594	496.2973998130245	4
229.13136981463956	130.51207678479872	3
592.7160788067868	320.53589937783397	4
176.33677706638127	75.44377159072945	3
476.5180678116335	81.1322362402082	5
492.18635799095756	99.25287034444133	1
591.4392272813129	208.68552226267153	1
181.70302328779465	27.994399327919353	1
574.609336267707	487.4680383500556	3
524.9548010756587	612.6646948432368	2
402.7110830486059	526.4765632410197	3
585.7873455939935	445.75159728880544	3
577.3727344841913	572.0064503325514	4
555.3034926712717	619.6895166018849	2
288.4914962457955	386.9703827942071	2
501.5	392.48333740234375	1
568.5	227.48333740234375	1
351.9619378268611	480.5453391527166	2
522.5	407.48333740234375	1
523.5	453.48333740234375	1
356.5	401.48333740234375	1
372.5	506.48333740234375	1
355.87540295090264	135.29219879981537	1
573.0782953400784	80.87366499992261	1
616.7940437202076	145.69319884193024	1
592.6750101311708	10.024407079588679	1
435.90129180243133	477.32802314987634	1
565.5410973435044	29.62101033414913	1
206.5	203.48333740234375	1
169.5	132.48333740234375	1
165.5	96.48333740234375	1
230.5	306.48333740234375	1
358.5	457.48333740234375	1
338.2171633225858	21.632035844301317	1
334.39974527295675	113.25007000840101	1
553.2650467850224	152.69672360683282	1
520.1807570215707	505.17166059927195	1
312.7677096583921	171.78381405768695	1
325.49243649048896	159.05908709045087	1
