268.49688463466816	255.78549408155837	9
387.5745435820177	116.55987565755854	5
315.01985948228935	113.53822977680231	5
246.9201136599872	13.479262858610646	3
477.37119899311506	401.86932603510945	4
512.1881474387554	31.315824450725426	5
505.68808731594396	339.5786948376825	2
180.65826434598415	142.4266592310296	2
464.5309386171933	126.94212142032326	3
573.2219754635842	401.80965470713716	7
330.345696486582	399.90050623147613	5
316.937168637564	68.78192641176614	2
466.1628559201106	486.9674865521322	7
340.4437396116202	321.13086856218695	5
533.792712048097	64.41269965581256	7
598.4045348121703	137.81668487922087	5
449.5553857960732	331.03575082693635	7
538.1044170343841	335.8554318806519	8
558.9212227408404	20.676700527151468	8
405.951334909929	487.65607654161386	5
289.88119932856176	306.9569908889511	8
310.65859609313793	260.9586217312214	10
500.89395806501994	96.62044540246052	5
538.0555476232868	377.81892235228634	9
213.0633229259593	49.35585328475657	4
145.63897456733724	52.60880679435479	2
350.2134742525187	446.93256864871285	8
555.263919379094	421.2766494820454	6
426.08010529186384	350.03820278471005	9
547.317929616516	107.37723402068522	5
388.997971488438	9.359528103533085	2
412.64472135979673	398.6796717376651	6
237.05369238348618	117.04727149094464	8
521.4044978523661	162.20716639815714	2
347.6081664243261	243.06433915440442	5
265.8307157275335	153.61822895090899	8
362.6342351850757	373.7606438474347	8
415.071988739821	435.44118467016494	5
586.1900055499323	328.1947506874217	5
309.17365931753955	26.910241847800172	4
358.7990923315893	300.75258107173045	2
400.4556516481424	275.73042802484395	8
446.9131010984704	16.189464198860403	2
167.6500940007631	22.05124637271025	3
530.8302961607922	547.3314503067838	5
451.76083180994794	435.795925666483	5
530.0639920239412	590.0273459635887	4
473.5641603564202	536.460508050227	7
490.66688442355104	364.48715186951836	2
492.7720921994925	597.0572963172896	4
320.4928161258811	161.05250094699755	3
333.8003782519902	135.1836973803576	4
559.03611413408	251.38481166464157	2
289.4088636925317	362.9454906395403	3
547.1359552346025	211.34151577109628	4
441.47365955069245	293.33663907543337	2
250.78103617933195	359.862556718458	3
264.09561069850633	411.88760170705217	3
128.75682999586198	112.51530532562862	2
469.1444397685558	33.66804374240583	2
285.3843042709916	77.5468692999319	4
242.6570392772644	240.18248961378674	2
335.71641844071894	28.460041983699746	4
374.3234110703232	406.3650060753341	2
221.89274904770838	110.85405278775573	2
208.36212524361747	137.6562354865173	2
596.4497686655961	15.181276243346595	2
559.5809570905911	567.4625972902662	2
586.6307499030288	365.8281262067883	2
532.6247192182275	132.01643690228147	3
314.2671169155892	372.76330411622644	2
273.79145041839865	32.763667265620725	2
273.94026119584737	355.47243685521414	3
534.856328890639	395.16778605389726	2
241.0015785545288	219.19433759039853	1
341.1013579775504	222.4807121661721	1
582.7430826914634	89.4180852725285	1
559.3240609130224	143.7076370451351	1
389.0039025243613	448.1549273777917	1
414.55192628266053	464.12244260502894	1
326.19834411854254	306.57629236295486	1
283.61830452137724	385.3493674839919	1
336.84335401783386	368.31735124160554	1
576.3560767518886	608.8945806653131	1
447.5514569704636	79.83757613618617	1
495.791200604621	568.6901579586877	1
567.5676216930698	526.7285540704738	1
207.5812636186961	344.52685297691374	1
366.3125	87.0	1
173.3125	112.0	1
144.3125	159.0	1
477.3125	191.0	1
216.3125	199.0	1
410.234375	173.0	1
289.234375	200.0	1
181.77846851622712	57.68272041852593	1
603.2270873263744	252.72080123222193	1
601.7196477270596	487.88004028694735	1
464.5426441894126	365.7781277008399	1
