416.41012110596887	23.50685102620517	3
613.5491928909578	91.28139513571836	3
350.2105911678234	186.99467974580938	7
134.84105250192056	187.49192835598654	7
150.42236845624578	144.69349265350115	5
285.93613973123075	142.2379470074804	7
180.6019526112908	125.88425976737118	4
471.9155403182725	175.88514881767492	7
371.7503989084462	10.156490216155351	4
294.69278155615086	365.37159515801716	5
475.03191856736305	55.14683737511	7
406.33569541294025	466.88869896158883	8
501.45906682294185	373.9434957815182	7
364.1262063519292	267.83034525581013	6
436.2290966454052	295.1215430107917	7
85.76586246740884	171.59361471944203	7
159.48984484100055	252.73110016084968	2
244.04431318020107	358.2408581651935	7
226.89766714871604	316.3286140658025	7
278.27222624121634	305.8086234966624	6
301.1095902137783	223.92419699343685	7
540.2318849097674	444.0183428285409	5
526.0127138573654	47.4890986333845	7
484.76253872822195	459.29266604452226	7
299.4531537454686	10.432442284325639	3
567.8874555884299	544.0784021871203	4
191.7446029091866	339.2721445929526	4
532.452480090325	531.8906439854192	3
345.5264009820466	124.70068615218278	5
544.3962005095846	363.77466220462065	6
148.2621989129496	229.41342045572003	6
243.19453300214153	74.98764029604743	7
571.6407537794948	414.8518833535844	3
437.95041691920557	136.95577156743622	3
106.16816424781446	18.536695018226002	3
408.13560280421245	98.80230738047484	5
92.82026094766437	206.43605431878532	5
254.9997318649494	234.3040799093199	5
529.5542456630262	153.97816588835803	4
390.17140394069156	381.4206971947017	6
264.0536688907706	165.2407104850532	6
182.0028833570429	245.65513268244132	5
511.078125	496.5	2
584.8574455736393	104.24489098293907	5
505.97789850738275	139.63821385176186	3
569.963498515235	175.97223572296477	3
573.6195143167429	43.730390786732876	6
292.8273675812523	96.82777821887095	6
588.078125	428.5	2
450.96099849940873	380.95196294479155	3
308.7344037454686	296.01099635479954	3
492.3334048412553	276.3941797149871	4
265.3057587965326	98.24349939246659	2
466.0258661824878	134.52156994903243	3
596.6521588802896	53.054191980558926	2
93.15494927791057	32.82329632594312	3
49.887239740621254	97.98420870119196	3
328.69735993050335	442.28557147104755	4
184.15691667198325	57.00206561360875	2
604.4127904606146	526.1557715674362	2
193.83455878082816	369.96233292831107	2
257.70150616440264	398.0569866342649	2
382.19175212174724	111.22512436786687	3
95.13925379087941	102.21531918998772	3
454.26142061831797	411.8497785453403	4
553.21233747538	382.07144592952613	1
470.99341899367846	219.02494389092288	2
247.69660844404052	22.788212108329844	2
372.0090716152622	411.76910669309746	2
577.921875	391.0	1
469.921875	493.0	1
304.921875	269.0	1
251.921875	257.0	1
554.921875	224.0	1
467.921875	83.0	1
583.921875	81.0	1
418.921875	71.0	1
298.921875	73.0	1
272.921875	57.0	1
284.921875	30.0	1
586.921875	361.0	1
576.921875	507.0	1
494.921875	527.0	1
450.921875	29.0	1
221.921875	55.0	1
170.921875	48.0	1
319.921875	21.0	1
184.921875	35.0	1
338.921875	420.0	1
312.921875	55.0	1
606.241966525004	201.46814656644847	1
598.70476852843	272.3174044867824	1
14.337052995949561	17.668043742405832	1
58.507158281148776	60.733900364520046	1
369.90640054180324	331.27582017010934	1
451.234375	337.0	1
178.234375	289.0	1
12.171875	157.0	1
