302.9937306736502	31.924867494036064	7
288.8902068125466	355.9048212832306	9
107.7421875	22.0	2
224.23566359770567	192.28558821306143	9
62.94122086705252	179.4651009438257	9
452.97317515971645	439.581037971652	8
249.3469172034499	345.8622409595398	9
448.47457714923746	59.569265436340544	3
215.07985503649462	339.72993306443766	7
467.4655850956044	411.13362850652345	6
249.8737710008671	279.9416231268558	8
339.39497919775783	261.6312534147089	5
300.5941715625781	249.1466732266626	7
464.95873055902183	264.13704479292863	4
24.57969395443659	87.43269572723538	6
474.99709386664597	152.7353082808763	8
404.41340190822336	443.5034280421247	7
361.4905892032841	405.9386371709793	6
200.7724709510578	243.78069447936338	6
85.26863818971381	36.33828240824025	8
136.9853279976918	127.10028384462528	7
171.8854178183651	27.3229297558781	5
373.0720816348395	135.3543604587063	9
88.07024798942004	104.49276497888353	8
441.89147758626456	402.9491950428019	4
380.96682240193627	339.9909417355519	7
446.3259314420781	227.46717570688926	8
430.46674322806973	205.08303485407737	7
599.5171756980417	257.28770901179837	8
535.5933226423243	368.8977435511788	7
430.6170765060915	262.42251948853277	8
91.05805840874373	134.4547623698153	9
183.5512699637298	225.50971448938006	4
131.9648602266278	92.91991386348866	7
38.284930579050894	135.32019290134167	9
581.8090292852063	356.0565001769154	8
486.9579169044296	275.719736447596	9
313.6483484896288	293.75841661757966	6
217.47801482383403	45.124573133985706	2
519.2734375	392.5	2
268.49735135522985	296.9480160373947	8
111.32656717122566	59.383663280730815	8
535.6033027924439	398.90700892965646	6
265.25944602468667	175.44124037366402	9
92.56613967918351	192.77184748565756	5
387.3125	119.0	1
355.3125	117.0	1
187.7421875	356.5	2
609.381828954371	438.8845884651789	3
492.874519785782	507.40808390966225	2
146.2421875	5.0	2
439.2622995184437	482.38666804320076	4
273.77594076825164	56.19240768144515	3
225.45091280019824	230.21004406909051	6
259.3125	46.0	1
166.03323860771633	327.45506069389046	2
30.285957293374736	10.012203539794339	2
324.82815113370407	228.6844032880497	3
321.81297056132235	370.72435674271424	3
177.96451398799243	198.27032684813798	5
394.234375	473.0	1
166.0696035250817	260.2579563301298	1
304.43397618821325	-89.192642121273	1
572.0668870817811	532.8086779349729	1
134.3125	300.0	1
474.3125	106.0	1
464.3125	380.0	1
40.3125	61.0	1
