573.2001301826442	553.9229822356081	5
438.68707077372324	544.011599608672	5
591.4083788938472	376.9586482840666	4
380.87476199779246	389.948433736226	5
430.80643861449084	460.5007401871742	5
597.8615286851859	616.6424140953429	3
348.74890655904255	430.89991810664344	4
246.99804509909876	55.30040329127239	2
30.93393138615061	119.55872657040811	4
504.82976051862613	595.6143166999409	2
608.4984514929852	546.8155972358769	1
215.16915871267213	364.73726869125557	1
