86.84203092455084	73.52257257595451	4
547.4696259682989	303.41000862507684	8
134.73905540490372	120.92087403576623	4
604.2021295964532	297.47890282995684	7
495.0676050345432	281.20778054943275	8
407.46994074730105	222.63394368364365	3
536.0778852135218	346.9659818428497	9
464.2734375	337.0	2
311.4546216275631	312.1081190397702	8
295.1417316068666	63.23948829245511	5
179.428784935579	287.0504977726761	7
558.7860505451862	227.60721510242308	7
611.6316544089728	401.62588756228865	5
558.0076488667423	408.5602400369288	2
199.31064812617342	378.8655177719649	3
456.41754337317735	501.28149934232954	9
273.0759564598287	369.7203793139067	8
370.7207768852637	281.1684766880971	7
403.9602936853215	489.32122816567403	7
308.21259172672535	438.06872075709975	8
226.01279446315007	337.1399446068626	3
80.7222883127181	203.44292943014332	3
385.4969372686202	58.87554085398481	8
391.7734375	249.5	2
37.707213068555035	174.97426680040047	7
61.604781930826334	41.502514725183715	5
180.7328363040138	113.06163659742185	5
594.9715242210561	343.89909404413254	9
71.234375	224.0	1
512.2174242344429	499.3728406480056	7
342.67507584852217	229.1952989812877	5
141.2878582761332	328.43065590931144	2
573.1923173446343	309.99202791180926	4
229.9003413886017	403.9217057795237	7
19.51009118727543	32.81182827263689	3
506.3677313777007	226.34984200402323	3
404.6836775540581	403.0556220583924	6
200.15711665129544	341.9018310509309	2
575.9997310799322	475.5363874191746	4
390.9766485795806	208.70657024157563	1
365.34881869057665	494.3004860267315	2
50.3125	267.0	1
285.3125	107.0	1
411.3125	327.0	1
438.3125	366.0	1
100.3125	314.0	1
207.95631163976938	2.6580046189533393	1
358.1596140847253	357.08510489486724	1
61.864102330623346	6.264865830929098	1
95.27672122792953	228.6676028289121	1
309.32631103879726	264.168509204177	1
283.234375	136.0	1
476.234375	409.0	1
135.234375	298.0	1
312.234375	88.0	1
