116.64024794751194	303.09300647738803	10
509.28233377550805	311.4490960862908	10
60.22012290132125	155.8231230401579	9
594.0486928302569	430.67907685673003	7
225.09695945803054	209.3359995338527	10
29.635890360881493	209.3532851207878	2
377.31432317768235	224.73120992919252	4
11.48421103653844	31.429820242629518	5
369.1324662282147	258.8159532530542	9
25.43289833219151	237.78322462947864	3
205.23425916727496	377.0985649637586	6
467.08063216924154	470.41166464155526	1
182.27008260066236	352.3889829204494	1
