268.2697731045382	345.0475457762733	2
385.84693429930394	73.99839552327101	5
234.1717036971757	247.02091340462638	8
512.3447493377986	327.94219145221314	7
360.5621238891855	361.8279735343899	2
219.1551753884472	24.36436592456914	4
359.1949941509362	225.52433853549724	10
422.84527363276237	474.6436729562289	4
312.14074045217046	362.42550131041224	3
499.5250384228873	512.8518233574397	2
404.9405455452634	247.85537959202787	7
535.7004393578266	322.36572328627994	6
161.19120767552116	129.74988916712198	6
441.26637980051805	504.5819774497371	7
242.31636374832811	162.00495432407578	10
496.122829613411	162.1871893425898	8
265.7889131753393	285.1978353529164	9
525.267869721838	457.55289462183066	8
445.34475682738037	288.3378228720205	3
311.2077627977455	15.09838514912256	3
439.041456636902	421.9518770706949	5
419.7212453770459	309.1459357753329	4
304.32112576065964	278.37095073706666	9
150.74300598028168	21.60414092713838	5
333.4395180272086	101.62555219033882	5
334.3999505506738	459.37516775885877	4
177.37533368642283	102.04574737983714	6
567.4963712102077	428.77735148105637	8
170.0365251583009	77.86373711698312	6
418.9886099193949	54.15854386155542	7
520.933863165129	101.30448964919373	4
288.0800532310327	417.87842146259175	3
602.6080641495353	430.58176837468983	5
404.6107458545853	428.42529619941536	2
368.03925566376074	285.99947815740626	8
289.56219423193033	166.98464646742093	7
501.43036997455204	473.83293122714014	5
553.8350623122099	224.51221593239023	6
370.0011143103426	458.83982151100173	2
522.511983531256	242.79823819049085	4
553.8478437742606	138.00011741764374	8
507.0312623610357	221.75740415701512	8
475.51160259913047	497.5291583320511	3
450.232532890178	15.2072626557932	2
342.50929506285706	147.34120633943684	3
231.08657153886793	53.60202009776041	5
441.38762720252254	102.24790119605274	5
313.25404323286045	185.57368157931342	7
523.2911485782192	402.8075572416393	4
464.7098821443178	263.24816673834954	4
473.298741006829	125.42105053897068	6
490.3496860770813	322.617913443013	2
586.3059941776196	210.13225880152137	7
325.9682565167809	379.79203019637066	5
566.9240828357383	67.01204554350741	2
593.16164496442	65.35524680704614	4
336.7973878807486	349.92681739505196	4
397.01530685167626	305.2193455790424	7
209.54463412415473	316.0720157637528	4
458.25912215141375	394.8028949829215	6
599.084954975604	349.673122680618	2
235.62838974287405	324.0010961028307	3
587.8951406777844	318.5173284293877	5
576.6264905867893	161.11846240878845	4
382.8604332044488	204.17918516111556	3
561.4603817413467	93.50824356097522	3
588.3475462069787	47.227958315673206	2
518.7088361054323	63.50777409601949	4
611.6162048274608	258.839165298407	4
297.28548507294806	214.79352364539815	4
207.42724603092802	204.4347686581943	6
368.41107862919756	368.354396345964	5
364.6224260073928	182.6217879673796	3
402.0386910239897	460.3844732963672	4
416.2653573806783	209.31012333318728	5
479.5068418773503	542.4197568856747	3
531.2151193605107	147.73896846867765	3
483.5003681626915	28.890213879058315	3
415.09327892440933	152.5850900138483	2
470.0243352988435	292.7328065203283	4
274.32413135005754	320.12740801277005	5
500.33141565271706	418.82221730882173	3
563.2041043987606	290.59001251305295	2
388.5370440885318	132.8773855881272	2
516.280307732736	361.04290820670474	2
535.9910846666066	237.2391562651257	2
458.0755594603587	153.3813474773428	2
313.76052091797567	320.20574869664165	3
249.5128288379751	214.36884477754853	2
443.83960376960687	196.03623634405295	2
481.36391475230675	277.4141406370211	2
256.8033694176501	383.99930758578245	2
364.3125	87.0	1
238.90402512760502	35.658408985997845	1
155.00188805065295	197.17002615787044	1
211.63583057759558	346.09632251115556	1
364.75723074303306	510.75426988767504	1
543.0492720315561	497.1201723342053	1
603.8783214123464	571.5833205108479	1
435.0252705449804	225.48699799969228	1
588.1466707104179	9.438990613940607	1
562.9760295873323	590.461301738729	1
301.83062793531906	446.7788890598554	1
396.2205321468901	177.24326819510694	1
531.5127281834752	207.65779350669334	1
451.8056979603708	349.2426527158025	1
550.3907090257895	6.292660409293738	1
411.9521828488186	8.390213879058317	1
462.29346509498987	216.04800738575167	1
535.84375	35.0	1
338.234375	425.0	1
