363.83750565977493	423.51888728017116	7
195.84542374753426	109.23130599756101	4
486.64789891169	486.6293594805212	3
441.21457924559866	33.7011165127187	5
400.4080069690518	134.36105031228158	5
558.262939570112	397.18041398155367	7
568.2680200798536	184.61233441295727	6
318.9882257515717	254.74805482540285	5
606.1268807125691	188.05744715792054	8
307.8577729497771	334.5599376924863	7
496.62359386643584	31.805413133125132	2
559.5396023910425	297.0436462379138	5
442.7789031198929	177.03893911684935	5
500.37969364047467	399.5904413483448	9
464.5069817857584	196.83324268125045	4
494.1923385948216	455.09423592458177	3
434.024114081232	396.4892552572786	5
233.24540653806469	228.89739767226888	6
147.1220763562918	25.780596551415165	4
184.0185100744136	37.77730375574646	3
461.91467942538947	264.14888387291285	9
158.48890190644335	106.22503810316107	4
348.50781783833276	66.86420464499139	9
552.6222819605981	142.27960320072924	2
254.9942680038996	93.64860570878098	6
585.6627262947693	469.69128766901906	8
509.96698450576946	164.88142436593773	7
580.3824210594566	125.54520090746763	7
266.8632125744332	130.9121880195414	4
607.0838746660808	543.1647505619363	3
536.9183996887741	203.03898635886105	3
550.3624783412024	239.69892045113954	4
212.476399460993	26.746815589145513	7
533.9445361150792	305.26893140399113	4
265.37456001488437	115.8812963885432	4
429.5889116961217	210.10376088337	4
213.26503170904198	42.80991651134884	1
131.82177314685816	97.10542037940102	1
250.234375	165.0	1
315.7980215674342	87.2359659781288	1
298.1299794533545	280.4801944106926	1
420.70202161978233	471.5159173754557	1
508.9968031163401	200.31635636251733	1
246.13529260473427	292.89296858265016	1
