483.07732444945714	431.1339048583609	8
319.8415694844905	218.1737639041359	9
586.3398397765233	429.87660333104066	9
306.90888545298924	145.95835687362325	7
236.96595874149037	140.36562599486555	9
401.92807732602137	394.9504273726287	9
585.6288437998196	503.69925140728964	8
163.7181083221222	87.55719670206781	5
357.75270832746264	396.99730509285547	7
537.6667236595608	111.84628592381159	9
569.499480049947	396.02951767522603	6
409.9338933646353	72.95287811442174	9
452.8130141681389	305.3012187219807	8
170.87567612549714	51.0541288427611	8
581.5366824480328	240.3825080623875	9
561.850383487189	617.6837253233136	7
460.1263059913417	221.7323274966795	9
502.0105561494246	230.913164373923	9
404.5283322280334	208.0420789034792	9
470.75994272329467	250.53794658064166	7
264.2326109388223	121.0871553976585	8
513.8327250094844	545.7781839472868	6
448.31899054213824	254.32647687488765	7
543.621884110695	570.9531909682886	9
598.9712482100181	328.6418041628583	7
429.6994932490808	362.8746855143446	9
461.61823228907883	73.43648066874655	8
469.2373562782925	331.7454446774483	9
324.73683817078586	323.9863560128473	5
588.2302868375677	589.9911923278112	3
270.46516853967	248.07072359949703	7
420.9329501097359	543.4582860008825	5
452.55185790240614	42.581563237229304	7
231.218872327353	60.01110417273206	7
481.4629158256382	291.9489926774381	7
436.7001320527578	477.54963257834777	6
296.39520584240495	233.98530944426153	8
317.6983556267361	42.16069660090986	7
339.86804576347015	71.25624150003057	8
397.02719147216726	512.0179298015785	5
158.9013658887832	114.65565887265423	3
220.3616499749394	168.50500620515032	7
503.31065673891266	151.4370321623525	8
285.5180346580625	73.91405299704566	6
381.76166198386306	466.73158472251805	6
523.7028330946209	525.6941837205725	2
459.9720744153232	494.4488400603046	6
544.2666996862545	372.91318702022744	3
326.477015723516	172.16726379980418	5
413.234375	357.0	1
300.53507103299273	51.512599279799474	2
526.8038879941067	397.5244404539894	3
336.5288357655098	156.37264230484328	4
367.45650261572473	156.2417510871494	5
264.185233854304	286.68266146067197	4
511.3480590012882	313.4036339445712	2
456.7669220457638	16.989993576748425	3
338.80072555636275	426.3194012837913	3
543.8867142303193	158.33214525524778	4
268.8604981955382	33.92454298952393	2
262.22560252545975	10.883166732165797	3
315.8391529926241	289.0701798237481	5
299.4945452014134	378.9461495219866	4
595.4881077046513	570.5345437759655	1
287.14775394685245	271.633174334513	1
573.5	372.48333740234375	1
609.4535637159338	96.3423295664414	2
490.1691173777642	7.009545040425533	1
605.9758748392702	270.58439759963073	1
