358.8226870005416	286.79944384505234	10
444.04353875276433	35.31339038246918	7
407.0460166567158	353.05092035656037	9
591.8861965472263	424.8392647502279	6
84.10202153722136	122.97354353821656	5
369.1288677457263	533.0806995521061	4
453.54147985700274	146.55029190619206	3
210.72828474072864	384.48091990734036	6
548.2602931631052	419.61590349219966	7
484.46085135070575	104.56208962101216	8
81.11827695413467	22.91697837770131	3
436.97978080824413	566.8550836108353	6
280.4648164615239	425.17715453301935	6
542.6676739239833	473.36978185638526	5
384.75347416195524	185.47595117420803	6
363.93577397759054	248.39139610910055	4
318.35776001604467	158.17614906730506	4
161.67232276574242	302.18355792231785	3
98.32411600469091	58.20617107568781	3
384.62177922831467	158.16082080747248	8
319.3471725962267	254.40444049014923	4
531.6829961971071	191.0600297275668	4
468.82830936423545	269.79509348474016	6
407.28328702775275	84.21838271187428	7
447.0085823425767	405.872332850239	4
338.97179506441137	329.8966869551197	5
210.38251810354717	37.805628012382954	3
518.3008655444504	149.91387946160933	5
601.3070023983864	46.16070367969001	3
372.73186715047063	126.15127141899967	5
384.11004222996485	99.96722966128665	4
249.97107442270726	354.23980866053716	3
257.82755298831864	260.93352462145305	4
571.2845360381957	580.2483683401263	3
242.91341167500082	146.8473822969255	2
388.86047364626984	51.915318586536685	6
461.8410347123279	239.1610141385895	4
512.2541688056618	212.58335962326396	6
500.69218995106127	249.68333569005912	5
605.453915688337	355.72255819897975	7
288.5836522807655	102.53784699648148	4
475.4972475222025	436.1808598697455	4
244.68970040923307	60.88199923826302	7
344.0694918835375	156.32400902190315	5
611.6274254556542	293.0387026153654	3
553.439967590323	116.07514892494049	9
565.5055695428998	525.7337283535871	3
521.3824702028809	583.361042012288	5
572.5297704894243	385.5372773560404	4
608.5920654005737	170.85611053078424	4
238.88156910211518	424.2151907895262	5
530.0534214945411	256.4296026871333	4
444.2260201057012	216.8781306512893	2
566.7580053915947	232.26391517190874	5
396.7318733161702	272.4955602555856	4
369.9969672379999	73.17740863593488	5
495.24177200404387	460.1022103848562	2
429.29422421274853	172.9674597219414	6
433.00612735877746	132.66595301953816	8
524.9994760966049	359.09725910187586	4
589.7527188599045	559.4358545233067	2
345.6623245730429	188.11639651078798	6
393.9382866272181	493.12988721543326	2
174.52521520023015	251.2166949768921	2
579.7308771775295	158.1794398242477	3
600.3639278957143	497.8714082190777	3
404.4925206916846	135.12806496954553	3
284.6557065202768	12.454049346713925	2
273.63608530600754	321.271903795096	2
497.07596404920884	328.8733796748363	3
576.4799865736256	68.94120205132464	5
466.98622482942824	365.1430405370479	3
507.7632144680881	58.550989018386666	2
507.33475768814117	86.80579415898798	2
565.7110668525972	47.9025456817117	1
469.9059777589754	293.8022801811651	1
445.42245499060533	13.838513196938935	1
500.7765064669202	193.7391847571451	1
552.9370549734476	75.57957207558957	1
396.19801113423284	223.3090181076428	3
607.7466893322603	92.94405253124987	2
280.7658928453559	133.92385905169874	4
322.8380790223238	218.32604495607575	3
218.81759305527828	97.87647966777062	3
260.6592247783504	127.82742664948056	1
456.185054461561	329.1339910344359	3
519.1759551468615	419.715954628812	2
445.9858931069072	376.3776404265435	1
324.7734375	399.5	2
283.7734375	190.0	2
224.7734375	229.0	2
312.3125	457.0	1
170.3125	349.0	1
194.3125	175.0	1
425.3125	318.0	1
458.3125	462.0	1
537.3125	607.0	1
564.3125	627.0	1
532.3125	516.0	1
364.38513738115336	485.87120291616037	1
396.234375	318.0	1
400.234375	399.0	1
466.234375	530.0	1
271.234375	473.0	1
324.234375	120.0	1
235.234375	182.0	1
317.234375	491.0	1
425.15318376400444	466.65272023364804	1
520.9836467413571	280.5471710928479	1
355.52446842779625	27.691889025058785	1
418.7679641940935	258.2671401339247	1
302.8215552892152	278.03073308611323	1
139.44252455961404	48.77305484072652	1
575.5591307813721	14.516160390266444	1
508.22801339642416	121.35311572700297	1
366.64938173584954	212.90020302982978	1
581.6785817015342	125.61111978759956	1
469.9059777589754	20.22551928783383	1
573.1625737821012	278.899265969077	1
484.7635151940387	569.8036539894412	1
134.19850341880885	226.39303210828302	1
313.0582033041302	361.1340052769319	1
