497.0796806258294	294.6929549100427	9
486.2257092304231	428.05618952188547	6
545.5112831335166	342.52110151048396	8
246.4806643111611	406.9138611094827	8
360.9132259603596	340.4906264281368	9
485.17360676501363	338.7207108934256	3
86.62376962893542	43.937120162366284	7
253.36413825789947	466.45488132770515	5
586.9477248668782	264.11752171382113	9
132.2307724348795	226.98586787939226	7
423.77248920277685	411.27394067458147	7
593.0213936222974	191.2399401188257	8
197.81265010914296	38.09876689367615	8
369.4039770593258	461.372123940021	10
313.66330923440387	469.24530678085017	8
64.89147255133138	215.1070977849087	6
158.82589098512386	67.18424473005537	9
281.7461833631486	453.342513145262	7
391.44239269495256	289.8958106236417	8
210.47393591569963	80.1890662963589	8
371.03152309224527	201.1008770898362	5
206.303401583283	260.22785149904877	5
429.09320734182984	369.8316881048107	5
322.1997221663483	195.4106353177318	6
146.58767178165454	341.75503236545165	9
283.15548685112196	298.87042072572876	9
461.23478846108986	526.626169587742	6
34.63349827155095	175.92408068064748	9
186.50403768189233	357.21512009970263	6
398.5614979797276	169.15418646429669	8
379.23526014239775	379.07505812552995	8
159.85202923228266	21.720613411694675	8
440.0495199752037	501.8325020139671	9
125.98015367995923	282.89816382533695	7
152.25565341798756	400.32950247714155	6
182.83634398012276	300.03298320072884	9
155.55923494755467	272.39252781594575	7
276.86524039207177	491.5260380343201	9
181.86697515983383	104.65609895993256	8
146.2699814512754	310.65189616496525	3
339.45106787424714	429.35811783752445	5
77.99958656161913	294.511339996972	8
610.7838396929078	284.51701695702485	7
592.1198393326986	471.03908248176833	7
10.448744632638583	203.46043685060738	3
578.8161485610151	508.7811439870152	6
121.18090847095363	266.2801321927793	3
30.30675375367212	253.90939548109202	6
345.50953085772966	184.2532212242087	1
485.93951531180255	353.0832410593241	6
52.73195107882576	11.153590041463216	4
63.266599606046896	232.06122130251447	1
473.4459049544995	402.59692720540147	1
399.51722900190003	468.1788168007615	1
