355.48266102979244	386.6051701955724	10
385.6301141207332	444.2541451183319	10
608.6061613096922	481.63380773636186	6
602.4173897069761	335.44014589704534	4
552.9843022192686	365.2359263636589	10
603.7273469226199	520.5056971462534	6
396.1884564067707	211.6833756826093	6
202.6680640450881	373.77509113001213	2
379.9558764741287	370.1764826825414	6
277.9245382983104	299.7654450972158	3
289.2959583963147	288.20996354799513	1
109.80763967956393	196.22636695018224	2
101.5609472677564	343.03633598239287	2
156.171875	308.0	1
308.0682531425243	346.73535844471445	1
