233.72471053778486	391.5812412990604	6
479.1240902053057	446.92216448772	6
584.5618557656384	443.4873904372337	6
346.8622355093752	531.2286302058133	7
221.85075525739092	407.3062082400727	4
262.2655803462509	282.9472683498319	8
378.23639889018654	122.0019857862925	8
481.6397566364309	253.57154167183327	8
385.7671112527729	460.845237990428	7
428.04803563353835	171.266473074774	8
467.74994717208676	539.2908472235654	3
495.7805863549412	313.2369927351398	7
545.9350018898049	427.7803073589781	7
511.65266313101193	223.94698391133923	6
205.96239567333004	386.4363118054764	3
607.8385116384106	291.91666622123137	4
314.0618587582801	490.46707267439626	7
553.5816297212311	587.8276062219405	5
535.857490097711	207.3998849607155	5
495.79687137565537	421.4629193635997	4
451.0431735368859	502.07459795164226	7
527.5286077002963	309.7387480673385	4
227.5445180798475	299.61700444379585	7
470.85437294998644	182.27862815381212	3
506.45835611886514	188.78752779571158	4
572.1833696873985	303.3843645996061	3
306.74062136268424	139.1555228262563	2
218.4869204948102	187.20745257769045	3
480.4199216656856	199.3927886602973	5
186.33672805510213	305.07568773253627	4
180.38870446347664	351.6337910636938	8
261.7612656539193	77.57927130335281	7
445.7753309741714	354.16830762722446	2
576.2765268757112	260.0970713385721	3
332.00079169672256	239.21706021432132	7
255.12143896233889	418.8295503790574	2
446.0932801092673	387.09083562245223	7
372.1566681392035	183.81803490819152	5
379.86687318461594	546.4755144098513	7
306.92190084150315	210.6040139416046	5
187.076066345797	380.0648471592431	5
220.79671652718324	321.6768734025201	4
290.8812263072539	397.319561119314	3
431.45959096724295	573.3237264639272	3
488.726263178992	487.46776555784584	5
450.26602150089866	265.2272787867389	3
277.9353710741583	69.4423690823881	1
469.234209082504	364.29794859202354	5
275.1576764951046	409.7099775860898	1
472.37399160791733	338.87876112205396	1
489.04015908223954	352.76723493853154	1
489.04015908223954	548.594715750866	1
206.03603619976212	354.4685297691373	3
114.39359242959692	143.17395304373355	4
345.9613687383566	446.8051057670808	5
500.4657831070799	120.4806290001824	6
342.0915812382861	52.04588736624903	3
169.21004559252145	1.7957523577905894	2
562.5324681791076	521.5546757349341	4
595.7656717568364	156.8955040265494	5
117.7003305435218	276.9628927518861	2
270.736751147359	333.1311765041927	6
560.1530078267242	361.4959593050054	6
303.3875866341259	318.9554786957092	6
441.16914470623794	115.50051697960382	4
611.2752256605406	34.3817554198133	3
575.4289431764139	11.555693655300953	4
500.3460611178717	456.1720993936268	3
603.206170092722	118.49318722219934	3
117.36525851097629	55.68695880292121	3
513.14151351069	277.75754490196687	6
569.411302521436	72.10351971820764	5
318.0148255949053	79.83939369626485	2
341.805997616372	16.488526939244892	3
256.2887986582108	168.82050425273388	4
347.2734375	384.0	2
150.61479126596683	227.039805930086	2
408.5008770073824	491.2085976924276	2
280.8436029807227	40.40111769440621	4
95.11833660996957	88.66030869739565	3
291.2432389410462	186.58712029161603	3
158.1520081892884	313.8934827565336	4
185.2985863726341	179.60541373743692	3
384.24651761035034	17.086390051064264	4
581.0037669435378	586.8776102188297	3
167.7049984819509	195.26615536779434	3
391.99689045994967	247.75317231342711	2
597.1218140218787	533.3102816467291	3
546.6061224782616	39.83279822581928	2
370.3125	235.0	1
93.33291382941668	22.75915833203734	2
470.5724025866718	421.55307542535814	1
364.66596108746063	272.52166364541574	1
359.4452393847565	210.91714964127965	1
280.4619373392748	439.4925880923451	1
234.08332678981566	149.0741190765492	1
247.33435837537542	125.88481166464156	1
444.9459293983202	20.57642421665969	1
491.67655697707903	602.4447977751469	1
166.3125	136.0	1
195.3125	127.0	1
435.234375	309.0	1
410.234375	368.0	1
454.234375	62.0	1
514.0394102937229	504.15159953813765	1
