557.4564811953276	110.55214713333355	9
420.50861857793416	91.48668338179363	8
345.8881209115406	285.734266947833	10
371.1019871096733	165.87322905968006	6
530.9693820825858	430.8097493175219	9
440.55365856947674	379.5373895504274	10
385.688060239936	273.1200044858574	10
484.5306693069938	162.82752966300973	8
522.9999079238846	386.3587683990759	4
495.83113997855287	456.96967792088316	9
281.4152822641322	251.3493433065338	9
386.6505619988793	234.0342407965586	8
488.0187668228056	89.32552559743114	8
456.66188339636375	148.80050549434353	10
270.6160086850835	62.165660208189834	9
285.01931376194193	31.95666732719169	7
348.18705474057134	376.5958797016581	9
513.9235297171813	24.139130418029936	8
391.832882903468	120.52690680566721	8
306.641653870175	332.2226505459908	9
221.90453136086802	87.33223635438934	9
536.768737337736	77.78424659997998	9
483.37294708350095	391.55602689466184	5
248.6731936817368	144.59281910377183	9
312.31839891425165	389.486627039851	9
288.206571334061	285.91967375965726	8
487.92716320435585	124.85963065111375	9
468.20130568264227	69.23963370465265	9
328.7826822121866	49.42736361392249	2
444.4247386331174	262.1727648565739	7
441.79397982854056	100.97642557393236	2
335.7967339569158	18.575950926627883	7
290.9430012822386	436.2089142812547	5
187.0178277377816	58.215864657563316	5
299.7161222198878	8.33751420163474	4
316.6166060416964	176.99250271474685	5
473.52862725059254	182.1133298915406	6
584.3998558777022	375.8821566351552	7
363.1046617829643	81.59992693356193	7
523.4119221029068	131.5381350301747	6
217.09890675919715	17.43514530373293	3
180.93957816163336	7.397695734029574	3
378.46693080409125	48.589557166030616	6
513.6342057774359	288.44287994571505	9
356.7773228620126	505.77885999768245	8
428.29372131581374	324.81939847970887	7
205.93414291178155	129.59669768743623	8
465.98692021672065	451.1538200444335	3
430.09837161115945	114.90179403813343	7
424.718912855872	375.76894593927426	1
470.55365162974965	593.6958158479388	3
527.0191900681388	340.48743160717873	4
485.7272374700651	202.76182361167497	6
403.7101308447136	10.603295999439656	5
607.1687040299681	309.1953095550016	7
493.25449805690505	56.365196242544954	2
343.5323318721142	321.6525985566964	3
315.2272082906469	114.49397587059835	3
344.3163674196264	216.8473892163716	6
415.0608046485951	156.99063719641987	6
471.59826033239455	525.1076580053759	3
606.2106513021179	166.85537165864372	4
442.14859122471967	421.54264169183614	6
296.1632982830773	159.24760798950064	3
605.0127437607167	353.2601602775008	4
220.1296520502073	209.2415043028058	2
382.6494801701605	435.2811161957977	4
481.0231773909377	305.97929692941614	2
541.7377715471491	38.378767765110105	2
473.85833411438136	323.0824027799469	3
603.4129877550938	598.0280337341871	2
400.7853937118263	373.9811806965485	2
336.84335401783386	202.25519287833828	1
539.68958176736	563.0267217180505	3
575.6765683635191	520.6403910339924	3
474.87647432985017	239.8250557392041	3
599.1171875	191.75	2
226.1171875	187.75	2
524.3125	8.5	1
519.921875	84.0	1
586.921875	426.0	1
556.921875	551.0	1
602.921875	506.0	1
367.921875	388.0	1
398.921875	45.0	1
198.921875	31.0	1
609.921875	480.0	1
593.921875	566.0	1
230.921875	240.0	1
204.921875	240.0	1
513.921875	622.0	1
402.2849481043607	554.1189829671688	1
422.4755163807209	570.9444581584794	1
