586.1898714076182	262.1758271061873	8
506.26703554725924	440.0078405251046	10
535.3661932387972	210.78942093292835	5
354.7815730119311	354.8411400192982	4
280.1407776067755	120.30512097250056	10
349.62272177384455	296.6479155606225	4
315.4160685365439	21.472866843616345	9
287.7038141153573	162.27621263710026	10
216.91852155512282	102.202515015649	4
522.708763210367	467.12299515777715	9
381.65309383946794	302.11521839615625	7
294.16749088529747	237.1739207183564	8
362.19454932924407	326.74811672166646	9
343.2779322589529	22.8058137348982	7
400.3421263514117	258.1811212980341	9
333.0289109213164	247.79279646360303	10
308.676739004032	88.50252101134335	7
218.57323041315323	56.86226662166802	6
418.27057064286424	173.60148746639175	9
596.247262032627	470.3863695908509	7
402.40962793942685	142.3529209625534	9
353.83010229896706	110.66795000304315	9
437.14584041873604	341.8676792223572	2
510.88972873306386	218.5419906938178	9
495.71882118122835	573.1577344398848	7
581.4245810120643	367.3098357529767	3
413.0254979817382	370.6991032518686	3
190.92689154723797	74.74655248013056	5
285.4504648885011	312.7977807005034	4
496.3376912692087	9.807245520129975	3
182.860250417014	38.86916873716357	3
491.7603260180133	248.1247808136035	3
313.5069242712836	109.442560889498	2
609.846890561416	533.2336472651318	3
334.80859534315755	395.51763285954496	2
396.2463312118263	172.82133374980478	2
552.139979921625	608.7737545565005	2
595.2303199294674	81.29418365427479	2
279.0083652213183	47.817718844548025	4
450.40227929847487	299.47929692941614	2
401.2301810181909	56.754768686617446	1
244.23176789399935	128.804622833047	1
215.234375	175.0	1
351.234375	440.0	1
560.234375	433.0	1
487.234375	112.0	1
469.234375	373.0	1
