315.3553578597887	175.163804938563	8
45.51530501193524	239.50235388128934	8
419.99526722197976	329.300116029548	10
558.2351781352422	141.45780477180716	8
273.5092212888635	364.72247426112904	10
168.74015290899092	299.2062034471472	8
532.3901981542825	448.21701757488756	10
420.74424686208044	373.1835557601886	8
410.46040230571214	273.2464647578842	8
87.83997125365102	164.04778788972183	4
450.59004553784945	347.08749148185547	6
98.58141692433823	15.051102560222178	7
471.5508240055792	474.23191287981643	10
511.1119477240044	414.1608257012206	10
6.081550231268388	18.882361705708867	4
9.867468959294113	199.43339437226226	7
280.09183486458676	333.33881870789054	7
611.1667887983465	356.0601118035726	9
81.95930323907626	283.41585801611114	5
21.28130079835672	152.97328995497588	8
306.8048705036514	219.81279713569643	7
85.79880220903127	247.63840480497095	8
497.53723517385237	297.3390530976196	6
64.77605326971266	94.43032847954943	4
380.99595069749563	350.43958938822175	7
21.26374834047409	282.0087089947664	3
339.00803573689757	296.9262963532851	2
463.4459764704951	181.00153311501356	2
161.0457414983669	283.69665028573377	3
379.171875	523.0	1
528.234375	277.0	1
309.4810275009733	450.5638547251501	1
586.0491172834941	323.02323434374523	1
57.75300919481344	13.198587526787211	1
