252.1108120026812	68.99572018369034	5
179.16740458038623	180.79812005862163	4
598.132223482693	364.7898816147047	6
269.6970522890208	364.7307651697739	5
583.0319480405437	410.48334820377244	5
337.1271054572343	123.77754272699707	6
290.43141794530095	347.1720236171352	5
296.04819142203166	218.20652626518216	7
559.0459061732364	474.3556237154436	7
440.76477738113306	428.38166290534286	7
527.8778719355394	382.67344006679883	3
227.2992018184977	333.05930790317234	3
515.7493075110178	179.38123472256916	7
503.8735798579681	88.7869663065192	6
335.36919618691707	196.1147577374101	7
376.983454875666	76.03734556487328	7
196.59470437205772	152.83956769473247	6
503.4991919126237	530.8544609914356	6
330.62255777446603	304.2584473990544	7
446.9652785442653	506.5138016672099	7
223.82358360280108	223.86021630135173	7
219.5200920739373	276.20250742884684	6
566.2486578119236	386.45037647388585	4
502.8031208128103	153.30914823224742	6
257.63308227857743	183.76618119382005	7
509.78423763778625	465.8148821215931	5
351.9150425164206	442.8092548537014	7
443.2375847688803	108.53673954209043	3
522.4938394137579	491.1005537604443	5
512.548679616263	206.72154837440735	5
264.68068808711683	254.36158810844606	6
473.1570323472789	113.4174255259903	6
171.24418685757468	53.804355358605406	5
474.05377488743943	287.1483960292657	4
552.3900677598235	264.59458267013224	2
526.0986770367901	349.95530066195346	4
361.3330079210954	58.52879220706821	2
551.8379414437586	109.41797791995214	2
215.3321762168648	303.2957835874988	2
156.80834224624445	116.5512356899566	4
373.41334222551836	505.93881023716216	6
464.152071238914	248.36118125059156	5
209.85553201496904	45.62953648358599	5
566.1971379225809	368.6582845302017	3
415.3846795333682	522.6838657943533	2
410.6083120712566	502.2334107794827	1
509.2449607552528	311.72260024301335	4
370.203125	332.0	2
505.7294742937908	111.52952612393682	2
532.7836637809755	536.6668286755771	2
309.171875	397.0	1
356.171875	367.0	1
342.171875	398.0	1
537.7528006255602	119.25929526123937	1
372.1149058060632	251.76962332928312	1
375.4276637024531	472.620170109356	1
297.0257268212245	314.7120291616039	1
323.5277899923441	336.79708383961116	1
563.234375	211.0	1
229.234375	129.0	1
319.7677544442054	101.28199760002042	1
612.1281697956344	203.60813950519568	1
