344.3429715520606	139.4551016401005	7
451.6705884515007	417.11618441668065	5
286.19479593022743	156.6551781440166	7
396.774014296647	179.10732349675996	6
525.7107421327099	452.36658534750626	8
540.8681009935768	415.9477509988037	6
528.2815925677355	256.6544069792624	5
347.0940537187421	370.23177203867806	7
315.84840857425206	98.63820004425742	5
292.6353824090446	255.69851652504164	7
516.8828803749102	360.98354573120196	5
307.9092712865981	303.18486806193744	4
361.3563433610245	193.9295086490519	2
240.79443947303034	19.493132415936294	3
503.4791575812113	485.75158093463244	8
317.2889056136021	334.9097913737194	2
526.4865192820411	203.69962079832106	7
277.1194295686021	332.20953718074287	7
304.0391102014322	367.13902435209275	6
247.81197870838446	91.38806050676348	6
311.3241777290185	146.40688960139155	8
446.8379999109452	196.30446455881253	6
607.2936625398803	392.0937731377579	6
353.525465981917	33.02475359056071	4
323.54824868375397	187.0243495027429	4
563.6939952988621	182.2578878864924	3
585.8817402059688	410.3232013440014	6
141.48541694887723	282.68614668042966	6
128.8217389330214	70.84381158761043	5
553.3869777766719	270.1922450580211	6
419.33613114532676	153.41986499208195	4
557.6026733580653	461.2979692771347	6
444.1723535831096	384.57426580209085	2
252.79613603224976	115.01156484058886	1
492.29698765069907	23.591834034275685	2
584.2333462466827	472.71704297232566	2
540.1507663517872	309.7116119150852	5
579.8554052903477	97.69407623219871	2
567.3861096502139	381.4445236525588	3
241.4670173584226	311.5939984729961	3
89.8114558613918	194.25147207857037	3
344.9491166505719	337.2583881482525	5
254.77008539928505	280.5795873825863	3
372.99530163295196	408.5111614876456	2
101.3125	241.0	1
363.3125	295.0	1
100.81135944021554	57.072517152989796	1
209.31957737064383	361.1340052769319	1
563.4617831435801	317.0152795491442	1
148.50727940963458	201.35267426278193	1
222.43595536223407	308.66849360064384	1
124.65931942492506	189.4286943363528	1
284.5585864354934	37.75596245576243	1
379.234375	333.0	1
484.234375	373.0	1
491.234375	337.0	1
195.234375	264.0	1
376.171875	12.0	1
255.6919214760329	252.54275826951726	1
