452.0946728774734	100.78845467580888	9
360.3298473399311	198.92522921961742	8
263.7964845246947	329.3402540577815	7
387.8161266871482	401.2709308472911	9
184.69617614434375	199.03295087518748	5
607.6974171931779	159.04563972752385	5
399.57830736424256	139.96735947784987	7
266.27257217847375	34.14275677216118	7
508.9636223907007	441.51482059307364	7
389.2740131271691	514.3472998913819	8
448.56630928282766	341.84834077764845	4
315.95313250392473	9.654500817385596	4
309.5393540622838	201.44936919818917	7
216.27452790429197	19.74034923500169	5
295.96870393590655	137.06325360461688	7
585.418460778002	449.90940768985195	7
515.0032356935678	523.8738317691373	9
264.3088925129291	134.24673754692492	8
529.0882127612289	429.2021467498564	5
347.1987230106271	269.1475785118283	5
368.44343573995855	372.421968269157	7
299.47771101533493	165.08220419180785	8
266.856194742373	224.0370894092364	8
469.14868143696594	612.3907114112578	5
521.0375749971226	289.31765346206765	6
455.00246193769533	380.5028580905848	8
300.7969063291333	228.48929756066158	9
288.65260920260397	89.30385561882514	9
580.7239386974863	483.5570744550781	9
498.78818887596094	246.59149801290533	6
458.67870082702933	509.53600394667916	3
313.61995357002195	378.3695920565617	8
575.7042825257904	210.9147653496529	3
497.80914960561404	548.5617368248592	4
407.930950309358	75.21350907255743	2
546.1090229485254	405.2346294046173	2
428.66435345849743	550.3605413505242	2
496.44558740953585	574.3142162818955	3
467.61655977217106	401.369744835966	2
392.0384825081277	446.9889857326049	5
379.82183945414124	289.8141648227142	3
370.30324975625393	456.05637910085056	1
574.1278405086396	628.4670686990112	3
399.6585496973814	193.11015649973666	6
315.08510062524334	352.0525063376257	3
381.87592499708677	7.928296072870275	1
555.234375	590.0	1
408.234375	537.0	1
145.03571280173796	30.919076549210207	1
501.70931297972163	408.5735115431349	1
