525.5761638115563	124.58492978959266	6
573.7129106429186	46.208835958561025	6
456.01919785406716	347.349389933519	2
447.5843491763103	403.63257979182833	7
460.9127329978531	12.77045238273424	3
244.0599723500519	324.4612277197169	4
190.68306445897713	150.50279802939923	8
598.2134760653898	323.508268987551	2
185.9940437465953	309.8200600640826	2
457.3763383718999	206.61628836953707	7
74.63077647925851	74.74842904142464	2
480.5045211206242	121.5725068974387	2
407.0237100722713	49.412175109461	6
575.9746146914124	243.56653159513354	3
271.48862585509755	200.74618404129308	4
331.51738819697584	313.72288509629414	4
336.35997810683534	129.60003781284541	6
265.4049387476587	25.755044433160016	2
572.7528187429248	460.236695018226	2
362.81326821424443	188.12299748679283	9
275.77458892475704	319.9541650135313	6
411.0809591777539	83.0976889358357	3
204.5977735051868	262.91231506211375	7
327.0497225652887	73.83378896614326	7
73.76071725633483	114.43635828453489	6
247.1175973152035	143.59401826740907	8
272.36018777070785	59.938602654647255	9
487.1829049234943	30.086936563939084	2
546.7175205896439	356.43945502903375	3
153.20158913776686	14.199308286967817	5
41.629057516661476	127.47337806152811	3
472.29074257005703	231.35485739667445	3
142.08815505196944	79.45910339215126	3
268.2908521118148	277.9377118033288	4
365.34205939945394	78.43903657757977	5
594.382091539011	145.9730961281079	8
165.9101480622087	223.30056375280662	4
166.99675652313172	247.93501516147793	3
156.5977254904348	100.80914937988729	3
610.8711404576912	270.0110323356598	2
291.77384560469426	18.359584381679987	5
599.4979601011105	408.5698668607409	3
137.49328209692027	243.21365953001367	5
332.955411676094	417.35316520448225	2
356.2980090422142	297.71016419414343	4
138.95751099604354	177.708325995834	4
393.7018033252366	234.5708440665034	6
475.84720648103837	365.1797332125309	3
513.8419006207571	203.22747798983073	3
196.453892581871	186.46253542721328	9
437.27753141482026	179.63927064580645	2
433.5269974742203	61.76271771642166	2
399.65841587209115	200.95307142907313	3
357.93339937459587	30.343816285279708	4
405.9261751519731	381.9496659194827	8
535.2375609604188	284.6299344914005	3
292.05900242470443	210.2783335766957	2
594.9627513720827	71.1652919778106	3
584.5469886334974	382.2904340601397	3
463.84790374574254	315.94562675613633	4
600.3001594450702	13.44256518013707	2
222.72317451949203	61.88461471532321	6
531.1579111454462	476.74101704731925	2
280.4461060128242	129.92764308157996	3
117.25018891236729	92.60800515716316	2
606.4012451768808	179.29594347698838	4
581.9997420384504	106.69089630472808	2
136.63763213726673	221.66501293902837	7
611.7377269782689	71.7764277035237	1
486.41229480091374	267.2873056383043	3
194.87722753172045	31.064956885599933	3
358.3059700247038	52.85654395668318	3
373.67995184185764	129.87258449145463	2
555.0239339348128	328.56677950453917	3
497.03004666905656	143.36747664819322	2
460.8654137812631	75.31415143591894	3
291.2877188570091	184.46742092640972	2
192.95701763211113	239.8859145328811	4
501.26037492093485	47.46304761290034	2
470.22954217225316	337.27337564470486	3
227.3663759546939	104.38458767934576	4
110.70228741990866	132.87149554927322	3
533.9857791619305	47.597476534851516	2
110.58410632916467	187.84112940452377	2
224.26138765750977	268.0941490998615	4
323.4617776753547	161.2558085859363	2
521.0224003840424	334.25550084628406	2
282.58379683304054	248.02392675796278	2
204.18232756448486	221.18440853971998	4
229.82610066598377	237.84082166487153	3
590.2442241373417	94.38990613940607	1
546.1956021719419	61.877827358055086	1
514.7323007680849	66.07293429758425	1
583.9515638565704	127.95076165563934	1
456.00080481421844	33.56085551623327	1
340.63536633340937	9.438990613940607	1
370.0011143103426	11.536544083705186	1
381.5376581584235	82.85336205570088	1
453.90325138729463	55.58516694876135	1
382.5864348718854	45.097399599938456	1
476.9763390834565	166.75550084628406	1
364.75723074303306	349.2426527158025	1
354.26946360841407	381.75473149715344	1
129.83124692756735	117.46299430681644	1
213.7333840045194	123.75565471611017	1
610.1709816931178	298.9013694414526	1
607.0246515527322	375.46207108785967	1
86.83140167562942	57.68272041852593	1
221.0748209987527	316.73057393445146	1
308.12328821609043	331.41344822280354	1
285.05020051992864	367.07185720880136	1
479.07389251038023	418.4619172180336	1
429.78138697767093	211.85290044622252	1
347.9768033276427	157.31651023234343	1
425.5862801238233	101.73134328358209	1
422.4399499834376	38.80473919064472	1
363.3125	414.0	1
343.2644862649627	223.30362870093037	1
573.0720859013929	358.80340339809686	1
250.04064867659952	371.8113817690248	1
604.5672578915247	485.5619837025006	1
382.05317949523305	312.5035236938032	1
544.3783164183401	240.72709599027945	1
22.066821420859423	56.31688942891859	1
429.5360426768222	447.2223572296476	1
