612.2229964327623	388.61627882773666	4
530.6932996918915	558.1712746082304	10
605.3923073654043	48.31447354793238	5
178.99031968307565	138.93184453438516	10
419.75471961326014	482.85285068446103	4
528.8071882431051	521.930681855102	5
248.7690625896193	394.920990886004	9
497.0132480820537	26.279007790841135	5
514.4891416316533	441.67649466200464	10
454.0936685524819	472.294625424659	4
141.53172377535998	331.886573258304	5
292.06969824898994	120.66584620329047	6
493.3998472492061	621.1353132303054	8
473.1796729449244	310.77603348885555	6
406.4958473424771	456.6816415529587	5
285.86684124558235	61.33827893175074	2
563.7596393597723	217.30766757068596	5
421.9441114338855	296.4209781428099	6
237.67994109664136	202.66501216832984	7
98.02580277583303	235.06566217597089	4
560.3361891376743	536.875972583631	8
546.4534522490712	90.77296671505981	5
565.3500658897308	439.9288226072191	3
388.8105450121807	409.44869592378575	3
285.9983575713651	246.5381692961954	4
586.8012887047787	577.2387778445575	6
374.0429877705677	593.9246669195713	10
598.1554876347993	421.14887448776045	3
210.91028469422815	226.64355537280989	9
571.9937315096345	474.0812079758207	4
388.40467299330714	518.8934635087879	9
593.771328472382	457.3838353331495	5
308.3009329439842	9.093564111216834	5
347.80372833859803	428.36995353740434	5
216.11166849937442	164.0614028676758	8
107.14336415362959	192.70037236055146	8
607.14135278275	138.4118304869258	2
416.64762010797574	374.24524555259586	7
134.0852067993133	177.91126345052797	7
260.84444464400895	10.460171193218327	3
222.6947211379899	256.50041893392097	6
352.36994726908483	218.43870187815673	8
419.3014016312594	436.2227081055755	2
442.765269095705	231.98943527127648	7
291.6583510999212	219.3140486981178	5
571.9975410878297	356.46908988767063	5
422.62481134601137	416.54544744650946	3
385.3338867823224	434.06145556770264	2
400.90736833900087	86.40199957410056	9
457.7073305050786	12.588512153916236	5
402.8665467765082	272.24750538012665	6
558.0363533085231	326.43998015924024	8
244.8868235594086	434.57270748183646	10
133.6347735355024	141.89257425796887	6
416.32791414749124	559.5251842997841	10
342.70224614492224	553.3632093871095	9
170.83065046296403	178.73717679588137	8
458.48284199601835	378.78446123361186	9
459.64906081554534	593.9172662436813	8
519.6453124762811	339.3868498037865	6
424.4228883037422	57.88503215196367	10
577.0032242667713	39.37998188931843	5
503.90586569176804	478.19014897871745	10
502.67328715469466	595.9556643977095	8
268.22183134629097	34.128767765110105	2
599.673115809821	299.04953602343573	6
344.1081277798527	148.2534329799633	8
558.5341983999568	286.06524150994505	8
302.112059128742	88.64273810538543	4
537.9646503393712	205.4125432432437	7
348.97797746983326	484.1512612839074	8
355.43087292331455	454.641964704045	2
316.8851135380845	119.80461670247365	8
44.27354188359039	104.28955177260659	2
212.7060580829564	93.96704669686085	2
303.2468281375094	160.83879231579425	4
93.78071961967115	111.5190876892613	5
219.46406204267294	134.46681243167265	2
230.89363652206777	56.783205483360206	3
548.014456345071	359.7320334540936	4
321.01176841151005	362.329476791935	6
236.62269595203512	108.38630329533032	3
186.60954125416114	9.887006090894893	2
300.2897672097817	389.33181757744796	4
442.3401059936617	155.23117967305802	7
503.72334270936244	168.1135050273228	5
393.0239858597987	258.15221572549626	3
128.42839589359082	340.02377288813665	2
443.1171875	452.0	2
299.6171875	77.0	2
144.98647552820984	259.59709186028624	2
254.6171875	37.0	2
591.5927637821328	333.3286659486075	2
460.84375	150.0	1
540.4026110885168	302.93981973486154	3
422.60774742152597	595.8282043391291	2
549.6075152994329	467.9747653485152	2
434.8516309888355	347.0969379904601	2
289.46164940323337	509.3771349438375	2
474.2540001878806	395.81635636251735	2
582.921875	296.0	1
93.45591427352045	10.185282977454051	2
490.936837298613	235.06591046720524	2
289.2151569663774	552.9957174830337	2
221.47794645823524	447.6359635102288	2
554.3165901075099	49.691373025516405	1
448.65936781998516	209.75534697645793	1
418.24484312959004	97.53623634405294	1
459.14713495460416	267.4380673949839	1
522.0737377623182	477.1934143714418	1
243.09913198145262	512.8518233574397	1
260.92833611030494	466.7056470226189	1
286.09897723339054	321.9744576088629	1
176.921875	89.0	1
258.921875	117.0	1
55.81509267654297	123.48211775730127	1
