422.3538665448376	84.38108976480247	5
360.95567975824497	76.20526457266627	8
441.6131076722861	386.87676606459513	6
592.050633294345	459.5082013473848	8
357.5824044849047	181.1969926727983	6
535.5330768141123	82.57389976377152	5
352.58002840143195	47.79001502731942	8
365.1163908289124	299.17958036165464	3
407.20355810956596	265.9384160868668	5
438.76657020510856	305.4965890099754	6
562.7436837949052	344.6721238171234	8
602.7794204832439	323.77930714290017	6
409.75083459723976	326.0063563045812	7
427.59328664587593	142.4273100389207	6
223.03304116838723	120.36647214765179	3
396.1100023080542	84.76269260522582	6
363.92992554559135	132.91983835311447	2
360.29960513637997	212.53962823318034	7
397.3083555403964	148.08918590522478	2
451.41863682452595	259.04695456842046	6
490.8279184551261	132.12767346205368	7
455.453292871141	420.450896535967	5
487.0827134577256	421.0686512758202	2
279.78535089640627	167.39905901318548	6
483.51793577711834	331.76257842341295	8
467.9628559115109	362.8297999328053	5
322.2403782452284	116.400232837604	4
474.81040059415136	379.8629404617254	1
530.349409958068	213.58405040542527	4
411.86800056274234	162.32515188335364	1
312.72265625	351.0	3
483.96232875229225	288.48205523431864	7
568.6738630943364	87.4902105895315	5
326.1300411114672	148.4028800734381	4
493.0782458227293	209.09495129576032	4
543.8691749754443	27.755697497607272	4
551.392709825381	174.88419835671652	6
118.71995438515134	203.69539292962733	7
514.7421875	459.0	2
177.19615338544207	239.07610786274813	4
160.55281168083974	219.52464937046432	4
576.5800974013921	429.3745659914781	6
579.1298619204603	207.30291303310628	3
254.32232611280511	312.4274901074027	5
491.8220953429416	184.52638728520003	3
257.09162525249576	276.45662225965026	6
472.26753658348827	30.531566068707267	3
373.78298196615265	358.5306620489382	4
176.47297033424488	177.54523922958097	5
145.2413832575025	33.97692040420393	6
578.7762910621891	273.49977469716646	2
462.1647806997332	179.0753097618932	4
219.66546810881943	318.7490633225119	4
240.606672188007	202.44831801255282	4
525.2790411275439	414.04674276177764	4
399.73529121684686	464.4196354440562	3
286.95810480973734	138.31491862698985	4
408.22737492151293	213.23182336257852	2
248.15953376167232	221.14337965153052	3
448.6414073379472	46.63611924828763	4
162.94670828057878	151.87178318458785	4
571.9813569298044	301.46185553902944	4
188.76401722905393	51.9972092994083	3
514.5791097242864	118.97852241599745	3
265.8934948417331	352.64970710631644	2
314.55045260105885	412.3695808226506	4
344.93053113148414	275.5327730624821	3
191.20156660501448	288.00376388263044	2
567.234375	363.0	1
210.234375	103.0	1
487.7488336365945	51.96589598851453	2
166.12661062566934	6.00249915932139	2
479.7356627733078	220.98118299388494	2
381.95651815597205	165.17270681595429	2
336.266957234286	36.11003192284181	1
272.3799819160509	90.27507980710453	1
11.56106414822856	59.619900866753255	1
557.8961123404965	532.24311501047	1
516.704184103778	41.19193150793861	1
112.37288851703993	239.56360166459035	1
355.18846549138124	439.01927001881944	1
164.40479786868448	310.0234845071169	1
152.48081864226594	285.09152596283826	1
359.52445793735166	339.29143584170487	1
69.55936017580375	199.26757962763503	1
297.0257268212245	61.83815309842041	1
295.234375	298.0	1
346.234375	399.0	1
505.234375	262.0	1
292.234375	376.0	1
403.234375	399.0	1
143.234375	81.0	1
320.234375	221.0	1
389.234375	122.0	1
113.3125	42.0	1
81.3125	63.0	1
151.3125	260.0	1
438.3125	195.0	1
395.3042110807928	189.9314702308627	1
260.5853899609352	28.710571081409476	1
