220.08788442257267	248.3174480175312	7
321.9108363681569	286.5477876383028	6
348.69223985842564	316.7762886968974	5
216.8543169512033	69.60644192416275	3
404.4568861412773	276.65385960954734	4
478.69098917331786	340.4112439321668	6
537.2140937728807	326.10225119767426	4
246.50506301754484	133.07007153920182	2
601.1506621264455	514.5060886123031	4
597.5162241306201	301.85748368203906	2
565.8455792313385	396.94031204214707	6
354.1342227365802	415.7040879239001	6
409.8528320916208	356.9519231990928	6
166.13803223848015	60.9046780072904	3
530.4763008724366	506.9858576370184	4
474.2582742780864	418.5117861482381	2
188.25684255642147	203.18250303766706	2
452.1242067339492	311.55981578248225	3
206.32444299328307	131.49453219927096	2
177.19599013748748	175.8278857837181	3
337.48133756555785	357.7030984204131	3
127.52294778927255	88.89234507897935	3
516.9198114914803	472.25795868772786	2
500.78609274103366	170.78906947332854	5
447.35241129137137	232.11767922235722	3
359.4160005365684	376.55018226002426	2
423.2497062062811	428.6729040097205	2
562.7654957144049	487.956865127582	2
405.171875	448.0	1
557.171875	548.0	1
253.0833282470703	361.98333740234375	1
485.8529269154512	291.52272174969625	1
172.24517939053675	215.32928311057108	1
463.7678742728516	255.0823815309842	1
528.9187795685204	445.0138517618469	1
433.9530532053421	620.5900364520048	1
600.6952006569692	67.35941676792224	1
394.1999584486628	245.14410692588092	1
173.34943202266675	20.980801944106926	1
224.14505310064584	23.189307411907656	1
279.35768470714487	358.88213851761844	1
442.462186685357	450.51703901987025	1
351.2359905310646	239.9950581694636	1
289.48287313431285	211.9254607227427	1
288.0793931934776	293.3272933182333	1
