551.7904641531683	474.4934815409446	8
476.6092153952525	543.0903668138325	6
592.3219734009114	242.23258152773298	6
532.5629827857297	439.56323779293405	5
333.8576937250574	103.92921647118261	5
328.3322477931136	412.5633735024909	7
449.89034519537745	493.63418056732746	7
367.9965819105239	406.80005525225636	8
501.47610098344285	524.2269778414445	5
342.00063458113345	237.46766143203084	6
206.0023072642215	25.648046261888958	3
237.65953778425026	83.03334998217065	7
233.80926477382928	246.80922494172418	5
141.5094510619406	59.743793589507156	5
490.2753441869522	433.09608579107396	6
390.98113967883387	276.7957312306147	7
264.7674683069164	56.63758680713659	6
412.7625022631544	201.17097286635766	9
445.04526461237424	152.10989924429768	6
563.192037265545	509.10257229896854	4
241.34321754564144	40.08317831958707	5
181.43637008694952	21.397298746393645	2
553.855606237514	78.87533866498991	8
307.81377752965136	10.758488030003553	2
424.0515245966096	485.23743692393	8
259.59011882133507	227.15419173951997	3
322.4148337212154	181.12845334291	9
493.3023295606998	578.2620993112259	8
537.0280630725807	396.6261812002607	9
469.57217039222553	456.41114252333665	8
361.5986953581644	55.004705618982854	5
445.35393722361374	219.61557222621906	8
520.6885484822105	333.8774426834898	2
485.9379672710206	114.19751649413276	7
503.84375	110.0	1
433.5092667376283	173.26266824123354	3
259.8963863268866	433.1235333784755	2
559.8898212750296	575.8438668926894	4
182.09044338984899	268.78747277242053	3
336.5274746050169	44.532928311057105	2
509.85004843438105	13.59621349629069	3
507.01130759420585	328.662696400197	7
400.2214743235328	72.89886443928789	7
310.33255336443676	373.02793006520176	5
295.00135814727935	409.79839375649175	3
553.8268460594265	528.9212000451851	2
363.28088474902336	26.50206561360875	1
118.65433770808386	93.85735115431348	2
595.8537496798507	341.4585599978176	3
211.12150423060316	266.80327459240266	2
300.1277408616637	441.5448046772882	3
328.12090916853197	155.5775014680726	1
399.19812383149247	332.1121215974153	3
609.0451242430836	449.3726084866282	3
433.487962568129	353.32772222696406	2
572.9653084084339	125.75152703898246	2
468.7533420579535	13.769497667344016	2
510.33112772121774	206.9496756877656	1
421.1483884054832	587.6913442182956	1
194.76143475784937	336.15030194587337	1
361.0603501169115	430.8683208071656	1
451.6210953194218	38.64884568651276	1
