326.59133371814823	378.0580629078403	9
518.7841066190977	458.23099254726117	11
228.02856785903379	277.7118031580927	11
269.1382092119035	261.0945251227471	11
455.21620953179604	505.1309472031859	9
592.885291702559	395.81023674367043	9
489.0943140635025	425.9092333941091	4
278.9721470095141	415.5860728899095	10
516.7803534738846	291.63349525934666	8
247.84472341939312	447.56513149216164	10
437.56334321226785	352.40684376194383	11
460.4611394270545	390.6333607246219	10
399.6095800805457	438.498259793285	9
478.2752158404405	458.9654079892737	11
597.6896585902252	455.62086282817535	11
340.15372824445944	345.16965042848335	11
106.65267494877565	304.0039052352738	11
525.3920981303249	502.5554305447295	9
563.491736989364	518.4243902318519	9
216.79988537688024	250.19498610016683	5
461.10306914672094	326.66909838407827	7
471.62148357815227	214.3682679262564	9
284.86997107863783	447.5999543324983	9
482.42001800299215	494.2265066533202	8
312.6003419960773	275.5237837779718	11
489.1728602037734	232.1536756090204	9
281.64971181747285	297.43195712917804	9
443.0850449714585	134.68597773699886	11
194.962878109186	405.1844248311687	11
212.8326153755949	323.98732759129865	8
239.8665613886818	341.3702803943838	11
412.35999387531587	403.6081265949032	7
484.0622459731774	303.8944165910739	10
255.57977670891435	215.6719848163911	9
126.41018883774964	215.22491110661636	10
165.46091372960979	137.8280109786218	10
56.131594975377794	256.4792190568709	7
137.78564036625448	258.8424602820728	9
231.34398089323173	54.806513082956755	10
436.20520068134874	188.81926975015216	10
84.1594593600746	159.99764820405323	10
291.3830325865164	25.15375294820803	10
39.047541242564925	298.17837181044956	2
482.5798878332213	519.3176299395984	6
371.3775634914063	350.801370659819	3
380.72030797158686	162.5287284603269	10
43.54197690876756	127.20880837107606	2
373.2290408660409	521.2834906062005	5
252.81341946210625	146.04286066834226	5
345.9456514854474	209.80075148463584	7
380.200979303288	488.9771181100976	7
574.9628677341698	198.54212913499052	4
451.60987971630465	538.359570454255	9
104.28157840254444	336.86461912657444	7
243.02060720034385	247.73565355234032	8
31.658342882860545	159.5510068869299	6
584.3544115441289	536.5154939237077	7
408.37780862949677	533.2891369800196	8
383.4522021800662	347.04511246122956	3
501.8545190597294	558.5210130598766	8
271.5834003768873	488.7550619626708	5
488.5509596575668	88.88617926525436	8
420.1162760326436	423.68860246090316	2
131.66173165800126	4.234417640196307	2
569.4352125444838	474.9351225657699	3
294.92417324980715	6.009301059949031	5
63.68520280338609	285.7363817055053	3
292.2287232120766	234.07333098378663	4
79.17868027489234	103.84527071233417	3
42.670773584421156	52.6022163441385	2
328.214120597888	492.0778603668733	2
439.86379714914	100.49771195758119	8
551.5227378558054	454.9185015924195	3
306.64034578001827	510.58785557868094	7
498.41223895970296	179.87637855364528	4
357.87399542425294	192.20811319512273	5
359.72103676894545	319.3331834703499	7
382.6095278665696	374.01085105489744	2
614.3407180925493	266.6647874226543	3
380.1662096434952	26.73681415025925	3
252.5958167782702	375.67085262850475	3
9.063835223443423	34.08040086796086	3
260.31694631132564	100.62588494789003	3
76.11165351015194	30.15339607513463	8
56.282463844752506	124.89338689936504	4
507.1572926312324	216.32324853800117	2
60.12018166639618	76.99075809125773	2
76.04061148519648	83.03107918163361	1
385.2788675824957	557.0685858174334	2
610.637286518031	396.2529233383533	2
189.1516576438161	437.63883281267533	3
466.84375	314.0	1
344.12538195801176	544.3133547188925	1
98.65710225227878	220.8505467800729	1
373.03638767542435	239.5127284085585	1
11.106051099519417	74.51507106044042	1
258.0702807630781	22.354521318132125	1
285.7473065012355	335.3178197719819	1
583.234375	432.0	1
