431.341335392883	511.06731369655284	3
238.81255626617644	179.44179825146512	4
109.7248792932499	407.64372169295643	3
73.45937162129911	327.71657816648445	3
365.58041836460563	8.900329428578901	6
345.86818146359803	560.4637669842261	2
86.17179365680616	145.2977607996237	6
304.88270409342886	481.8788149088006	3
568.5337117205365	65.61652812753874	6
423.26173181626007	123.2766600710595	4
449.7083788974408	395.2206550119636	9
226.38894866369597	50.291153592020144	8
547.9397394531672	366.8162947167357	2
118.0524717833263	370.4577388897671	6
153.70614655872387	272.05804937516814	6
307.8745975029799	143.59360585551008	4
472.57676296651084	268.88947929076784	7
303.87759936676565	362.53414376176033	9
59.85182961309812	366.59458307029604	7
557.0178139760089	208.42590416499172	9
279.44331811181746	394.40020654523084	5
455.10759730969437	311.4185269819603	5
528.9475170924679	499.1254880524754	2
405.13693350770603	443.23092376768176	7
250.62185450432682	519.7798459095184	7
74.13654501675967	90.5024048976688	7
99.72474890673936	12.846920973594356	4
566.8484053397433	33.292607049030714	8
572.1885801638243	493.0213386914819	3
56.1830362457779	119.96961562718646	5
393.3598436178329	392.23246257022976	3
440.10217503408603	179.27186868122703	8
212.33620606576045	370.90828261955585	7
472.6737398694168	510.9157426206466	2
418.90606373804496	303.8974799674399	9
371.0637575802094	477.14528147783096	3
147.86988919254122	345.72458222708104	3
210.47941853031833	485.4042706165693	7
517.4328435287965	454.2017045093345	3
377.63111709949646	37.49799183282437	7
183.8645802173104	402.7248064427235	7
559.6174557163695	129.53074886473246	8
235.58561923224033	113.57506839565079	5
308.25204955831	198.0334216335306	7
90.34790151767008	394.2132927988456	4
471.93333487121095	159.55556329818194	6
219.56231694509336	163.26682867557716	2
479.11446272346006	393.2061203109085	9
504.42113448389864	27.735416821957	8
314.4939682445422	395.4650495742712	5
511.079949588319	188.58226326928693	4
434.626954527864	489.13536623457753	3
416.5143621444394	30.639087806084216	3
474.83499234423965	474.44822739340935	2
276.5580850169488	216.5245864159908	7
284.7625279543821	440.3573157820729	3
351.2721157859788	422.2940547309518	3
453.59831189592757	280.8130258670177	8
541.6097737488392	442.6307755335297	5
347.3062713475387	351.46839169269435	7
185.32364737526495	338.37749871007077	5
247.68464039622938	331.087585780204	6
429.544972545657	552.673512416055	2
216.04227132466963	405.9283020059949	3
602.6342131725966	267.6230008003182	4
464.2714274305073	56.35677832656227	4
364.32900641125775	285.76973888091436	5
266.00064016619126	296.1987780613439	3
573.3657439144977	242.52157011409244	7
210.02606004483033	14.17092948484473	3
504.6806416268259	372.44432505024463	3
467.4854034211553	359.53316389505375	3
312.9000573585496	536.8374605676181	4
379.0819076069211	410.8397044292535	2
147.05540757378475	29.25056067088844	3
141.5838339658859	244.78088745232387	3
104.58066426216403	338.00604303609964	4
24.61245059404176	44.13715138939467	4
336.2987131240047	240.10003634004337	2
369.40779383865873	445.5329954120458	3
21.186505895011102	254.37025129092547	4
255.83835151981174	417.23886507862255	3
338.2196591297886	260.66813955961936	4
46.43777317149784	326.6406535223689	4
425.45956304064043	225.79782263560665	5
375.256775036667	262.3595760568643	2
580.773784317216	132.66107460449604	3
313.66450683552216	163.37108140947754	2
317.0277392147502	106.50139912962274	4
19.923127481107485	112.84435503444334	4
454.4957855262263	132.74672576209247	2
503.4841844618179	295.2761363997139	4
25.694322137888317	85.74527652495821	2
526.8996725511934	338.91183647397963	3
362.41897203026787	377.9714786640299	3
578.1132539443752	296.73675293009126	2
157.19420367239948	441.1919803217242	3
520.582410471956	309.7624528030129	3
189.55604570884225	451.6097141964704	2
406.60289618664916	607.4795408402312	2
491.1506852888499	542.8832578478839	2
451.7865567444459	482.6000875766581	3
538.2812772440891	57.032473704212315	4
224.78645037408535	126.8124667412697	2
568.4543961860529	445.5000126952945	2
442.1543114327603	20.563408897219162	2
418.85014790617504	253.70443692004184	2
315.28222454230223	237.43878380217052	2
384.642588805993	114.3520706139228	2
408.06600725918076	21.72728920924635	2
39.890266182995774	191.93470679088193	2
208.38614168031637	226.36642177176287	2
599.8085099835298	391.12627612211816	3
606.9826461550467	103.34476324949613	2
588.650997765378	23.821047469199492	2
609.1755966395582	72.34437613672876	2
476.10061734423965	319.5784007496486	2
530.84375	36.0	1
169.38441514945322	232.08401425746536	1
67.171875	412.0	1
272.171875	39.0	1
292.13431244081033	113.90160862095892	1
365.58488074592043	112.83710760580978	1
144.16867484066094	426.8649070748087	1
252.7477758134324	226.7387162267687	1
245.2962688839285	261.8672497266906	1
288.94080947102293	250.15773856004998	1
270.8442926422277	255.48024363579572	1
288.94080947102293	272.51225987818214	1
394.326407474007	243.7707324691551	1
503.9700094367076	199.06168983289083	1
462.45447082947146	232.06122130251447	1
489.06699557769974	220.35171013587382	1
493.32499953741626	237.3837263782602	1
606.1621044699043	369.38185225675466	1
604.0331024900461	331.0598157113853	1
572.098072792172	469.44494768077465	1
5.783546149873756	51.09604872715914	1
188.8777164176845	7.451507106044042	1
301.7148213501725	32.99953146962361	1
315.5533342192512	77.70857410588786	1
321.940340158826	54.28955177260659	1
38.78307683767685	288.4797751054193	1
4.719045159944624	168.19116039356553	1
511.42151636621134	522.6699984382319	1
463.5189718194006	542.8955177260659	1
351.7463678768417	572.701546150242	1
397.5199104437944	579.088552241137	1
378.35889262507	593.9915664532251	1
615.7426133792665	201.19069186318913	1
69.65360554562169	203.31969389348743	1
86.6856213844878	212.90020302982978	1
111.16914415285784	243.7707324691551	1
86.68562138448779	251.22223957519915	1
73.91160950533822	240.57722942370765	1
284.68280551130636	508.83148524129314	1
274.03779561201503	534.3795096048727	1
333.64985104804646	510.9604872715915	1
353.8753698567	522.6699984382321	1
400.7134134135818	530.1215055442761	1
376.22989064521175	531.1860065594253	1
395.3909084639361	547.1535217866625	1
109.69962857357858	77.29769137302551	1
36.81895485299987	378.758687727825	1
345.61284263494366	29.814823815309843	1
429.38781577228923	460.51117358917134	1
