310.0734705707199	31.003752403131887	6
429.33174156971404	361.65681467406	7
333.66451135761645	125.55116830404549	9
459.47378559369946	89.5218800147977	9
511.559253453693	94.30818925867466	8
579.9480757365247	416.2274242357024	4
537.8825910615245	383.8487477602761	9
347.8598311611313	414.5912272357009	7
401.28593364609253	86.93342177934697	9
261.4828426353533	38.12764825914708	7
207.47668409965218	10.722676184780475	5
457.2870330187329	132.91203596279635	9
310.3893274099529	325.4614587649934	9
340.57054807225217	242.19258944643275	8
224.92171462233293	86.47402713039511	9
365.6741968384507	385.0231449769699	8
599.6190292743847	366.65667723870615	8
571.8743186081534	513.7714412752592	8
373.49199783677886	408.9798027415748	6
377.3970360464127	103.94981414233666	6
350.79703340652793	88.35782071851472	8
271.263059574178	8.016813963240498	7
306.82415990815514	282.6723823712664	3
510.4593594624255	63.070030028665265	7
522.2123090156803	38.874245765608975	8
331.0049761605947	36.49635656675379	5
582.2407418775977	486.97234041233304	6
446.38946429863586	231.40290273656575	3
222.42533142559688	175.98763586818	8
525.1554739322394	413.05270375302405	7
463.31465004561204	6.234468661992782	6
387.1496826252443	21.900145486248785	8
524.4325498657507	196.37391053923272	8
596.2720095596283	214.89498154895873	6
608.6166617501478	351.6767905259444	3
327.5571955270756	192.56570931382402	7
440.93310585779085	488.1918060529081	4
504.08721940697296	579.0830970889645	3
461.616483493122	369.8663475480973	4
437.32661508841113	379.9835965978129	3
587.921875	507.0	1
513.234375	304.0	1
574.234375	302.0	1
272.68148391389707	143.17245136813074	1
