354.64943523331755	228.38270653207195	7
144.75499735718864	191.4169082650074	7
522.3979754256138	367.7242635075636	6
50.91618951757337	8.030130509233679	6
229.03297113080302	127.62515484355103	8
118.99402945857523	98.76088805734818	8
377.2760859774188	388.50161914720786	5
592.0232018612264	81.60195113613662	6
383.3962265339819	342.60957285273184	6
344.39180281473296	118.2611406545156	5
80.2450643948482	74.79645781105324	8
330.8796744621915	167.59320931123472	8
303.8826849732046	200.34587262982723	3
467.19986351581247	170.21390447666192	7
578.1690400995083	257.2159996134907	4
266.65624303838365	209.42081471864228	3
126.04426172735975	40.00581165666476	5
459.04709932097563	304.6666777009518	7
274.6292836316393	297.4163627245882	5
232.01401691442962	162.46209720460268	7
599.0337307080525	464.4656233173351	5
12.66923606507805	183.91160488131766	3
159.44762110083494	328.14016404821905	6
5.16042466364527	20.58807087909973	2
244.71420939132653	353.64510106181774	5
21.693700333131815	39.700947270196636	3
37.72535072621254	68.39235219165161	4
112.69545704011449	47.13162979222743	2
152.86669993174274	301.2984832804427	3
563.0904101332524	313.4784544737456	4
222.7573979465235	188.39190505716493	3
187.0627433547115	52.437483299981984	2
487.91206207409255	378.18744455034897	2
353.2445730902789	374.61377479094716	3
123.0163604508365	240.14578582599404	3
150.8690825302064	107.21578437706972	3
118.67163774379549	173.82577422294668	4
93.8158344051242	211.3532851207878	2
301.5568898243905	402.76757962763503	2
539.4857791619305	201.65817818125868	2
96.43156869096495	165.65432449092714	3
367.234375	355.0	1
134.86481398168291	264.9405012565374	2
170.2734375	364.0	2
194.234375	375.0	1
227.65183508374423	304.1644875365075	3
5.026818025601171	126.90198492075704	1
80.53874139485802	221.29189106016312	1
123.53858664679595	221.29189106016312	1
144.51412091603396	88.09724573011233	1
512.6347473411611	176.19449146022467	1
491.6592130719231	184.58470533928298	1
373.1474444507283	160.46284043699032	1
282.9526470930048	374.4132943529774	1
592.3417775642655	114.31666410216957	1
582.9027871431084	140.53608247422682	1
596.5368844181131	221.29189106016312	1
596.5368844181131	197.17002615787044	1
576.610126862337	329.31589475303895	1
579.7564570027228	395.3888290506232	1
550.3907090257895	444.6813355900908	1
313.36717178339995	376.510847822742	1
210.5870538641337	57.68272041852593	1
