590.1856165032148	244.2546573434944	7
549.6605433049094	240.07049721031183	7
264.5375682350906	346.4036782623975	4
103.55912184302898	26.347552809626126	5
139.63158974163545	140.25933610347647	3
180.28825582952206	380.1418413868052	3
540.9985036783319	26.826024352426376	7
564.8871736348199	207.41645383965812	9
113.28994066296039	157.42841790905297	5
347.62300235344236	184.85687933630186	7
276.3863240860518	413.33458669205845	6
162.42109249684881	50.42796199901689	8
470.547209910452	241.24428424160243	9
438.56957003842024	402.0095290262767	6
457.2421875	332.0	2
388.56871409522336	380.8619094937812	9
352.4666179268108	413.71402222374115	4
77.47265625	305.75	3
240.703125	368.5	2
526.0113582486723	210.1895316723865	3
520.9717110707504	372.31674211443004	5
262.9620087965326	432.3814094775213	2
293.7633528001075	243.98162944507249	3
397.1799098952833	278.790609008032	2
340.9933801591542	228.57297320859925	6
297.0917760873333	427.6333242959298	2
365.89328642126463	413.54470972989463	3
379.70491998822854	59.22279732695991	3
386.234375	406.0	1
321.6266132919983	414.7890980868131	2
525.8860250932839	141.68953463417233	3
420.81573101597974	96.34075875518074	2
305.9713355894729	348.0962594329694	2
280.2311435213079	27.977281320766586	4
510.45257929740137	164.6370432753209	4
359.1362683412467	44.713373338838345	7
384.94026840314683	290.00956076122867	5
133.02854388483127	50.402484162219224	2
68.04792089491139	11.98777143571549	4
406.22434585995734	234.0174430653725	5
558.4303196978392	167.16014506684422	5
366.71718301132734	458.4046602955912	2
519.2065098264518	323.5701686173601	3
486.27499507237076	399.97174771497197	2
361.45991323258744	321.8318119868454	4
240.78048935183654	32.89966170155818	5
42.516311643510576	92.63775159217373	3
541.5111266913846	338.3064738921918	2
461.07552322928905	89.46224373731862	4
418.35413187406414	152.3067634727359	4
491.5435981269592	302.3127316545263	3
75.08286196214266	67.8413722156292	2
431.58646184801836	313.4521134937755	2
314.256191606853	45.37867352246231	3
38.12751300669173	250.11845410556668	3
70.3125	182.0	1
230.19426881396254	99.79028705053038	1
220.49243493298582	131.6677398583387	1
209.40462478329815	80.38662012403836	1
194.1588858274776	145.52750194869014	1
124.86007239192969	131.6677398583387	1
130.4039774667735	307.686718405802	1
355.52446842779625	6.610723209391041	1
439.8491294495259	7.928296072870275	1
319.9500020592541	154.17888391906524	1
26.13126131166482	17.151306117224912	1
222.94069588928463	390.2393511278395	1
221.234375	290.0	1
530.234375	466.0	1
350.234375	257.0	1
279.234375	192.0	1
248.234375	161.0	1
247.234375	201.0	1
299.234375	174.0	1
394.234375	189.0	1
193.234375	359.0	1
597.171875	411.0	1
602.171875	490.0	1
