515.2993987143548	255.06039923537128	3
209.52426792861093	145.45938472822507	4
220.1492167065636	311.26137323344994	2
387.63906338307504	242.80019925439984	5
245.17840614231233	344.6333416070139	2
268.6811276398539	390.1249542002998	4
498.45482131424626	462.12749545288136	2
453.83501728410545	190.70687793156753	3
138.8353019181624	97.0934646528998	5
495.5057990689455	329.0683226216676	4
488.5951556750842	535.3984432657732	4
93.25292680932573	84.30074346793481	4
457.35006349684795	488.03461254803267	4
110.09048940881746	61.50575613045385	4
425.5938427307034	296.13475761221366	2
582.919635232729	333.6427360896978	3
551.0799723484486	583.5718063954117	3
323.61400594514237	362.6081702254626	4
157.90896562012435	281.16773131650586	2
423.91229385814347	362.30597107730273	2
566.5307485168577	264.9443204101067	3
413.09185616180105	102.02999276916692	3
263.4338126639925	187.67915536610764	2
133.61052156284026	129.12924543969638	3
569.3906714593292	135.36575324031094	4
532.5668690976584	215.98473438983592	3
429.873465912912	174.8141311697005	3
123.024066272853	205.13513264650348	3
231.6067914757033	121.0520083211646	3
460.0056742772267	212.70483667830382	2
363.1747621606271	218.016343266839	5
471.99259238810214	428.9322415326038	2
606.2644027124618	292.89419736855496	2
549.7002109439221	310.731698807671	2
531.5178452491843	41.97920638343199	3
294.94286828081897	97.38487618027354	3
572.986777951862	573.3910772679839	6
553.7893663601817	153.76653766825615	3
557.2772052758934	421.4464413281678	4
379.18334312823447	282.17438736314364	3
334.8192626158941	118.17059129002159	5
475.5598673073386	268.6926012263798	3
285.55489087901526	228.45264241592312	2
339.0180429605831	177.77349973919425	2
408.90139566154505	488.19201965427845	3
490.58901046711253	65.99272978408234	3
194.29362691315137	188.46316632349578	2
301.3021992408017	136.26518327276216	3
446.64205018996756	121.67684740334019	2
495.4929979487557	413.6783344772363	2
273.15910122376494	282.54106611759323	2
462.5246729662355	246.3802333562114	1
514.7388545659558	108.39437073507912	2
309.6838747235351	172.91263675281434	1
470.7087633424135	466.8641192325987	1
543.02536554213	514.1311892956599	2
438.3202680849625	264.14882964501084	3
570.7251967711575	372.64050104023005	2
535.4928021563597	573.7603978004838	2
595.1846182570725	600.7620229281033	3
607.3922819797039	565.4692063593995	3
603.0359554111997	221.905209055407	2
255.43822339167812	337.35216497689146	2
68.171875	98.0	1
574.234375	504.0	1
513.9741560554734	144.30157565736454	1
348.67663837106966	304.3654295439141	1
421.9097158261852	33.40766381439556	1
312.0600996435119	59.56188830566183	1
269.1664399912299	75.25442300042158	1
396.8012321272885	507.3222115961403	1
425.0482762885473	468.61395934906625	1
493.05041963972604	111.87033728819436	1
608.1309699263362	171.50196912828144	1
228.36515398052262	48.054029529504675	1
511.88178241389863	306.4577675032154	1
131.38783200172747	46.37861482381531	1
398.76508526299426	379.15533518983904	1
242.13393227492912	401.27751086707843	1
353.36888158610736	344.1006634637383	1
564.4034115876885	465.7314115762983	1
590.3928857258143	389.8421413864104	1
541.5326743461378	366.97140242507436	1
466.6829888283357	389.8421413864104	1
141.29477261900118	228.7073896133608	1
147.53224641215135	159.05559368565545	1
518.6619371045872	403.35666895447264	1
560.2450957255884	56.1372683596431	1
189.11540503315257	244.3010752688172	1
316.9836177927313	87.32463967055594	1
374.52611175127134	43.228159188203584	1
379.9296315035827	320.96908197241163	1
363.71907224664864	382.5692088156017	1
