441.99672566734023	238.0800997071014	9
469.817540607218	527.1183849976767	7
159.11899666690664	341.0755347639581	9
338.1166738192285	349.07389860481294	9
333.292966032492	107.06925143607734	8
211.52619637399397	241.4247170454866	8
13.78605303766362	233.61365095227046	2
52.930240438933524	22.388403913318555	6
360.4943612101415	430.27499649420474	8
64.58730005113799	127.12107958913752	5
111.46543224977486	87.58097429813765	7
257.86292238348665	68.13378823743517	5
341.0897270393617	403.7893251980444	1
532.234375	286.0	1
529.234375	327.0	1
220.234375	340.0	1
