556.8678157077553	108.87131741809293
518.1589033386228	68.07072721171755
464.8033754784672	83.76326190647731
216.8570989518616	82.71709292682665
126.88503236414817	80.62475496752536
158.27063698776914	127.70235905180463
159.3168238085565	161.17976640062545
194.88717571532692	160.1335974209748
169.77869201643017	143.3948937465644
229.41134080131	165.36444231922806
292.1825500485519	181.05697701398782
227.31896715973525	191.51866681049432
306.829165539575	162.2259353802761
284.85924230304033	264.75049538603986
311.0139128227245	258.473481508136
355.9999461165812	302.4125786534633
309.96772600193714	237.55010191512295
200.11810981926376	233.36542599652034
422.95590264697256	196.74951170874758
398.89360576886315	180.01080803433717
468.98812276161664	164.31827333957742
487.8194855357892	228.1345810982671
449.1105731666567	230.2269190575684
340.3071438047707	415.39882845573356
295.321110510914	382.9675900865634
369.60037478681693	444.6915598859518
279.6283081991035	392.38311090341927
435.510144496421	437.3683770283972
410.4016607975242	453.060911723157
427.14064993012204	509.5540366242921
452.24913362901884	518.969557441148
518.1589033386228	437.3683770283972
530.7131451880712	392.38311090341927
449.1105731666567	413.3064904964323
505.6046614891745	400.7524627406244
415.632594901461	45.05500965940323
218.94947259343633	59.701375374512345
382.15461663626536	360.99804151389975
579.8839257650774	607.8939207114532
576.7453653027153	546.1699509120649
404.1245398728	366.228886412153
382.15461663626536	289.8585508976555
