534.8405381446524	395.9943776354834
507.163512406495	405.57488677182573
444.3579540006762	415.1553959081681
490.13149656762886	225.67421521161955
557.1950589331642	110.70810557551148
611.48460941955	150.09464313603
466.712474789188	168.19116039356553
424.1324351920227	197.9971888177417
397.5199104437944	179.90067156020615
295.3278154105977	190.54568171169765
283.61830452137724	270.38325784788384
312.3598312494638	263.9962517569889
403.9069163833692	366.18834921130724
433.7129441013849	441.7679212868968
414.55192628266053	459.8644385444323
516.7440213158571	448.1549273777917
455.00296389996754	515.218491332188
606.1621044699043	457.735436514134
577.4205777418177	547.1535217866625
501.84100745684935	556.7340309230049
529.5180331950068	556.7340309230049
604.0331024900461	566.3145400593472
546.5500490338729	259.7382476963923
510.3570153762824	64.93456192409808
540.1630430942981	7.451507106044042
462.45447082947146	87.2890832422302
251.6832748235033	92.61158831797596
215.49024116591278	79.83757613618617
151.62018177016486	130.9336248633453
196.32922334718842	160.7396532875215
335.77885302790474	418.3488989536155
368.77838371570783	450.28392940809
296.39231640052685	381.0913634233953
277.23129858180243	347.0273309386225
282.5538035314481	393.8653756051851
510.3570153762824	281.0282679993753
532.7115361647942	348.0918319537717
613.6136113994082	265.0607527721381
588.065587641109	279.96376698422614
455.00296389996754	225.67421521161955
225.070750075275	164.99765734811808
225.070750075275	200.12619084803998
215.49024116591278	54.28955177260659
309.1663282796764	241.6417304388568
429.4549401416684	351.2853349992191
505.03451042663676	323.6083086053413
452.87396192010925	333.1888177416836
379.42339361499916	430.05841012025616
417.7454292524479	45.773543651413405
142.03967286080268	7.451507106044042
