269.8757124470268	202.4139098322819
278.26592615472197	148.92629635328512
316.02188783935037	84.95091552546546
285.6073631489553	126.90198492075704
176.5345849489176	135.29219879981537
212.19299320662222	309.3891367902755
284.5585864354934	312.53546699492233
322.3145481201218	260.09663025080783
346.4364125297455	257.99907678104324
460.75307429709267	195.07247268810588
387.3387043547596	25.170641637174953
230.02219733547454	160.46284043699032
81.09590402388466	260.09663025080783
124.09574927582258	202.4139098322819
33.900951918099125	250.65763963686723
348.5339659566693	483.4860747807355
373.7046070797549	506.5591629481459
433.48487974708326	515.9981535620865
338.0461988220503	447.8276657947377
296.0951302835743	429.99846130173876
274.07081930087435	403.7790429296815
227.92464390855073	423.70580089244504
199.60767264507942	385.94983843668257
362.168063231674	72.36559470687799
9.779087508475408	58.73149715340822
493.2651524144116	460.41298661332513
468.094511291326	541.1687951992615
