536.6485479934303	145.76136087484812
353.34261105985354	161.22089914945323
545.4825690504701	219.74629404617255
494.686947972491	208.70376670716888
33.10934774215923	8.834021871202916
4.398779306779739	15.459538274605103
9.92004246742964	43.06585662211422
38.63061090280913	44.17010935601458
27.588084581509325	85.02746051032807
39.73486353493911	59.62964763061969
59.61141091327876	101.59125151883353
69.54968460244858	57.42114216281895
70.65393723457856	15.459538274605103
124.7623162089476	90.54872417982989
85.0092214522683	124.7805589307412
18.754063524469483	110.42527339003645
145.74311621941723	111.52952612393682
178.87069518331663	75.08918590522478
150.16012674793714	138.03159173754557
89.42623198078823	153.49113001215068
22.066821420859423	133.6145808019441
85.0092214522683	214.2250303766707
151.26437938006714	187.72296476306198
71.75818986670853	175.57618469015796
216.41528467573596	146.86561360874848
163.4111583334969	203.18250303766706
167.82816886201684	174.4719319562576
126.97082147320756	242.93560145808019
83.90496882013832	247.35261239368165
55.194400384758836	240.72709599027945
234.08332678981566	212.01652490887
242.9173478468555	153.49113001215068
282.6704426035348	98.27849331713244
606.216463817619	231.89307411907654
613.9462322425289	263.91640340218714
547.69107431473	302.5652490886999
512.3549900865708	261.7078979343864
444.9955795266419	272.75042527339
347.82134789920366	291.52272174969625
310.2767584067843	289.3142162818955
255.0641268002853	239.6228432563791
194.33023203313635	273.8546780072904
112.61553725551782	289.3142162818955
160.09840043710696	299.25249088699877
165.61966359775687	271.64617253948967
234.08332678981566	261.7078979343864
274.94067417862493	298.1482381530984
278.25343207501487	267.2291616038882
249.54286363963539	306.98226002430135
210.89402151508608	315.81628189550423
416.2850110912624	408.5735115431349
443.8913268945119	318.024787363305
474.81040059415136	320.2332928311057
515.6677479829607	333.4843256379101
544.3783164183401	335.6928311057108
579.7144006464995	337.9013365735115
606.216463817619	353.3608748481166
601.7994532890991	378.758687727825
575.2973901179796	400.8437424058323
546.5868216826001	429.5543134872418
547.69107431473	403.05224787363306
599.5909480248391	405.26075334143377
586.3399164392794	431.7628189550425
567.5676216930698	417.40753341433776
147.9516214836772	324.65030376670717
109.30277935912787	347.8396111786148
138.01334779450735	366.611907654921
154.57713727645708	419.6160388821385
154.57713727645708	388.6969623329283
199.85149519378626	361.0906439854192
266.1066531215851	356.67363304981774
241.8130952147255	344.52685297691374
256.16837943241524	414.0947752126367
293.71296892483457	382.07144592952613
258.37688469667523	378.758687727825
197.6429899295263	384.27995139732684
354.44686369198354	366.611907654921
340.0915794742938	398.6352369380316
294.81722155696457	408.5735115431349
335.67456894577384	433.9713244228432
295.92147418909457	456.05637910085056
283.77469523566475	480.34993924665855
340.0915794742938	485.87120291616037
388.67869528801293	468.20315917375456
376.5319163345831	441.7010935601458
415.18075845913245	450.53511543134874
516.7720006150906	474.82867557715673
447.20408479090185	467.0989064398542
411.8680005627425	534.4583232077764
474.81040059415136	515.6860267314702
510.14648482231075	501.3307411907655
553.21233747538	492.49671931956254
596.2781901284492	469.3074119076549
606.216463817619	507.95625759416765
574.1931374858497	527.8328068043743
523.3975164078705	541.0838396111786
