436.234375	282
346.234375	161
251.234375	151
256.234375	236
242.234375	309
190.234375	275
174.234375	175
123.234375	256
162.234375	301
124.234375	377
78.234375	261
89.234375	157
149.234375	108
228.234375	272
341.234375	297
514.234375	331
548.234375	307
584.234375	343
486.234375	458
448.234375	472
382.234375	467
336.234375	486
316.234375	414
263.234375	355
328.234375	231
271.234375	303
232.234375	215
161.234375	215
129.234375	87
179.234375	72
159.234375	430
271.234375	495
439.234375	316
355.234375	370
257.234375	422
404.234375	533
576.234375	409
157.234375	374
112.234375	231
218.234375	151
96.234375	67
47.234375	91
86.234375	209
416.234375	329
509.234375	264
562.234375	446
514.234375	530
