596.0404424629418	409.2030909451159
605.1563536668492	362.61065979789976
548.4351283980919	416.2932435109966
533.2419430582462	365.6492966118486
543.37073328481	338.3015652863087
528.1775479449643	293.73489201505845
574.7699829871577	240.05230830196155
607.1821117121619	244.1038240538934
594.014684417629	208.6530612244898
591.9889263723162	160.0348722013077
489.68814508402187	41.52803645730137
517.0358786957441	201.56290865860908
481.5851129027708	228.910639984149
471.456322676207	300.82504458093916
490.70102410667823	365.6492966118486
487.6623870387091	413.25460669704773
447.14722613245385	237.01367148801268
424.8638876340135	237.01367148801268
395.4903959769785	132.6871408757678
373.2070574785381	118.50683574400634
332.69189657228293	143.82880919358035
362.06538822931793	166.11214582920547
261.79036498633633	321.0826233405984
303.31840491524787	331.211412720428
251.6615747597725	287.6576183871607
206.08201874023538	240.05230830196155
206.08201874023538	211.6916980384387
151.38655151679086	138.76441450366553
200.00474460429712	117.49395680602338
232.41687332930127	34.43788389142065
204.05626069492263	24.309094511591045
51.11152827380923	85.08183079056866
340.79492875353395	227.89776104616604
353.9623560480669	326.14701803051315
427.90252470198266	176.24093520903506
300.2797678472788	19.244699821676242
