301.171875	13
148.171875	140
376.171875	119
387.171875	248
425.171875	233
593.171875	367
468.171875	299
257.171875	326
352.171875	321
552.171875	419
487.171875	407
51.171875	91
248.171875	276
201.171875	236
340.171875	222
