178.84375	155
110.84375	233
224.84375	360
255.84375	345
225.84375	318
145.84375	323
98.84375	269
122.84375	259
197.84375	280
236.84375	283
256.84375	309
240.84375	258
346.84375	280
375.84375	384
432.84375	416
458.84375	448
448.84375	420
484.84375	299
526.84375	272
596.84375	301
536.84375	393
550.84375	434
597.84375	406
449.84375	365
486.84375	461
44.84375	203
102.84375	91
