179.5096455843065	153.6567545570655
117.50494962406175	220.4310421450685
102.00377563400056	266.934563858142
200.97280957054505	272.8965538213565
143.73770560724222	318.2076775417871
227.2055655537255	358.749209291646
222.4359735567836	320.5924735270729
344.0605694788021	278.85854378457105
372.67812146045355	388.5591591077188
531.2670553587718	272.8965538213565
425.14363342681446	418.36910892379154
454.9535834077014	417.17671093114865
432.29802142222735	475.6042125706512
546.768229348833	380.21237315921843
544.383433350362	504.2217643940811
593.2717513190165	410.02232297529116
125.85173561871008	257.3953799169987
236.74474954760933	282.4357377624998
254.63071953614138	344.44043337993116
481.1863393908818	300.32170765214346
553.9226173442459	429.1006908575778
241.51434154455123	257.3953799169987
5.419537695927035	46.34093521920361
44.768671670697735	203.73747024806775
588.5021593220746	297.9369116668576
