539.1562073307601	127.72259376874155
495.16174527231004	104.50400621253586
547.7106860643477	191.26820181730446
552.5989596263977	235.2613150816942
363.1783590969597	312.2492632943762
586.8168745607478	581.0960665767577
602.7037636374104	485.77765450391337
425.50384701309736	462.5590669477077
392.5080004692598	468.66922156776184
407.17282115540985	344.02206731865766
420.61557345104734	377.01690226694996
501.27208722487256	306.1391086743221
485.38519814821007	270.70021187800813
551.3768912358852	601.8705922849418
338.7369912867096	168.04961426109878
361.9562907064472	232.81725323367252
534.2679337687101	10.407625063702303
