554.9890201483007	231.61676695807992
541.4220637544676	190.91612942937743
499.21375497365307	127.60402660695138
542.9295033537824	11.531838099170253
475.0947213846162	174.33438821398013
502.2286341722826	302.46602487841386
556.4964597476155	493.90976436527365
438.91617100106095	257.24309429096667
463.0352045900978	109.5148543719725
321.3358822545064	204.4830086056116
369.57394943258004	234.63162899724307
482.6319193811902	269.30254244761926
408.7673790147649	341.65923138753476
464.5426441894126	225.58704287975362
529.3625469599491	323.57005915255587
601.7196477270596	181.87154331188802
381.63346622709844	429.090230523266
351.4846742408024	383.8672999358188
499.21375497365307	411.0010582882871
488.6616777784494	444.1645407190817
339.425157446284	159.26007801816442
541.4220637544676	127.60402660695138
607.7494061243189	490.89490232611047
363.5441910353208	310.0031799763217
325.85820105245074	270.8099734672008
