75.46779697754918	89.44447144592952
23.567923267440108	45.274362089914945
101.96986014866872	12.14678007290401
57.7997548634695	113.73803159173754
20.25516537105017	117.05078979343864
34.61044958873991	195.4527339003645
88.71882856310896	143.5528554070474
109.69962857357858	77.29769137302551
145.03571280173796	26.50206561360875
224.54190231509654	51.89987849331713
51.174239070689616	327.9630619684083
19.150912738920187	249.5611178614824
64.42527065624938	363.2991494532199
36.81895485299987	378.758687727825
103.0741127807987	335.6928311057108
113.01238646996852	375.44592952612396
139.51444964108805	245.14410692588092
153.8697338587778	274.9589307411908
368.094744491994	8.834021871202916
375.82451291690387	44.17010935601458
442.07967084470266	18.772296476306195
506.1263235082415	27.606318347509113
569.0687235396504	64.04665856622114
421.098870834233	124.7805589307412
247.7312075898261	112.63377885783719
223.43764968296657	125.88481166464156
216.8121338901867	164.53365735115432
240.00143916491626	188.82721749696233
279.75453392159557	220.8505467800729
308.465102356975	143.5528554070474
308.465102356975	204.28675577156744
243.3141970613062	329.06731470230864
181.4760496620273	335.6928311057108
210.18661809740678	368.82041312272173
301.83958656419514	359.98639125151885
273.1290181288157	389.80121506682866
313.98636551762496	395.3224787363305
312.88211288549496	239.6228432563791
319.50762867827484	106.008262454435
381.34577607755375	113.73803159173754
411.1605971450632	24.29356014580802
475.20724980860206	157.90814094775212
442.07967084470266	178.88894289185905
418.8903655699731	256.18663426488456
422.203123466363	300.3567436208991
448.70518663748254	395.3224787363305
456.4349550623924	312.5035236938032
562.4432077468705	209.80801944106926
350.4267023779143	383.1756986634265
434.3499024197928	512.3732685297691
249.93971285408608	515.6860267314702
209.0823654652768	484.76695018226
90.92733382736891	390.905467800729
402.3265760880234	443.9095990279465
364.78198659560405	447.2223572296476
287.48430234650544	440.59684082624545
517.1688498295414	458.26488456865127
452.0179445338725	482.5584447144593
478.520007704992	395.3224787363305
476.31150244073206	263.91640340218714
449.80943926961254	283.79295261239366
513.8560919331514	192.13997569866342
555.8176919540906	126.98906439854191
537.045397207881	57.42114216281895
570.1729761717804	29.814823815309843
539.2539024721409	443.9095990279465
529.3156287829711	337.9013365735115
523.7943656223213	308.0865127582017
500.60506034759163	287.1057108140948
575.6942393324302	241.83134872417983
569.0687235396504	443.9095990279465
344.9054392172644	344.52685297691374
339.3841760566145	257.2908869987849
211.29087072953678	12.14678007290401
186.9973128226772	398.6352369380316
