364.5203797559913	6.387006090894893
376.22989064521175	41.51553959081681
567.8400688324556	59.61205684835234
567.8400688324556	37.25753553022021
509.2925143863533	25.54802436357957
442.2289520208179	22.354521318132125
466.712474789188	53.225050757457446
587.0010866511799	26.612525378728723
420.9389322222353	28.741527409027018
404.9714173732983	19.16101827268468
539.098542104369	57.483054818054036
612.5491104094791	72.38606903014212
609.3556074396917	102.19209745431829
247.42527086378675	329.99531469623616
186.7487144378262	339.57582383257846
307.0373262998182	360.8658441355615
305.972825309889	197.9971888177417
305.972825309889	142.64313602998595
241.03826492421197	109.64360456036233
226.1352510652041	127.74012181789786
235.7157599745663	47.9025456817117
96.26613029384998	11.709511166640638
83.4921184147004	146.90114009058254
76.04061148519648	86.22458222708106
56.8795936664721	122.41761674215212
62.202098616117766	367.2528502264563
151.62018177016486	344.89832890832423
313.4243322393929	395.9943776354834
282.5538035314481	392.80087459003596
352.8108688667708	380.02686240824613
347.4883639171252	354.4788380446666
448.61595796039273	395.9943776354834
482.67998963812494	395.9943776354834
420.9389322222353	303.38278931750745
457.13196587982577	279.96376698422614
443.29345301074704	178.836170545057
473.0994807287628	158.6106512572232
559.3240609130224	128.804622833047
559.3240609130224	205.44869592378572
577.4205777418177	240.57722942370765
453.93846291003837	315.09230048414804
477.3574846884793	316.1568014992972
392.1974054941487	389.6073715445885
292.13431244081033	113.90160862095892
323.00484114875513	101.12759643916914
365.58488074592043	112.83710760580978
387.9394015344322	114.96610963610807
424.1324351920227	120.28861471185382
450.744959940251	135.19162892394192
144.16867484066094	245.8997344994534
160.13618968959793	271.44775886303296
109.04014217299958	405.57488677182573
94.13712831399172	392.80087459003596
76.04061148519648	327.86631266593787
48.36358574703904	324.6728096204904
104.78213821328305	340.64032484772764
118.62065108236176	366.18834921130724
187.81321542775535	399.18788068093085
144.16867484066094	426.8649070748087
160.13618968959793	441.7679212868968
211.23223720619626	485.4124629080119
209.103235226338	370.44635327190383
377.29439163514087	260.8027487115415
334.7143520379756	240.57722942370765
363.45587876606214	284.22177104482273
335.77885302790474	262.9317507418398
317.6823361991095	235.2547243479619
279.3603005616607	222.4807121661721
236.78026096449543	176.7071685147587
252.7477758134324	226.7387162267687
208.03873423640886	227.80321724191785
245.2962688839285	261.8672497266906
288.94080947102293	250.15773856004998
270.8442926422277	255.48024363579572
288.94080947102293	272.51225987818214
265.521787692582	295.9312822114634
418.80993024237705	251.22223957519913
425.1969361819518	224.6097141964704
394.326407474007	243.7707324691551
514.6150193359989	182.02967359050444
503.9700094367076	199.06168983289083
474.1639817186919	265.0607527721381
462.45447082947146	232.06122130251447
489.06699557769974	220.35171013587382
493.32499953741626	237.3837263782602
506.0990114165659	294.86678119631426
605.0976034799752	265.0607527721381
580.6140807116051	131.99812587849445
522.0665262655028	312.96329845384975
535.9050391345816	335.3178197719819
606.1621044699043	369.38185225675466
604.0331024900461	331.0598157113853
599.7750985303295	392.80087459003596
519.9375242856446	454.5419334686866
432.6484431114558	487.5414649383102
403.9069163833692	441.7679212868968
506.0990114165659	370.44635327190383
467.7769757791171	356.6078400749649
305.972825309889	485.4124629080119
249.554272843645	516.2829923473372
530.5825341849359	499.25097610495084
575.2915757619595	499.25097610495084
572.098072792172	469.44494768077465
567.8400688324556	447.0904263626425
543.3565460640855	444.9614243323442
477.3574846884793	476.8964547868187
453.93846291003837	483.2834608777136
472.0349797388336	508.83148524129314
379.42339361499916	410.89739184757144
351.7463678768417	419.4133999687647
288.94080947102293	442.8324223020459
307.0373262998182	532.2505075745744
20.686560008881607	106.45010151491489
26.00906495852727	79.83757613618617
27.073565948456398	40.45103857566766
5.783546149873756	51.09604872715914
149.4911797903066	30.870529439325317
213.36123918605452	14.903014212088085
188.8777164176845	7.451507106044042
301.7148213501725	32.99953146962361
315.5533342192512	77.70857410588786
321.940340158826	54.28955177260659
214.42574017598366	411.9618928627206
188.8777164176845	449.2194283929408
260.19928274293636	418.3488989536155
21.75106099881074	249.09323754490083
38.78307683767685	288.4797751054193
4.719045159944624	168.19116039356553
428.3904391517392	509.8959862564423
373.03638767542435	447.0904263626425
373.03638767542435	477.9609558019678
511.42151636621134	522.6699984382319
489.06699557769974	540.7665156957677
434.777445091314	550.3470248321099
463.5189718194006	542.8955177260659
346.42386292719607	559.9275339684523
351.7463678768417	572.701546150242
397.5199104437944	579.088552241137
378.35889262507	593.9915664532251
615.7426133792665	201.19069186318913
45.17008277725164	188.41667968139936
69.65360554562169	203.31969389348743
86.6856213844878	212.90020302982978
111.16914415285784	243.7707324691551
86.68562138448779	251.22223957519915
73.91160950533822	240.57722942370765
284.68280551130636	508.83148524129314
274.03779561201503	534.3795096048727
333.64985104804646	510.9604872715915
353.8753698567	522.6699984382321
400.7134134135818	530.1215055442761
376.22989064521175	531.1860065594253
395.3909084639361	547.1535217866625
404.9714173732983	609.9590816804623
