221.84375	48
319.84375	106
309.84375	198
540.84375	56
530.84375	36
499.84375	23
377.84375	38
566.84375	39
565.84375	68
551.84375	125
469.84375	158
441.84375	176
559.84375	204
581.84375	245
580.84375	127
314.84375	160
306.84375	139
424.84375	232
350.84375	347
245.84375	326
303.84375	362
286.84375	394
208.84375	369
452.84375	397
482.84375	393
599.84375	393
474.84375	323
451.84375	317
426.84375	308
454.84375	279
481.84375	266
361.84375	284
330.84375	261
279.84375	209
