499.10395850101094	25.397812879708383
568.0745795419665	69.34338135126518
569.2599364972629	33.78267296600099
558.5917238995953	129.7965856062143
557.406366944299	208.03014405379554
571.6306504078556	242.40549549288426
602.4499312455616	267.29799136256923
482.7288787606266	397.6872554418713
451.90959792292057	397.6872554418713
417.5342462193254	300.48798585548246
451.90959792292057	274.41013303962205
436.49995750406754	176.02550650705777
475.6167370288483	158.24515231442567
463.7631674758845	56.304454943334974
364.193183230988	8.890177096316048
376.0467527839519	38.524100750702885
230.24784728249634	50.37767021245761
207.726065131865	14.816961827193415
232.6185611930891	116.75765919828412
278.84748244964817	216.32764267702385
60.7418026751131	366.867974841309
72.59537222807695	90.6798063824237
154.38500214352763	270.85406220109564
264.62319898609155	296.93191501695605
365.3785401862844	286.26370250137677
474.4313800735519	270.85406220109564
463.7631674758845	363.3119040027825
404.4953197110651	443.9161763427147
429.38781577228923	460.51117358917134
205.35535122127223	484.2183125126808
249.21355856723852	517.408307005594
307.29604937676146	536.3740181444016
501.69459004536884	375.1654734645373
302.5546215555759	359.7558331642561
