310.7838050593027	43.187889510383286
310.7838050593027	230.10933593849833
253.50110028534024	272.3174044867824
175.11424112097052	340.1518003679532
93.71250275797118	291.91400774134286
147.98032833330407	260.2579563301298
45.474435579897495	337.13693832879005
71.10090876824914	420.04564440577656
78.63810676482315	456.2239888757343
154.01008673056327	551.1921431093734
98.23482155591559	582.8481945205864
356.0069930387468	409.49362726870555
372.58882863120965	447.17940275824486
306.2614862613583	325.07749017213746
354.499553439432	124.58916456778823
46.9818751792123	174.33438821398013
75.62322756619355	202.97557758603003
131.39849274084125	115.54457845029879
172.0993619223409	115.54457845029879
242.94902309013662	299.4511628392507
340.93259704559875	270.8099734672008
392.1855434223021	59.76963072578059
300.2317278640991	379.34500687707407
53.01163357647151	605.45965981431
277.6201338743771	600.9373667555653
255.00853988465505	23.591286255822837
214.3076707031554	199.96071554686688
49.9967543778419	38.665596451638564
