594.1824497304856	255.73566327138508
494.69143617570865	260.2579563301298
539.9146241551528	285.88428366301656
585.1378121345967	106.49999233280936
600.2122081277448	23.591286255822837
503.73607377159743	11.531838099170253
472.0798421859866	82.38109601950418
392.1855434223021	159.26007801816442
377.111147429154	204.4830086056116
319.82844265519157	180.36411229230643
270.08293587780304	159.26007801816442
209.78535190521097	147.20062986151183
340.93259704559875	332.6146452700453
337.9177178469692	264.7802493888745
466.05008378872736	319.04776609381116
476.602160983931	417.0307823666134
455.4980065935238	418.53821338619497
420.8268958092833	433.6125235820107
533.8848657578935	549.6847120897918
562.5262181448747	484.8651782477842
603.2270873263744	465.26857499322375
527.8551073606343	427.5827995036844
601.7196477270596	62.784492764943735
469.064962987357	132.1263196656961
318.32100305587676	347.68895546586106
319.82844265519157	392.91188605330825
399.72274141887607	382.35986891623725
571.5708557407636	597.9225047164022
529.3625469599491	251.21337021264037
368.06650983326523	123.08173354820666
559.5113389462451	23.591286255822837
