459.234375	318
396.234375	386
419.234375	431
455.234375	425
483.234375	418
538.234375	438
568.234375	482
499.234375	265
531.234375	259
541.234375	294
588.234375	253
594.234375	473
592.234375	530
538.234375	551
577.234375	607
346.234375	329
317.234375	349
274.234375	165
205.234375	151
317.234375	175
347.234375	210
471.234375	80
474.234375	127
421.234375	173
387.234375	159
386.234375	199
347.234375	428
433.234375	529
583.234375	372
576.234375	318
332.234375	269
367.234375	125
446.234375	26
