296.7965789523074	16.706308882477597
503.53715837938944	53.251359562897335
579.7596952388691	57.427936783516735
563.053385790216	31.32432915464549
547.3912206821037	99.19370898971071
418.96146679558314	129.47389383920137
388.6812809198994	127.38560522889166
468.0362508010016	231.80003574437663
540.082210298318	252.68292184747364
493.0957149739812	332.0378890392422
517.1110348064201	315.33158015676463
555.7443754064303	311.1550029361452
468.0362508010016	379.0243827712104
533.8173442550732	388.4216815176041
541.1263546388589	423.922587892869
573.4948291956242	516.8514310516506
480.56598288749143	462.5559271835984
322.90018746582786	152.44506855260806
