339.3756549154607	259.83437746509094
511.0809668053692	185.90570192123053
567.1236727694366	38.04835083350968
577.8552547625559	209.75366177408873
539.6985187870206	246.71799954601894
478.88622082601137	234.79401961958985
559.9692847740238	317.06948111195067
528.9669367939014	386.2285646852394
543.275712784727	422.0005044645267
462.19264883671474	386.2285646852394
569.5084687679075	516.1999458833167
487.2330068206597	464.9268321996715
378.7247888902314	128.67059827437086
492.0025988176016	332.5706550163085
