490.6253255131718	466.5053385681179
567.8719022987322	515.8130088247309
533.357474373269	389.2566551660909
541.5751953079031	247.90800043046704
543.2187394948298	417.1976683115049
380.84531772765996	127.99547005542044
510.5578007161716	188.40979978732034
549.649233945586	96.01141313853226
503.4502674017326	56.91978801789116
563.864300574464	37.37397545757061
583.4100171891713	215.0631805513938
347.08453448407477	261.26237387578783
311.5468679118798	151.09506671761744
272.45543468246535	37.37397545757061
469.68948415814737	383.86792539052584
494.56585075868384	328.78427181144065
554.9798839314153	318.12291950581124
292.0011512971726	16.051270846311827
