570.0634161414488	73.33650990201474
574.5857349393932	10.024407079588679
598.70476852843	154.73778495941968
613.7791645215781	293.4214387609244
500.7211945729678	117.05200946988036
444.9459293983202	20.57642421665969
170.5919223230261	2.487251981680814
117.83153634700801	64.29192378452531
380.12602662778363	121.57430252862508
425.34921460722774	174.33438821398013
476.602160983931	196.94585350770373
598.70476852843	114.03714743071721
512.7807113674862	279.85455958469026
307.7689258606731	136.64861272444082
321.3358822545064	82.38109601950418
582.1229329359671	439.642247660337
554.9890201483007	356.7335415833505
449.46824819626454	495.4171953848552
607.7494061243189	522.5509537373235
526.3476677613195	311.5106109959033
264.05317748054387	278.3471285651087
536.8997449565231	38.665596451638564
150.99520753193366	224.07961186017204
230.8895062956182	302.46602487841386
99.74226115523038	23.591286255822837
609.2568457236337	35.65073441247542
487.1542381791346	489.3874713065289
548.9592617510415	430.59766154284756
514.288150966801	227.09447389933513
440.42361060037575	117.05200946988036
375.60370782983927	172.82695719439857
479.61704018256063	252.72080123222193
576.093174538708	260.2579563301298
470.5724025866718	421.55307542535814
482.6319193811902	451.70169581698957
384.64834542572805	16.05413115791497
277.6201338743771	55.247337667035865
583.6303725352819	588.8779185989127
564.0336577441896	519.5360916981604
105.7720195524896	92.9331131565752
491.67655697707903	602.4447977751469
538.407184555838	204.4830086056116
380.12602662778363	543.6549880114655
348.4697950421728	527.0732467960682
313.79868425793234	484.8651782477842
398.21530181956126	457.73141989531587
408.7673790147649	495.4171953848552
178.1291203196001	306.98831793715857
432.8864126038017	567.7738843247707
176.62168072028533	346.18152444627947
348.4697950421728	445.6719717386633
450.97568779557935	376.33014483791095
467.55752338804217	338.6443693483716
265.5606170798587	323.57005915255587
303.24660706272874	320.55519711339275
466.05008378872736	540.6401259723024
