574.171875	10
569.171875	70
502.171875	113
376.171875	121
592.171875	155
515.171875	279
499.171875	314
607.171875	293
478.171875	252
510.171875	219
432.171875	170
261.171875	79
262.171875	281
156.171875	313
178.171875	347
234.171875	391
277.171875	333
305.171875	316
310.171875	492
387.171875	461
449.171875	501
446.171875	378
559.171875	589
347.171875	48
336.171875	236
227.171875	298
222.171875	327
