490.2699374439711	488.07970838396113
450.51684268729184	503.53924665856624
383.157432127363	544.3965978128797
348.9256005313336	533.354070473876
388.67869528801293	463.7861482381531
345.61284263494366	449.43086269744833
312.48526367104427	492.49671931956254
262.7938952251952	284.8972053462941
185.4962109760965	177.7846901579587
219.7280425721259	186.6187120291616
259.48113732880523	81.71470230862697
372.1149058060632	124.7805589307412
430.64029530895215	174.4719319562576
335.67456894577384	240.72709599027945
306.9640005103944	215.32928311057108
288.1917057641847	194.34848116646415
167.82816886201684	198.76549210206562
280.4619373392748	439.4925880923451
287.0874531320547	398.6352369380316
251.75136890389535	419.6160388821385
235.18757942194563	395.3224787363305
446.0998321587719	386.4884568651276
484.7486742833212	355.5693803159174
587.4441690714094	440.59684082624545
549.89957957899	435.07557715674363
562.0463585324198	363.2991494532199
606.216463817619	294.8354799513973
595.1739374963192	162.32515188335358
510.14648482231075	193.2442284325638
517.8762532472206	279.3759416767922
501.31246376527093	310.2950182260024
443.8913268945119	280.4801944106926
500.20821113314094	117.05078979343864
565.3591164288098	71.7764277035237
257.27263206454523	172.26342648845687
478.1231584905413	445.0138517618469
493.58269534036106	415.19902794653706
221.93654783638587	406.3650060753341
204.26850572230617	384.27995139732684
179.97494781544663	377.65443499392467
200.95574782591623	348.9438639125152
172.24517939053675	354.46512758201703
157.88989517284702	315.81628189550423
192.1217267688764	304.7737545565006
223.04080046851584	323.5460510328068
220.8322952042559	298.1482381530984
281.5661899714048	41.96160388821385
234.08332678981566	149.0741190765492
247.33435837537542	125.88481166464156
382.05317949523305	19.876549210206562
478.1231584905413	253.97812879708383
