450.8830663303686	79.99835272315454
411.58562798698114	89.82271182950684
477.5491852062387	255.43333676516008
492.98746455542664	275.0820549778647
560.3545017155194	501.04231442396787
328.7803114777003	255.43333676516008
297.90375277932446	268.0646556161845
403.1647483419695	174.03150416966952
231.94019556006688	155.78626582930093
188.4323173941736	209.1185009780706
185.62535751250306	148.7688664676207
297.90375277932446	81.40183259549057
254.39587461343118	57.542674765777825
208.08103656586735	57.542674765777825
84.57480177236381	251.22289714815196
81.76784189069329	277.8890147225368
139.31051946493923	318.5899310202821
296.5002728384892	378.939565530732
487.37354479208557	481.39359621126323
518.2501034904615	280.6959744672089
194.04623715751467	353.6769278286832
209.48451650670262	373.3256460413878
