584.921875	386
542.921875	362
538.921875	325
583.921875	275
509.921875	276
605.921875	143
559.921875	158
518.921875	211
471.921875	217
472.921875	171
444.921875	164
428.921875	183
538.921875	101
558.921875	68
459.921875	51
392.921875	74
357.921875	80
380.921875	45
581.921875	228
574.921875	307
500.921875	348
475.921875	372
497.921875	403
457.921875	379
411.921875	405
390.921875	339
366.921875	298
340.921875	280
359.921875	246
406.921875	229
375.921875	163
337.921875	208
319.921875	177
292.921875	172
296.921875	146
308.921875	112
302.921875	66
282.921875	40
292.921875	255
346.921875	327
242.921875	200
217.921875	157
189.921875	70
162.921875	96
150.921875	44
91.921875	41
44.921875	45
105.921875	131
153.921875	149
525.921875	184
170.921875	227
145.921875	203
111.921875	195
232.921875	309
294.921875	344
140.921875	76
583.921875	131
60.921875	87
533.921875	294
159.921875	247
