314.97311112588847	178.29204492998923
289.80247000280286	168.85305431604863
296.0951302835743	144.73118941375597
312.8755576989647	102.78012001846439
357.9729563778264	79.70703185105401
381.04604407398824	154.17018002769657
224.77831376816505	148.92629635328512
222.68076034124124	62.92660409293738
70.60813688926565	180.38959839975382
116.75431228158928	197.17002615787044
149.2663903989082	208.70657024157563
180.72969180276522	63.97538082781967
152.4127205392939	39.853515925527006
399.9240249163024	69.21926450223111
557.2405319355876	152.072626557932
470.1920647182498	174.09693799046008
445.02142359516415	166.75550084628406
410.41179205092146	228.63332820433914
364.2656166585978	241.21864902292663
344.3388591028217	277.9258347438068
367.41194679898354	297.85259270657025
481.7286085663307	207.65779350669334
335.9486453951265	207.65779350669334
249.94895489125065	201.36513309739962
370.55827693936925	44.04862286505617
541.508881233659	357.6328665948608
