156.21702861559805	39.71880710119955
234.56057595627442	35.01835768840538
287.83418814793436	36.58517415933677
311.3372523501373	64.78787063610179
358.3433807545431	86.72330122914126
372.4452192758649	45.98607298492511
312.9041232969508	111.7923647640435
164.05138334966568	89.85693417100403
40.268578551397006	50.68652239771928
153.083286721971	155.6632259501224
113.91151305163281	199.53408713620135
93.54219074305695	116.49281417683767
90.40844884942989	45.98607298492511
378.71270306311897	154.09640947919104
223.59247932857974	154.09640947919104
316.03786519057786	179.16547301409327
242.39493069034208	194.83363772340718
350.50902602047546	281.0085436246336
410.05012199938955	230.87041655482915
472.72495987193065	174.4650236012991
477.4255727123712	210.50180243272106
457.05625040379533	55.38697181051345
558.9028619466746	158.7968588919852
557.3359909998611	67.92150357796457
513.4636044890824	276.30809421183943
148.38267388153042	251.2390306769372
200.08941512637682	274.74127774090806
374.0120902226784	395.3861460026251
394.3814125312542	340.54756952002646
453.9225085101683	320.1789553979184
522.8648301699635	191.70000478154438
585.5396680425047	227.73678361296635
