272.3125	316
260.3125	288
297.3125	285
302.3125	319
266.3125	381
431.3125	421
406.3125	460
439.3125	513
475.3125	504
518.3125	462
499.3125	423
571.3125	429
596.3125	432
322.3125	371
407.3125	309
476.3125	279
516.3125	327
615.3125	256
582.3125	211
517.3125	236
578.3125	166
536.3125	152
501.3125	155
445.3125	197
413.3125	209
366.3125	182
361.3125	228
371.3125	286
367.3125	374
231.3125	255
215.3125	210
250.3125	166
160.3125	129
174.3125	104
220.3125	30
384.3125	68
364.3125	87
422.3125	56
479.3125	28
532.3125	102
343.3125	158
313.3125	184
