420.34239655651385	57.68272041852593
363.7084540295712	286.3160486228651
303.92818136224287	281.07216494845363
360.5621238891855	225.48699799969228
406.7082992815091	248.56008616710264
422.4399499834376	309.3891367902755
447.61059110652326	289.46237882751194
285.05020051992864	166.75550084628406
220.0260442852908	25.170641637174953
151.85555791026727	24.12186490229266
239.9528018410669	161.51161717187262
178.07497574681477	98.58501307893522
166.53843189873388	76.56070164640714
309.17206492955233	16.780427758116634
385.7327650122711	74.46314817664256
331.1963759122523	99.63378981381751
332.2451526257142	143.68241267887367
268.2697731045382	345.0475457762733
268.2697731045382	285.26727188798276
233.6601415602955	247.51130943222034
460.19591166806606	12.585320818587476
516.8298541950087	101.73134328358209
361.6109006026474	361.8279735343899
441.31793082575183	420.5594706877981
400.4156390007377	428.9496845668565
517.8786309084705	241.21864902292663
503.195756920004	217.09678412063397
493.75676649884684	161.51161717187262
163.39210175834816	128.99953839052162
291.34286080070007	415.3155870133867
312.31839506993805	360.77919679950764
422.4399499834376	476.1446376365595
371.0498910238045	463.55931681797205
335.39148276609984	462.5105400830897
497.95187335269446	470.90075396214803
523.1225144757801	456.217879673796
480.12266922384214	492.92506539467615
443.41548425267564	505.5103862132636
497.95187335269446	513.900600092322
566.122359727718	432.09601477150335
600.7319912719607	426.8521310970919
512.6347473411611	327.21834128327436
536.7566117507848	324.0720110786275
550.3907090257895	227.58455146945684
550.3907090257895	141.5848592091091
