489.9168969311779	353.1323863044296
596.6402960368044	193.70606982344225
609.8160243214497	285.93617026698865
588.7348590660174	267.4901501782794
323.90272054464765	200.29393414083842
399.00437176712563	171.3073311442953
206.63873881130485	81.71237642770737
197.41572901205316	32.96218047897572
152.6182528442593	14.516160390266444
155.25339850118834	64.58392920247734
90.69232990642658	47.455481977247295
132.8546604172914	230.5981100008608
146.03038870193666	267.49015017827935
147.3479615304012	345.22694912355416
279.10524437685376	304.3821903556979
358.1596140847253	337.32151194267874
396.36922611019656	300.4294717652602
420.085537022558	405.83530084359893
489.9168969311779	422.963748068829
595.32272320834	467.7612254271229
545.254955726688	342.5918033965957
492.55204258810693	292.5240345843848
426.67340116488066	362.3553963487842
381.87592499708677	382.1189893009727
341.03116731468646	428.2340395227459
372.6529151978351	458.53821538276827
445.119420763384	496.7478284236661
579.5118492667657	508.60598419497916
280.42281720531827	449.31520533841365
247.48349649370516	405.83530084359893
155.25339850118834	396.6122907992443
180.28728224201433	297.79432603830173
123.63165061803973	279.3483059495925
41.94213525323913	172.62490400777452
66.97601899406511	205.56422559475536
34.03669828245197	252.9968486800078
12.95553302701956	204.24665273127613
184.2400007274079	108.06383369729205
52.482717880955335	14.516160390266444
88.05718424949752	288.5713159939471
143.39524304500762	303.0646174922187
182.9224278989434	350.4972405774711
313.36213791693143	465.12607970016444
271.1998074060666	480.93695406191523
