164.5	24.48333740234375
197.5	40.48333740234375
157.5	64.48333740234375
86.5	42.48333740234375
177.5	100.48333740234375
211.5	83.48333740234375
29.5	176.48333740234375
66.5	217.48333740234375
131.5	228.48333740234375
124.5	277.48333740234375
158.5	277.48333740234375
144.5	316.48333740234375
188.5	300.48333740234375
209.5	258.48333740234375
71.5	291.48333740234375
142.5	341.48333740234375
189.5	361.48333740234375
157.5	402.48333740234375
245.5	406.48333740234375
254.5	465.48333740234375
276.5	497.48333740234375
282.5	456.48333740234375
316.5	469.48333740234375
367.5	463.48333740234375
340.5	435.48333740234375
376.5	374.48333740234375
361.5	341.48333740234375
285.5	295.48333740234375
318.5	194.48333740234375
393.5	170.48333740234375
374.5	200.48333740234375
391.5	286.48333740234375
429.5	373.48333740234375
496.5	294.48333740234375
484.5	337.48333740234375
545.5	343.48333740234375
485.5	428.48333740234375
425.5	410.48333740234375
434.5	501.48333740234375
456.5	526.4833374023438
585.5	263.48333740234375
592.5	193.48333740234375
