611.7377269782689	282.6886998784933
499.10395850101094	295.9397326852977
389.7829479201429	295.9397326852977
358.8638742205034	342.318347509113
401.9297268735727	170.05492102065614
282.6704426035348	301.46099635479953
179.9749478154465	297.04398541919807
65.13267407392865	212.01652490887
38.63061090280913	177.7846901579587
187.70471624035648	110.42527339003645
208.6855162508261	77.29769137302551
199.85149519378626	39.753098420413124
153.47288464432708	18.772296476306195
162.30690570136693	70.67217496962333
88.32197934865825	43.06585662211422
83.90496882013832	295.9397326852977
29.796589845769287	258.3951397326853
373.2191584381932	461.5776427703524
486.9571795475812	347.8396111786148
313.58951630317426	474.82867557715673
280.4619373392748	450.53511543134874
246.23010574324545	408.5735115431349
274.94067417862493	484.76695018226
382.05317949523305	380.9671931956258
580.8186532786295	507.95625759416765
591.8611795999293	472.620170109356
483.64442165119124	428.4500607533414
464.87212690498154	530.041312272175
446.0998321587719	500.2264884568651
422.9105268840423	409.67776427703524
151.26437938006714	344.52685297691374
322.4235373602141	193.2442284325638
589.6526743356693	261.7078979343864
592.9654322320592	193.2442284325638
