239.60458995046557	261.7078979343864
71.75818986670853	166.74216281895505
36.42210563854917	182.20170109356013
29.796589845769287	115.94653705953827
168.9324214941468	355.5693803159174
256.16837943241524	363.2991494532199
491.37419007610106	469.3074119076549
295.92147418909457	345.6311057108141
