405.97170822364006	255.43333676516008
325.97335159602983	193.68022238237413
344.21859082688826	282.09945433954493
92.99568141737542	242.8020179141357
114.04788052990443	307.3620920415937
153.34531887329192	336.83516936065064
175.8009979266562	380.34304540306806
219.3088760925495	392.97436425409245
332.9907513002061	461.7448779985586
349.83251059022933	416.8335220838052
379.30558934776997	383.1500051477401
400.357788460299	409.816122722125
528.0744630763083	392.97436425409245
551.9336220705078	411.21960259446104
544.9162223663315	503.84927416863997
480.3561450879092	429.46484093482957
290.8863530751481	387.36044476474825
