335.67456894577384	464.89040097205344
353.34261105985354	422.9287970838396
394.1999584486628	409.67776427703524
374.3234110703232	390.905467800729
378.74042159884306	354.46512758201703
532.2315374649104	395.3224787363305
552.10808484325	416.3032806804374
482.54016901906124	430.65856622114217
409.6594952984825	343.42260024301333
384.261684759493	326.8588092345079
403.03397950570263	260.603645200486
340.0915794742938	282.6886998784933
326.840547888734	203.18250303766706
292.6087162927046	378.758687727825
232.9790741576857	393.1139732685298
172.24517939053675	378.758687727825
150.16012674793714	340.1098420413123
112.61553725551782	313.6077764277035
75.07094776309849	318.024787363305
89.42623198078823	245.14410692588092
185.4962109760965	79.50619684082625
591.8611795999293	517.894532199271
546.5868216826001	502.43499392466583
