341.234375	279
322.234375	198
403.234375	252
150.234375	338
167.234375	384
220.234375	388
338.234375	465
351.234375	416
535.234375	388
556.234375	417
480.234375	432
71.234375	313
109.234375	311
399.234375	404
329.234375	502
372.234375	515
