325.3125	195
405.3125	253
535.3125	392
550.3125	413
591.3125	513
348.3125	282
385.3125	323
416.3125	340
376.3125	385
397.3125	408
351.3125	419
315.3125	336
224.3125	395
176.3125	381
148.3125	342
110.3125	306
91.3125	238
189.3125	84
295.3125	379
336.3125	467
526.3125	263
489.3125	438
558.3125	472
76.3125	319
