495.187188245036	51.40820056768499
505.7277708727522	17.151306117224912
426.67340116488066	43.50276338680959
536.0319459274363	109.38140656077128
545.254955726688	67.2190749294358
470.15330450421	139.68558242079368
462.24786753342283	88.30024074510355
402.9570902525192	118.60441660512592
417.45039136562895	146.27344673818985
371.33534236937055	164.71946682689912
352.8893227708672	47.455481977247295
597.957868865269	172.62490400777452
567.6536938105849	121.23956233208439
580.8294220952301	88.30024074510355
508.36291652968123	278.03073308611323
475.4235958180681	208.19937132171384
399.00437176712563	212.15208991215152
331.8081575154348	221.37509995650618
275.1525258914602	218.7399542295477
298.86883680382164	143.63830101123136
252.75378780756324	86.98266788162431
255.3889334644923	35.59732620593419
313.36213791693143	47.455481977247295
471.47087733267455	278.03073308611323
549.2076742120815	341.27423053311645
566.3361209821204	355.76753203138804
488.59932410271335	416.3758837514328
417.45039136562895	301.74704462873945
404.2746630809837	267.49015017827935
456.97757621956475	117.28684374164669
400.32194459559014	25.056743298100315
543.9373828982234	30.32703475201725
342.348740143151	283.30102454003014
276.4700987199247	148.9085924651483
580.8294220952301	195.0236426869215
604.5457330075916	241.13869290869468
381.87592499708677	329.4160747618034
354.20689559933174	305.69976321917716
588.7348590660173	445.36248674797594
554.4779655259397	397.9298636627235
608.4984514929852	11.881014663307976
505.7277708727522	498.0654012871453
