253.56709725007784	28.128482013893663
247.94140119581945	90.01114244445972
302.7919377248386	140.64241006946833
370.3002903759391	161.73877157988858
405.46089071505395	213.77646330559185
329.51399398256586	226.434280211844
276.0698814671113	222.21500790975995
477.18851540684824	202.5250705000344
416.7122828235707	144.86168237155238
465.93712329833147	85.79187014237567
429.37009894565205	49.22484352431391
404.05446670148933	29.53490611458835
402.6480426879248	119.54604855904807
402.6480426879248	106.88823165279592
451.8728831626855	116.7332003576587
498.28487561031716	53.44411582639796
506.7234196917047	12.65781690625215
536.2583239765612	116.7332003576587
564.3868042478531	123.76532086113212
582.6703164241927	81.57259784029162
550.3225641122071	37.973450718756446
599.5474045869679	172.99016438544604
574.2317723428052	198.30579819795034
548.9161400986425	338.94820826741864
570.0125003021114	358.6381456771442
510.9426917323985	275.65912373615794
508.1298437052693	323.47754315977716
472.96924336615444	282.6912442396313
468.74997132546065	271.4398514340739
413.8994347964415	296.7554852465782
398.428770647231	299.5683334479675
404.05446670148933	272.84627553476855
378.7388344573267	331.91608776394526
380.14525847089124	383.9537794896485
312.63690581979074	313.6325744549144
408.2737387421831	378.3280830868698
419.5251308506999	365.67026618061766
491.2527555424942	421.927230208405
593.9217085327095	492.2484352431391
586.8895884648865	528.8154618612009
562.9803802342884	552.7246715730105
548.9161400986425	535.8475823646743
503.9105716645755	548.5053992709264
506.7234196917047	504.90625214939126
