333.8510919682027	221.29189106016312
269.8757124470268	217.09678412063397
397.82647148937866	213.95045391598708
480.6798318528688	202.4139098322819
576.1185127779017	195.07247268810588
563.5331922163589	116.41421757193415
533.1186675259638	115.36544083705186
413.5581221913072	143.68241267887367
256.2416151720221	89.14602246499462
255.19283845856015	33.56085551623327
490.1188222740259	416.364363748269
562.484415502897	548.5102323434375
541.508881233659	530.6810278504386
507.9480264028782	507.6079396830282
506.8992496894163	541.1687951992615
510.045579829802	316.73057393445146
507.9480264028782	281.07216494845363
413.5581221913072	305.1940298507463
298.1926837104981	137.38975226957993
463.8994044374784	87.04846899523004
601.2891539009873	169.90183105093092
491.1675989874878	48.24372980458532
550.9478716548161	334.5597784274504
587.6550566259826	447.8276657947377
600.2403771875255	496.071395599323
398.87524820284057	269.53562086474847
434.53365646054516	49.29250653946761
395.72891806245485	26.21941837205724
548.8503182278923	33.56085551623327
473.33839485863547	281.07216494845363
568.7770757836685	353.4377596553316
