330.8909118009977	225.81418595514106
400.6570697358846	225.81418595514106
380.72388175448833	332.59894821789715
298.14353154584666	144.65776663544642
367.9096894807336	166.01471908799766
254.00575815846923	29.33022339166987
494.6278130767527	53.53476950456125
547.3083813133	36.44920754252028
601.4127486913756	170.2861095785079
510.28960363356407	279.91846550160415
466.1518302461866	284.18985599211436
420.59025771728085	315.5133862558562
490.3564156521678	420.8743516884422
547.3083813133	533.3543012718785
595.7175521252624	442.23130414099336
602.8365478329039	492.06419319694623
599.9889495498472	558.98264421494
592.8699538422057	604.5441427803826
504.59440706745085	510.57355198915724
503.1706079259225	541.897082252899
413.47126200963936	147.5053602957866
564.3939710116397	121.87701735272513
356.51929634850717	47.83958218388092
