549.234375	533
475.234375	420
402.234375	425
376.234375	377
374.234375	334
355.234375	314
318.234375	316
331.234375	231
279.234375	231
359.234375	163
402.234375	212
473.234375	214
480.234375	280
525.234375	285
552.234375	336
590.234375	453
599.234375	499
513.234375	501
434.234375	482
343.234375	290
415.234375	140
298.234375	147
248.234375	98
467.234375	89
466.234375	135
528.234375	121
564.234375	121
604.234375	172
576.234375	202
602.234375	239
559.234375	385
493.234375	334
419.234375	318
402.234375	259
398.234375	109
548.234375	39
494.234375	47
432.234375	46
365.234375	49
583.234375	275
404.234375	293
566.234375	357
601.234375	552
558.234375	486
