558.4375	142
304.4375	222
315.4375	175
411.4375	272
420.4375	329
495.4375	300
421.4375	372
452.4375	347
513.4375	415
533.4375	449
274.4375	365
282.4375	335
83.4375	250
84.4375	285
45.4375	240
89.4375	164
100.4375	15
18.4375	152
10.4375	202
168.4375	298
608.4375	355
473.4375	474
7.4375	21
