558.3549375178611	142.516942033044
419.6554150480056	329.5704284514142
507.4560301894738	413.55362643517225
532.9054838536675	441.54802576309163
273.32105647889193	366.4721366563988
167.70582377248812	301.57602912349483
46.82091886756814	241.76981237748532
8.646738371277614	195.96079529543547
468.0093770099736	474.63231587790534
