99.171875	15
10.171875	192
21.171875	148
89.171875	246
40.171875	237
16.171875	280
157.171875	281
171.171875	306
273.171875	364
309.171875	180
563.171875	137
418.171875	328
405.171875	280
506.171875	411
475.171875	472
530.171875	449
609.171875	353
379.171875	523
382.171875	351
421.171875	369
