421.5664394291081	328.9392594755733
377.4477134573954	351.5948213357886
409.6424594367533	275.28134980664237
460.91557340387874	178.69711240256663
565.8465973366006	141.7327746306364
613.5425173060196	358.749209291646
494.30271738247205	296.7445136742147
437.0676134191692	351.5948213357886
415.60444943293066	374.2503831960039
508.6114933732978	410.02232297529116
472.8395533962335	476.79661056329417
271.3242915254381	363.51880126221766
278.47867952085096	333.70885144614493
87.69499964317485	249.04859396849832
81.73300964699747	282.4357377624998
6.6119356951625115	196.58308229221026
41.191477672991304	240.70180801999794
22.113109685223694	153.6567545570655
92.46459164011677	166.77313247613753
307.0962315025024	218.04624615978267
311.8658234994443	177.5047144099237
93.65698963935223	9.376597447273392
67.42423365617177	96.42165091020583
6.6119356951625115	17.723383395773762
309.4810275009733	450.5638547251501
526.4974633618299	445.7942627545785
164.00847159424532	287.2053297330714
