455.66000339110025	98.84082365293742
373.9704880262996	117.28684374164669
337.0784488292929	104.11111510685436
235.6253410375244	79.07723070074891
194.78058335512412	60.63121061203963
197.41572901205316	7.928296072870275
412.18010005177086	371.57840639313883
439.8491294495259	391.34199934532734
534.7143730989718	411.10559229751584
455.66000339110025	473.03151688103986
206.63873881130485	291.20646172090557
215.86174861055653	241.13869290869468
173.6994180996917	188.4357783695253
210.59145729669842	152.86131105558601
333.1257303438993	239.82112004521545
582.1469949236947	316.24034612701104
608.4984514929852	513.8762756488961
562.3834024967268	437.4570495671005
351.5717499424027	391.34199934532734
323.90272054464765	417.693456614912
337.0784488292929	451.9503510653721
372.6529151978351	467.7612254271229
380.55835216862226	432.1867581131836
517.5859263289329	528.3695771471677
514.9507806720039	292.5240345843848
297.55126397535713	320.1930647174487
163.1588354719755	163.4018939634199
297.55126397535713	388.7068536183689
