238.3125	83
329.3125	107
368.3125	114
452.3125	98
164.3125	89
218.3125	149
205.3125	294
216.3125	236
459.3125	482
332.3125	450
318.3125	423
343.3125	420
170.3125	187
155.3125	166
423.3125	564
342.3125	502
530.3125	418
583.3125	320
335.3125	239
192.3125	58
313.3125	74
375.3125	471
515.3125	533
517.3125	603
514.3125	289
299.3125	328
565.3125	441
561.3125	99
304.3125	393
439.3125	389
408.3125	372
382.3125	436
