419.234375	368
452.234375	96
561.234375	109
376.234375	127
330.234375	112
312.234375	74
224.234375	86
217.234375	144
157.234375	169
190.234375	59
169.234375	197
215.234375	238
205.234375	293
201.234375	336
456.234375	481
577.234375	320
512.234375	288
528.234375	419
563.234375	436
443.234375	397
351.234375	496
425.234375	473
355.234375	392
379.234375	441
333.234375	458
