237.3960846862056	79.50619684082625
189.91322150461644	56.31688942891859
199.85149519378626	7.729769137302552
101.573010934218	85.02746051032807
162.30690570136693	165.63791008505467
177.76644255118666	193.2442284325638
210.89402151508608	155.69963547995138
332.3618110493839	102.6955042527339
367.6978952775433	117.05078979343864
449.41259005516184	99.38274605103281
510.14648482231075	291.52272174969625
584.1314111750195	319.12904009720535
334.57031631364384	239.6228432563791
217.51953730786596	234.10157958687728
158.994147804977	258.3951397326853
205.37275835443617	297.04398541919807
202.06000045804623	326.8588092345079
303.65124261400445	325.7545565006075
303.65124261400445	396.42673147023083
345.61284263494366	385.3842041312272
336.77882157790384	453.8478736330498
437.265811101732	386.4884568651276
462.6636216407216	486.9754556500607
518.9805058793506	535.5625759416768
425.11903214830227	564.2731470230863
517.8762532472206	605.1304981773998
526.7102743042605	414.0947752126367
564.2548637966798	442.80534629404616
609.5292217140089	470.41166464155526
612.8419796103989	574.2114216281896
610.6334743461389	516.7902794653705
344.5085900028137	416.3032806804374
344.5085900028137	498.0179829890644
